,0,1
0,1.jpeg,0.6161599659
1,2.jpeg,0.5975139057
2,3.jpeg,0.593314309
3,4.jpeg,0.523769544
4,5.jpeg,0.5276331084
5,6.jpeg,0.4340668761
6,7.jpeg,0.4167646425
7,8.jpeg,0.3290777649
8,9.jpeg,0.4117251667
9,10.jpeg,0.460440166
10,11.jpeg,0.5286410036
11,12.jpeg,0.3796405382
12,13.jpeg,0.1851167752
13,14.jpeg,0.1350579494
14,15.jpeg,0.066017132
15,16.jpeg,0.0372921204
16,17.jpeg,0.0241894835
17,18.jpeg,0.0114228788
18,19.jpeg,0.0456913138
19,20.jpeg,0.1960356057
20,21.jpeg,0.4087014813
21,22.jpeg,0.5152024352
22,23.jpeg,0.6072568249
23,24.jpeg,0.5902906235
24,25.jpeg,0.5662691562
25,26.jpeg,0.5882748333
26,27.jpeg,0.5469511323
27,28.jpeg,0.5400638824
28,29.jpeg,0.52108179
29,30.jpeg,0.4387704203
30,31.jpeg,0.3453721033
31,32.jpeg,0.3248782689
32,33.jpeg,0.4281875213
33,34.jpeg,0.4809340003
34,35.jpeg,0.5190659997
35,36.jpeg,0.3576348612
36,37.jpeg,0.2294641616
37,38.jpeg,0.1227952924
38,39.jpeg,0.0826474019
39,40.jpeg,0.0645052893
40,41.jpeg,0.0436755235
41,42.jpeg,0.0283890802
42,43.jpeg,0.0498908097
43,44.jpeg,0.1938519001
44,45.jpeg,0.3927431751
45,46.jpeg,0.4985721653
46,47.jpeg,0.5336804793
47,48.jpeg,0.5642533659
48,49.jpeg,0.5098270281
49,50.jpeg,0.4626238716
50,51.jpeg,0.4854695285
51,52.jpeg,0.5121787498
52,53.jpeg,0.485133597
53,54.jpeg,0.4253317512
54,55.jpeg,0.3809843648
55,56.jpeg,0.3423484179
56,57.jpeg,0.4286914689
57,58.jpeg,0.4456576702
58,59.jpeg,0.5269612455
59,60.jpeg,0.360154599
60,61.jpeg,0.2066185047
61,62.jpeg,0.1599193966
62,63.jpeg,0.0799597487
63,64.jpeg,0.0645052893
64,65.jpeg,0.0381321002
65,66.jpeg,0.0302368544
66,67.jpeg,0.0559381805
67,68.jpeg,0.1921720413
68,69.jpeg,0.4026541104
69,70.jpeg,0.5348563906
70,71.jpeg,0.6143120909
71,72.jpeg,0.5876028696
72,73.jpeg,0.5062993951
73,74.jpeg,0.489501109
74,75.jpeg,0.4653116256
75,76.jpeg,0.5062993951
76,77.jpeg,0.5684528618
77,78.jpeg,0.5437594307
78,79.jpeg,0.5136905925
79,80.jpeg,0.4643037304
80,81.jpeg,0.329245781
81,82.jpeg,0.2828826043
82,83.jpeg,0.346044067
83,84.jpeg,0.3205106561
84,85.jpeg,0.2539895765
85,86.jpeg,0.19099613
86,87.jpeg,0.1316983325
87,88.jpeg,0.1196035908
88,89.jpeg,0.0841592446
89,90.jpeg,0.0233496045
90,91.jpeg,0.0354443462
91,92.jpeg,0.0438434388
92,93.jpeg,0.1105325345
93,94.jpeg,0.2749874593
94,95.jpeg,0.6648748643
95,96.jpeg,0.8612464014
96,97.jpeg,0.8659499457
97,98.jpeg,0.8866117962
98,99.jpeg,0.7174534279
99,100.jpeg,0.5180581046
100,101.jpeg,0.4520409726
101,102.jpeg,0.3947589654
102,103.jpeg,0.3767848689
103,104.jpeg,0.3692256553
104,105.jpeg,0.3650260586
105,106.jpeg,0.399630425
106,107.jpeg,0.3660339538
107,108.jpeg,0.333613293
108,109.jpeg,0.2019150612
109,110.jpeg,0.1503443927
110,111.jpeg,0.1081808128
111,112.jpeg,0.0710566077
112,113.jpeg,0.0606417248
113,114.jpeg,0.0357802776
114,115.jpeg,0.0297329068
115,116.jpeg,0.0759281681
116,117.jpeg,0.1437930743
117,118.jpeg,0.3279019544
118,119.jpeg,0.6138081433
119,120.jpeg,0.763312657
120,121.jpeg,0.7611288506
121,122.jpeg,0.6547959128
122,123.jpeg,0.6319502559
123,124.jpeg,0.5891147123
124,125.jpeg,0.53082481
125,126.jpeg,0.4555686056
126,127.jpeg,0.4087014813
127,128.jpeg,0.3698975182
128,129.jpeg,0.4122291143
129,130.jpeg,0.3919032961
130,131.jpeg,0.3850159454
131,132.jpeg,0.277339181
132,133.jpeg,0.1926759888
133,134.jpeg,0.145304917
134,135.jpeg,0.1115404296
135,136.jpeg,0.0895347526
136,137.jpeg,0.0609776563
137,138.jpeg,0.0283890802
138,139.jpeg,0.0184781449
139,140.jpeg,0.0377960679
140,141.jpeg,0.0779439584
141,142.jpeg,0.2158575772
142,143.jpeg,0.5143625562
143,144.jpeg,0.7656643788
144,145.jpeg,0.9386864123
145,146.jpeg,0.9158407554
146,147.jpeg,0.726188452
147,148.jpeg,0.6154880022
148,149.jpeg,0.5382160075
149,150.jpeg,0.4911809679
150,151.jpeg,0.464807678
151,152.jpeg,0.4637997828
152,153.jpeg,0.526457298
153,154.jpeg,0.6331261672
154,155.jpeg,0.5452712735
155,156.jpeg,0.3734251512
156,157.jpeg,0.2412229719
157,158.jpeg,0.1313624011
158,159.jpeg,0.0549302854
159,160.jpeg,0.0487149992
160,161.jpeg,0.0216697456
161,162.jpeg,0.020325919
162,163.jpeg,0.0804636963
163,164.jpeg,0.2622207538
164,165.jpeg,0.6013774701
165,166.jpeg,0.5701327206
166,167.jpeg,0.4814379479
167,168.jpeg,0.524609423
168,169.jpeg,0.4738787343
169,170.jpeg,0.4995800605
170,171.jpeg,0.4955484799
171,172.jpeg,0.5039475725
172,173.jpeg,0.4372585776
173,174.jpeg,0.3344532728
174,175.jpeg,0.3546111757
175,176.jpeg,0.3841760664
176,177.jpeg,0.4799261052
177,178.jpeg,0.5230975803
178,179.jpeg,0.5434234993
179,180.jpeg,0.3871997518
180,181.jpeg,0.2019150612
181,182.jpeg,0.1016294943
182,183.jpeg,0.0492189468
183,184.jpeg,0.0304048705
184,185.jpeg,0.0102469676
185,186.jpeg,0.0008399798
186,187.jpeg,0.0498908097
187,188.jpeg,0.2627247014
188,189.jpeg,0.548462975
189,190.jpeg,0.5464471847
190,191.jpeg,0.4659835892
191,192.jpeg,0.499244129
192,193.jpeg,0.4495212347
193,194.jpeg,0.4800941213
194,195.jpeg,0.4266756786
195,196.jpeg,0.493028742
196,197.jpeg,0.4263396464
197,198.jpeg,0.3499076314
198,199.jpeg,0.351251458
199,200.jpeg,0.4140769893
200,201.jpeg,0.5731564061
201,202.jpeg,0.5810515511
202,203.jpeg,0.5724844424
203,204.jpeg,0.3520914379
204,205.jpeg,0.1921720413
205,206.jpeg,0.1083487281
206,207.jpeg,0.0515706685
207,208.jpeg,0.0184781449
208,209.jpeg,0.0129347216
209,210.jpeg,0.0443473864
210,211.jpeg,0.1490005661
211,212.jpeg,0.2704519311
212,213.jpeg,0.5667731038
213,214.jpeg,0.5521586242
214,215.jpeg,0.4606080813
215,216.jpeg,0.4110533038
216,217.jpeg,0.3705694819
217,218.jpeg,0.3554510547
218,219.jpeg,0.3660339538
219,220.jpeg,0.4369225454
220,221.jpeg,0.4429699162
221,222.jpeg,0.3357970994
222,223.jpeg,0.3084159144
223,224.jpeg,0.3809843648
224,225.jpeg,0.4858054599
225,226.jpeg,0.5706366682
226,227.jpeg,0.583571289
227,228.jpeg,0.4018142314
228,229.jpeg,0.1946917791
229,230.jpeg,0.1059970063
230,231.jpeg,0.0379640841
231,232.jpeg,0.0240215681
232,233.jpeg,0.014110532
233,234.jpeg,0.0114228788
234,235.jpeg,0.0354443462
235,236.jpeg,0.2610448426
236,237.jpeg,0.5669410191
237,238.jpeg,0.5647573135
238,239.jpeg,0.4498572669
239,240.jpeg,0.4599362184
240,241.jpeg,0.4305392431
241,242.jpeg,0.3955988444
242,243.jpeg,0.4060138281
243,244.jpeg,0.4690072747
244,245.jpeg,0.4569125329
245,246.jpeg,0.3324374825
246,247.jpeg,0.3042164185
247,248.jpeg,0.3670418489
248,249.jpeg,0.5375441445
249,250.jpeg,0.5536704669
250,251.jpeg,0.5464471847
251,252.jpeg,0.3692256553
252,253.jpeg,0.2151856135
253,254.jpeg,0.114396099
254,255.jpeg,0.0519066
255,256.jpeg,0.0337644874
256,257.jpeg,0.0120947417
257,258.jpeg,0.0188140763
258,259.jpeg,0.0433394912
259,260.jpeg,0.2529816814
260,261.jpeg,0.5607257329
261,262.jpeg,0.5797077245
262,263.jpeg,0.4673274158
263,264.jpeg,0.460440166
264,265.jpeg,0.3959348767
265,266.jpeg,0.5249454552
266,267.jpeg,0.4616159764
267,268.jpeg,0.4397783155
268,269.jpeg,0.4436418799
269,270.jpeg,0.3608264619
270,271.jpeg,0.3485638049
271,272.jpeg,0.3527633008
272,273.jpeg,0.4372585776
273,274.jpeg,0.5340165115
274,275.jpeg,0.5141945401
275,276.jpeg,0.3263901117
276,277.jpeg,0.1918361098
277,278.jpeg,0.1149000465
278,279.jpeg,0.0712246238
279,280.jpeg,0.048378967
280,281.jpeg,0.0235176206
281,282.jpeg,0.0228456569
282,283.jpeg,0.0278851326
283,284.jpeg,0.0972618815
284,285.jpeg,0.2101461377
285,286.jpeg,0.3840080503
286,287.jpeg,0.6097765627
287,288.jpeg,0.7576012176
288,289.jpeg,0.740298984
289,290.jpeg,0.6519402435
290,291.jpeg,0.6289265705
291,292.jpeg,0.6183436715
292,293.jpeg,0.558205995
293,294.jpeg,0.482445843
294,295.jpeg,0.4139089732
295,296.jpeg,0.3767848689
296,297.jpeg,0.3937510703
297,298.jpeg,0.3962708081
298,299.jpeg,0.3851839615
299,300.jpeg,0.2964891888
300,301.jpeg,0.1849487591
301,302.jpeg,0.1152360788
302,303.jpeg,0.0772719947
303,304.jpeg,0.0540904064
304,305.jpeg,0.0184781449
305,306.jpeg,0.0003360322
306,307.jpeg,0.0115907942
307,308.jpeg,0.0393079107
308,309.jpeg,0.0821434543
309,310.jpeg,0.2203931053
310,311.jpeg,0.5230975803
311,312.jpeg,0.7869981929
312,313.jpeg,0.8143792772
313,314.jpeg,0.7853183341
314,315.jpeg,0.7507139677
315,316.jpeg,0.7616327982
316,317.jpeg,0.5734923375
317,318.jpeg,0.4459936017
318,319.jpeg,0.3940870017
319,320.jpeg,0.409373445
320,321.jpeg,0.5403998139
321,322.jpeg,0.5877708857
322,323.jpeg,0.4643037304
323,324.jpeg,0.3480598573
324,325.jpeg,0.215689561
325,326.jpeg,0.1295145261
326,327.jpeg,0.0725684504
327,328.jpeg,0.0475390879
328,329.jpeg,0.0327565922
329,330.jpeg,0.0258693423
330,331.jpeg,0.0876868776
331,332.jpeg,0.2825466729
332,333.jpeg,0.5818915309
333,334.jpeg,0.5711406158
334,335.jpeg,0.4495212347
335,336.jpeg,0.4827817745
336,337.jpeg,0.4150848844
337,338.jpeg,0.378464627
338,339.jpeg,0.3793046068
339,340.jpeg,0.4001343726
340,341.jpeg,0.3863598728
341,342.jpeg,0.304720366
342,343.jpeg,0.3739290988
343,344.jpeg,0.3447001396
344,345.jpeg,0.4965563751
345,346.jpeg,0.4975642702
346,347.jpeg,0.549302854
347,348.jpeg,0.3631782845
348,349.jpeg,0.194523763
349,350.jpeg,0.1029733209
350,351.jpeg,0.0325886769
351,352.jpeg,0.0428355437
352,353.jpeg,0.0166302699
353,354.jpeg,0.0
354,355.jpeg,0.0302368544
355,356.jpeg,0.2301361253
356,357.jpeg,0.5424156042
357,358.jpeg,0.5624054909
358,359.jpeg,0.4026541104
359,360.jpeg,0.4688392586
360,361.jpeg,0.4280195052
361,362.jpeg,0.42701161
362,363.jpeg,0.5037796572
363,364.jpeg,0.4555686056
364,365.jpeg,0.462119924
365,366.jpeg,0.4117251667
366,367.jpeg,0.3693935707
367,368.jpeg,0.4441458275
368,369.jpeg,0.549302854
369,370.jpeg,0.5672770513
370,371.jpeg,0.5088191329
371,372.jpeg,0.3625063208
372,373.jpeg,0.1856207228
373,374.jpeg,0.1140601675
374,375.jpeg,0.0319167132
375,376.jpeg,0.0260373584
376,377.jpeg,0.0139426167
377,378.jpeg,0.0040315806
378,379.jpeg,0.0450193501
379,380.jpeg,0.2462624476
380,381.jpeg,0.6096086474
381,382.jpeg,0.58273141
382,383.jpeg,0.4454896541
383,384.jpeg,0.4328909648
384,385.jpeg,0.4365866139
385,386.jpeg,0.412901078
386,387.jpeg,0.4016462153
387,388.jpeg,0.4525449201
388,389.jpeg,0.4454896541
389,390.jpeg,0.3732572359
390,391.jpeg,0.3821602761
391,392.jpeg,0.3260540794
392,393.jpeg,0.4799261052
393,394.jpeg,0.5721485109
394,395.jpeg,0.4967243912
395,396.jpeg,0.3420124864
396,397.jpeg,0.1802453156
397,398.jpeg,0.1293466108
398,399.jpeg,0.0663531642
399,400.jpeg,0.0403158058
400,401.jpeg,0.0246934311
401,402.jpeg,0.0257013262
402,403.jpeg,0.0401478905
403,404.jpeg,0.2514698387
404,405.jpeg,0.5649252288
405,406.jpeg,0.5728204746
406,407.jpeg,0.5081471692
407,408.jpeg,0.4493533194
408,409.jpeg,0.4422980533
409,410.jpeg,0.4407862106
410,411.jpeg,0.403158058
411,412.jpeg,0.4532168838
412,413.jpeg,0.4333949124
413,414.jpeg,0.338988801
414,415.jpeg,0.3331093454
415,416.jpeg,0.3861918567
416,417.jpeg,0.5020997984
417,418.jpeg,0.5501428339
418,419.jpeg,0.5026037459
419,420.jpeg,0.3502435629
420,421.jpeg,0.2029229564
421,422.jpeg,0.1160759578
422,423.jpeg,0.0586259345
423,424.jpeg,0.0362842252
424,425.jpeg,0.0131026369
425,426.jpeg,0.0359482938
426,427.jpeg,0.1434571428
427,428.jpeg,0.2754914068
428,429.jpeg,0.5874349542
429,430.jpeg,0.6023853653
430,431.jpeg,0.4792541415
431,432.jpeg,0.4543927951
432,433.jpeg,0.4323870172
433,434.jpeg,0.4197883279
434,435.jpeg,0.5409037614
435,436.jpeg,0.4619520087
436,437.jpeg,0.4498572669
437,438.jpeg,0.3656980223
438,439.jpeg,0.3584747402
439,440.jpeg,0.3875356833
440,441.jpeg,0.4664875368
441,442.jpeg,0.4836217543
442,443.jpeg,0.4537208314
443,444.jpeg,0.2971611525
444,445.jpeg,0.1624391345
445,446.jpeg,0.1323702962
446,447.jpeg,0.0648413215
447,448.jpeg,0.0525785637
448,449.jpeg,0.0198219714
449,450.jpeg,0.0099110361
450,451.jpeg,0.0204939351
451,452.jpeg,0.08718293
452,453.jpeg,0.1836049325
453,454.jpeg,0.4328909648
454,455.jpeg,0.6857047309
455,456.jpeg,0.80900387
456,457.jpeg,0.7705358384
457,458.jpeg,0.7041827749
458,459.jpeg,0.6383336591
459,460.jpeg,0.5943222041
460,461.jpeg,0.5718125795
461,462.jpeg,0.4926928106
462,463.jpeg,0.4407862106
463,464.jpeg,0.389047526
464,465.jpeg,0.3678817279
465,466.jpeg,0.4149168683
466,467.jpeg,0.3989585621
467,468.jpeg,0.2565093144
468,469.jpeg,0.1615992554
469,470.jpeg,0.1236351714
470,471.jpeg,0.0999496355
471,472.jpeg,0.0755921359
472,473.jpeg,0.0364522413
473,474.jpeg,0.0137746006
474,475.jpeg,0.0154544594
475,476.jpeg,0.0445154025
476,477.jpeg,0.089870684
477,478.jpeg,0.2580211571
478,479.jpeg,0.5706366682
479,480.jpeg,0.8672937723
480,481.jpeg,0.9042499612
481,482.jpeg,0.8261380875
482,483.jpeg,0.7982529549
483,484.jpeg,0.6563077555
484,485.jpeg,0.48866123
485,486.jpeg,0.455064658
486,487.jpeg,0.4233159609
487,488.jpeg,0.3934151388
488,489.jpeg,0.4984041492
489,490.jpeg,0.5882748333
490,491.jpeg,0.5083151853
491,492.jpeg,0.3294137971
492,493.jpeg,0.1777255778
493,494.jpeg,0.0942381961
494,495.jpeg,0.0344364511
495,496.jpeg,0.0361163099
496,497.jpeg,0.0431715759
497,498.jpeg,0.0507307895
498,499.jpeg,0.0935663332
499,500.jpeg,0.2639006127
500,501.jpeg,0.5736603536
501,502.jpeg,0.6295985342
502,503.jpeg,0.5057954475
503,504.jpeg,0.5034436249
504,505.jpeg,0.464807678
505,506.jpeg,0.4685033271
506,507.jpeg,0.5034436249
507,508.jpeg,0.4673274158
508,509.jpeg,0.4157567473
509,510.jpeg,0.3954309291
510,511.jpeg,0.3247102528
511,512.jpeg,0.3823282922
512,513.jpeg,0.534352443
513,514.jpeg,0.5760120754
514,515.jpeg,0.5491349387
515,516.jpeg,0.38199226
516,517.jpeg,0.1807492632
517,518.jpeg,0.1164118893
518,519.jpeg,0.0485469831
519,520.jpeg,0.0505627734
520,521.jpeg,0.0379640841
521,522.jpeg,0.0283890802
522,523.jpeg,0.0559381805
523,524.jpeg,0.3067361563
524,525.jpeg,0.5996976113
525,526.jpeg,0.5758441601
526,527.jpeg,0.4658155731
527,528.jpeg,0.465647557
528,529.jpeg,0.5750041802
529,530.jpeg,0.5615656119
530,531.jpeg,0.6376616954
531,532.jpeg,0.4911809679
532,533.jpeg,0.409373445
533,534.jpeg,0.3116076159
534,535.jpeg,0.344196192
535,536.jpeg,0.4196204126
536,537.jpeg,0.5373761284
537,538.jpeg,0.6190156352
538,539.jpeg,0.5568620676
539,540.jpeg,0.3823282922
540,541.jpeg,0.1904921824
541,542.jpeg,0.0902066155
542,543.jpeg,0.0433394912
543,544.jpeg,0.0257013262
544,545.jpeg,0.0078952458
545,546.jpeg,0.0142785482
546,547.jpeg,0.0500588258
547,548.jpeg,0.260540895
548,549.jpeg,0.5966739259
549,550.jpeg,0.5884428494
550,551.jpeg,0.4629599038
551,552.jpeg,0.4229800295
552,553.jpeg,0.4088694974
553,554.jpeg,0.3742651311
554,555.jpeg,0.4063497596
555,556.jpeg,0.479758089
556,557.jpeg,0.4572484644
557,558.jpeg,0.3393247324
558,559.jpeg,0.3821602761
559,560.jpeg,0.4396102994
560,561.jpeg,0.5548462773
561,562.jpeg,0.5877708857
562,563.jpeg,0.5163783465
563,564.jpeg,0.3109356522
564,565.jpeg,0.1683184892
565,566.jpeg,0.1412733364
566,567.jpeg,0.0535864588
567,568.jpeg,0.0262052738
568,569.jpeg,0.0112548627
569,570.jpeg,0.0112548627
570,571.jpeg,0.0443473864
571,572.jpeg,0.2492861331
572,573.jpeg,0.5645892973
573,574.jpeg,0.5790357608
574,575.jpeg,0.5197379634
575,576.jpeg,0.5015958508
576,577.jpeg,0.5684528618
577,578.jpeg,0.4888291453
578,579.jpeg,0.4431379324
579,580.jpeg,0.4782462463
580,581.jpeg,0.4535528153
581,582.jpeg,0.3551151233
582,583.jpeg,0.3126155111
583,584.jpeg,0.3937510703
584,585.jpeg,0.5214178222
585,586.jpeg,0.5224257174
586,587.jpeg,0.4874853187
587,588.jpeg,0.3640181635
588,589.jpeg,0.2005711339
589,590.jpeg,0.1044851636
590,591.jpeg,0.0638334264
591,592.jpeg,0.0466992089
592,593.jpeg,0.0515706685
593,594.jpeg,0.0225097254
594,595.jpeg,0.0440114549
595,596.jpeg,0.260540895
596,597.jpeg,0.593314309
597,598.jpeg,0.6054090507
598,599.jpeg,0.5101629595
599,600.jpeg,0.4701830852
600,601.jpeg,0.3994625097
601,602.jpeg,0.3668738328
602,603.jpeg,0.4414580735
603,604.jpeg,0.5236015278
604,605.jpeg,0.5242734915
605,606.jpeg,0.4165967271
606,607.jpeg,0.3761129052
607,608.jpeg,0.412061199
608,609.jpeg,0.4940366372
609,610.jpeg,0.4750546456
610,611.jpeg,0.4584243757
611,612.jpeg,0.3258861641
612,613.jpeg,0.187468497
613,614.jpeg,0.128506631
614,615.jpeg,0.0685368699
615,616.jpeg,0.0544263378
616,617.jpeg,0.0488829145
617,618.jpeg,0.0253653947
618,619.jpeg,0.027381185
619,620.jpeg,0.0838233132
620,621.jpeg,0.1852847914
621,622.jpeg,0.4026541104
622,623.jpeg,0.6374936792
623,624.jpeg,0.6957836823
624,625.jpeg,0.6695784085
625,626.jpeg,0.6445489453
626,627.jpeg,0.6401814332
627,628.jpeg,0.5944902202
628,629.jpeg,0.5785318133
629,630.jpeg,0.4901730727
630,631.jpeg,0.4033260741
631,632.jpeg,0.4431379324
632,633.jpeg,0.423483977
633,634.jpeg,0.3861918567
634,635.jpeg,0.4330589809
635,636.jpeg,0.2948093299
636,637.jpeg,0.1721821545
637,638.jpeg,0.1530321467
638,639.jpeg,0.0833193656
639,640.jpeg,0.0750881883
640,641.jpeg,0.0302368544
641,642.jpeg,0.0052074918
642,643.jpeg,0.012430774
643,644.jpeg,0.037124205
644,645.jpeg,0.1197716069
645,646.jpeg,0.2548295564
646,647.jpeg,0.5828994261
647,648.jpeg,0.787838072
648,649.jpeg,0.9067696991
649,650.jpeg,0.8397446719
650,651.jpeg,0.7411389638
651,652.jpeg,0.6947757872
652,653.jpeg,0.538719955
653,654.jpeg,0.4896691252
654,655.jpeg,0.4008063363
655,656.jpeg,0.4144129207
656,657.jpeg,0.5988577323
657,658.jpeg,0.5991936637
658,659.jpeg,0.5610616643
659,660.jpeg,0.3972787033
660,661.jpeg,0.2141777183
661,662.jpeg,0.1081808128
662,663.jpeg,0.0460272452
663,664.jpeg,0.0389719792
664,665.jpeg,0.0317486971
665,666.jpeg,0.0186460602
666,667.jpeg,0.0947421436
667,668.jpeg,0.2759953544
668,669.jpeg,0.6223752521
669,670.jpeg,0.6240551109
670,671.jpeg,0.5205778424
671,672.jpeg,0.5183941368
672,673.jpeg,0.5111708547
673,674.jpeg,0.5019317822
674,675.jpeg,0.4942046533
675,676.jpeg,0.4874853187
676,677.jpeg,0.4920208469
677,678.jpeg,0.3638501474
678,679.jpeg,0.3742651311
679,680.jpeg,0.4125651466
680,681.jpeg,0.5214178222
681,682.jpeg,0.5751721964
682,683.jpeg,0.5874349542
683,684.jpeg,0.3924072437
684,685.jpeg,0.2143457344
685,686.jpeg,0.0967579339
686,687.jpeg,0.0650092369
687,688.jpeg,0.0524105475
688,689.jpeg,0.0398118582
689,690.jpeg,0.0413237009
690,691.jpeg,0.0676969908
691,692.jpeg,0.2669242981
692,693.jpeg,0.587098922
693,694.jpeg,0.5793717931
694,695.jpeg,0.485973476
695,696.jpeg,0.5061313789
696,697.jpeg,0.4943725686
697,698.jpeg,0.4767344036
698,699.jpeg,0.4476734605
699,700.jpeg,0.4795901737
700,701.jpeg,0.4416260896
701,702.jpeg,0.328405902
702,703.jpeg,0.3030405072
703,704.jpeg,0.3939190864
704,705.jpeg,0.5377120599
705,706.jpeg,0.5452712735
706,707.jpeg,0.5454392896
707,708.jpeg,0.3762809213
708,709.jpeg,0.9415420816
709,710.jpeg,0.1812532108
710,711.jpeg,0.1352259656
711,712.jpeg,0.0619855514
712,713.jpeg,0.0465311928
713,714.jpeg,0.0280531487
714,715.jpeg,0.0638334264
715,716.jpeg,0.2796909027
716,717.jpeg,0.604737087
717,718.jpeg,0.5459432372
718,719.jpeg,0.429699364
719,720.jpeg,0.5187300682
720,721.jpeg,0.4375945091
721,722.jpeg,0.3735931674
722,723.jpeg,0.3905593687
723,724.jpeg,0.4569125329
724,725.jpeg,0.4525449201
725,726.jpeg,0.3314295874
726,727.jpeg,0.3517554056
727,728.jpeg,0.3693935707
728,729.jpeg,0.4312112067
729,730.jpeg,0.5487989065
730,731.jpeg,0.481605964
731,732.jpeg,0.3571309136
732,733.jpeg,0.2074584845
733,734.jpeg,0.187468497
734,735.jpeg,0.1199395223
735,736.jpeg,0.0522426322
736,737.jpeg,0.0547623701
737,738.jpeg,0.0451873662
738,739.jpeg,0.0760960835
739,740.jpeg,0.2665882659
740,741.jpeg,0.6087686676
741,742.jpeg,0.528137056
742,743.jpeg,0.3655300062
743,744.jpeg,0.422644098
744,745.jpeg,0.4223080658
745,746.jpeg,0.3927431751
746,747.jpeg,0.3693935707
747,748.jpeg,0.4483454242
748,749.jpeg,0.4283554366
749,750.jpeg,0.38199226
750,751.jpeg,0.3549471072
751,752.jpeg,0.4229800295
752,753.jpeg,0.4501931984
753,754.jpeg,0.5966739259
754,755.jpeg,0.558205995
755,756.jpeg,0.3695615868
756,757.jpeg,0.219217194
757,758.jpeg,0.1951957267
758,759.jpeg,0.1849487591
759,760.jpeg,0.0954141073
760,761.jpeg,0.0725684504
761,762.jpeg,0.0614816038
762,763.jpeg,0.0908785792
763,764.jpeg,0.2754914068
764,765.jpeg,0.5289770358
765,766.jpeg,0.5294809834
766,767.jpeg,0.4416260896
767,768.jpeg,0.4916849154
768,769.jpeg,0.4866454397
769,770.jpeg,0.4584243757
770,771.jpeg,0.4711909803
771,772.jpeg,0.4866454397
772,773.jpeg,0.4985721653
773,774.jpeg,0.4169326586
774,775.jpeg,0.4006383202
775,776.jpeg,0.4394422832
776,777.jpeg,0.499244129
777,778.jpeg,0.5014278347
778,779.jpeg,0.4572484644
779,780.jpeg,0.3537711959
780,781.jpeg,0.2571812781
781,782.jpeg,0.2803628664
782,783.jpeg,0.1851167752
783,784.jpeg,0.1196035908
784,785.jpeg,0.1132202885
785,786.jpeg,0.0974298976
786,787.jpeg,0.079287785
787,788.jpeg,0.127666752
788,789.jpeg,0.2165295409
789,790.jpeg,0.4466655654
790,791.jpeg,0.6309423608
791,792.jpeg,0.7853183341
792,793.jpeg,0.763312657
793,794.jpeg,0.6319502559
794,795.jpeg,0.6201915464
795,796.jpeg,0.6405173647
796,797.jpeg,0.5719804948
797,798.jpeg,0.53082481
798,799.jpeg,0.5588778579
799,800.jpeg,0.54056783
800,801.jpeg,0.4614480611
801,802.jpeg,0.48866123
802,803.jpeg,0.478078331
803,804.jpeg,0.3769527842
804,805.jpeg,0.2733076004
805,806.jpeg,0.3616664417
806,807.jpeg,0.2815387777
807,808.jpeg,0.1975474484
808,809.jpeg,0.1889803397
809,810.jpeg,0.1580716224
810,811.jpeg,0.1466487436
811,812.jpeg,0.1664707151
812,813.jpeg,0.2516378548
813,814.jpeg,0.3557869862
814,815.jpeg,0.5659331239
815,816.jpeg,0.9504451218
816,817.jpeg,0.9808499922
817,818.jpeg,0.8209305956
818,819.jpeg,0.724508694
819,820.jpeg,0.6773055375
820,821.jpeg,0.5692928416
821,822.jpeg,0.4570804483
822,823.jpeg,0.4192843803
823,824.jpeg,0.4730388553
824,825.jpeg,0.5089870482
825,826.jpeg,0.6430371025
826,827.jpeg,0.6285906391
827,828.jpeg,0.4236519932
828,829.jpeg,0.2882580115
