,0,1
0,1.jpeg,0.5286410036
1,2.jpeg,0.3796405382
2,3.jpeg,0.1851167752
3,4.jpeg,0.1350579494
4,5.jpeg,0.066017132
5,6.jpeg,0.0372921204
6,7.jpeg,0.0241894835
7,8.jpeg,0.0114228788
8,9.jpeg,0.0456913138
9,10.jpeg,0.1960356057
10,11.jpeg,0.4087014813
11,12.jpeg,0.5152024352
12,13.jpeg,0.6072568249
13,14.jpeg,0.5902906235
14,15.jpeg,0.5662691562
15,16.jpeg,0.5882748333
16,17.jpeg,0.5469511323
17,18.jpeg,0.5400638824
18,19.jpeg,0.52108179
19,20.jpeg,0.4387704203
20,21.jpeg,0.3453721033
21,22.jpeg,0.3248782689
22,23.jpeg,0.4281875213
23,24.jpeg,0.4809340003
24,25.jpeg,0.5190659997
25,26.jpeg,0.3576348612
26,27.jpeg,0.2294641616
27,28.jpeg,0.1227952924
28,29.jpeg,0.0826474019
29,30.jpeg,0.0645052893
30,31.jpeg,0.0436755235
31,32.jpeg,0.0283890802
32,33.jpeg,0.0498908097
33,34.jpeg,0.1938519001
34,35.jpeg,0.3927431751
35,36.jpeg,0.4985721653
36,37.jpeg,0.5336804793
37,38.jpeg,0.5642533659
38,39.jpeg,0.5098270281
39,40.jpeg,0.4626238716
40,41.jpeg,0.4854695285
41,42.jpeg,0.5121787498
42,43.jpeg,0.485133597
43,44.jpeg,0.4253317512
44,45.jpeg,0.3809843648
45,46.jpeg,0.3423484179
46,47.jpeg,0.4286914689
47,48.jpeg,0.4456576702
48,49.jpeg,0.5269612455
49,50.jpeg,0.360154599
50,51.jpeg,0.2066185047
51,52.jpeg,0.1599193966
52,53.jpeg,0.0799597487
53,54.jpeg,0.0645052893
54,55.jpeg,0.0381321002
55,56.jpeg,0.0302368544
56,57.jpeg,0.0559381805
57,58.jpeg,0.1921720413
58,59.jpeg,0.4026541104
59,60.jpeg,0.5348563906
60,61.jpeg,0.6143120909
61,62.jpeg,0.5876028696
62,63.jpeg,0.5062993951
63,64.jpeg,0.489501109
64,65.jpeg,0.4653116256
65,66.jpeg,0.5062993951
66,67.jpeg,0.5684528618
67,68.jpeg,0.5437594307
68,69.jpeg,0.5136905925
69,70.jpeg,0.4643037304
70,71.jpeg,0.329245781
71,72.jpeg,0.2828826043
72,73.jpeg,0.346044067
73,74.jpeg,0.3205106561
74,75.jpeg,0.2539895765
75,76.jpeg,0.19099613
76,77.jpeg,0.1316983325
77,78.jpeg,0.1196035908
78,79.jpeg,0.0841592446
79,80.jpeg,0.0233496045
80,81.jpeg,0.0354443462
81,82.jpeg,0.0438434388
82,83.jpeg,0.1105325345
83,84.jpeg,0.2749874593
84,85.jpeg,0.6648748643
85,86.jpeg,0.8612464014
86,87.jpeg,0.8659499457
87,88.jpeg,0.8866117962
88,89.jpeg,0.7174534279
89,90.jpeg,0.5180581046
90,91.jpeg,0.4520409726
91,92.jpeg,0.3947589654
92,93.jpeg,0.3767848689
93,94.jpeg,0.3692256553
94,95.jpeg,0.3650260586
95,96.jpeg,0.399630425
96,97.jpeg,0.3660339538
97,98.jpeg,0.333613293
98,99.jpeg,0.2019150612
99,100.jpeg,0.1503443927
100,101.jpeg,0.1081808128
101,102.jpeg,0.0710566077
102,103.jpeg,0.0606417248
103,104.jpeg,0.0357802776
104,105.jpeg,0.0297329068
105,106.jpeg,0.0759281681
106,107.jpeg,0.1437930743
107,108.jpeg,0.3279019544
108,109.jpeg,0.6138081433
109,110.jpeg,0.763312657
110,111.jpeg,0.7611288506
111,112.jpeg,0.6547959128
112,113.jpeg,0.6319502559
113,114.jpeg,0.5891147123
114,115.jpeg,0.53082481
115,116.jpeg,0.4555686056
116,117.jpeg,0.4087014813
117,118.jpeg,0.3698975182
118,119.jpeg,0.4122291143
119,120.jpeg,0.3919032961
120,121.jpeg,0.3850159454
121,122.jpeg,0.277339181
122,123.jpeg,0.1926759888
123,124.jpeg,0.145304917
124,125.jpeg,0.1115404296
125,126.jpeg,0.0895347526
126,127.jpeg,0.0609776563
127,128.jpeg,0.0283890802
128,129.jpeg,0.0184781449
129,130.jpeg,0.0377960679
130,131.jpeg,0.0779439584
131,132.jpeg,0.2158575772
132,133.jpeg,0.5143625562
133,134.jpeg,0.7656643788
134,135.jpeg,0.9386864123
135,136.jpeg,0.9158407554
136,137.jpeg,0.726188452
137,138.jpeg,0.6154880022
138,139.jpeg,0.5382160075
139,140.jpeg,0.4911809679
140,141.jpeg,0.464807678
141,142.jpeg,0.4637997828
142,143.jpeg,0.526457298
143,144.jpeg,0.6331261672
144,145.jpeg,0.5452712735
145,146.jpeg,0.3734251512
146,147.jpeg,0.2412229719
147,148.jpeg,0.1313624011
148,149.jpeg,0.0549302854
149,150.jpeg,0.0487149992
150,151.jpeg,0.0216697456
151,152.jpeg,0.020325919
152,153.jpeg,0.0804636963
153,154.jpeg,0.2622207538
154,155.jpeg,0.6013774701
155,156.jpeg,0.5701327206
156,157.jpeg,0.4814379479
157,158.jpeg,0.524609423
158,159.jpeg,0.4738787343
159,160.jpeg,0.4995800605
160,161.jpeg,0.4955484799
161,162.jpeg,0.5039475725
162,163.jpeg,0.4372585776
163,164.jpeg,0.3344532728
164,165.jpeg,0.3546111757
165,166.jpeg,0.3841760664
166,167.jpeg,0.4799261052
167,168.jpeg,0.5230975803
168,169.jpeg,0.5434234993
169,170.jpeg,0.3871997518
170,171.jpeg,0.2019150612
171,172.jpeg,0.1016294943
172,173.jpeg,0.0492189468
173,174.jpeg,0.0304048705
174,175.jpeg,0.0102469676
175,176.jpeg,0.0008399798
176,177.jpeg,0.0498908097
177,178.jpeg,0.2627247014
178,179.jpeg,0.548462975
179,180.jpeg,0.5464471847
180,181.jpeg,0.4659835892
181,182.jpeg,0.499244129
182,183.jpeg,0.4495212347
183,184.jpeg,0.4800941213
184,185.jpeg,0.4266756786
185,186.jpeg,0.493028742
186,187.jpeg,0.4263396464
187,188.jpeg,0.3499076314
188,189.jpeg,0.351251458
189,190.jpeg,0.4140769893
190,191.jpeg,0.5731564061
191,192.jpeg,0.5810515511
192,193.jpeg,0.5724844424
193,194.jpeg,0.3520914379
194,195.jpeg,0.1921720413
195,196.jpeg,0.1083487281
196,197.jpeg,0.0515706685
197,198.jpeg,0.0184781449
198,199.jpeg,0.0129347216
199,200.jpeg,0.0443473864
200,201.jpeg,0.1490005661
201,202.jpeg,0.2704519311
202,203.jpeg,0.5667731038
203,204.jpeg,0.5521586242
204,205.jpeg,0.4606080813
205,206.jpeg,0.4110533038
206,207.jpeg,0.3705694819
207,208.jpeg,0.3554510547
208,209.jpeg,0.3660339538
209,210.jpeg,0.4369225454
210,211.jpeg,0.4429699162
211,212.jpeg,0.3357970994
212,213.jpeg,0.3084159144
213,214.jpeg,0.3809843648
214,215.jpeg,0.4858054599
215,216.jpeg,0.5706366682
216,217.jpeg,0.583571289
217,218.jpeg,0.4018142314
218,219.jpeg,0.1946917791
219,220.jpeg,0.1059970063
220,221.jpeg,0.0379640841
221,222.jpeg,0.0240215681
222,223.jpeg,0.014110532
223,224.jpeg,0.0114228788
224,225.jpeg,0.0354443462
225,226.jpeg,0.2610448426
226,227.jpeg,0.5669410191
227,228.jpeg,0.5647573135
228,229.jpeg,0.4498572669
229,230.jpeg,0.4599362184
230,231.jpeg,0.4305392431
231,232.jpeg,0.3955988444
232,233.jpeg,0.4060138281
233,234.jpeg,0.4690072747
234,235.jpeg,0.4569125329
235,236.jpeg,0.3324374825
236,237.jpeg,0.3042164185
237,238.jpeg,0.3670418489
238,239.jpeg,0.5375441445
239,240.jpeg,0.5536704669
240,241.jpeg,0.5464471847
241,242.jpeg,0.3692256553
242,243.jpeg,0.2151856135
243,244.jpeg,0.114396099
244,245.jpeg,0.0519066
245,246.jpeg,0.0337644874
246,247.jpeg,0.0120947417
247,248.jpeg,0.0188140763
248,249.jpeg,0.0433394912
249,250.jpeg,0.2529816814
250,251.jpeg,0.5607257329
251,252.jpeg,0.5797077245
252,253.jpeg,0.4673274158
253,254.jpeg,0.460440166
254,255.jpeg,0.3959348767
255,256.jpeg,0.5249454552
256,257.jpeg,0.4616159764
257,258.jpeg,0.4397783155
258,259.jpeg,0.4436418799
259,260.jpeg,0.3608264619
260,261.jpeg,0.3485638049
261,262.jpeg,0.3527633008
262,263.jpeg,0.4372585776
263,264.jpeg,0.5340165115
264,265.jpeg,0.5141945401
265,266.jpeg,0.3263901117
266,267.jpeg,0.1918361098
267,268.jpeg,0.1149000465
268,269.jpeg,0.0712246238
269,270.jpeg,0.048378967
270,271.jpeg,0.0235176206
271,272.jpeg,0.0228456569
272,273.jpeg,0.0278851326
273,274.jpeg,0.0972618815
274,275.jpeg,0.2101461377
275,276.jpeg,0.3840080503
276,277.jpeg,0.6097765627
277,278.jpeg,0.7576012176
278,279.jpeg,0.740298984
279,280.jpeg,0.6519402435
280,281.jpeg,0.6289265705
281,282.jpeg,0.6183436715
282,283.jpeg,0.558205995
283,284.jpeg,0.482445843
284,285.jpeg,0.4139089732
285,286.jpeg,0.3767848689
286,287.jpeg,0.3937510703
287,288.jpeg,0.3962708081
288,289.jpeg,0.3851839615
289,290.jpeg,0.2964891888
290,291.jpeg,0.1849487591
291,292.jpeg,0.1152360788
292,293.jpeg,0.0772719947
293,294.jpeg,0.0540904064
294,295.jpeg,0.0184781449
295,296.jpeg,0.0003360322
296,297.jpeg,0.0115907942
297,298.jpeg,0.0393079107
298,299.jpeg,0.0821434543
299,300.jpeg,0.2203931053
300,301.jpeg,0.5230975803
301,302.jpeg,0.7869981929
302,303.jpeg,0.8143792772
303,304.jpeg,0.7853183341
304,305.jpeg,0.7507139677
305,306.jpeg,0.7616327982
306,307.jpeg,0.5734923375
307,308.jpeg,0.4459936017
308,309.jpeg,0.3940870017
309,310.jpeg,0.409373445
310,311.jpeg,0.5403998139
311,312.jpeg,0.5877708857
312,313.jpeg,0.4643037304
313,314.jpeg,0.3480598573
314,315.jpeg,0.215689561
315,316.jpeg,0.1295145261
316,317.jpeg,0.0725684504
317,318.jpeg,0.0475390879
318,319.jpeg,0.0327565922
319,320.jpeg,0.0258693423
320,321.jpeg,0.0876868776
321,322.jpeg,0.2825466729
322,323.jpeg,0.5818915309
323,324.jpeg,0.5711406158
324,325.jpeg,0.4495212347
325,326.jpeg,0.4827817745
326,327.jpeg,0.4150848844
327,328.jpeg,0.378464627
328,329.jpeg,0.3793046068
329,330.jpeg,0.4001343726
330,331.jpeg,0.3863598728
331,332.jpeg,0.304720366
332,333.jpeg,0.3739290988
333,334.jpeg,0.3447001396
334,335.jpeg,0.4965563751
335,336.jpeg,0.4975642702
336,337.jpeg,0.549302854
337,338.jpeg,0.3631782845
338,339.jpeg,0.194523763
339,340.jpeg,0.1029733209
340,341.jpeg,0.0325886769
341,342.jpeg,0.0428355437
342,343.jpeg,0.0166302699
343,344.jpeg,0.0
344,345.jpeg,0.0302368544
345,346.jpeg,0.2301361253
346,347.jpeg,0.5424156042
347,348.jpeg,0.5624054909
348,349.jpeg,0.4026541104
349,350.jpeg,0.4688392586
350,351.jpeg,0.4280195052
351,352.jpeg,0.42701161
352,353.jpeg,0.5037796572
353,354.jpeg,0.4555686056
354,355.jpeg,0.462119924
355,356.jpeg,0.4117251667
356,357.jpeg,0.3693935707
357,358.jpeg,0.4441458275
358,359.jpeg,0.549302854
359,360.jpeg,0.5672770513
360,361.jpeg,0.5088191329
361,362.jpeg,0.3625063208
362,363.jpeg,0.1856207228
363,364.jpeg,0.1140601675
364,365.jpeg,0.0319167132
365,366.jpeg,0.0260373584
366,367.jpeg,0.0139426167
367,368.jpeg,0.0040315806
368,369.jpeg,0.0450193501
369,370.jpeg,0.2462624476
370,371.jpeg,0.6096086474
371,372.jpeg,0.58273141
372,373.jpeg,0.4454896541
373,374.jpeg,0.4328909648
374,375.jpeg,0.4365866139
375,376.jpeg,0.412901078
376,377.jpeg,0.4016462153
377,378.jpeg,0.4525449201
378,379.jpeg,0.4454896541
379,380.jpeg,0.3732572359
380,381.jpeg,0.3821602761
381,382.jpeg,0.3260540794
382,383.jpeg,0.4799261052
383,384.jpeg,0.5721485109
384,385.jpeg,0.4967243912
385,386.jpeg,0.3420124864
386,387.jpeg,0.1802453156
387,388.jpeg,0.1293466108
388,389.jpeg,0.0663531642
389,390.jpeg,0.0403158058
390,391.jpeg,0.0246934311
391,392.jpeg,0.0257013262
392,393.jpeg,0.0401478905
393,394.jpeg,0.2514698387
394,395.jpeg,0.5649252288
395,396.jpeg,0.5728204746
396,397.jpeg,0.5081471692
397,398.jpeg,0.4493533194
398,399.jpeg,0.4422980533
399,400.jpeg,0.4407862106
400,401.jpeg,0.403158058
401,402.jpeg,0.4532168838
402,403.jpeg,0.4333949124
403,404.jpeg,0.338988801
404,405.jpeg,0.3331093454
405,406.jpeg,0.3861918567
406,407.jpeg,0.5020997984
407,408.jpeg,0.5501428339
408,409.jpeg,0.5026037459
409,410.jpeg,0.3502435629
410,411.jpeg,0.2029229564
411,412.jpeg,0.1160759578
412,413.jpeg,0.0586259345
413,414.jpeg,0.0362842252
414,415.jpeg,0.0131026369
415,416.jpeg,0.0359482938
416,417.jpeg,0.1434571428
417,418.jpeg,0.2754914068
418,419.jpeg,0.5874349542
419,420.jpeg,0.6023853653
420,421.jpeg,0.4792541415
421,422.jpeg,0.4543927951
422,423.jpeg,0.4323870172
423,424.jpeg,0.4197883279
424,425.jpeg,0.5409037614
425,426.jpeg,0.4619520087
426,427.jpeg,0.4498572669
427,428.jpeg,0.3656980223
428,429.jpeg,0.3584747402
429,430.jpeg,0.3875356833
430,431.jpeg,0.4664875368
431,432.jpeg,0.4836217543
432,433.jpeg,0.4537208314
433,434.jpeg,0.2971611525
434,435.jpeg,0.1624391345
435,436.jpeg,0.1323702962
436,437.jpeg,0.0648413215
437,438.jpeg,0.0525785637
438,439.jpeg,0.0198219714
439,440.jpeg,0.0099110361
440,441.jpeg,0.0204939351
441,442.jpeg,0.08718293
442,443.jpeg,0.1836049325
443,444.jpeg,0.4328909648
444,445.jpeg,0.6857047309
445,446.jpeg,0.80900387
446,447.jpeg,0.7705358384
447,448.jpeg,0.7041827749
448,449.jpeg,0.6383336591
449,450.jpeg,0.5943222041
450,451.jpeg,0.5718125795
451,452.jpeg,0.4926928106
452,453.jpeg,0.4407862106
453,454.jpeg,0.389047526
454,455.jpeg,0.3678817279
455,456.jpeg,0.4149168683
456,457.jpeg,0.3989585621
457,458.jpeg,0.2565093144
458,459.jpeg,0.1615992554
459,460.jpeg,0.1236351714
460,461.jpeg,0.0999496355
461,462.jpeg,0.0755921359
462,463.jpeg,0.0364522413
463,464.jpeg,0.0137746006
464,465.jpeg,0.0154544594
465,466.jpeg,0.0445154025
466,467.jpeg,0.089870684
467,468.jpeg,0.2580211571
468,469.jpeg,0.5706366682
469,470.jpeg,0.8672937723
470,471.jpeg,0.9042499612
471,472.jpeg,0.8261380875
472,473.jpeg,0.7982529549
473,474.jpeg,0.6563077555
474,475.jpeg,0.48866123
475,476.jpeg,0.455064658
476,477.jpeg,0.4233159609
477,478.jpeg,0.3934151388
478,479.jpeg,0.4984041492
479,480.jpeg,0.5882748333
480,481.jpeg,0.5083151853
481,482.jpeg,0.3294137971
482,483.jpeg,0.1777255778
483,484.jpeg,0.0942381961
484,485.jpeg,0.0344364511
485,486.jpeg,0.0361163099
486,487.jpeg,0.0431715759
487,488.jpeg,0.0507307895
488,489.jpeg,0.0935663332
489,490.jpeg,0.2639006127
490,491.jpeg,0.5736603536
491,492.jpeg,0.6295985342
492,493.jpeg,0.5057954475
493,494.jpeg,0.5034436249
494,495.jpeg,0.464807678
495,496.jpeg,0.4685033271
496,497.jpeg,0.5034436249
497,498.jpeg,0.4673274158
498,499.jpeg,0.4157567473
499,500.jpeg,0.3954309291
500,501.jpeg,0.3247102528
501,502.jpeg,0.3823282922
502,503.jpeg,0.534352443
503,504.jpeg,0.5760120754
504,505.jpeg,0.5491349387
505,506.jpeg,0.38199226
506,507.jpeg,0.1807492632
507,508.jpeg,0.1164118893
508,509.jpeg,0.0485469831
509,510.jpeg,0.0505627734
510,511.jpeg,0.0379640841
511,512.jpeg,0.0283890802
512,513.jpeg,0.0559381805
513,514.jpeg,0.3067361563
514,515.jpeg,0.5996976113
515,516.jpeg,0.5758441601
516,517.jpeg,0.4658155731
517,518.jpeg,0.465647557
518,519.jpeg,0.5750041802
519,520.jpeg,0.5615656119
520,521.jpeg,0.6376616954
521,522.jpeg,0.4911809679
522,523.jpeg,0.409373445
523,524.jpeg,0.3116076159
524,525.jpeg,0.344196192
525,526.jpeg,0.4196204126
526,527.jpeg,0.5373761284
527,528.jpeg,0.6190156352
528,529.jpeg,0.5568620676
529,530.jpeg,0.3823282922
530,531.jpeg,0.1904921824
531,532.jpeg,0.0902066155
532,533.jpeg,0.0433394912
533,534.jpeg,0.0257013262
534,535.jpeg,0.0078952458
535,536.jpeg,0.0142785482
536,537.jpeg,0.0500588258
537,538.jpeg,0.260540895
538,539.jpeg,0.5966739259
539,540.jpeg,0.5884428494
540,541.jpeg,0.4629599038
541,542.jpeg,0.4229800295
542,543.jpeg,0.4088694974
543,544.jpeg,0.3742651311
544,545.jpeg,0.4063497596
545,546.jpeg,0.479758089
546,547.jpeg,0.4572484644
547,548.jpeg,0.3393247324
548,549.jpeg,0.3821602761
549,550.jpeg,0.4396102994
550,551.jpeg,0.5548462773
551,552.jpeg,0.5877708857
552,553.jpeg,0.5163783465
553,554.jpeg,0.3109356522
554,555.jpeg,0.1683184892
555,556.jpeg,0.1412733364
556,557.jpeg,0.0535864588
557,558.jpeg,0.0262052738
558,559.jpeg,0.0112548627
559,560.jpeg,0.0112548627
560,561.jpeg,0.0443473864
561,562.jpeg,0.2492861331
562,563.jpeg,0.5645892973
563,564.jpeg,0.5790357608
564,565.jpeg,0.5197379634
565,566.jpeg,0.5015958508
566,567.jpeg,0.5684528618
567,568.jpeg,0.4888291453
568,569.jpeg,0.4431379324
569,570.jpeg,0.4782462463
570,571.jpeg,0.4535528153
571,572.jpeg,0.3551151233
572,573.jpeg,0.3126155111
573,574.jpeg,0.3937510703
574,575.jpeg,0.5214178222
575,576.jpeg,0.5224257174
576,577.jpeg,0.4874853187
577,578.jpeg,0.3640181635
578,579.jpeg,0.2005711339
579,580.jpeg,0.1044851636
580,581.jpeg,0.0638334264
581,582.jpeg,0.0466992089
582,583.jpeg,0.0515706685
583,584.jpeg,0.0225097254
584,585.jpeg,0.0440114549
585,586.jpeg,0.260540895
586,587.jpeg,0.593314309
587,588.jpeg,0.6054090507
588,589.jpeg,0.5101629595
589,590.jpeg,0.4701830852
590,591.jpeg,0.3994625097
591,592.jpeg,0.3668738328
592,593.jpeg,0.4414580735
593,594.jpeg,0.5236015278
594,595.jpeg,0.5242734915
595,596.jpeg,0.4165967271
596,597.jpeg,0.3761129052
597,598.jpeg,0.412061199
598,599.jpeg,0.4940366372
599,600.jpeg,0.4750546456
600,601.jpeg,0.4584243757
601,602.jpeg,0.3258861641
602,603.jpeg,0.187468497
603,604.jpeg,0.128506631
604,605.jpeg,0.0685368699
605,606.jpeg,0.0544263378
606,607.jpeg,0.0488829145
607,608.jpeg,0.0253653947
608,609.jpeg,0.027381185
609,610.jpeg,0.0838233132
610,611.jpeg,0.1852847914
611,612.jpeg,0.4026541104
612,613.jpeg,0.6374936792
613,614.jpeg,0.6957836823
614,615.jpeg,0.6695784085
615,616.jpeg,0.6445489453
616,617.jpeg,0.6401814332
617,618.jpeg,0.5944902202
618,619.jpeg,0.5785318133
619,620.jpeg,0.4901730727
620,621.jpeg,0.4033260741
621,622.jpeg,0.4431379324
622,623.jpeg,0.423483977
623,624.jpeg,0.3861918567
624,625.jpeg,0.4330589809
625,626.jpeg,0.2948093299
626,627.jpeg,0.1721821545
627,628.jpeg,0.1530321467
628,629.jpeg,0.0833193656
629,630.jpeg,0.0750881883
630,631.jpeg,0.0302368544
631,632.jpeg,0.0052074918
632,633.jpeg,0.012430774
633,634.jpeg,0.037124205
634,635.jpeg,0.1197716069
635,636.jpeg,0.2548295564
636,637.jpeg,0.5828994261
637,638.jpeg,0.787838072
638,639.jpeg,0.9067696991
639,640.jpeg,0.8397446719
640,641.jpeg,0.7411389638
641,642.jpeg,0.6947757872
642,643.jpeg,0.538719955
643,644.jpeg,0.4896691252
644,645.jpeg,0.4008063363
645,646.jpeg,0.4144129207
646,647.jpeg,0.5988577323
647,648.jpeg,0.5991936637
648,649.jpeg,0.5610616643
649,650.jpeg,0.3972787033
650,651.jpeg,0.2141777183
651,652.jpeg,0.1081808128
652,653.jpeg,0.0460272452
653,654.jpeg,0.0389719792
654,655.jpeg,0.0317486971
655,656.jpeg,0.0186460602
656,657.jpeg,0.0947421436
657,658.jpeg,0.2759953544
658,659.jpeg,0.6223752521
659,660.jpeg,0.6240551109
660,661.jpeg,0.5205778424
661,662.jpeg,0.5183941368
662,663.jpeg,0.5111708547
663,664.jpeg,0.5019317822
664,665.jpeg,0.4942046533
665,666.jpeg,0.4874853187
666,667.jpeg,0.4920208469
667,668.jpeg,0.3638501474
668,669.jpeg,0.3742651311
669,670.jpeg,0.4125651466
670,671.jpeg,0.5214178222
671,672.jpeg,0.5751721964
672,673.jpeg,0.5874349542
673,674.jpeg,0.3924072437
674,675.jpeg,0.2143457344
675,676.jpeg,0.0967579339
676,677.jpeg,0.0650092369
677,678.jpeg,0.0524105475
678,679.jpeg,0.0398118582
679,680.jpeg,0.0413237009
680,681.jpeg,0.0676969908
681,682.jpeg,0.2669242981
682,683.jpeg,0.587098922
683,684.jpeg,0.5793717931
684,685.jpeg,0.485973476
685,686.jpeg,0.5061313789
686,687.jpeg,0.4943725686
687,688.jpeg,0.4767344036
688,689.jpeg,0.4476734605
689,690.jpeg,0.4795901737
690,691.jpeg,0.4416260896
691,692.jpeg,0.328405902
692,693.jpeg,0.3030405072
693,694.jpeg,0.3939190864
694,695.jpeg,0.5377120599
695,696.jpeg,0.5452712735
696,697.jpeg,0.5454392896
697,698.jpeg,0.3762809213
698,699.jpeg,0.9415420816
699,700.jpeg,0.1812532108
700,701.jpeg,0.1352259656
701,702.jpeg,0.0619855514
702,703.jpeg,0.0465311928
703,704.jpeg,0.0280531487
704,705.jpeg,0.0638334264
705,706.jpeg,0.2796909027
706,707.jpeg,0.604737087
707,708.jpeg,0.5459432372
708,709.jpeg,0.429699364
709,710.jpeg,0.5187300682
710,711.jpeg,0.4375945091
711,712.jpeg,0.3735931674
712,713.jpeg,0.3905593687
713,714.jpeg,0.4569125329
714,715.jpeg,0.4525449201
715,716.jpeg,0.3314295874
716,717.jpeg,0.3517554056
717,718.jpeg,0.3693935707
718,719.jpeg,0.4312112067
719,720.jpeg,0.5487989065
720,721.jpeg,0.481605964
721,722.jpeg,0.3571309136
722,723.jpeg,0.2074584845
723,724.jpeg,0.187468497
724,725.jpeg,0.1199395223
725,726.jpeg,0.0522426322
726,727.jpeg,0.0547623701
727,728.jpeg,0.0451873662
728,729.jpeg,0.0760960835
729,730.jpeg,0.2665882659
730,731.jpeg,0.6087686676
731,732.jpeg,0.528137056
732,733.jpeg,0.3655300062
733,734.jpeg,0.422644098
734,735.jpeg,0.4223080658
735,736.jpeg,0.3927431751
736,737.jpeg,0.3693935707
737,738.jpeg,0.4483454242
738,739.jpeg,0.4283554366
739,740.jpeg,0.38199226
740,741.jpeg,0.3549471072
741,742.jpeg,0.4229800295
742,743.jpeg,0.4501931984
743,744.jpeg,0.5966739259
744,745.jpeg,0.558205995
745,746.jpeg,0.3695615868
746,747.jpeg,0.219217194
747,748.jpeg,0.1951957267
748,749.jpeg,0.1849487591
749,750.jpeg,0.0954141073
750,751.jpeg,0.0725684504
751,752.jpeg,0.0614816038
752,753.jpeg,0.0908785792
753,754.jpeg,0.2754914068
754,755.jpeg,0.5289770358
755,756.jpeg,0.5294809834
756,757.jpeg,0.4416260896
757,758.jpeg,0.4916849154
758,759.jpeg,0.4866454397
759,760.jpeg,0.4584243757
760,761.jpeg,0.4711909803
761,762.jpeg,0.4866454397
762,763.jpeg,0.4985721653
763,764.jpeg,0.4169326586
764,765.jpeg,0.4006383202
765,766.jpeg,0.4394422832
766,767.jpeg,0.499244129
767,768.jpeg,0.5014278347
768,769.jpeg,0.4572484644
769,770.jpeg,0.3537711959
770,771.jpeg,0.2571812781
771,772.jpeg,0.2803628664
772,773.jpeg,0.1851167752
773,774.jpeg,0.1196035908
774,775.jpeg,0.1132202885
775,776.jpeg,0.0974298976
776,777.jpeg,0.079287785
777,778.jpeg,0.127666752
778,779.jpeg,0.2165295409
779,780.jpeg,0.4466655654
780,781.jpeg,0.6309423608
781,782.jpeg,0.7853183341
782,783.jpeg,0.763312657
783,784.jpeg,0.6319502559
784,785.jpeg,0.6201915464
785,786.jpeg,0.6405173647
786,787.jpeg,0.5719804948
787,788.jpeg,0.53082481
788,789.jpeg,0.5588778579
789,790.jpeg,0.54056783
790,791.jpeg,0.4614480611
791,792.jpeg,0.48866123
792,793.jpeg,0.478078331
793,794.jpeg,0.3769527842
794,795.jpeg,0.2733076004
795,796.jpeg,0.3616664417
796,797.jpeg,0.2815387777
797,798.jpeg,0.1975474484
798,799.jpeg,0.1889803397
799,800.jpeg,0.1580716224
800,801.jpeg,0.1466487436
801,802.jpeg,0.1664707151
802,803.jpeg,0.2516378548
803,804.jpeg,0.3557869862
804,805.jpeg,0.5659331239
805,806.jpeg,0.9504451218
806,807.jpeg,0.9808499922
807,808.jpeg,0.8209305956
808,809.jpeg,0.724508694
809,810.jpeg,0.6773055375
810,811.jpeg,0.5692928416
811,812.jpeg,0.4570804483
812,813.jpeg,0.4192843803
813,814.jpeg,0.4730388553
814,815.jpeg,0.5089870482
815,816.jpeg,0.6430371025
816,817.jpeg,0.6285906391
817,818.jpeg,0.4236519932
818,819.jpeg,0.2882580115
