tar,out
 0.09684211, 0.26526564
 0.12, 0.25930884
 0.08842105, 0.22997063
 0.06947368, 0.18739927
 0.07789474, 0.22453581
 0.09473684, 0.20829204
 0.06105263, 0.19964987
 0.04210526, 0.18410656
 0.11368421, 0.20915306
 0.29052632, 0.18551487
 0.43368421, 0.22690256
 0.43368421, 0.22449577
 0.31789474, 0.30182943
 0.22315789, 0.25219366
 0.22315789, 0.36667481
 0.24, 0.34317362
 0.31578947, 0.36738747
 0.38736842, 0.27142465
 0.41473684, 0.2509779
 0.61052632, 0.26206532
 0.21263158, 0.26585978
 0.12421053, 0.25053036
 0.16421053, 0.26524785
 0.08842105, 0.20275207
 0.09684211, 0.2379861
 0.08210526, 0.19651204
 0.09052632, 0.17684472
 0.08210526, 0.20821336
 0.09263158, 0.17665823
 0.07578947, 0.22248904
 0.03578947, 0.13312915
 0.03368421, 0.19898973
 0.06105263, 0.21802069
 0.09052632, 0.23481458
 0.17263158, 0.293791
 0.19157895, 0.32606429
 0.2, 0.38049605
 0.27578947, 0.26673639
 0.35368421, 0.35456815
 0.32421053, 0.29655623
 0.31368421, 0.35527354
 0.33052632, 0.33659211
 0.37052632, 0.27254
 0.29894737, 0.26585978
 0.03157895, 0.26585978
 0.10105263, 0.26542947
 0.15157895, 0.26585978
 0.14736842, 0.25290236
 0.10947368, 0.25440598
 0.05684211, 0.14810967
 0.07578947, 0.23789655
 0.10526316, 0.12981774
 0.10947368, 0.23828417
 0.15157895, 0.21799551
 0.10105263, 0.20774402
 0.03368421, 0.20777726
 0.05473684, 0.24415311
 0.09894737, 0.18819225
 0.11789474, 0.23596704
 0.19578947, 0.23402506
 0.18736842, 0.25552282
 0.16210526, 0.23072135
 0.21473684, 0.29851872
 0.07789474, 0.33956164
 0.51157895, 0.29817054
 0.66736842, 0.29608548
 0.33894737, 0.30049419
 0.24842105, 0.26585978
 0.19368421, 0.27388376
 0.08421053, 0.24666499
 0.13473684, 0.26566297
 0.18947368, 0.21727052
 0.09894737, 0.21750361
 0.13473684, 0.15042403
 0.24631579, 0.23158762
 0.17052632, 0.21422388
 0.13473684, 0.23062189
 0.21894737, 0.23105279
 0.05473684, 0.17117861
 0.03789474, 0.17095184
 0.05263158, 0.18327485
 0.07789474, 0.16641121
 0.08421053, 0.22753394
 0.13473684, 0.16467664
 0.18105263, 0.26763749
 0.28210526, 0.20279208
 0.19368421, 0.25974175
 0.63157895, 0.4216674
 0.75578947, 0.27295309
 0.73684211, 0.3086682
 0.52631579, 0.26585978
 0.48631579, 0.26585978
 0.33263158, 0.26585978
 0.28421053, 0.26490039
 0.29263158, 0.25756648
 0.16210526, 0.25531736
 0.15368421, 0.22527142
 0.07368421, 0.16288427
 0.14315789, 0.24141589
 0.14736842, 0.1602762
 0.2, 0.24314143
 0.22315789, 0.22369668
 0.18315789, 0.20434062
 0.24842105, 0.20548487
 0.11789474, 0.18079756
 0.05263158, 0.13176164
 0.06526316, 0.21202067
 0.12842105, 0.17485619
 0.14947368, 0.26585978
 0.21263158, 0.26190874
 0.24421053, 0.26857212
 0.70315789, 0.2910637
 0.72, 0.30076835
 0.62947368, 0.29619932
 0.56, 0.34246019
 0.42105263, 0.280929
 0.35368421, 0.31628993
 0.38736842, 0.26585978
 0.30526316, 0.25796345
 0.24421053, 0.23964997
 0.12421053, 0.26585978
 0.14105263, 0.26169604
 0.04842105, 0.26585978
 0.08210526, 0.26334134
 0.14105263, 0.24126284
 0.19368421, 0.23858571
 0.13263158, 0.17585433
 0.14736842, 0.18138382
 0.09263158, 0.19281968
 0.10526316, 0.17678037
 0.08421053, 0.25896174
 0.12421053, 0.25818211
 0.13473684, 0.27242851
 0.16421053, 0.25655246
 0.15368421, 0.26585978
 0.15157895, 0.51653016
 0.65263158, 0.26628286
 0.71368421, 0.29102069
 0.53473684, 0.30256325
 0.55789474, 0.27220666
 0.44210526, 0.27609551
 0.40631579, 0.26345584
 0.34315789, 0.24332847
 0.25263158, 0.23878439
 0.41473684, 0.26189226
 0.51578947, 0.26585978
 0.52, 0.26454508
 0.33894737, 0.26585978
 0.18315789, 0.2266688
 0.15368421, 0.15985611
 0.09052632, 0.18201017
 0.06947368, 0.14145035
 0.10105263, 0.17518193
 0.14315789, 0.13743228
 0.14947368, 0.19219184
 0.17473684, 0.30638018
 0.25263158, 0.28015023
 0.22736842, 0.29616481
 0.26526316, 0.28273833
 0.32421053, 0.32743403
 0.39368421, 0.29231611
 0.61263158, 0.319754
 0.52631579, 0.32617304
 0.43578947, 0.34972459
 0.22736842, 0.28833288
 0.08631579, 0.2783471
 0.17684211, 0.25516996
 0.17052632, 0.24641652
 0.09263158, 0.26585978
 0.18947368, 0.26504654
 0.20421053, 0.26585978
 0.05473684, 0.26579458
 0.09052632, 0.22641204
 0.05263158, 0.22070464
 0.02736842, 0.18691719
 0.04210526, 0.1829035
 0.05894737, 0.2057161
 0.10947368, 0.20147765
 0.21052632, 0.25778279
 0.24631579, 0.34063014
 0.20842105, 0.27032545
 0.28, 0.44354767
 0.24210526, 0.28123713
 0.23157895, 0.3802377
 0.64421053, 0.33045194
 0.62947368, 0.31946334
 0.51789474, 0.29342985
 0.25263158, 0.37452948
 0.04842105, 0.29043686
 0.07157895, 0.29991844
 0.09894737, 0.26179305
 0.10947368, 0.24917349
 0.06315789, 0.26132658
 0.13263158, 0.26478639
 0.15368421, 0.2604956
 0.08842105, 0.26551235
 0.15368421, 0.21951538
 0.06947368, 0.1518005
 0.08631579, 0.14239942
 0.20631579, 0.13694714
 0.32842105, 0.16635847
 0.13052632, 0.1035385
 0.21052632, 0.1747642
 0.22315789, 0.40660477
 0.23368421, 0.38824517
 0.35157895, 0.48270118
 0.35789474, 0.38568801
 0.35789474, 0.41030419
 0.37894737, 0.33873737
 0.41894737, 0.34811032
 0.47368421, 0.31758779
 0.27578947, 0.35975105
 0.17894737, 0.27523261
 0.06315789, 0.33462396
 0.11157895, 0.25552481
 0.07368421, 0.26537421
 0.10947368, 0.21784744
 0.07578947, 0.24717611
 0.11789474, 0.15816018
 0.10526316, 0.24321645
 0.07157895, 0.17889996
 0.17684211, 0.23075835
 0.15368421, 0.15688071
 0.09473684, 0.16153435
 0.12842105, 0.17775223
 0.08210526, 0.20275438
 0.09263158, 0.20697373
 0.12, 0.26269737
 0.17263158, 0.28946099
 0.38526316, 0.33178878
 0.56842105, 0.32067561
 0.53263158, 0.293295
 0.58315789, 0.3447127
 0.73894737, 0.28026283
 0.60842105, 0.30911419
 0.45052632, 0.35972226
 0.36842105, 0.30285639
 0.16, 0.32259339
 0.13684211, 0.2666918
 0.06947368, 0.28461915
 0.12421053, 0.2163434
 0.12, 0.22021128
 0.11578947, 0.17336071
 0.13263158, 0.14054039
 0.13894737, 0.17040685
 0.09894737, 0.12441927
 0.15578947, 0.12507191
 0.34526316, 0.10062432
 0.44210526, 0.12968142
 0.46526316, 0.10689101
 0.20631579, 0.17031486
 0.14105263, 0.35283545
 0.17263158, 0.2483919
 0.40842105, 0.37218601
 0.59578947, 0.32739592
 0.66736842, 0.37961304
 0.68210526, 0.36260119
 0.61894737, 0.33264953
 0.58947368, 0.31628126
 0.54526316, 0.29595211
 0.45052632, 0.3386499
 0.35368421, 0.27723864
 0.18947368, 0.28886029
 0.11368421, 0.26368552
 0.09052632, 0.26129454
 0.08631579, 0.23702465
 0.13473684, 0.26060534
 0.06947368, 0.2204372
 0.06315789, 0.23594294
 0.07578947, 0.16876456
 0.16842105, 0.21071683
 0.36210526, 0.16519545
 0.23157895, 0.10881646
 0.10736842, 0.20554246
 0.08421053, 0.15905142
 0.17473684, 0.15411636
 0.21052632, 0.25706428
 0.36842105, 0.31256118
 0.61473684, 0.29753307
 0.79789474, 0.31689799
 0.91789474, 0.30697715
 0.43368421, 0.29584867
 0.27368421, 0.36745888
 0.19157895, 0.35247192
 0.08842105, 0.34895289
 0.10315789, 0.30968875
 0.11157895, 0.34528619
 0.10947368, 0.30113757
 0.13052632, 0.26585978
 0.15578947, 0.26527587
 0.18947368, 0.26585978
 0.10947368, 0.257424
 0.06947368, 0.1851605
 0.05894737, 0.15993537
 0.11578947, 0.19097805
 0.06315789, 0.18351345
 0.08631579, 0.25726652
 0.06947368, 0.25252849
 0.07578947, 0.26379055
 0.09894737, 0.27783072
 0.33263158, 0.26391742
 0.40421053, 0.30074152
 0.51157895, 0.26585978
 0.41894737, 0.31083924
 0.13684211, 0.32073569
 0.20842105, 0.31523815
 0.12, 0.32268226
 0.09894737, 0.2950938
 0.09052632, 0.31172675
 0.04842105, 0.26339886
 0.02315789, 0.2795983
 0.03368421, 0.26585978
 0.04842105, 0.26585978
 0.09473684, 0.26585978
 0.08842105, 0.26585978
 0.08631579, 0.18135399
 0.07157895, 0.22326669
 0.07578947, 0.19431409
 0.02736842, 0.2615765
 0.06736842, 0.21623948
 0.14736842, 0.17221114
 0.25894737, 0.22017455
 0.21473684, 0.20573653
 0.18526316, 0.25179929
 0.16421053, 0.2735751
 0.56421053, 0.27057257
 0.48842105, 0.26585978
 0.54105263, 0.29066497
 0.26105263, 0.26585978
 0.16421053, 0.31353575
 0.33052632, 0.37669933
 0.22315789, 0.35699373
 0.32842105, 0.28123426
 0.20210526, 0.26585978
 0.25894737, 0.26585978
 0.10105263, 0.26585978
 0.11157895, 0.26585978
 0.04842105, 0.26585978
 0.06526316, 0.26585978
 0.04, 0.2537843
 0.04631579, 0.18573454
 0.05684211, 0.15852042
 0.08631579, 0.1559436
 0.16421053, 0.1708108
 0.26947368, 0.25276044
 0.30526316, 0.24607396
 0.28631579, 0.26546013
 0.29263158, 0.28874999
 0.26947368, 0.26585978
 0.63789474, 0.29741499
 0.73052632, 0.28654003
 0.61263158, 0.35190785
 0.50526316, 0.38985604
 0.27578947, 0.45098621
 0.40631579, 0.26585978
 0.26105263, 0.26585978
 0.30315789, 0.26585978
 0.19578947, 0.26585978
 0.10736842, 0.26562604
 0.09052632, 0.26585978
 0.03789474, 0.25147864
 0.01894737, 0.26585978
 0.07578947, 0.2255725
 0.02315789, 0.198467
 0.02526316, 0.15398403
 0.04210526, 0.1498352
 0.02526316, 0.18373272
 0.16210526, 0.15221354
 0.18947368, 0.16995114
 0.21263158, 0.2002286
 0.18315789, 0.22769658
 0.15368421, 0.34361577
 0.13894737, 0.28391367
 0.27368421, 0.27126238
 0.31578947, 0.26585978
 0.34315789, 0.29405227
 0.45894737, 0.26585978
 0.34947368, 0.50104213
 0.16842105, 0.26585978
 0.11578947, 0.26585978
 0.03368421, 0.26432866
 0.05684211, 0.26585978
 0.08631579, 0.25383914
 0.03789474, 0.26560953
 0.02105263, 0.21819976
 0.04, 0.25319982
 0.06947368, 0.12863533
 0.09052632, 0.13508812
 0.09684211, 0.09622647
 0.10315789, 0.08500595
 0.04, 0.11170968
 0.08421053, 0.07090642
 0.22315789, 0.12143864
 0.24631579, 0.09607254
 0.26526316, 0.16898185
 0.24421053, 0.21166351
 0.28842105, 0.29528984
 0.44, 0.34618098
 0.56631579, 0.36499861
 0.56, 0.42127982
 0.56, 0.43097389
 0.49894737, 0.38432902
 0.38526316, 0.26585978
 0.09473684, 0.26585978
 0.05263158, 0.26585978
 0.07368421, 0.26585978
 0.09684211, 0.26320058
 0.13894737, 0.26504984
 0.07789474, 0.25643364
 0.04631579, 0.24864165
 0.08421053, 0.2549862
 0.08210526, 0.19494972
 0.04842105, 0.18966061
 0.05473684, 0.08970523
 0.16842105, 0.16056985
 0.18736842, 0.12391262
 0.2, 0.14753979
 0.37684211, 0.22458398
 0.34947368, 0.22802007
 0.38315789, 0.31451547
 0.28842105, 0.32247704
 0.57052632, 0.34538311
 0.36842105, 0.41743243
 0.11368421, 0.38482022
 0.32210526, 0.39449066
 0.34315789, 0.46501833
 0.44421053, 0.26585978
 0.32, 0.26585978
 0.46736842, 0.26585978
 0.37684211, 0.26562494
 0.37894737, 0.26217133
 0.47368421, 0.25619465
 0.53263158, 0.22679794
 0.44631579, 0.2272256
 0.45894737, 0.14243215
 0.45473684, 0.14544351
 0.41473684, 0.17282134
 0.41684211, 0.11039686
 0.35789474, 0.19396478
 0.53052632, 0.14150363
 0.57684211, 0.19677436
 0.73052632, 0.14921029
 0.73473684, 0.25691417
 0.80421053, 0.46304253
 1., 0.41790083
 0.83789474, 0.4175567
 0.81894737, 0.36038849
 0.70947368, 0.55065143
 0.66947368, 0.28289381
 0.55157895, 0.40165025
 0.37894737, 0.33946282
 0.23157895, 0.30063927
 0.24, 0.27804792
 0.19789474, 0.26830444
 0.27789474, 0.26651251
 0.20421053, 0.25917611
 0.14526316, 0.22629456
 0.14315789, 0.21466005
 0.15157895, 0.2038552
 0.08, 0.18260527
 0.01052632, 0.19492084
 0.08842105, 0.14801404
 0.06526316, 0.2288003
 0.03157895, 0.22358437
 0.08631579, 0.19346063
 0.05473684, 0.25672451
 0.08210526, 0.26124001
 0.07789474, 0.27550209
 0.09473684, 0.29958814
 0.07368421, 0.27885473
 0.09263158, 0.334382
 0.40210526, 0.27347887
 0.56421053, 0.28555068
 0.51789474, 0.26585978
 0.49263158, 0.26585978
 0.33052632, 0.26585978
 0.20421053, 0.26585978
 0.16842105, 0.26100257
 0.16842105, 0.26483563
 0.06736842, 0.26442772
 0.09473684, 0.20100106
 0.19789474, 0.26301885
 0.16631579, 0.12294093
 0.07368421, 0.16202435
 0.02947368, 0.15235943
 0.10105263, 0.14924049
 0.07368421, 0.19101159
 0.06105263, 0.18626317
 0.05263158, 0.23160979
 0.04842105, 0.28879833
 0.07157895, 0.345779
 0.11578947, 0.35627747
 0.06736842, 0.372747
 0.13684211, 0.3589049
 0.18105263, 0.3498714
 0.34947368, 0.38449475
 0.40842105, 0.30532715
 0.24842105, 0.3025431
 0.20842105, 0.30780077
 0.20421053, 0.27361488
 0.34947368, 0.26585978
 0.21052632, 0.247106
 0.20421053, 0.26585978
 0.09263158, 0.26585978
 0.09684211, 0.26585978
 0.07157895, 0.26585978
 0.06315789, 0.20998204
 0.17894737, 0.20870325
 0.16, 0.18706954
 0.07368421, 0.21009545
 0.07789474, 0.15256232
 0.06526316, 0.17398661
 0.10315789, 0.16647927
 0.17263158, 0.22052938
 0.21052632, 0.24359259
 0.24210526, 0.25410128
 0.24210526, 0.27891093
 0.18736842, 0.28645349
 0.37894737, 0.34120733
 0.36, 0.31233957
 0.27789474, 0.31185371
 0.31368421, 0.26585978
 0.13263158, 0.26585978
 0.06526316, 0.26585978
 0.03368421, 0.26585978
 0.06947368, 0.23650512
 0.09052632, 0.24486764
 0.11578947, 0.26305166
 0.10105263, 0.22997248
 0.06736842, 0.26259872
 0.07157895, 0.15148646
 0.01052632, 0.22183216
 0.04210526, 0.16571102
 0.06947368, 0.1825525
 0.04631579, 0.17078437
 0.03578947, 0.20503026
 0.02526316, 0.20736274
 0.15789474, 0.28186896
 0.17894737, 0.33913213
 0.12210526, 0.30649742
 0.10526316, 0.35295561
 0.15368421, 0.33417845
 0.51368421, 0.36922348
 0.41684211, 0.35209808
 0.22947368, 0.30929953
 0.26526316, 0.26785371
 0.29263158, 0.30312401
 0.18526316, 0.26585978
 0.12210526, 0.21824643
 0.16, 0.21883559
 0.17684211, 0.26572135
 0.13894737, 0.26585978
 0.12631579, 0.26585978
 0.05473684, 0.26585978
 0.06526316, 0.1847468
 0.10736842, 0.20416375
 0.11789474, 0.16445781
 0.08421053, 0.20448402
 0.02736842, 0.13215637
 0.01684211, 0.15673079
 0.05052632, 0.13329336
 0.08421053, 0.23773521
 0.13052632, 0.23814243
 0.12421053, 0.27760574
 0.26736842, 0.38531125
 0.57052632, 0.39186561
 0.50315789, 0.41621998
 0.31368421, 0.32729149
 0.30105263, 0.3329578
 0.28421053, 0.26585978
 0.19368421, 0.25681388
 0.18105263, 0.25728092
 0.14947368, 0.21039635
 0.07789474, 0.21837446
 0.04421053, 0.19797441
 0.08, 0.19333589
 0.12421053, 0.16128863
 0.08631579, 0.10153572
 0.07368421, 0.1389787
 0.07789474, 0.23821585
 0.11157895, 0.18397599
 0.08, 0.23343274
 0.09894737, 0.16843484
 0.29684211, 0.20666546
 0.44842105, 0.16245237
 0.47789474, 0.25185868
 0.40842105, 0.19933555
 0.27157895, 0.27038246
 0.27368421, 0.35120636
 0.31789474, 0.33844134
 0.50315789, 0.27199781
 0.60842105, 0.37708455
 0.59578947, 0.27709529
 0.65894737, 0.2659595
 0.53052632, 0.27025604
 0.46736842, 0.26470694
 0.32421053, 0.20348272
 0.19368421, 0.21162993
 0.21052632, 0.15155971
 0.18105263, 0.14232445
 0.16842105, 0.14314359
 0.17473684, 0.10931148
 0.19789474, 0.13517636
 0.14315789, 0.13726823
 0.14526316, 0.13060334
 0.13473684, 0.13224135
 0.13473684, 0.1391557
 0.04421053, 0.094308
 0.03789474, 0.10963969
 0.04210526, 0.16952798
 0.07578947, 0.2360227
 0.08210526, 0.29500687
 0.13684211, 0.38056645
 0.24421053, 0.43611938
 0.28421053, 0.38162559
 0.33684211, 0.42310569
 0.43789474, 0.357007
 0.45052632, 0.3727442
 0.32631579, 0.22188655
 0.20210526, 0.26041061
 0.14947368, 0.22965676
 0.07578947, 0.231399
 0.11157895, 0.19207069
 0.14315789, 0.2090563
 0.09684211, 0.15892278
 0.09894737, 0.13758247
 0.06105263, 0.13738778
 0.05473684, 0.24757145
 0.08421053, 0.25000319
 0.13894737, 0.24707352
 0.03368421, 0.25309446
 0.05052632, 0.17937204
 0.11578947, 0.20621344
 0.07157895, 0.23152584
 0.08421053, 0.22907543
 0.10105263, 0.25890943
 0.12631579, 0.37231371
 0.18736842, 0.31206924
 0.20631579, 0.21427467
 0.60210526, 0.26792416
 0.18947368, 0.26020122
 0.16, 0.266233
 0.16210526, 0.25098473
 0.14526316, 0.24974957
 0.07368421, 0.19874382
 0.15157895, 0.19898617
 0.22105263, 0.15025119
 0.12, 0.16612235
 0.09052632, 0.15463066
 0.07157895, 0.16073459
 0.07578947, 0.13486807
 0.06105263, 0.11411932
 0.13894737, 0.15740958
 0.11157895, 0.11594117
 0.08210526, 0.17451268
 0.06736842, 0.11477548
 0.05263158, 0.15325661
 0.08, 0.13008998
 0.05052632, 0.16084936
 0.05052632, 0.23403372
 0.08421053, 0.23450181
 0.10736842, 0.24346352
 0.15368421, 0.20117185
 0.06947368, 0.23639295
 0.08842105, 0.24034889
 0.17684211, 0.25554442
 0.08421053, 0.23330517
 0.04842105, 0.25899881
 0.10736842, 0.22033513
 0.13052632, 0.22185239
 0.08842105, 0.16750467
 0.08, 0.16010556
 0.08421053, 0.17106099
 0.07157895, 0.1389109
 0.07789474, 0.14400645
 0.09263158, 0.23378703
 0.12842105, 0.25907665
 0.09894737, 0.23759213
 0.03789474, 0.42756793
 0.07157895, 0.4584246
 0.05894737, 0.41180146
 0.08421053, 0.4667868
 0.12210526, 0.51907146
 0.15368421, 0.50309229
 0.23789474, 0.25075209
 0.10947368, 0.21118683
 0.24, 0.25741443
 0.20631579, 0.20820986
 0.24, 0.28425589
 0.21684211, 0.2565448
 0.13894737, 0.27833724
 0.05894737, 0.24752243
 0.11578947, 0.26585978
 0.11157895, 0.19609506
 0.08210526, 0.15263553
 0.12421053, 0.16575827
 0.17263158, 0.15538889
 0.17894737, 0.15507194
 0.11789474, 0.11121754
 0.16, 0.11712226
 0.05473684, 0.16894761
 0.16842105, 0.12841412
 0.10105263, 0.19652057
 0.05052632, 0.12376218
 0.05263158, 0.15344113
 0.10526316, 0.13372451
 0.11157895, 0.15375747
 0.08421053, 0.1587891
 0.05473684, 0.16615123
 0.58526316, 0.19379431
 0.40842105, 0.17791066
 0.11157895, 0.20311432
 0.05894737, 0.21782325
 0.05473684, 0.24789599
 0.03789474, 0.21254492
 0.09263158, 0.25508213
 0.12421053, 0.15697218
 0.05473684, 0.19591007
 0.06736842, 0.17711931
 0.58105263, 0.13825843
 0.37684211, 0.18150444
 0.34315789, 0.12046477
 0.15789474, 0.12793122
 0.09684211, 0.15691485
 0.08631579, 0.11637561
 0.10736842, 0.14802292
 0.06736842, 0.10895966
 0.02315789, 0.09539056
 0.01684211, 0.16508496
 0.22315789, 0.16507743
 0.25684211, 0.26303887
 0.44631579, 0.32416308
 0.56210526, 0.24190323
 0.56421053, 0.19363599
 0.60842105, 0.25364205
 0.64, 0.21383128
 0.45684211, 0.3797673
 0.21263158, 0.43262109
 0.20421053, 0.35468113
 0.18947368, 0.34241205
 0.16210526, 0.26585978
 0.07578947, 0.25552604
 0.08421053, 0.19359484
 0.08421053, 0.13942169
 0.10315789, 0.15541562
 0.12, 0.13917775
 0.08421053, 0.11460732
 0.08631579, 0.12607001
 0.04842105, 0.17227405
 0.05052632, 0.12494281
 0.06315789, 0.17769822
 0.02105263, 0.14742909
 0.05894737, 0.1474562
 0.15157895, 0.18732896
 0.24421053, 0.14257206
 0.21894737, 0.21901874
 0.23368421, 0.2530674
 0.20210526, 0.25980991
 0.28210526, 0.26585978
 0.32210526, 0.27623296
 0.05684211, 0.27719095
 0.12842105, 0.30586347
 0.23578947, 0.29201737
 0.18947368, 0.25579685
 0.23368421, 0.26585978
 0.16842105, 0.27532676
 0.08842105, 0.26585978
 0.17263158, 0.1774607
 0.07157895, 0.21359517
 0., 0.17501825
 0.04842105, 0.20353374
 0.05052632, 0.1971657
 0.04, 0.14424807
 0.01684211, 0.21230799
 0.02947368, 0.17954472
 0.03368421, 0.23673223
 0.07157895, 0.24713343
 0.17473684, 0.24342251
 0.19578947, 0.28787673
 0.25684211, 0.32946932
 0.28210526, 0.30242077
 0.31368421, 0.26869938
 0.34315789, 0.30402085
 0.26736842, 0.28507292
 0.26105263, 0.33943215
 0.17684211, 0.35273936
 0.33894737, 0.33768836
 0.31157895, 0.30675054
 0.22736842, 0.2715874
 0.17052632, 0.26749188
 0.11157895, 0.1958971
 0.11789474, 0.18061218
 0.09473684, 0.19231296
 0.08210526, 0.1547457
 0.07789474, 0.13476443
 0.16631579, 0.17739177
 0.24631579, 0.1661233
 0.34736842, 0.18090203
 0.08842105, 0.17544168
 0.20842105, 0.26585978
 0.10947368, 0.19843729
 0.06947368, 0.27390355
 0.16631579, 0.22941288
 0.17894737, 0.32547888
 0.17473684, 0.30331102
 0.25263158, 0.33339179
 0.29684211, 0.29450274
 0.26526316, 0.31560752
 0.32631579, 0.31210536
 0.49473684, 0.30304277
 0.40631579, 0.39250737
 0.21684211, 0.37617099
 0.20842105, 0.32862675
 0.11789474, 0.22784474
 0.09684211, 0.26585978
 0.10315789, 0.20184568
 0.07368421, 0.20142354
 0.13894737, 0.16441678
 0.10526316, 0.21419728
 0.06736842, 0.18475446
 0.09684211, 0.19152331
 0.03578947, 0.20672034
 0.07157895, 0.189281
 0.02526316, 0.23293468
 0.08842105, 0.25354984
 0.14105263, 0.24058113
 0.11789474, 0.24045442
 0.16421053, 0.26745722
 0.28421053, 0.29064167
 0.28842105, 0.27542597
 0.36, 0.36921933
 0.37052632, 0.29803535
 0.43157895, 0.35888243
 0.39368421, 0.37611294
 0.25894737, 0.35338488
 0.34736842, 0.29783702
 0.18105263, 0.39570373
 0.25473684, 0.26421005
 0.18736842, 0.20658498
 0.17894737, 0.15959367
 0.05263158, 0.15899917
 0.18526316, 0.11745526
 0.08210526, 0.1145402
 0.10315789, 0.14020146
 0.12210526, 0.16569573
 0.16421053, 0.15839061
 0.22947368, 0.17712745
 0.33684211, 0.27718693
 0.41684211, 0.18476735
 0.45473684, 0.3054814
 0.32631579, 0.27410504
 0.46947368, 0.31978071
 0.47789474, 0.31801665
 0.42315789, 0.33629698
 0.40631579, 0.2879492
 0.44, 0.29629412
 0.60842105, 0.27607965
 0.53052632, 0.27940542
 0.68421053, 0.30092147
 0.37052632, 0.2753005
 0.34526316, 0.28908458
 0.20210526, 0.20984985
 0.32421053, 0.21993089
 0.25684211, 0.18807171
 0.21684211, 0.15408668
 0.19789474, 0.14728239
 0.32842105, 0.16123623
 0.27578947, 0.23761642
 0.23789474, 0.14685139
 0.21052632, 0.23480281
 0.22105263, 0.10958774
 0.24842105, 0.1705955
 0.29473684, 0.16439292
 0.20210526, 0.18711773
 0.27789474, 0.26252544
 0.32, 0.26959452
 0.36, 0.31117183
 0.39368421, 0.27836972
 0.56421053, 0.33258587
 0.55368421, 0.29074124
 0.43789474, 0.31678063
 0.60210526, 0.33653933
 0.43157895, 0.36820477
 0.40842105, 0.33380902
 0.29684211, 0.35030821
 0.23578947, 0.29045445
 0.24210526, 0.24267441
 0.26526316, 0.20754308
 0.29473684, 0.19949064
 0.35578947, 0.18398944
 0.37052632, 0.2096079
 0.26105263, 0.18622059
 0.08, 0.21843192
 0.17894737, 0.15274261
 0.25263158, 0.18274048
 0.22315789, 0.17924835
 0.34736842, 0.17134038
 0.50736842, 0.23334256
 0.50947368, 0.27448988
 0.59789474, 0.31836075
 0.50526316, 0.31273171
 0.49684211, 0.32184663
 0.46105263, 0.34099868
 0.52, 0.37336707
 0.61894737, 0.31538066
 0.58526316, 0.36449763
 0.46105263, 0.28963044
 0.36631579, 0.28916413
 0.16842105, 0.2969707
 0.17684211, 0.25317526
 0.32, 0.2602537
 0.32631579, 0.25055903
 0.34105263, 0.21389179
 0.10736842, 0.27190191
 0.30315789, 0.21137308
 0.10526316, 0.26862609
 0.11157895, 0.25218773
 0.05263158, 0.25444654
 0.04842105, 0.23337418
 0.06526316, 0.2252935
 0.15368421, 0.21919513
 0.09473684, 0.21808222
 0.05684211, 0.27821821
 0.08210526, 0.31589851
 0.07368421, 0.27581653
 0.15368421, 0.32684916
 0.39157895, 0.30509761
 0.48210526, 0.3206189
 0.28631579, 0.28184861
 0.33473684, 0.26025748
 0.22947368, 0.32208064
 0.15157895, 0.25385252
 0.11789474, 0.24431403
 0.08421053, 0.30226856
 0.08, 0.20570806
 0.04631579, 0.28088889
 0.05052632, 0.20606175
 0.10315789, 0.23892835
 0.08421053, 0.23263419
 0.08842105, 0.26041326
 0.04631579, 0.2098269
 0.02526316, 0.23373726
 0.05894737, 0.1551789
 0.08842105, 0.17822713
 0.16631579, 0.19249302
 0.17684211, 0.19551259
 0.30315789, 0.26585978
 0.31157895, 0.26585978
 0.30315789, 0.26585978
 0.49684211, 0.26585978
 0.63789474, 0.26585978
 0.68210526, 0.26585978
 0.65684211, 0.29355764
 0.68421053, 0.27549011
 0.41684211, 0.25077328
 0.41473684, 0.28030384
 0.29684211, 0.27095178
 0.21894737, 0.25663811
 0.11368421, 0.25086427
 0.04631579, 0.20773599
 0.09052632, 0.24522102
 0.04842105, 0.25217274
 0.08842105, 0.23481295
 0.14736842, 0.26111013
 0.10105263, 0.26574069
 0.19578947, 0.24631785
 0.22526316, 0.25066578
 0.32, 0.24017043
 0.14105263, 0.23701553
 0.07578947, 0.20735985
 0.08631579, 0.25276604
 0.17052632, 0.24066725
 0.21263158, 0.26652873
 0.29473684, 0.32257688
 0.30526316, 0.32218683
 0.26947368, 0.33502603
 0.41263158, 0.34688038
 0.23368421, 0.29297861
 0.28421053, 0.3591094
 0.17263158, 0.26754409
 0.13684211, 0.26165423
 0.07157895, 0.26599732
 0.10947368, 0.2476688
 0.11578947, 0.25637782
 0.11578947, 0.20358971
 0.18947368, 0.26251453
 0.12210526, 0.19909911
 0.06526316, 0.26361904
 0.06105263, 0.22257814
 0.06315789, 0.26085779
 0.04842105, 0.21826871
 0.03157895, 0.23367026
 0.08421053, 0.2057754
 0.11789474, 0.2372431
 0.14947368, 0.26585978
 0.18315789, 0.24698077
 0.19157895, 0.26585978
 0.22315789, 0.26687759
 0.26736842, 0.26776904
 0.29894737, 0.26664323
 0.23157895, 0.33047032
 0.52421053, 0.2903325
 0.45684211, 0.31702417
 0.22736842, 0.30702886
 0.18315789, 0.23653331
 0.12421053, 0.24643247
 0.15157895, 0.20732243
 0.17684211, 0.20346017
 0.08421053, 0.25362808
 0.12421053, 0.25838086
 0.06947368, 0.22674328
 0.08631579, 0.22879028
 0.15368421, 0.26968735
 0.06736842, 0.234735
 0.02947368, 0.25579906
 0.03157895, 0.2482554
 0.07157895, 0.2788333
 0.14526316, 0.26746663
 0.15789474, 0.26298138
 0.16631579, 0.27871478
 0.23368421, 0.28875345
 0.30526316, 0.35289297
 0.24842105, 0.36011195
 0.29473684, 0.28078669
 0.66736842, 0.40172622
 0.38105263, 0.42968649
 0.26526316, 0.32756966
 0.08842105, 0.26585978
 0.12210526, 0.27081513
 0.08, 0.26289994
 0.07789474, 0.24877253
 0.12842105, 0.18599793
 0.08421053, 0.15202549
 0.11578947, 0.15968604
 0.09894737, 0.15313609
 0.11368421, 0.15378423
 0.11368421, 0.11734629
 0.11368421, 0.15175349
 0.04210526, 0.16113698
 0.02526316, 0.33004719
 0.07578947, 0.1757777
 0.12, 0.27460778
 0.15789474, 0.18107444
 0.23157895, 0.41962251
 0.20631579, 0.23845191
 0.24421053, 0.51640254
 0.18315789, 0.33587202
 0.32842105, 0.47673243
 0.32631579, 0.38917094
 0.19157895, 0.58050346
 0.25894737, 0.3025912
 0.37473684, 0.59595251
 0.19368421, 0.25925323
 0.12421053, 0.22623479
 0.17263158, 0.23958652
 0.11368421, 0.22082332
 0.11789474, 0.19519399
 0.11789474, 0.21521308
 0.11578947, 0.22869408
 0.08631579, 0.22099233
 0.09473684, 0.38850087
 0.11157895, 0.10010174
 0.08210526, 0.44402945
 0.03157895, 0.20426163
 0.04421053, 0.35654968
 0.06736842, 0.21071523
 0.12, 0.37313253
 0.18736842, 0.31456926
 0.2, 0.35430568
 0.28, 0.29953688
 0.35368421, 0.3208234
 0.46947368, 0.26895744
 0.51368421, 0.37058544
 0.25894737, 0.3650496
 0.29052632, 0.3513436
 0.22526316, 0.30791092
 0.12631579, 0.28170812
 0.13052632, 0.25816953
 0.09263158, 0.25060385
 0.08421053, 0.21655057
 0.09263158, 0.25023359
 0.08842105, 0.16469052
 0.06526316, 0.26229385
 0.13473684, 0.17445445
 0.08842105, 0.2633251
 0.12210526, 0.22834
 0.05263158, 0.13630053
 0.06526316, 0.17054471
 0.05684211, 0.19820473
 0.07789474, 0.15966922
 0.09473684, 0.20966931
 0.19789474, 0.26790681
 0.20421053, 0.25737929
 0.29894737, 0.28854284
 0.30315789, 0.25535086
 0.29894737, 0.26051718
 0.25263158, 0.26006305
 0.20421053, 0.27460858
 0.68, 0.32155278
 0.47368421, 0.53019112
 0.13894737, 0.32675183
 0.17263158, 0.41300976
 0.11157895, 0.30683443
 0.10105263, 0.41671875
 0.11789474, 0.24951489
 0.11368421, 0.40668693
 0.19368421, 0.24369355
 0.20631579, 0.27293324
 0.10526316, 0.24721417
 0.06947368, 0.24044789
 0.04421053, 0.15992403
 0.07789474, 0.25734216
 0.15157895, 0.18767709
 0.25263158, 0.29652295
 0.09473684, 0.24498017
 0.12421053, 0.27422851
 0.17052632, 0.2887705
 0.37894737, 0.28208116
 0.49473684, 0.2943413
 0.49473684, 0.3771289
 0.64210526, 0.31915572
 0.43789474, 0.39870539
 0.40210526, 0.40919816
 0.21473684, 0.45997229
 0.08631579, 0.29712465
 0.08, 0.26585978
 0.04210526, 0.26758158
 0.08, 0.26585978
 0.08842105, 0.26464596
 0.06947368, 0.26084977
 0.08421053, 0.26519418
 0.08631579, 0.20651808
 0.05263158, 0.26324028
 0.04210526, 0.09410189
 0.06315789, 0.15815309
 0.00842105, 0.11486396
 0.05894737, 0.20243153
 0.08842105, 0.24680355
 0.11368421, 0.23881875
 0.11789474, 0.26522616
 0.12842105, 0.26699036
 0.20631579, 0.26813072
 0.54526316, 0.27973351
 0.55578947, 0.26943859
 0.38526316, 0.29212517
 0.25473684, 0.26642475
 0.13052632, 0.42310032
 0.17894737, 0.32644185
 0.07157895, 0.28351563
 0.15368421, 0.2790395
 0.09052632, 0.26147825
 0.09684211, 0.2554267
 0.05894737, 0.29017627
 0.10315789, 0.23835042
 0.09263158, 0.19962017
 0.10526316, 0.206736
 0.06736842, 0.20933628
 0.03368421, 0.23653845
 0.04421053, 0.14784929
 0.01473684, 0.24431127
 0.05473684, 0.21064731
 0.05473684, 0.40259939
 0.03789474, 0.25247416
 0.06105263, 0.27363345
 0.12421053, 0.27714905
 0.12421053, 0.29130012
 0.26736842, 0.29610541
 0.25052632, 0.43045145
 0.46947368, 0.27782592
 0.27578947, 0.32501471
 0.21263158, 0.30080521
 0.10526316, 0.26585978
 0.13894737, 0.26585978
 0.03789474, 0.26585978
 0.06315789, 0.26511303
 0.10105263, 0.26585978
 0.08842105, 0.2365769
 0.05473684, 0.26026109
 0.10736842, 0.18032899
 0.06526316, 0.17187952
 0.12631579, 0.11450054
 0.10736842, 0.08040814
 0.05684211, 0.17062941
 0.08, 0.10720502
 0.03157895, 0.22964582
 0.04, 0.24777666
 0.04842105, 0.24723303
 0.10315789, 0.25508577
 0.09894737, 0.252765
 0.19578947, 0.26146445
 0.41684211, 0.3182185
 0.34105263, 0.28144267
 0.30105263, 0.29419807
 0.26105263, 0.26534256
 0.25263158, 0.29214704
 0.17263158, 0.26120722
 0.18315789, 0.26285696
 0.09263158, 0.25757125
 0.07578947, 0.26134914
 0.02736842, 0.25121573
 0.05052632, 0.27485409
 0.04842105, 0.25245374
 0.06105263, 0.20991662
 0.03578947, 0.21282004
 0.08, 0.19133481
 0.09894737, 0.11834475
 0.09263158, 0.14831781
 0.05263158, 0.16233486
 0.05684211, 0.15580997
 0.04210526, 0.18092878
 0.09894737, 0.24834616
 0.12421053, 0.2220265
 0.29263158, 0.2634154
 0.15578947, 0.27546269
 0.07578947, 0.27521709
 0.15789474, 0.28412423
 0.16842105, 0.26644814
 0.41473684, 0.26327023
 0.11157895, 0.28257549
 0.10736842, 0.26253691
 0.06315789, 0.23165442
 0.10105263, 0.26082495
 0.17684211, 0.23671286
 0.11157895, 0.23662353
 0.21052632, 0.2466574
 0.15368421, 0.20493345
 0.09263158, 0.20466346
 0.08631579, 0.14078566
 0.08210526, 0.14811914
 0.03578947, 0.10355629
 0.08842105, 0.15606941
 0.09263158, 0.10614197
 0.16631579, 0.19275093
 0.18105263, 0.18542151
 0.19578947, 0.23839355
 0.27368421, 0.22971109
 0.20631579, 0.26947728
 0.18736842, 0.27485469
 0.22526316, 0.28060961
 0.24421053, 0.26764843
 0.50947368, 0.26568159
 0.48631579, 0.264635
 0.16631579, 0.2672807
 0.18526316, 0.26654074
 0.07368421, 0.29491407
 0.12, 0.25599936
 0.24842105, 0.26520661
 0.10105263, 0.25883129
 0.11157895, 0.26717782
 0.14947368, 0.24754889
 0.09473684, 0.23868638
 0.08421053, 0.19001552
 0.13052632, 0.1504539
 0.05263158, 0.15498854
 0.04421053, 0.13158533
 0.11578947, 0.17383143
 0.04210526, 0.14138533
 0.05473684, 0.27788398
 0.04842105, 0.2626057
 0.07157895, 0.27305958
 0.21052632, 0.26370227
 0.56210526, 0.2812303
 0.45052632, 0.26928478
 0.52631579, 0.28047088
 0.51578947, 0.27295795
 0.42736842, 0.27662924
 0.48, 0.32006878
 0.66315789, 0.29867232
 0.49894737, 0.30195576
 0.37052632, 0.31653041
 0.28210526, 0.31920084
 0.25052632, 0.28965005
 0.2, 0.30865043
 0.20210526, 0.23163199
 0.32842105, 0.25184819
 0.22526316, 0.22135168
 0.18315789, 0.19062752
 0.11157895, 0.24653362
 0.15789474, 0.17797105
 0.17263158, 0.23325554
 0.13263158, 0.23415197
 0.08, 0.26524374
 0.29263158, 0.26585978
 0.22526316, 0.28140795
 0.45263158, 0.26831067
 0.57473684, 0.29168925
 0.57684211, 0.26585978
 0.62105263, 0.26585978
 0.66947368, 0.26585978
 0.67368421, 0.26585978
 0.39157895, 0.27415368
 0.17052632, 0.28826055
 0.26736842, 0.30136776
 0.16, 0.26169544
 0.08210526, 0.26402044
 0.07157895, 0.26574206
 0.08631579, 0.2647154
 0.06736842, 0.2653017
 0.05263158, 0.26648402
 0.06526316, 0.24979582
 0.05473684, 0.24632062
 0.06736842, 0.29183632
 0.04842105, 0.24015203
 0.02526316, 0.26080063
 0.06315789, 0.21946815
 0.14526316, 0.26743919
 0.15157895, 0.26792651
 0.19578947, 0.29225594
 0.22736842, 0.29594585
 0.20210526, 0.28729153
 0.19368421, 0.27124807
 0.13894737, 0.27249998
 0.15578947, 0.28016999
 0.21684211, 0.26585978
 0.19789474, 0.32616192
 0.14526316, 0.26585978
 0.11157895, 0.28530133
 0.12631579, 0.26457676
 0.09263158, 0.27815264
 0.04421053, 0.25861976
 0.12842105, 0.26667285
 0.05684211, 0.23938787
 0.09684211, 0.24943091
 0.03578947, 0.24510872
 0.07157895, 0.18701604
 0.02526316, 0.25249225
 0.00842105, 0.21550623
 0.02315789, 0.23908314
 0.14736842, 0.23882881
 0.17894737, 0.26478973
 0.18947368, 0.26585978
 0.18315789, 0.37898213
 0.22947368, 0.27111736
 0.23157895, 0.30006295
 0.24631579, 0.26999867
 0.24210526, 0.26618502
 0.30526316, 0.28643936
 0.66315789, 0.26585978
 0.53473684, 0.32438812
 0.46105263, 0.27246702
 0.40421053, 0.2709327
 0.19157895, 0.26561841
 0.16, 0.26453581
 0.10526316, 0.26585978
 0.08631579, 0.26578602
 0.08, 0.26585978
 0.07578947, 0.26147148
 0.06736842, 0.2153627
 0.09263158, 0.23668166
 0.06736842, 0.21586445
 0.04842105, 0.23704654
 0.04210526, 0.19815855
 0.06736842, 0.15958926
 0.07368421, 0.22736114
 0.14105263, 0.29547814
 0.21684211, 0.26066735
 0.29894737, 0.32326835
 0.38947368, 0.28743276
 0.32, 0.36081001
 0.52210526, 0.29825878
 0.64210526, 0.37209088
 0.36210526, 0.29572663
 0.23789474, 0.35919353
 0.15789474, 0.27125496
 0.04842105, 0.26585978
 0.10736842, 0.26480973
 0.13473684, 0.26352939
 0.10105263, 0.26404622
 0.06736842, 0.24079506
 0.12421053, 0.22924411
 0.10736842, 0.20373106
 0.13473684, 0.21870685
 0.06526316, 0.19169946
 0.08842105, 0.16129033
 0.07789474, 0.16174911
 0.06315789, 0.22735262
 0.12421053, 0.22860041
 0.12421053, 0.25087944
 0.15368421, 0.28951296
 0.16210526, 0.31919315
 0.15789474, 0.30714998
 0.22105263, 0.28767216
 0.21894737, 0.35042924
 0.26526316, 0.26783711
 0.27578947, 0.30114302
 0.17052632, 0.26585978
 0.55578947, 0.26585978
 0.38315789, 0.26585978
 0.12631579, 0.26585978
 0.15157895, 0.25402176
 0.11368421, 0.24726194
 0.03157895, 0.2516782
 0.13684211, 0.20118108
 0.06105263, 0.21492514
 0.08, 0.19414261
 0.07789474, 0.14088979
 0.09473684, 0.11054756
 0.05052632, 0.22057158
 0.04631579, 0.10846174
 0.02526316, 0.25483608
 0.09052632, 0.14217573
 0.13052632, 0.2195999
 0.14105263, 0.28983495
 0.18315789, 0.25811952
 0.22105263, 0.31622013
 0.24, 0.27865639
 0.21684211, 0.38506666
 0.23578947, 0.39858648
 0.53263158, 0.35491818
 0.54105263, 0.34316331
 0.38315789, 0.30444145
 0.21263158, 0.29192668
 0.36, 0.26585978
 0.07578947, 0.25730202
 0.2, 0.25415161
 0.08842105, 0.24503854
 0.08, 0.22506562
 0.02526316, 0.18398622
 0.04842105, 0.16991475
 0.12631579, 0.24575622
 0.14947368, 0.17640543
 0.11157895, 0.26433909
 0.08631579, 0.18857233
 0.03789474, 0.27109087
 0.08631579, 0.24244612
 0.10526316, 0.23702797
 0.20210526, 0.23131514
 0.24631579, 0.26408133
 0.25473684, 0.2388663
 0.24210526, 0.26585978
 0.62736842, 0.27633676
 0.63368421, 0.26585978
 0.57894737, 0.34824002
 0.57473684, 0.26585978
 0.42736842, 0.28951347
 0.36, 0.2691218
 0.29052632, 0.28454155
 0.13263158, 0.25337419
 0.20842105, 0.25916898
 0.20631579, 0.22656627
 0.17052632, 0.24541602
 0.08210526, 0.21458596
 0.09473684, 0.21819477
 0.07578947, 0.21592088
 0.09263158, 0.14057115
 0.10105263, 0.21576305
 0.03789474, 0.13162529
 0.09894737, 0.24988481
 0.16631579, 0.1436871
 0.18105263, 0.24349189
 0.14315789, 0.25956288
 0.21052632, 0.26016539
 0.20210526, 0.28375557
 0.23789474, 0.26551521
 0.56, 0.29707527
 0.62105263, 0.28381151
 0.63368421, 0.31820646
 0.34526316, 0.36660427
 0.21052632, 0.303325
 0.17263158, 0.27977902
 0.27578947, 0.2653867
 0.07578947, 0.26435858
 0.07789474, 0.26434109
 0.06105263, 0.27106872
 0.11157895, 0.21345058
 0.13473684, 0.23550862
 0.08, 0.20227057
 0.09473684, 0.24634761
 0.07157895, 0.15510499
 0.09473684, 0.25632051
 0.02947368, 0.15211293
 0.02315789, 0.22847006
 0.18736842, 0.18381453
 0.17052632, 0.1506516
 0.18947368, 0.22800466
 0.24842105, 0.25107887
 0.28421053, 0.25672427
 0.30736842, 0.26036128
 0.26315789, 0.26585978
 0.50105263, 0.26538181
 0.62105263, 0.28871924
 0.66947368, 0.26585978
 0.25684211, 0.31350625
 0.23789474, 0.26585978
 0.17263158, 0.2656543
 0.20842105, 0.26310852
 0.16210526, 0.25834274
 0.11157895, 0.22890563
 0.09894737, 0.23249511
 0.09263158, 0.27456793
 0.11157895, 0.19270349
 0.05894737, 0.20611939
 0.09894737, 0.13609415
 0.14736842, 0.20696858
 0.05894737, 0.12683719
 0.11157895, 0.16066143
 0.26105263, 0.11638576
 0.19157895, 0.24552011
 0.17894737, 0.25599951
 0.18736842, 0.26206169
 0.24631579, 0.26147738
 0.18526316, 0.2631087
 0.15578947, 0.29403096
 0.51157895, 0.2680749
 0.62105263, 0.32919419
 0.66736842, 0.27794865
 0.44, 0.34000361
 0.24210526, 0.26648185
 0.19368421, 0.26585978
 0.06526316, 0.26585978
 0.04210526, 0.26083586
 0.09473684, 0.26488584
 0.13052632, 0.26082426
 0.10736842, 0.24868757
 0.12, 0.21399933
 0.12421053, 0.2009138
 0.07157895, 0.11850473
 0.05263158, 0.17717721
 0.03578947, 0.11252597
 0.04421053, 0.11231165
 0.06736842, 0.14378887
 0.07789474, 0.15485257
 0.10526316, 0.21135247
 0.07368421, 0.2488033
 0.17263158, 0.25852323
 0.52210526, 0.29014394
 0.45473684, 0.27752924
 0.29473684, 0.25360316
 0.38315789, 0.26585978
 0.52842105, 0.26585978
 0.41684211, 0.26585978
 0.50105263, 0.26585978
 0.35578947, 0.24384677
 0.15368421, 0.26585978
 0.12210526, 0.22747917
 0.14526316, 0.26464143
 0.08421053, 0.24243969
 0.04842105, 0.33232194
 0.06105263, 0.23072888
 0.10526316, 0.15207635
 0.06736842, 0.13659802
 0.04421053, 0.13365197
 0.01894737, 0.19538553
 0.04210526, 0.15023369
 0.08421053, 0.15132543
 0.07578947, 0.16673514
 0.07789474, 0.1618557
 0.23368421, 0.24884114
 0.34315789, 0.25552145
 0.57052632, 0.2632848
 0.16421053, 0.3502982
 0.18526316, 0.2716015
 0.12, 0.34985614
 0.37052632, 0.27134931
 0.12, 0.32793304
 0.14105263, 0.26585978
 0.13473684, 0.25148064
 0.06526316, 0.25990647
 0.06736842, 0.25787175
 0.11789474, 0.24349901
 0.06736842, 0.26637536
 0.08842105, 0.25844991
 0.15578947, 0.24802497
 0.11578947, 0.25229993
 0.10947368, 0.12585403
 0.08631579, 0.17641175
 0.09052632, 0.11008853
 0.03157895, 0.12094738
 0.06315789, 0.11264955
 0.04842105, 0.12201506
 0.06947368, 0.14047046
 0.08, 0.26472583
 0.07157895, 0.24280739
 0.08631579, 0.29602021
 0.11368421, 0.26585978
 0.10315789, 0.26585978
 0.16, 0.26585978
 0.30315789, 0.26585978
 0.32, 0.27558208
 0.26315789, 0.33256382
 0.13894737, 0.23553313
 0.07157895, 0.32154632
 0.11368421, 0.21931022
 0.08210526, 0.32079479
 0.05473684, 0.28482574
 0.06315789, 0.30656785
 0.08210526, 0.27110833
 0.12631579, 0.28346112
 0.09894737, 0.11346313
 0.05894737, 0.24575119
 0.04631579, 0.11010548
 0.08210526, 0.11360353
 0.20210526, 0.11601946
 0.32210526, 0.15723149
 0.27157895, 0.1435878
 0.37684211, 0.24975906
 0.25684211, 0.25979206
 0.39789474, 0.26585978
 0.61894737, 0.27054322
 0.40631579, 0.26585978
 0.23368421, 0.29409924
 0.47578947, 0.26700076
 0.25684211, 0.37474537
 0.16, 0.2668173
 0.09052632, 0.26585978
 0.05473684, 0.26585978
 0.06315789, 0.26585978
 0.06947368, 0.32689452
 0.08421053, 0.32795823
 0.10526316, 0.28129739
 0.10105263, 0.28933141
 0.11578947, 0.25812909
 0.09473684, 0.18036462
 0.07157895, 0.25055996
 0.04842105, 0.10057391
 0.10947368, 0.13525537
 0.14736842, 0.11995578
 0.16, 0.23133112
 0.20842105, 0.18112785
 0.27789474, 0.26176226
 0.26315789, 0.3072007
 0.31157895, 0.277156
 0.36842105, 0.26585978
 0.36421053, 0.26585978
 0.36210526, 0.26585978
 0.17894737, 0.26585978
 0.18947368, 0.33380967
 0.18736842, 0.3242155
 0.06526316, 0.36421353
 0.14736842, 0.36057246
 0.13684211, 0.35325629
 0.09684211, 0.37080234
 0.09684211, 0.33357924
 0.11368421, 0.30928916
 0.08210526, 0.26232937
 0.08, 0.25923553
 0.08842105, 0.12806685
 0.09052632, 0.14191765
 0.06315789, 0.10586986
 0.06947368, 0.09935683
 0.09263158, 0.13730182
 0.25684211, 0.14785418
 0.30526316, 0.18988727
 0.28210526, 0.22349234
 0.24842105, 0.26585978
 0.33263158, 0.28082764
 0.27157895, 0.26986983
 0.32210526, 0.26585978
 0.37473684, 0.26585978
 0.38526316, 0.26585978
 0.33052632, 0.26590806
 0.39789474, 0.26585978
 0.06105263, 0.26585978
 0.08, 0.26585978
 0.17263158, 0.26585978
 0.12631579, 0.29841584
 0.10736842, 0.26983282
 0.13894737, 0.29174274
 0.16842105, 0.24725686
 0.07157895, 0.22421826
 0.05052632, 0.22110826
 0.07789474, 0.23754746
 0.06315789, 0.09610206
 0.05052632, 0.1965088
 0.09684211, 0.15927571
 0.08631579, 0.23154306
 0.10736842, 0.23901555
 0.16210526, 0.25536811
 0.15157895, 0.30442607
 0.14526316, 0.2852172
 0.26526316, 0.26943111
 0.38736842, 0.27280563
 0.47368421, 0.26585978
 0.48210526, 0.26585978
 0.36421053, 0.26907209
 0.28, 0.26585978
 0.20421053, 0.28125075
 0.15789474, 0.27221277
 0.10105263, 0.31303337
 0.06526316, 0.30659837
 0.06105263, 0.24973102
 0.08842105, 0.28691781
 0.07368421, 0.23004904
 0.03157895, 0.14468546
 0.07368421, 0.12507945
 0.06736842, 0.13845748
 0.05894737, 0.22988611
 0.02526316, 0.20571016
 0.08631579, 0.25412261
 0.16421053, 0.22349611
 0.15789474, 0.26772851
 0.19157895, 0.24221265
 0.17684211, 0.35902548
 0.19789474, 0.26744327
 0.18526316, 0.26585978
 0.27157895, 0.26585978
 0.27368421, 0.23470774
 0.64631579, 0.26231244
 0.57473684, 0.26585978
 0.32842105, 0.26342949
 0.19157895, 0.29529747
 0.19789474, 0.25436622
 0.18105263, 0.35626465
 0.37473684, 0.30774212
 0.12421053, 0.24638192
 0.19368421, 0.28891823
 0.18736842, 0.19982611
 0.13473684, 0.20606098
 0.06526316, 0.18008456
 0.04421053, 0.1041306
 0.01894737, 0.19672737
 0.03578947, 0.26480067
 0.10315789, 0.29100025
 0.15368421, 0.23474094
 0.12210526, 0.27845418
 0.13052632, 0.25875899
 0.19368421, 0.30971751
 0.22526316, 0.26585978
 0.22105263, 0.27463016
 0.58526316, 0.26585978
 0.68210526, 0.26025003
 0.68421053, 0.26585978
 0.41052632, 0.26585978
 0.17052632, 0.26585978
 0.15157895, 0.26497331
 0.20421053, 0.2523765
 0.28842105, 0.30243623
 0.26105263, 0.25939971
 0.20842105, 0.25791731
 0.17473684, 0.24494419
 0.16842105, 0.18220055
 0.11157895, 0.11653058
 0.03578947, 0.11791509
 0.02736842, 0.11869991
 0.02736842, 0.22717947
 0.04631579, 0.19665393
 0.06736842, 0.26585978
 0.12842105, 0.25307855
 0.14736842, 0.26163527
 0.14947368, 0.28498521
 0.21473684, 0.31482643
 0.18315789, 0.26869348
 0.64842105, 0.26585978
 0.80210526, 0.26585978
 0.66947368, 0.26585978
 0.72210526, 0.26585978
 0.52421053, 0.26585978
 0.32842105, 0.26585978
 0.17894737, 0.27515912
 0.16210526, 0.25847098
 0.10526316, 0.27672902
 0.17263158, 0.320577
 0.06105263, 0.213209
 0.12842105, 0.26509675
 0.07368421, 0.18901567
 0.08842105, 0.21767619
 0.09473684, 0.17360768
 0.09473684, 0.23693851
 0.05263158, 0.23916663
 0.07789474, 0.26026341
 0.08210526, 0.27201867
 0.05473684, 0.29328904
 0.09473684, 0.25200444
 0.16, 0.25185025
 0.15789474, 0.29075694
 0.19157895, 0.26585978
 0.47157895, 0.26585978
 0.40421053, 0.26585978
 0.55578947, 0.26585978
 0.30315789, 0.26585978
 0.17263158, 0.26585978
 0.09263158, 0.26585978
 0.05894737, 0.26585978
 0.05684211, 0.26585978
 0.04210526, 0.27611035
 0.08210526, 0.26585978
 0.08, 0.28276721
 0.06315789, 0.25146648
 0.11368421, 0.2179717
 0.09473684, 0.1860331
 0.08210526, 0.21095195
 0.04842105, 0.17955044
 0.03157895, 0.22017361
 0.04210526, 0.19547787
 0.08210526, 0.27971798
 0.08421053, 0.19892062
 0.11578947, 0.26304162
 0.10105263, 0.26318809
 0.18105263, 0.27947444
 0.07789474, 0.26585978
 0.24, 0.26585978
 0.45473684, 0.26585978
 0.36421053, 0.26585978
 0.32421053, 0.26585978
 0.17052632, 0.26585978
 0.14526316, 0.26585978
 0.15157895, 0.26585978
 0.16210526, 0.26585978
 0.08421053, 0.26494154
 0.10315789, 0.26189527
 0.03789474, 0.26165468
 0.02315789, 0.25922769
 0.09473684, 0.19126685
 0.03157895, 0.14451554
 0.01894737, 0.16532034
 0.09684211, 0.17965382
 0.01684211, 0.18447056
 0.05684211, 0.19454843
 0.03578947, 0.15709995
 0.11578947, 0.21646655
 0.31368421, 0.20616022
 0.22526316, 0.24599607
 0.25263158, 0.26585978
 0.32210526, 0.26424631
 0.24, 0.26585978
 0.24842105, 0.26585978
 0.09052632, 0.26419815
 0.10105263, 0.26585978
 0.15789474, 0.25947237
 0.37263158, 0.26585978
 0.33473684, 0.2657223
 0.18105263, 0.26585978
 0.08421053, 0.27241784
 0.07157895, 0.26585978
