tar,out
 0.27717116, 0.13199034
 0.2425668, 0.08549239
 0.12968254, 0.05922332
 0.12968254, 0.04395863
 0.11809175, 0.04083613
 0.14261716, 0.07628927
 0.3537712, 0.26302141
 0.66756262, 0.53978342
 0.67864946, 0.54575151
 0.51150679, 0.4670428
 0.65261211, 0.46571088
 0.66252314, 0.41586694
 0.47975809, 0.44296235
 0.48278177, 0.45341939
 0.54409546, 0.46601754
 0.50932308, 0.45024693
 0.41038134, 0.36753914
 0.39845461, 0.35277095
 0.48210991, 0.39038071
 0.57282047, 0.48911792
 0.67579369, 0.50237447
 0.65630776, 0.46545827
 0.43759451, 0.35326731
 0.29380143, 0.26463959
 0.2733076, 0.1467424
 0.23064007, 0.10040848
 0.13539398, 0.07576607
 0.13270623, 0.08375926
 0.13119438, 0.07830893
 0.1557198, 0.12692024
 0.33915672, 0.28567365
 0.67596171, 0.56048286
 0.65714763, 0.55456889
 0.51066691, 0.44666588
 0.50277176, 0.46782321
 0.51285071, 0.40674812
 0.44784148, 0.43383941
 0.47841426, 0.39067453
 0.57080468, 0.4810209
 0.55249456, 0.43288246
 0.46228794, 0.34954628
 0.44045018, 0.34525028
 0.50243573, 0.38042665
 0.58189153, 0.48362756
 0.68016131, 0.53111064
 0.56744497, 0.52631319
 0.4194524, 0.3484543
 0.29430538, 0.18455379
 0.27179576, 0.14384133
 0.22257691, 0.10860391
 0.15622375, 0.05193934
 0.16697466, 0.07642479
 0.14681676, 0.06876829
 0.15605583, 0.1244401
 0.35461118, 0.28510138
 0.65093235, 0.55132282
 0.62943052, 0.5190143
 0.48748532, 0.4784649
 0.53048888, 0.461312
 0.48765333, 0.44046536
 0.49538046, 0.42575076
 0.46413571, 0.40327215
 0.5116748, 0.48366123
 0.51604231, 0.40329367
 0.4194524, 0.40257531
 0.38585593, 0.34718594
 0.41138924, 0.39834869
 0.55434233, 0.48371789
 0.60322524, 0.51248801
 0.60675288, 0.49760389
 0.49487652, 0.35599723
 0.26541246, 0.2133818
 0.2563414, 0.15478402
 0.22660849, 0.11246857
 0.1387536, 0.0849908
 0.14278518, 0.06499553
 0.12161938, 0.06653273
 0.1409374, 0.09091997
 0.36989752, 0.2800242
 0.68503277, 0.55562127
 0.67864946, 0.51515126
 0.53250467, 0.44357061
 0.50461954, 0.46140707
 0.480934, 0.43140954
 0.44985727, 0.38625604
 0.47320677, 0.46157777
 0.56290944, 0.46781951
 0.53317653, 0.46874636
 0.48009412, 0.40257531
 0.43373094, 0.37541515
 0.50747521, 0.39233479
 0.47975809, 0.47301048
 0.56862088, 0.50809002
 0.55165468, 0.47062999
 0.42549977, 0.33184716
 0.26994798, 0.18669114
 0.34789184, 0.15957049
 0.2447506, 0.11669806
 0.17974137, 0.08847274
 0.17235007, 0.06706482
 0.15924743, 0.06397048
 0.14144135, 0.07608424
 0.1705023, 0.11373369
 0.31614314, 0.18377763
 0.52595335, 0.4435057
 0.66151525, 0.57411885
 0.98286578, 0.69447768
 0.86813375, 0.78632557
 0.80127664, 0.61944258
 0.68335291, 0.6080265
 0.73038805, 0.52810431
 0.68688054, 0.50076818
 0.5943222, 0.45691079
 0.53519232, 0.4239544
 0.53552835, 0.5285852
 0.51066691, 0.43931133
 0.49874018, 0.5196082
 0.51402652, 0.42168528
 0.40634976, 0.33254442
 0.2775072, 0.41730535
 0.33764487, 0.34284621
 0.24559048, 0.215918
 0.15420796, 0.15471123
 0.14664874, 0.15196379
 0.11473213, 0.14041588
 0.10784478, 0.14353918
 0.11909964, 0.16999766
 0.19536374, 0.26197216
 0.37493699, 0.29715505
 0.59650601, 0.59823644
 0.93247103, 0.82733107
 1., 0.88929164
 0.90744166, 0.82890022
 0.7616328, 0.755952
 0.71745343, 0.69756997
 0.59449022, 0.52297819
 0.47690242, 0.47824395
 0.45304887, 0.40257531
 0.49554848, 0.42655772
 0.56425337, 0.5145191
 0.58306734, 0.59210557
 0.60557707, 0.553653
 0.43793044, 0.34995776
 0.29564931, 0.25346032
 0.29581723, 0.13563976
 0.25197379, 0.10870418
 0.15017638, 0.10733584
 0.17016636, 0.07647049
 0.11574003, 0.09757131
 0.1906602, 0.09968111
 0.34066856, 0.2276931
 0.66773053, 0.47579718
 0.68620868, 0.51720542
 0.52813706, 0.49231288
 0.57483626, 0.55317819
 0.55518231, 0.5006721
 0.53804809, 0.51078689
 0.5699647, 0.47675586
 0.58945074, 0.46244299
 0.5392239, 0.4878498
 0.43289096, 0.40416628
 0.44733753, 0.3911081
 0.53351256, 0.42623401
 0.57802787, 0.51601076
 0.74029898, 0.52132928
 0.6133042, 0.53797394
 0.43826647, 0.36636162
 0.27448351, 0.19815703
 0.25701326, 0.13509454
 0.23181588, 0.11786199
 0.12346716, 0.07985203
 0.12195531, 0.09857419
 0.1175878, 0.08606446
 0.13791372, 0.16571382
 0.34285237, 0.28360045
 0.70115909, 0.5400008
 0.71039816, 0.51982009
 0.4957165, 0.47326785
 0.50865112, 0.45089173
 0.46531163, 0.45314163
 0.48160596, 0.42331237
 0.49269281, 0.4016653
 0.55484628, 0.47192296
 0.51671428, 0.41300178
 0.42465989, 0.40136862
 0.41256515, 0.34431911
 0.49773229, 0.39792037
 0.53905599, 0.48505622
 0.75054595, 0.52084345
 0.69057619, 0.49974853
 0.51621033, 0.33373916
 0.3453721, 0.18589538
