tar,out
 0.27717116, 0.16398148
 0.2425668, 0.15721563
 0.12968254, 0.13401677
 0.12968254, 0.13423193
 0.11809175, 0.13469855
 0.14261716, 0.14588819
 0.3537712, 0.26519418
 0.66756262, 0.53127682
 0.67864946, 0.56727302
 0.51150679, 0.50194675
 0.65261211, 0.47575691
 0.66252314, 0.45757902
 0.47975809, 0.46659052
 0.48278177, 0.49557412
 0.54409546, 0.48768646
 0.50932308, 0.48408863
 0.41038134, 0.3912552
 0.39845461, 0.37857321
 0.48210991, 0.44273269
 0.57282047, 0.50800699
 0.67579369, 0.51694041
 0.65630776, 0.51922405
 0.43759451, 0.37680936
 0.29380143, 0.26532513
 0.2733076, 0.15322395
 0.23064007, 0.16355404
 0.13539398, 0.13073623
 0.13270623, 0.1339104
 0.13119438, 0.14042683
 0.1557198, 0.15311721
 0.33915672, 0.28586182
 0.67596171, 0.54410344
 0.65714763, 0.55055439
 0.51066691, 0.4713769
 0.50277176, 0.44471791
 0.51285071, 0.4363547
 0.44784148, 0.41892594
 0.47841426, 0.42401209
 0.57080468, 0.44406104
 0.55249456, 0.46547312
 0.46228794, 0.36775684
 0.44045018, 0.34573263
 0.50243573, 0.40321043
 0.58189153, 0.5128966
 0.68016131, 0.55671632
 0.56744497, 0.54973853
 0.4194524, 0.36483166
 0.29430538, 0.18832576
 0.27179576, 0.16221839
 0.22257691, 0.15333499
 0.15622375, 0.12605409
 0.16697466, 0.13086805
 0.14681676, 0.13446885
 0.15605583, 0.14632165
 0.35461118, 0.28306967
 0.65093235, 0.53667629
 0.62943052, 0.53828162
 0.48748532, 0.47548634
 0.53048888, 0.45969945
 0.48765333, 0.44941351
 0.49538046, 0.42592388
 0.46413571, 0.43936935
 0.5116748, 0.46246338
 0.51604231, 0.46944132
 0.4194524, 0.37925458
 0.38585593, 0.36037123
 0.41138924, 0.44679594
 0.55434233, 0.49963036
 0.60322524, 0.54127008
 0.60675288, 0.54019076
 0.49487652, 0.37108558
 0.26541246, 0.23900355
 0.2563414, 0.16366051
 0.22660849, 0.1580485
 0.1387536, 0.12679297
 0.14278518, 0.12960714
 0.12161938, 0.11660172
 0.1409374, 0.13322204
 0.36989752, 0.29030657
 0.68503277, 0.55432522
 0.67864946, 0.55620581
 0.53250467, 0.47604233
 0.50461954, 0.45304477
 0.480934, 0.43587759
 0.44985727, 0.42011815
 0.47320677, 0.46128005
 0.56290944, 0.46329179
 0.53317653, 0.47501171
 0.48009412, 0.38723305
 0.43373094, 0.3749733
 0.50747521, 0.41834584
 0.47975809, 0.50029272
 0.56862088, 0.54575229
 0.55165468, 0.51817918
 0.42549977, 0.35626504
 0.26994798, 0.22948621
 0.34789184, 0.18937233
 0.2447506, 0.1562798
 0.17974137, 0.15264417
 0.17235007, 0.14087345
 0.15924743, 0.13534699
 0.14144135, 0.14134017
 0.1705023, 0.18480808
 0.31614314, 0.24053708
 0.52595335, 0.39019972
 0.66151525, 0.5883677
 0.98286578, 0.72285247
 0.86813375, 0.77771759
 0.80127664, 0.66043299
 0.68335291, 0.62043023
 0.73038805, 0.62627339
 0.68688054, 0.52146208
 0.5943222, 0.44952172
 0.53519232, 0.46679497
 0.53552835, 0.4457857
 0.51066691, 0.44699401
 0.49874018, 0.48326018
 0.51402652, 0.46396673
 0.40634976, 0.44474345
 0.2775072, 0.40450272
 0.33764487, 0.27136877
 0.24559048, 0.18477118
 0.15420796, 0.16593543
 0.14664874, 0.16094473
 0.11473213, 0.14828625
 0.10784478, 0.14745721
 0.11909964, 0.16852596
 0.19536374, 0.21079978
 0.37493699, 0.33182642
 0.59650601, 0.59974694
 0.93247103, 0.8085292
 1., 0.91206062
 0.90744166, 0.83272052
 0.7616328, 0.74825728
 0.71745343, 0.71610391
 0.59449022, 0.58823383
 0.47690242, 0.47416586
 0.45304887, 0.42956677
 0.49554848, 0.45006084
 0.56425337, 0.5083077
 0.58306734, 0.57334328
 0.60557707, 0.55908221
 0.43793044, 0.38135704
 0.29564931, 0.25358373
 0.29581723, 0.16990143
 0.25197379, 0.15560497
 0.15017638, 0.15402165
 0.17016636, 0.13471922
 0.11574003, 0.14317161
 0.1906602, 0.14770938
 0.34066856, 0.23468539
 0.66773053, 0.30393165
 0.68620868, 0.53008652
 0.52813706, 0.53851438
 0.57483626, 0.58977908
 0.55518231, 0.56821477
 0.53804809, 0.49647337
 0.5699647, 0.44528908
 0.58945074, 0.49723142
 0.5392239, 0.49037817
 0.43289096, 0.42938918
 0.44733753, 0.37578011
 0.53351256, 0.45929879
 0.57802787, 0.52902448
 0.74029898, 0.54763269
 0.6133042, 0.55624259
 0.43826647, 0.37402669
 0.27448351, 0.16880028
 0.25701326, 0.14935061
 0.23181588, 0.15570873
 0.12346716, 0.13102944
 0.12195531, 0.14953038
 0.1175878, 0.14155217
 0.13791372, 0.19099534
 0.34285237, 0.29251242
 0.70115909, 0.52271324
 0.71039816, 0.51792186
 0.4957165, 0.47746658
 0.50865112, 0.44222754
 0.46531163, 0.43832719
 0.48160596, 0.39955097
 0.49269281, 0.43207347
 0.55484628, 0.45100963
 0.51671428, 0.48698479
 0.42465989, 0.38656378
 0.41256515, 0.36070377
 0.49773229, 0.4258213
 0.53905599, 0.48561716
 0.75054595, 0.54687232
 0.69057619, 0.53862655
 0.51621033, 0.34069279
 0.3453721, 0.19720834
