tar,out
 0.27717116, 0.15319595
 0.2425668, 0.10532263
 0.12968254, 0.06419876
 0.12968254, 0.0508967
 0.11809175, 0.05266216
 0.14261716, 0.09073329
 0.3537712, 0.25766355
 0.66756262, 0.5686515
 0.67864946, 0.57779813
 0.51150679, 0.46696624
 0.65261211, 0.52172136
 0.66252314, 0.46057642
 0.47975809, 0.46435803
 0.48278177, 0.48713696
 0.54409546, 0.47838351
 0.50932308, 0.45381716
 0.41038134, 0.40443659
 0.39845461, 0.37319261
 0.48210991, 0.43013659
 0.57282047, 0.51020944
 0.67579369, 0.51034725
 0.65630776, 0.49053943
 0.43759451, 0.39802074
 0.29380143, 0.22763836
 0.2733076, 0.22065666
 0.23064007, 0.10672565
 0.13539398, 0.0976896
 0.13270623, 0.07602212
 0.13119438, 0.08766571
 0.1557198, 0.108804
 0.33915672, 0.27219763
 0.67596171, 0.59016705
 0.65714763, 0.57314575
 0.51066691, 0.4514696
 0.50277176, 0.5092628
 0.51285071, 0.4558937
 0.44784148, 0.4309063
 0.47841426, 0.41408375
 0.57080468, 0.46117428
 0.55249456, 0.45750582
 0.46228794, 0.38109624
 0.44045018, 0.36734432
 0.50243573, 0.38533765
 0.58189153, 0.50403148
 0.68016131, 0.56473571
 0.56744497, 0.54237926
 0.4194524, 0.38743648
 0.29430538, 0.18989627
 0.27179576, 0.16061662
 0.22257691, 0.09601104
 0.15622375, 0.09708416
 0.16697466, 0.07142702
 0.14681676, 0.08083251
 0.15605583, 0.10660958
 0.35461118, 0.27721888
 0.65093235, 0.61501932
 0.62943052, 0.57091099
 0.48748532, 0.50152409
 0.53048888, 0.46459988
 0.48765333, 0.45841783
 0.49538046, 0.40972847
 0.46413571, 0.4104321
 0.5116748, 0.45675313
 0.51604231, 0.43127495
 0.4194524, 0.39077061
 0.38585593, 0.36203435
 0.41138924, 0.40970379
 0.55434233, 0.53277159
 0.60322524, 0.55924809
 0.60675288, 0.52443588
 0.49487652, 0.37637356
 0.26541246, 0.22990383
 0.2563414, 0.15857738
 0.22660849, 0.11184594
 0.1387536, 0.08025691
 0.14278518, 0.06722891
 0.12161938, 0.0626449
 0.1409374, 0.0750784
 0.36989752, 0.26348296
 0.68503277, 0.58624947
 0.67864946, 0.56300402
 0.53250467, 0.46947151
 0.50461954, 0.45502129
 0.480934, 0.46084216
 0.44985727, 0.41246429
 0.47320677, 0.43288589
 0.56290944, 0.46219736
 0.53317653, 0.46444607
 0.48009412, 0.40628436
 0.43373094, 0.37689954
 0.50747521, 0.41679275
 0.47975809, 0.52893484
 0.56862088, 0.55043805
 0.55165468, 0.51698786
 0.42549977, 0.38509023
 0.26994798, 0.18980135
 0.34789184, 0.17075643
 0.2447506, 0.13726231
 0.17974137, 0.11970399
 0.17235007, 0.08756208
 0.15924743, 0.08585033
 0.14144135, 0.07437176
 0.1705023, 0.11852944
 0.31614314, 0.16530664
 0.52595335, 0.38546288
 0.66151525, 0.61198962
 0.98286578, 0.70039284
 0.86813375, 0.85612011
 0.80127664, 0.707533
 0.68335291, 0.66433054
 0.73038805, 0.6227839
 0.68688054, 0.58764178
 0.5943222, 0.48425746
 0.53519232, 0.4602533
 0.53552835, 0.47187236
 0.51066691, 0.45952231
 0.49874018, 0.51652378
 0.51402652, 0.45548075
 0.40634976, 0.40196854
 0.2775072, 0.16819789
 0.33764487, 0.1920938
 0.24559048, 0.15491217
 0.15420796, 0.13216978
 0.14664874, 0.12101315
 0.11473213, 0.12782608
 0.10784478, 0.11033544
 0.11909964, 0.24692199
 0.19536374, 0.26827186
 0.37493699, 0.35340586
 0.59650601, 0.62385118
 0.93247103, 0.90156007
 1., 0.94699836
 0.90744166, 0.86597383
 0.7616328, 0.78356647
 0.71745343, 0.72816443
 0.59449022, 0.57962871
 0.47690242, 0.49038494
 0.45304887, 0.42935461
 0.49554848, 0.46839511
 0.56425337, 0.5488084
 0.58306734, 0.61406189
 0.60557707, 0.60612792
 0.43793044, 0.41692585
 0.29564931, 0.2420409
 0.29581723, 0.15833119
 0.25197379, 0.09753454
 0.15017638, 0.09645817
 0.17016636, 0.06195185
 0.11574003, 0.09094638
 0.1906602, 0.11946103
 0.34066856, 0.25796604
 0.66773053, 0.49865636
 0.68620868, 0.54421079
 0.52813706, 0.54364657
 0.57483626, 0.65228307
 0.55518231, 0.59272397
 0.53804809, 0.54829764
 0.5699647, 0.47316623
 0.58945074, 0.48822111
 0.5392239, 0.47042781
 0.43289096, 0.4204517
 0.44733753, 0.37972373
 0.53351256, 0.43836832
 0.57802787, 0.53248072
 0.74029898, 0.51908147
 0.6133042, 0.54101026
 0.43826647, 0.3901763
 0.27448351, 0.1858508
 0.25701326, 0.15715913
 0.23181588, 0.08798718
 0.12346716, 0.07543015
 0.12195531, 0.08100113
 0.1175878, 0.08852977
 0.13791372, 0.13318183
 0.34285237, 0.30700928
 0.70115909, 0.603212
 0.71039816, 0.54130971
 0.4957165, 0.44282722
 0.50865112, 0.47717535
 0.46531163, 0.44768345
 0.48160596, 0.4133378
 0.49269281, 0.40597886
 0.55484628, 0.45135114
 0.51671428, 0.42719883
 0.42465989, 0.40353614
 0.41256515, 0.36544639
 0.49773229, 0.41958258
 0.53905599, 0.54524004
 0.75054595, 0.5488438
 0.69057619, 0.54559112
 0.51621033, 0.42223188
 0.3453721, 0.17292362
