tar,out
 0.27717116, 0.13937533
 0.2425668, 0.10123073
 0.12968254, 0.0944275
 0.12968254, 0.07377824
 0.11809175, 0.08260691
 0.14261716, 0.10558572
 0.3537712, 0.22936285
 0.66756262, 0.53435671
 0.67864946, 0.55668712
 0.51150679, 0.47948006
 0.65261211, 0.45892718
 0.66252314, 0.44740847
 0.47975809, 0.44473982
 0.48278177, 0.46075892
 0.54409546, 0.48765945
 0.50932308, 0.45045704
 0.41038134, 0.3948361
 0.39845461, 0.3911792
 0.48210991, 0.40126818
 0.57282047, 0.48640907
 0.67579369, 0.48502195
 0.65630776, 0.50321293
 0.43759451, 0.38718897
 0.29380143, 0.21988231
 0.2733076, 0.14015359
 0.23064007, 0.10007417
 0.13539398, 0.09785888
 0.13270623, 0.08385096
 0.13119438, 0.09443329
 0.1557198, 0.1342406
 0.33915672, 0.25724289
 0.67596171, 0.54492652
 0.65714763, 0.54416269
 0.51066691, 0.45032537
 0.50277176, 0.43375137
 0.51285071, 0.40544605
 0.44784148, 0.41894436
 0.47841426, 0.40596238
 0.57080468, 0.4580034
 0.55249456, 0.4277024
 0.46228794, 0.37759653
 0.44045018, 0.37885115
 0.50243573, 0.39681655
 0.58189153, 0.47533381
 0.68016131, 0.53274339
 0.56744497, 0.48551786
 0.4194524, 0.35466775
 0.29430538, 0.16505364
 0.27179576, 0.11583976
 0.22257691, 0.11712149
 0.15622375, 0.0833002
 0.16697466, 0.07809809
 0.14681676, 0.09071659
 0.15605583, 0.12220152
 0.35461118, 0.2454308
 0.65093235, 0.54258394
 0.62943052, 0.53440559
 0.48748532, 0.46856076
 0.53048888, 0.43632093
 0.48765333, 0.4471373
 0.49538046, 0.42238277
 0.46413571, 0.41551167
 0.5116748, 0.46041286
 0.51604231, 0.42975527
 0.4194524, 0.38250911
 0.38585593, 0.3968263
 0.41138924, 0.40016633
 0.55434233, 0.47648531
 0.60322524, 0.55420482
 0.60675288, 0.485223
 0.49487652, 0.3668074
 0.26541246, 0.20995878
 0.2563414, 0.14888737
 0.22660849, 0.12173463
 0.1387536, 0.09169865
 0.14278518, 0.08149806
 0.12161938, 0.07120293
 0.1409374, 0.09492527
 0.36989752, 0.26512539
 0.68503277, 0.55209494
 0.67864946, 0.52563894
 0.53250467, 0.44082546
 0.50461954, 0.41713899
 0.480934, 0.4098925
 0.44985727, 0.41004723
 0.47320677, 0.41314325
 0.56290944, 0.47340578
 0.53317653, 0.43859363
 0.48009412, 0.37805146
 0.43373094, 0.38977611
 0.50747521, 0.40026754
 0.47975809, 0.4653672
 0.56862088, 0.5086236
 0.55165468, 0.47806844
 0.42549977, 0.35189894
 0.26994798, 0.18430437
 0.34789184, 0.17063133
 0.2447506, 0.14486526
 0.17974137, 0.12332028
 0.17235007, 0.09652241
 0.15924743, 0.11053196
 0.14144135, 0.0910091
 0.1705023, 0.13708328
 0.31614314, 0.20063889
 0.52595335, 0.39881396
 0.66151525, 0.57524991
 0.98286578, 0.71155375
 0.86813375, 0.76473308
 0.80127664, 0.66200662
 0.68335291, 0.58929944
 0.73038805, 0.55507028
 0.68688054, 0.52183402
 0.5943222, 0.46683383
 0.53519232, 0.46142989
 0.53552835, 0.47177136
 0.51066691, 0.45308501
 0.49874018, 0.47869587
 0.51402652, 0.43651092
 0.40634976, 0.40917513
 0.2775072, 0.40012076
 0.33764487, 0.32042974
 0.24559048, 0.21519588
 0.15420796, 0.14959238
 0.14664874, 0.16602471
 0.11473213, 0.1325652
 0.10784478, 0.15163818
 0.11909964, 0.17067078
 0.19536374, 0.22050482
 0.37493699, 0.32121122
 0.59650601, 0.59219384
 0.93247103, 0.76244533
 1., 0.81430137
 0.90744166, 0.80484468
 0.7616328, 0.68868506
 0.71745343, 0.63978714
 0.59449022, 0.53555369
 0.47690242, 0.48443022
 0.45304887, 0.41413695
 0.49554848, 0.4476347
 0.56425337, 0.5210219
 0.58306734, 0.5741626
 0.60557707, 0.54806167
 0.43793044, 0.38779956
 0.29564931, 0.2010918
 0.29581723, 0.13540259
 0.25197379, 0.11028124
 0.15017638, 0.11417368
 0.17016636, 0.09815888
 0.11574003, 0.11184373
 0.1906602, 0.12541698
 0.34066856, 0.18495098
 0.66773053, 0.352025
 0.68620868, 0.51891279
 0.52813706, 0.51394367
 0.57483626, 0.57674778
 0.55518231, 0.53583479
 0.53804809, 0.48939207
 0.5699647, 0.47720903
 0.58945074, 0.47189638
 0.5392239, 0.4451701
 0.43289096, 0.40618399
 0.44733753, 0.3903645
 0.53351256, 0.39874363
 0.57802787, 0.50802565
 0.74029898, 0.50902337
 0.6133042, 0.485558
 0.43826647, 0.34246123
 0.27448351, 0.1689544
 0.25701326, 0.11112863
 0.23181588, 0.08673249
 0.12346716, 0.07848644
 0.12195531, 0.08637387
 0.1175878, 0.09628259
 0.13791372, 0.16657382
 0.34285237, 0.26255789
 0.70115909, 0.5342685
 0.71039816, 0.53132784
 0.4957165, 0.46285856
 0.50865112, 0.43162823
 0.46531163, 0.40153003
 0.48160596, 0.41267401
 0.49269281, 0.40759903
 0.55484628, 0.44733793
 0.51671428, 0.4287709
 0.42465989, 0.37794665
 0.41256515, 0.39560786
 0.49773229, 0.40119889
 0.53905599, 0.48398978
 0.75054595, 0.54844731
 0.69057619, 0.48971134
 0.51621033, 0.36174518
 0.3453721, 0.16388476
