tar,out
 0.27717116, 0.12904522
 0.2425668, 0.11745718
 0.12968254, 0.08477911
 0.12968254, 0.07023028
 0.11809175, 0.07078722
 0.14261716, 0.10613629
 0.3537712, 0.27138317
 0.66756262, 0.57318193
 0.67864946, 0.57140785
 0.51150679, 0.51383036
 0.65261211, 0.51949054
 0.66252314, 0.47483289
 0.47975809, 0.52515709
 0.48278177, 0.50291008
 0.54409546, 0.50360751
 0.50932308, 0.48564327
 0.41038134, 0.41852036
 0.39845461, 0.39485192
 0.48210991, 0.44476616
 0.57282047, 0.51760489
 0.67579369, 0.51372933
 0.65630776, 0.52329522
 0.43759451, 0.39547935
 0.29380143, 0.21186167
 0.2733076, 0.14917456
 0.23064007, 0.13779667
 0.13539398, 0.09698422
 0.13270623, 0.0978325
 0.13119438, 0.10152224
 0.1557198, 0.13661928
 0.33915672, 0.29992551
 0.67596171, 0.57872385
 0.65714763, 0.57482612
 0.51066691, 0.50064915
 0.50277176, 0.51153255
 0.51285071, 0.45950925
 0.44784148, 0.49055904
 0.47841426, 0.45476258
 0.57080468, 0.48642188
 0.55249456, 0.48481211
 0.46228794, 0.39491016
 0.44045018, 0.41460153
 0.50243573, 0.42053896
 0.58189153, 0.51065987
 0.68016131, 0.56245041
 0.56744497, 0.53343123
 0.4194524, 0.37289754
 0.29430538, 0.15089634
 0.27179576, 0.14336316
 0.22257691, 0.07665956
 0.15622375, 0.04180765
 0.16697466, 0.07001847
 0.14681676, 0.04962632
 0.15605583, 0.11841664
 0.35461118, 0.2849713
 0.65093235, 0.57338083
 0.62943052, 0.58106744
 0.48748532, 0.50900388
 0.53048888, 0.50379539
 0.48765333, 0.50829136
 0.49538046, 0.4777329
 0.46413571, 0.46781075
 0.5116748, 0.48423004
 0.51604231, 0.46797898
 0.4194524, 0.40708151
 0.38585593, 0.41154754
 0.41138924, 0.50617367
 0.55434233, 0.48939982
 0.60322524, 0.57155478
 0.60675288, 0.52832353
 0.49487652, 0.39714023
 0.26541246, 0.21469136
 0.2563414, 0.16373572
 0.22660849, 0.11477536
 0.1387536, 0.09114835
 0.14278518, 0.08253622
 0.12161938, 0.0934419
 0.1409374, 0.07981795
 0.36989752, 0.25598365
 0.68503277, 0.57411653
 0.67864946, 0.5549984
 0.53250467, 0.46448946
 0.50461954, 0.50139624
 0.480934, 0.46815553
 0.44985727, 0.44971049
 0.47320677, 0.47423768
 0.56290944, 0.50389802
 0.53317653, 0.4859187
 0.48009412, 0.42804477
 0.43373094, 0.42076924
 0.50747521, 0.42382967
 0.47975809, 0.50290745
 0.56862088, 0.5410676
 0.55165468, 0.5062418
 0.42549977, 0.36049482
 0.26994798, 0.18636018
 0.34789184, 0.17526481
 0.2447506, 0.13966626
 0.17974137, 0.12198696
 0.17235007, 0.0932529
 0.15924743, 0.10909258
 0.14144135, 0.09627678
 0.1705023, 0.16387025
 0.31614314, 0.22216217
 0.52595335, 0.4099254
 0.66151525, 0.60847354
 0.98286578, 0.7169714
 0.86813375, 0.74495238
 0.80127664, 0.68096924
 0.68335291, 0.60512245
 0.73038805, 0.60609031
 0.68688054, 0.55045819
 0.5943222, 0.50278151
 0.53519232, 0.5066303
 0.53552835, 0.54552931
 0.51066691, 0.53132886
 0.49874018, 0.5472241
 0.51402652, 0.48200077
 0.40634976, 0.47642344
 0.2775072, 0.4588992
 0.33764487, 0.18526931
 0.24559048, 0.18500695
 0.15420796, 0.14336756
 0.14664874, 0.1521666
 0.11473213, 0.1242836
 0.10784478, 0.12515058
 0.11909964, 0.1515734
 0.19536374, 0.2114713
 0.37493699, 0.34060055
 0.59650601, 0.63149345
 0.93247103, 0.84353358
 1., 0.8972066
 0.90744166, 0.81289089
 0.7616328, 0.7275995
 0.71745343, 0.67134035
 0.59449022, 0.57710969
 0.47690242, 0.49695694
 0.45304887, 0.48211598
 0.49554848, 0.48791361
 0.56425337, 0.54002833
 0.58306734, 0.6094864
 0.60557707, 0.57932127
 0.43793044, 0.45907921
 0.29564931, 0.20461674
 0.29581723, 0.12960878
 0.25197379, 0.09908348
 0.15017638, 0.11127689
 0.17016636, 0.07716501
 0.11574003, 0.09205568
 0.1906602, 0.11741987
 0.34066856, 0.22989753
 0.66773053, 0.35001731
 0.68620868, 0.5698117
 0.52813706, 0.56523591
 0.57483626, 0.62913859
 0.55518231, 0.57836616
 0.53804809, 0.53084874
 0.5699647, 0.48949969
 0.58945074, 0.52016318
 0.5392239, 0.49883154
 0.43289096, 0.43092319
 0.44733753, 0.42915368
 0.53351256, 0.44784173
 0.57802787, 0.53045523
 0.74029898, 0.54487807
 0.6133042, 0.50314611
 0.43826647, 0.35629699
 0.27448351, 0.15821703
 0.25701326, 0.13049147
 0.23181588, 0.08669984
 0.12346716, 0.03469962
 0.12195531, 0.11508295
 0.1175878, 0.05585113
 0.13791372, 0.16576797
 0.34285237, 0.31767416
 0.70115909, 0.56771803
 0.71039816, 0.57068145
 0.4957165, 0.50416011
 0.50865112, 0.49426448
 0.46531163, 0.50120097
 0.48160596, 0.47992185
 0.49269281, 0.46038336
 0.55484628, 0.48950279
 0.51671428, 0.46611091
 0.42465989, 0.41960448
 0.41256515, 0.41129205
 0.49773229, 0.49685526
 0.53905599, 0.47671556
 0.75054595, 0.56667495
 0.69057619, 0.4246538
 0.51621033, 0.33275446
 0.3453721, 0.18526994
