tar,out
 0.27717116, 0.13912638
 0.2425668, 0.11799517
 0.12968254, 0.10475431
 0.12968254, 0.09855598
 0.11809175, 0.10101175
 0.14261716, 0.1158845
 0.3537712, 0.24697287
 0.66756262, 0.50578874
 0.67864946, 0.51301801
 0.51150679, 0.47427607
 0.65261211, 0.47340024
 0.66252314, 0.44999465
 0.47975809, 0.45122644
 0.48278177, 0.46639943
 0.54409546, 0.46594092
 0.50932308, 0.44450352
 0.41038134, 0.38661444
 0.39845461, 0.37102127
 0.48210991, 0.40348989
 0.57282047, 0.49334627
 0.67579369, 0.46993124
 0.65630776, 0.47990826
 0.43759451, 0.38349274
 0.29380143, 0.23686284
 0.2733076, 0.14830755
 0.23064007, 0.11979146
 0.13539398, 0.11858764
 0.13270623, 0.11204481
 0.13119438, 0.12833329
 0.1557198, 0.13531388
 0.33915672, 0.26483849
 0.67596171, 0.52790797
 0.65714763, 0.52085197
 0.51066691, 0.43630517
 0.50277176, 0.47308239
 0.51285071, 0.43916249
 0.44784148, 0.45012182
 0.47841426, 0.40936625
 0.57080468, 0.46309847
 0.55249456, 0.4544391
 0.46228794, 0.38097584
 0.44045018, 0.37249735
 0.50243573, 0.40332803
 0.58189153, 0.48055315
 0.68016131, 0.4982751
 0.56744497, 0.47527301
 0.4194524, 0.37030554
 0.29430538, 0.19533198
 0.27179576, 0.13747673
 0.22257691, 0.12301795
 0.15622375, 0.10099345
 0.16697466, 0.1074176
 0.14681676, 0.10530218
 0.15605583, 0.12818986
 0.35461118, 0.25750887
 0.65093235, 0.53674853
 0.62943052, 0.50224453
 0.48748532, 0.45745176
 0.53048888, 0.45941907
 0.48765333, 0.45855585
 0.49538046, 0.42943174
 0.46413571, 0.44775203
 0.5116748, 0.45454153
 0.51604231, 0.42084956
 0.4194524, 0.36959729
 0.38585593, 0.3711454
 0.41138924, 0.41381696
 0.55434233, 0.49463356
 0.60322524, 0.48753983
 0.60675288, 0.48184943
 0.49487652, 0.37149698
 0.26541246, 0.20665666
 0.2563414, 0.15000702
 0.22660849, 0.14000827
 0.1387536, 0.11223245
 0.14278518, 0.10771278
 0.12161938, 0.10799541
 0.1409374, 0.10715389
 0.36989752, 0.28084737
 0.68503277, 0.53966069
 0.67864946, 0.51754308
 0.53250467, 0.41612005
 0.50461954, 0.45230627
 0.480934, 0.4253
 0.44985727, 0.41611499
 0.47320677, 0.41097939
 0.56290944, 0.46356615
 0.53317653, 0.44993052
 0.48009412, 0.38738292
 0.43373094, 0.37807122
 0.50747521, 0.40122968
 0.47975809, 0.47404173
 0.56862088, 0.45982945
 0.55165468, 0.4553197
 0.42549977, 0.36033228
 0.26994798, 0.1899178
 0.34789184, 0.15066352
 0.2447506, 0.15590397
 0.17974137, 0.1272645
 0.17235007, 0.1035611
 0.15924743, 0.10729405
 0.14144135, 0.10553636
 0.1705023, 0.13140593
 0.31614314, 0.21532294
 0.52595335, 0.41418147
 0.66151525, 0.57283074
 0.98286578, 0.65276128
 0.86813375, 0.69589746
 0.80127664, 0.62664217
 0.68335291, 0.59584391
 0.73038805, 0.56943166
 0.68688054, 0.49675518
 0.5943222, 0.46000275
 0.53519232, 0.44938958
 0.53552835, 0.47940034
 0.51066691, 0.45623654
 0.49874018, 0.50278318
 0.51402652, 0.44952857
 0.40634976, 0.42046803
 0.2775072, 0.47891605
 0.33764487, 0.31065735
 0.24559048, 0.22148938
 0.15420796, 0.16585121
 0.14664874, 0.17525521
 0.11473213, 0.14392236
 0.10784478, 0.13937613
 0.11909964, 0.20303385
 0.19536374, 0.22209927
 0.37493699, 0.4798272
 0.59650601, 0.56404054
 0.93247103, 0.81260407
 1., 0.82888156
 0.90744166, 0.79965496
 0.7616328, 0.69870263
 0.71745343, 0.6360625
 0.59449022, 0.51858068
 0.47690242, 0.45614454
 0.45304887, 0.4194335
 0.49554848, 0.4357518
 0.56425337, 0.52045715
 0.58306734, 0.56908655
 0.60557707, 0.50072014
 0.43793044, 0.40074968
 0.29564931, 0.24982439
 0.29581723, 0.14261967
 0.25197379, 0.12818916
 0.15017638, 0.12536278
 0.17016636, 0.11281112
 0.11574003, 0.10901515
 0.1906602, 0.12774748
 0.34066856, 0.20672582
 0.66773053, 0.38520485
 0.68620868, 0.52468932
 0.52813706, 0.52064371
 0.57483626, 0.53913677
 0.55518231, 0.51755184
 0.53804809, 0.47051355
 0.5699647, 0.46215069
 0.58945074, 0.46982902
 0.5392239, 0.45110106
 0.43289096, 0.43099248
 0.44733753, 0.41652572
 0.53351256, 0.41949829
 0.57802787, 0.49135727
 0.74029898, 0.4908936
 0.6133042, 0.4614687
 0.43826647, 0.37429273
 0.27448351, 0.18744016
 0.25701326, 0.1342833
 0.23181588, 0.11265241
 0.12346716, 0.09689337
 0.12195531, 0.11367469
 0.1175878, 0.10674053
 0.13791372, 0.23140463
 0.34285237, 0.25750825
 0.70115909, 0.54158485
 0.71039816, 0.49945301
 0.4957165, 0.43820333
 0.50865112, 0.46609187
 0.46531163, 0.45403531
 0.48160596, 0.42506731
 0.49269281, 0.44637924
 0.55484628, 0.45032954
 0.51671428, 0.4202297
 0.42465989, 0.36847705
 0.41256515, 0.37222651
 0.49773229, 0.42727208
 0.53905599, 0.48367348
 0.75054595, 0.48988503
 0.69057619, 0.51184726
 0.51621033, 0.3348265
 0.3453721, 0.18208864
