tar,out
 0.27717116, 0.18082273
 0.2425668, 0.1447221
 0.12968254, 0.10978198
 0.12968254, 0.10572901
 0.11809175, 0.07394826
 0.14261716, 0.11437747
 0.3537712, 0.22496349
 0.66756262, 0.50559455
 0.67864946, 0.55477929
 0.51150679, 0.50042331
 0.65261211, 0.5016765
 0.66252314, 0.44057664
 0.47975809, 0.44854695
 0.48278177, 0.44099173
 0.54409546, 0.46802124
 0.50932308, 0.4490065
 0.41038134, 0.37534517
 0.39845461, 0.36305943
 0.48210991, 0.38863665
 0.57282047, 0.49482369
 0.67579369, 0.51031417
 0.65630776, 0.51022279
 0.43759451, 0.34257364
 0.29380143, 0.21428862
 0.2733076, 0.18498603
 0.23064007, 0.1469913
 0.13539398, 0.11913341
 0.13270623, 0.12708561
 0.13119438, 0.0946866
 0.1557198, 0.13072513
 0.33915672, 0.2731964
 0.67596171, 0.53060627
 0.65714763, 0.56696594
 0.51066691, 0.4826842
 0.50277176, 0.48322675
 0.51285071, 0.45140085
 0.44784148, 0.43249416
 0.47841426, 0.43092442
 0.57080468, 0.45593774
 0.55249456, 0.44710097
 0.46228794, 0.35984141
 0.44045018, 0.36019003
 0.50243573, 0.40979213
 0.58189153, 0.49573684
 0.68016131, 0.54501462
 0.56744497, 0.53594029
 0.4194524, 0.35584229
 0.29430538, 0.19897982
 0.27179576, 0.18408065
 0.22257691, 0.16311817
 0.15622375, 0.13042523
 0.16697466, 0.13132246
 0.14681676, 0.11034589
 0.15605583, 0.17996164
 0.35461118, 0.42560518
 0.65093235, 0.57344675
 0.62943052, 0.52990878
 0.48748532, 0.47006294
 0.53048888, 0.473548
 0.48765333, 0.47119874
 0.49538046, 0.44306764
 0.46413571, 0.43968496
 0.5116748, 0.46704686
 0.51604231, 0.43775284
 0.4194524, 0.37456283
 0.38585593, 0.36520308
 0.41138924, 0.43709725
 0.55434233, 0.50292093
 0.60322524, 0.53967541
 0.60675288, 0.52986926
 0.49487652, 0.36424297
 0.26541246, 0.21973296
 0.2563414, 0.20649955
 0.22660849, 0.16926715
 0.1387536, 0.12888403
 0.14278518, 0.12588912
 0.12161938, 0.09699285
 0.1409374, 0.14023653
 0.36989752, 0.25042138
 0.68503277, 0.54338264
 0.67864946, 0.54105598
 0.53250467, 0.44890785
 0.50461954, 0.4623459
 0.480934, 0.43168977
 0.44985727, 0.41235569
 0.47320677, 0.45246091
 0.56290944, 0.47000247
 0.53317653, 0.45109123
 0.48009412, 0.38003787
 0.43373094, 0.36551633
 0.50747521, 0.40862316
 0.47975809, 0.49090439
 0.56862088, 0.53225553
 0.55165468, 0.50607109
 0.42549977, 0.34240156
 0.26994798, 0.19424337
 0.34789184, 0.18284762
 0.2447506, 0.17411995
 0.17974137, 0.14916721
 0.17235007, 0.1326685
 0.15924743, 0.12245628
 0.14144135, 0.14800698
 0.1705023, 0.18449774
 0.31614314, 0.25356171
 0.52595335, 0.39564994
 0.66151525, 0.57570142
 0.98286578, 0.72398496
 0.86813375, 0.72362798
 0.80127664, 0.6173898
 0.68335291, 0.62382257
 0.73038805, 0.57747251
 0.68688054, 0.50984055
 0.5943222, 0.44231686
 0.53519232, 0.47805911
 0.53552835, 0.48900187
 0.51066691, 0.46688336
 0.49874018, 0.51217139
 0.51402652, 0.44854891
 0.40634976, 0.43416119
 0.2775072, 0.29415581
 0.33764487, 0.21914509
 0.24559048, 0.20111132
 0.15420796, 0.17089415
 0.14664874, 0.15102869
 0.11473213, 0.13923213
 0.10784478, 0.16758333
 0.11909964, 0.160577
 0.19536374, 0.22791424
 0.37493699, 0.41978467
 0.59650601, 0.59810019
 0.93247103, 0.78515518
 1., 0.82404053
 0.90744166, 0.78625274
 0.7616328, 0.73696119
 0.71745343, 0.66659474
 0.59449022, 0.54648757
 0.47690242, 0.48869085
 0.45304887, 0.44511786
 0.49554848, 0.45800513
 0.56425337, 0.52024817
 0.58306734, 0.58746976
 0.60557707, 0.53392959
 0.43793044, 0.38497078
 0.29564931, 0.20478672
 0.29581723, 0.15904474
 0.25197379, 0.13567929
 0.15017638, 0.14425915
 0.17016636, 0.10549733
 0.11574003, 0.10320538
 0.1906602, 0.14411564
 0.34066856, 0.18771109
 0.66773053, 0.37296563
 0.68620868, 0.52455699
 0.52813706, 0.5495699
 0.57483626, 0.607292
 0.55518231, 0.56065744
 0.53804809, 0.49124345
 0.5699647, 0.47730321
 0.58945074, 0.48783091
 0.5392239, 0.45209515
 0.43289096, 0.38626415
 0.44733753, 0.37683499
 0.53351256, 0.3896333
 0.57802787, 0.4868232
 0.74029898, 0.5315398
 0.6133042, 0.52028108
 0.43826647, 0.34460527
 0.27448351, 0.19273704
 0.25701326, 0.15644588
 0.23181588, 0.13731106
 0.12346716, 0.11394446
 0.12195531, 0.12809172
 0.1175878, 0.10839795
 0.13791372, 0.21987785
 0.34285237, 0.4566673
 0.70115909, 0.5743376
 0.71039816, 0.53312743
 0.4957165, 0.47486135
 0.50865112, 0.48154518
 0.46531163, 0.46091619
 0.48160596, 0.44253153
 0.49269281, 0.43905646
 0.55484628, 0.46171689
 0.51671428, 0.44473225
 0.42465989, 0.36959854
 0.41256515, 0.36919445
 0.49773229, 0.43016574
 0.53905599, 0.49048358
 0.75054595, 0.53473938
 0.69057619, 0.53178477
 0.51621033, 0.27651244
 0.3453721, 0.18325138
