tar,out
 0.27717116, 0.14532158
 0.2425668, 0.10952741
 0.12968254, 0.09406149
 0.12968254, 0.07405549
 0.11809175, 0.06925821
 0.14261716, 0.09587368
 0.3537712, 0.27338871
 0.66756262, 0.53048092
 0.67864946, 0.53270763
 0.51150679, 0.48681307
 0.65261211, 0.48083866
 0.66252314, 0.45029986
 0.47975809, 0.43611628
 0.48278177, 0.43591091
 0.54409546, 0.47290835
 0.50932308, 0.46015531
 0.41038134, 0.3860119
 0.39845461, 0.35587904
 0.48210991, 0.41027105
 0.57282047, 0.49472088
 0.67579369, 0.48005459
 0.65630776, 0.48282218
 0.43759451, 0.33287093
 0.29380143, 0.188996
 0.2733076, 0.14010669
 0.23064007, 0.11530645
 0.13539398, 0.10241683
 0.13270623, 0.11480236
 0.13119438, 0.11389346
 0.1557198, 0.13327616
 0.33915672, 0.30407894
 0.67596171, 0.53046775
 0.65714763, 0.54711336
 0.51066691, 0.45390552
 0.50277176, 0.47981605
 0.51285071, 0.44257432
 0.44784148, 0.39487579
 0.47841426, 0.43564358
 0.57080468, 0.45619231
 0.55249456, 0.4512431
 0.46228794, 0.35633561
 0.44045018, 0.34940583
 0.50243573, 0.387106
 0.58189153, 0.49760699
 0.68016131, 0.52239931
 0.56744497, 0.5242852
 0.4194524, 0.3525238
 0.29430538, 0.17113192
 0.27179576, 0.15300906
 0.22257691, 0.13126618
 0.15622375, 0.12782571
 0.16697466, 0.081283
 0.14681676, 0.10149404
 0.15605583, 0.12080763
 0.35461118, 0.29301178
 0.65093235, 0.54358929
 0.62943052, 0.5178768
 0.48748532, 0.45507056
 0.53048888, 0.47894451
 0.48765333, 0.44977605
 0.49538046, 0.42419082
 0.46413571, 0.41337818
 0.5116748, 0.45749706
 0.51604231, 0.43445262
 0.4194524, 0.35326514
 0.38585593, 0.35930184
 0.41138924, 0.37565285
 0.55434233, 0.50083631
 0.60322524, 0.5092473
 0.60675288, 0.50830621
 0.49487652, 0.35059053
 0.26541246, 0.22714826
 0.2563414, 0.16399184
 0.22660849, 0.13038313
 0.1387536, 0.10980166
 0.14278518, 0.09626889
 0.12161938, 0.07846345
 0.1409374, 0.08888285
 0.36989752, 0.27147117
 0.68503277, 0.54112959
 0.67864946, 0.50626135
 0.53250467, 0.48019373
 0.50461954, 0.46128464
 0.480934, 0.45230204
 0.44985727, 0.44008765
 0.47320677, 0.45773393
 0.56290944, 0.46981305
 0.53317653, 0.45469791
 0.48009412, 0.37244946
 0.43373094, 0.36383063
 0.50747521, 0.38010776
 0.47975809, 0.49091727
 0.56862088, 0.49540845
 0.55165468, 0.48676458
 0.42549977, 0.34733272
 0.26994798, 0.18263875
 0.34789184, 0.17256339
 0.2447506, 0.14745796
 0.17974137, 0.13531493
 0.17235007, 0.08337997
 0.15924743, 0.08667625
 0.14144135, 0.08759502
 0.1705023, 0.13954604
 0.31614314, 0.22581911
 0.52595335, 0.4215878
 0.66151525, 0.54999244
 0.98286578, 0.67043579
 0.86813375, 0.72542411
 0.80127664, 0.6656996
 0.68335291, 0.65245414
 0.73038805, 0.57455534
 0.68688054, 0.50312328
 0.5943222, 0.44132334
 0.53519232, 0.43010277
 0.53552835, 0.48361468
 0.51066691, 0.4783023
 0.49874018, 0.51018882
 0.51402652, 0.48409152
 0.40634976, 0.45480576
 0.2775072, 0.21565652
 0.33764487, 0.18153389
 0.24559048, 0.17134231
 0.15420796, 0.14230405
 0.14664874, 0.14013651
 0.11473213, 0.12282182
 0.10784478, 0.12265484
 0.11909964, 0.15980406
 0.19536374, 0.21784753
 0.37493699, 0.32444376
 0.59650601, 0.58139396
 0.93247103, 0.8132925
 1., 0.85571647
 0.90744166, 0.79557586
 0.7616328, 0.7409212
 0.71745343, 0.67103553
 0.59449022, 0.51637566
 0.47690242, 0.45906782
 0.45304887, 0.40659291
 0.49554848, 0.44555375
 0.56425337, 0.52210522
 0.58306734, 0.58212876
 0.60557707, 0.55828261
 0.43793044, 0.36516583
 0.29564931, 0.21613948
 0.29581723, 0.13815708
 0.25197379, 0.12323356
 0.15017638, 0.11801369
 0.17016636, 0.10038982
 0.11574003, 0.10630202
 0.1906602, 0.12569857
 0.34066856, 0.18171337
 0.66773053, 0.46813592
 0.68620868, 0.52101821
 0.52813706, 0.50063199
 0.57483626, 0.57827592
 0.55518231, 0.53787065
 0.53804809, 0.50875574
 0.5699647, 0.49056789
 0.58945074, 0.46740139
 0.5392239, 0.472936
 0.43289096, 0.43933135
 0.44733753, 0.40192288
 0.53351256, 0.45394373
 0.57802787, 0.51962787
 0.74029898, 0.49039662
 0.6133042, 0.51819718
 0.43826647, 0.3702119
 0.27448351, 0.20435937
 0.25701326, 0.14954917
 0.23181588, 0.13167955
 0.12346716, 0.11270405
 0.12195531, 0.12150572
 0.1175878, 0.12857759
 0.13791372, 0.17273389
 0.34285237, 0.36998299
 0.70115909, 0.54120541
 0.71039816, 0.51237214
 0.4957165, 0.43033093
 0.50865112, 0.46547535
 0.46531163, 0.40873581
 0.48160596, 0.38303122
 0.49269281, 0.4075819
 0.55484628, 0.46126235
 0.51671428, 0.43715724
 0.42465989, 0.36300412
 0.41256515, 0.35986379
 0.49773229, 0.40385371
 0.53905599, 0.4943127
 0.75054595, 0.51057822
 0.69057619, 0.51798487
 0.51621033, 0.35325
 0.3453721, 0.18949658
