tar,out
 0.27717116, 0.09774074
 0.2425668, 0.07384385
 0.12968254, 0.0730727
 0.12968254, 0.05384997
 0.11809175, 0.05864152
 0.14261716, 0.07148406
 0.3537712, 0.24451545
 0.66756262, 0.51492143
 0.67864946, 0.53671765
 0.51150679, 0.45802355
 0.65261211, 0.46276581
 0.66252314, 0.44878781
 0.47975809, 0.44755191
 0.48278177, 0.43691403
 0.54409546, 0.48545417
 0.50932308, 0.45161757
 0.41038134, 0.38357133
 0.39845461, 0.36979672
 0.48210991, 0.393655
 0.57282047, 0.48741764
 0.67579369, 0.48458171
 0.65630776, 0.51225972
 0.43759451, 0.38656929
 0.29380143, 0.19856134
 0.2733076, 0.16197792
 0.23064007, 0.08458081
 0.13539398, 0.08170272
 0.13270623, 0.06741399
 0.13119438, 0.06919937
 0.1557198, 0.0840532
 0.33915672, 0.25121167
 0.67596171, 0.51495624
 0.65714763, 0.51402175
 0.51066691, 0.43242744
 0.50277176, 0.44223511
 0.51285071, 0.44178933
 0.44784148, 0.39492524
 0.47841426, 0.41202015
 0.57080468, 0.45325923
 0.55249456, 0.44971412
 0.46228794, 0.37370062
 0.44045018, 0.38157755
 0.50243573, 0.38279718
 0.58189153, 0.4794867
 0.68016131, 0.50824261
 0.56744497, 0.52020204
 0.4194524, 0.37130326
 0.29430538, 0.16640145
 0.27179576, 0.12044707
 0.22257691, 0.07606436
 0.15622375, 0.06836049
 0.16697466, 0.05549777
 0.14681676, 0.05921265
 0.15605583, 0.07959108
 0.35461118, 0.24877658
 0.65093235, 0.54643577
 0.62943052, 0.51639199
 0.48748532, 0.43865225
 0.53048888, 0.42083904
 0.48765333, 0.46868318
 0.49538046, 0.3903988
 0.46413571, 0.41004887
 0.5116748, 0.43466529
 0.51604231, 0.42635435
 0.4194524, 0.36760569
 0.38585593, 0.37997657
 0.41138924, 0.40429476
 0.55434233, 0.48690116
 0.60322524, 0.51625371
 0.60675288, 0.49807087
 0.49487652, 0.36865902
 0.26541246, 0.21234789
 0.2563414, 0.11898841
 0.22660849, 0.08625798
 0.1387536, 0.07784705
 0.14278518, 0.06835647
 0.12161938, 0.06371734
 0.1409374, 0.07168835
 0.36989752, 0.24877658
 0.68503277, 0.53179693
 0.67864946, 0.526088
 0.53250467, 0.43211168
 0.50461954, 0.43358278
 0.480934, 0.40809709
 0.44985727, 0.38396907
 0.47320677, 0.41151625
 0.56290944, 0.47855371
 0.53317653, 0.46379143
 0.48009412, 0.38507456
 0.43373094, 0.37915879
 0.50747521, 0.38916263
 0.47975809, 0.47283477
 0.56862088, 0.49985197
 0.55165468, 0.49180034
 0.42549977, 0.3670522
 0.26994798, 0.18039891
 0.34789184, 0.1300208
 0.2447506, 0.08797707
 0.17974137, 0.08746986
 0.17235007, 0.0730523
 0.15924743, 0.07739633
 0.14144135, 0.08272475
 0.1705023, 0.14735866
 0.31614314, 0.23555973
 0.52595335, 0.43633083
 0.66151525, 0.61034143
 0.98286578, 0.64798808
 0.86813375, 0.69495815
 0.80127664, 0.59586692
 0.68335291, 0.55072808
 0.73038805, 0.60272902
 0.68688054, 0.54081523
 0.5943222, 0.44986314
 0.53519232, 0.46648675
 0.53552835, 0.47979173
 0.51066691, 0.46337995
 0.49874018, 0.51128817
 0.51402652, 0.47381678
 0.40634976, 0.39516109
 0.2775072, 0.24344249
 0.33764487, 0.11812797
 0.24559048, 0.20452766
 0.15420796, 0.17059754
 0.14664874, 0.17960581
 0.11473213, 0.16676351
 0.10784478, 0.20984702
 0.11909964, 0.21542662
 0.19536374, 0.24581395
 0.37493699, 0.29440165
 0.59650601, 0.57783502
 0.93247103, 0.74334455
 1., 0.82177091
 0.90744166, 0.73656619
 0.7616328, 0.65453905
 0.71745343, 0.64815259
 0.59449022, 0.55572039
 0.47690242, 0.47048768
 0.45304887, 0.41414264
 0.49554848, 0.44901764
 0.56425337, 0.48306477
 0.58306734, 0.56008422
 0.60557707, 0.53419995
 0.43793044, 0.37418157
 0.29564931, 0.24440841
 0.29581723, 0.11790684
 0.25197379, 0.07988515
 0.15017638, 0.07994112
 0.17016636, 0.07335801
 0.11574003, 0.07948196
 0.1906602, 0.0863491
 0.34066856, 0.1964404
 0.66773053, 0.42784363
 0.68620868, 0.49404299
 0.52813706, 0.48956949
 0.57483626, 0.52511299
 0.55518231, 0.55402195
 0.53804809, 0.48363143
 0.5699647, 0.4640331
 0.58945074, 0.47922304
 0.5392239, 0.47092766
 0.43289096, 0.42613405
 0.44733753, 0.37967825
 0.53351256, 0.41347489
 0.57802787, 0.50139415
 0.74029898, 0.50942469
 0.6133042, 0.48418796
 0.43826647, 0.34521836
 0.27448351, 0.15704286
 0.25701326, 0.10542919
 0.23181588, 0.07840423
 0.12346716, 0.06558943
 0.12195531, 0.05365191
 0.1175878, 0.06313042
 0.13791372, 0.11179847
 0.34285237, 0.25583839
 0.70115909, 0.54591048
 0.71039816, 0.50600517
 0.4957165, 0.41681448
 0.50865112, 0.41756958
 0.46531163, 0.4338876
 0.48160596, 0.38551864
 0.49269281, 0.39280671
 0.55484628, 0.42226341
 0.51671428, 0.41885239
 0.42465989, 0.37247404
 0.41256515, 0.38327274
 0.49773229, 0.41223809
 0.53905599, 0.48907077
 0.75054595, 0.50936043
 0.69057619, 0.49496159
 0.51621033, 0.38316017
 0.3453721, 0.24450724
