tar,out
 0.27717116, 0.14458627
 0.2425668, 0.10052139
 0.12968254, 0.09507911
 0.12968254, 0.08932297
 0.11809175, 0.08793512
 0.14261716, 0.11116593
 0.3537712, 0.20186155
 0.66756262, 0.43879718
 0.67864946, 0.50279099
 0.51150679, 0.45882666
 0.65261211, 0.4586724
 0.66252314, 0.4430469
 0.47975809, 0.43595278
 0.48278177, 0.44228089
 0.54409546, 0.45997894
 0.50932308, 0.44200063
 0.41038134, 0.35575062
 0.39845461, 0.36698341
 0.48210991, 0.41895419
 0.57282047, 0.4669134
 0.67579369, 0.49291062
 0.65630776, 0.49240646
 0.43759451, 0.36025393
 0.29380143, 0.2751869
 0.2733076, 0.1619048
 0.23064007, 0.12456544
 0.13539398, 0.1293526
 0.13270623, 0.11287241
 0.13119438, 0.11275826
 0.1557198, 0.15273437
 0.33915672, 0.23382071
 0.67596171, 0.49976581
 0.65714763, 0.5082382
 0.51066691, 0.46216255
 0.50277176, 0.45806164
 0.51285071, 0.44417751
 0.44784148, 0.43682268
 0.47841426, 0.4354353
 0.57080468, 0.4519878
 0.55249456, 0.44640017
 0.46228794, 0.34861979
 0.44045018, 0.35022303
 0.50243573, 0.40897644
 0.58189153, 0.46718121
 0.68016131, 0.50776207
 0.56744497, 0.50708127
 0.4194524, 0.3474789
 0.29430538, 0.20247906
 0.27179576, 0.15790805
 0.22257691, 0.12073566
 0.15622375, 0.11139764
 0.16697466, 0.0975333
 0.14681676, 0.10038365
 0.15605583, 0.14414695
 0.35461118, 0.22988591
 0.65093235, 0.49825382
 0.62943052, 0.49881068
 0.48748532, 0.4620055
 0.53048888, 0.46121272
 0.48765333, 0.45975429
 0.49538046, 0.4385227
 0.46413571, 0.43842423
 0.5116748, 0.45102143
 0.51604231, 0.4343431
 0.4194524, 0.35252562
 0.38585593, 0.38098648
 0.41138924, 0.41972455
 0.55434233, 0.45159477
 0.60322524, 0.51824844
 0.60675288, 0.50459629
 0.49487652, 0.35005403
 0.26541246, 0.22262102
 0.2563414, 0.17242438
 0.22660849, 0.12480047
 0.1387536, 0.11516488
 0.14278518, 0.09367487
 0.12161938, 0.09983769
 0.1409374, 0.11862618
 0.36989752, 0.20009658
 0.68503277, 0.4751029
 0.67864946, 0.49592912
 0.53250467, 0.45710051
 0.50461954, 0.45341128
 0.480934, 0.43410134
 0.44985727, 0.43595064
 0.47320677, 0.44585773
 0.56290944, 0.4570356
 0.53317653, 0.44366992
 0.48009412, 0.36151636
 0.43373094, 0.36567795
 0.50747521, 0.41913837
 0.47975809, 0.46440458
 0.56862088, 0.48976976
 0.55165468, 0.47765267
 0.42549977, 0.28935048
 0.26994798, 0.19704342
 0.34789184, 0.18340474
 0.2447506, 0.16098037
 0.17974137, 0.14445716
 0.17235007, 0.11993191
 0.15924743, 0.11138429
 0.14144135, 0.12120894
 0.1705023, 0.16871549
 0.31614314, 0.19897413
 0.52595335, 0.30792356
 0.66151525, 0.50852102
 0.98286578, 0.61332983
 0.86813375, 0.67062497
 0.80127664, 0.60316753
 0.68335291, 0.57146496
 0.73038805, 0.53147513
 0.68688054, 0.46794295
 0.5943222, 0.44488835
 0.53519232, 0.43767422
 0.53552835, 0.43319887
 0.51066691, 0.44598553
 0.49874018, 0.45177153
 0.51402652, 0.43582594
 0.40634976, 0.44073838
 0.2775072, 0.20331916
 0.33764487, 0.22289518
 0.24559048, 0.16186979
 0.15420796, 0.15598141
 0.14664874, 0.10581025
 0.11473213, 0.12628618
 0.10784478, 0.1300973
 0.11909964, 0.16297621
 0.19536374, 0.19872186
 0.37493699, 0.29254866
 0.59650601, 0.59628987
 0.93247103, 0.74459577
 1., 0.79729319
 0.90744166, 0.74782443
 0.7616328, 0.66602921
 0.71745343, 0.59930348
 0.59449022, 0.50382948
 0.47690242, 0.46259582
 0.45304887, 0.443964
 0.49554848, 0.43638712
 0.56425337, 0.44266289
 0.58306734, 0.49678272
 0.60557707, 0.46079844
 0.43793044, 0.40234151
 0.29564931, 0.20481116
 0.29581723, 0.15698074
 0.25197379, 0.12499826
 0.15017638, 0.11260809
 0.17016636, 0.11910833
 0.11574003, 0.11519159
 0.1906602, 0.14065486
 0.34066856, 0.18536419
 0.66773053, 0.48359212
 0.68620868, 0.52246881
 0.52813706, 0.45953894
 0.57483626, 0.54776353
 0.55518231, 0.4888756
 0.53804809, 0.46157873
 0.5699647, 0.44686902
 0.58945074, 0.45629972
 0.5392239, 0.44304454
 0.43289096, 0.38615477
 0.44733753, 0.37124616
 0.53351256, 0.41512597
 0.57802787, 0.45750028
 0.74029898, 0.48558316
 0.6133042, 0.48013392
 0.43826647, 0.35035247
 0.27448351, 0.20142718
 0.25701326, 0.14046246
 0.23181588, 0.11155845
 0.12346716, 0.07948013
 0.12195531, 0.09311417
 0.1175878, 0.10108297
 0.13791372, 0.15970175
 0.34285237, 0.25416961
 0.70115909, 0.49389315
 0.71039816, 0.50308836
 0.4957165, 0.47237688
 0.50865112, 0.46931618
 0.46531163, 0.45720303
 0.48160596, 0.43746322
 0.49269281, 0.43741494
 0.55484628, 0.45341974
 0.51671428, 0.43888658
 0.42465989, 0.35737389
 0.41256515, 0.38800418
 0.49773229, 0.41399178
 0.53905599, 0.45558345
 0.75054595, 0.51543319
 0.69057619, 0.47074622
 0.51621033, 0.39123291
 0.3453721, 0.19354689
