tar,out
 0.27717116, 0.13255796
 0.2425668, 0.09077789
 0.12968254, 0.07453895
 0.12968254, 0.06163669
 0.11809175, 0.05790359
 0.14261716, 0.07233286
 0.3537712, 0.22643331
 0.66756262, 0.50116855
 0.67864946, 0.52571964
 0.51150679, 0.46464306
 0.65261211, 0.47243145
 0.66252314, 0.45633233
 0.47975809, 0.46750706
 0.48278177, 0.49092257
 0.54409546, 0.47658819
 0.50932308, 0.46022835
 0.41038134, 0.40167239
 0.39845461, 0.35916662
 0.48210991, 0.42854017
 0.57282047, 0.51869607
 0.67579369, 0.49944389
 0.65630776, 0.52906358
 0.43759451, 0.37886262
 0.29380143, 0.21351424
 0.2733076, 0.13935778
 0.23064007, 0.11788549
 0.13539398, 0.08143023
 0.13270623, 0.0676437
 0.13119438, 0.07614931
 0.1557198, 0.09831454
 0.33915672, 0.27096418
 0.67596171, 0.54352194
 0.65714763, 0.54567003
 0.51066691, 0.45702296
 0.50277176, 0.46433222
 0.51285071, 0.44544044
 0.44784148, 0.4571608
 0.47841426, 0.41957617
 0.57080468, 0.46228039
 0.55249456, 0.44902685
 0.46228794, 0.38129231
 0.44045018, 0.36968288
 0.50243573, 0.44281337
 0.58189153, 0.52086669
 0.68016131, 0.53083414
 0.56744497, 0.52246761
 0.4194524, 0.36615008
 0.29430538, 0.21526101
 0.27179576, 0.15416692
 0.22257691, 0.10024327
 0.15622375, 0.07939225
 0.16697466, 0.06744066
 0.14681676, 0.06553343
 0.15605583, 0.08490936
 0.35461118, 0.27695528
 0.65093235, 0.59279883
 0.62943052, 0.53751481
 0.48748532, 0.4641805
 0.53048888, 0.48559654
 0.48765333, 0.45502865
 0.49538046, 0.43886086
 0.46413571, 0.42283726
 0.5116748, 0.47093284
 0.51604231, 0.38921666
 0.4194524, 0.38380691
 0.38585593, 0.36666769
 0.41138924, 0.45929974
 0.55434233, 0.49994451
 0.60322524, 0.50905585
 0.60675288, 0.51581109
 0.49487652, 0.36706054
 0.26541246, 0.21598908
 0.2563414, 0.18246208
 0.22660849, 0.10417515
 0.1387536, 0.08678454
 0.14278518, 0.06451774
 0.12161938, 0.06021771
 0.1409374, 0.07766843
 0.36989752, 0.2692132
 0.68503277, 0.55162245
 0.67864946, 0.52497017
 0.53250467, 0.4462001
 0.50461954, 0.45240638
 0.480934, 0.4414176
 0.44985727, 0.45998466
 0.47320677, 0.4579083
 0.56290944, 0.47480303
 0.53317653, 0.44882587
 0.48009412, 0.41802683
 0.43373094, 0.37722039
 0.50747521, 0.44558385
 0.47975809, 0.49243435
 0.56862088, 0.52703243
 0.55165468, 0.51535285
 0.42549977, 0.35534483
 0.26994798, 0.21404997
 0.34789184, 0.19982971
 0.2447506, 0.16612472
 0.17974137, 0.09568629
 0.17235007, 0.07134631
 0.15924743, 0.07140014
 0.14144135, 0.06818846
 0.1705023, 0.1114448
 0.31614314, 0.20801541
 0.52595335, 0.37511626
 0.66151525, 0.54215682
 0.98286578, 0.72774529
 0.86813375, 0.7389524
 0.80127664, 0.68561709
 0.68335291, 0.57616079
 0.73038805, 0.61768693
 0.68688054, 0.50820303
 0.5943222, 0.48327079
 0.53519232, 0.46357363
 0.53552835, 0.46727914
 0.51066691, 0.46994311
 0.49874018, 0.50946295
 0.51402652, 0.46203494
 0.40634976, 0.37997118
 0.2775072, 0.34879243
 0.33764487, 0.18246762
 0.24559048, 0.11333993
 0.15420796, 0.0984792
 0.14664874, 0.10712464
 0.11473213, 0.09593883
 0.10784478, 0.10445644
 0.11909964, 0.16063984
 0.19536374, 0.25704533
 0.37493699, 0.33167493
 0.59650601, 0.56844246
 0.93247103, 0.80427754
 1., 0.88879085
 0.90744166, 0.81960678
 0.7616328, 0.73714793
 0.71745343, 0.65147007
 0.59449022, 0.54243743
 0.47690242, 0.49146298
 0.45304887, 0.43380967
 0.49554848, 0.46823138
 0.56425337, 0.49257618
 0.58306734, 0.59886384
 0.60557707, 0.537211
 0.43793044, 0.38157198
 0.29564931, 0.27002567
 0.29581723, 0.11022852
 0.25197379, 0.08136153
 0.15017638, 0.08587834
 0.17016636, 0.08303013
 0.11574003, 0.08094962
 0.1906602, 0.08732662
 0.34066856, 0.22255282
 0.66773053, 0.25247085
 0.68620868, 0.47884712
 0.52813706, 0.56900525
 0.57483626, 0.55211157
 0.55518231, 0.55348748
 0.53804809, 0.47237599
 0.5699647, 0.48370767
 0.58945074, 0.49277031
 0.5392239, 0.47096244
 0.43289096, 0.43241522
 0.44733753, 0.38856184
 0.53351256, 0.45352483
 0.57802787, 0.52205133
 0.74029898, 0.52835065
 0.6133042, 0.5424971
 0.43826647, 0.35070318
 0.27448351, 0.21463592
 0.25701326, 0.10289606
 0.23181588, 0.08502729
 0.12346716, 0.07494166
 0.12195531, 0.07470766
 0.1175878, 0.0722045
 0.13791372, 0.1467731
 0.34285237, 0.29219201
 0.70115909, 0.59927368
 0.71039816, 0.53476411
 0.4957165, 0.45506608
 0.50865112, 0.48439157
 0.46531163, 0.44301087
 0.48160596, 0.43828058
 0.49269281, 0.4120273
 0.55484628, 0.4541344
 0.51671428, 0.38484797
 0.42465989, 0.3879908
 0.41256515, 0.37107679
 0.49773229, 0.45870614
 0.53905599, 0.50737011
 0.75054595, 0.52305996
 0.69057619, 0.51808763
 0.51621033, 0.30641201
 0.3453721, 0.21307556
