tar,out
 0.27717116, 0.13009825
 0.2425668, 0.08983362
 0.12968254, 0.0869607
 0.12968254, 0.06632909
 0.11809175, 0.05999443
 0.14261716, 0.06975278
 0.3537712, 0.24637395
 0.66756262, 0.53025359
 0.67864946, 0.56336325
 0.51150679, 0.50193942
 0.65261211, 0.45891929
 0.66252314, 0.44116777
 0.47975809, 0.45497406
 0.48278177, 0.43279973
 0.54409546, 0.46261093
 0.50932308, 0.457881
 0.41038134, 0.39419836
 0.39845461, 0.36722973
 0.48210991, 0.41087484
 0.57282047, 0.51340121
 0.67579369, 0.50935948
 0.65630776, 0.50511354
 0.43759451, 0.3924945
 0.29380143, 0.21616659
 0.2733076, 0.18573916
 0.23064007, 0.10140502
 0.13539398, 0.09694411
 0.13270623, 0.07624331
 0.13119438, 0.08540934
 0.1557198, 0.09480201
 0.33915672, 0.28046554
 0.67596171, 0.55190432
 0.65714763, 0.56948578
 0.51066691, 0.4853766
 0.50277176, 0.4481895
 0.51285071, 0.44543409
 0.44784148, 0.41978288
 0.47841426, 0.41024825
 0.57080468, 0.46439481
 0.55249456, 0.44959956
 0.46228794, 0.385086
 0.44045018, 0.38002193
 0.50243573, 0.39997694
 0.58189153, 0.49755305
 0.68016131, 0.54397798
 0.56744497, 0.5144214
 0.4194524, 0.38000727
 0.29430538, 0.18801041
 0.27179576, 0.11982667
 0.22257691, 0.09895371
 0.15622375, 0.07977673
 0.16697466, 0.06370443
 0.14681676, 0.06995946
 0.15605583, 0.08691052
 0.35461118, 0.27819091
 0.65093235, 0.55693507
 0.62943052, 0.56191683
 0.48748532, 0.49592292
 0.53048888, 0.47264716
 0.48765333, 0.49761242
 0.49538046, 0.4445529
 0.46413571, 0.41694099
 0.5116748, 0.47532031
 0.51604231, 0.42448264
 0.4194524, 0.38424775
 0.38585593, 0.37783992
 0.41138924, 0.40591437
 0.55434233, 0.48613137
 0.60322524, 0.53182137
 0.60675288, 0.51435715
 0.49487652, 0.38275084
 0.26541246, 0.20822328
 0.2563414, 0.13423453
 0.22660849, 0.09254222
 0.1387536, 0.07182476
 0.14278518, 0.07566568
 0.12161938, 0.06380895
 0.1409374, 0.07277328
 0.36989752, 0.28702992
 0.68503277, 0.56292927
 0.67864946, 0.54567188
 0.53250467, 0.48920611
 0.50461954, 0.46415693
 0.480934, 0.45628747
 0.44985727, 0.41430226
 0.47320677, 0.41329926
 0.56290944, 0.46540543
 0.53317653, 0.46705922
 0.48009412, 0.3984611
 0.43373094, 0.38513431
 0.50747521, 0.4000794
 0.47975809, 0.50376302
 0.56862088, 0.50571907
 0.55165468, 0.49352318
 0.42549977, 0.38284138
 0.26994798, 0.19795384
 0.34789184, 0.12484944
 0.2447506, 0.1548263
 0.17974137, 0.1037401
 0.17235007, 0.07631552
 0.15924743, 0.08730361
 0.14144135, 0.07082564
 0.1705023, 0.11596666
 0.31614314, 0.23924819
 0.52595335, 0.4383907
 0.66151525, 0.59373802
 0.98286578, 0.70967889
 0.86813375, 0.75463355
 0.80127664, 0.69272041
 0.68335291, 0.63900816
 0.73038805, 0.58190054
 0.68688054, 0.56059659
 0.5943222, 0.47133422
 0.53519232, 0.47362509
 0.53552835, 0.52770835
 0.51066691, 0.50162143
 0.49874018, 0.50683904
 0.51402652, 0.48108682
 0.40634976, 0.43268049
 0.2775072, 0.27412719
 0.33764487, 0.36305144
 0.24559048, 0.12694085
 0.15420796, 0.11999078
 0.14664874, 0.12946811
 0.11473213, 0.11399016
 0.10784478, 0.13105221
 0.11909964, 0.14440311
 0.19536374, 0.18120942
 0.37493699, 0.3378098
 0.59650601, 0.61573946
 0.93247103, 0.82518834
 1., 0.86506706
 0.90744166, 0.82306063
 0.7616328, 0.76475292
 0.71745343, 0.66859186
 0.59449022, 0.54348022
 0.47690242, 0.46817446
 0.45304887, 0.42647818
 0.49554848, 0.44699517
 0.56425337, 0.54478288
 0.58306734, 0.584952
 0.60557707, 0.56527007
 0.43793044, 0.42487282
 0.29564931, 0.27713901
 0.29581723, 0.12551267
 0.25197379, 0.10419418
 0.15017638, 0.08674699
 0.17016636, 0.08460161
 0.11574003, 0.07238734
 0.1906602, 0.13357678
 0.34066856, 0.1511209
 0.66773053, 0.33035892
 0.68620868, 0.55902517
 0.52813706, 0.54316342
 0.57483626, 0.58854103
 0.55518231, 0.56486475
 0.53804809, 0.47206628
 0.5699647, 0.4445748
 0.58945074, 0.46983802
 0.5392239, 0.46976936
 0.43289096, 0.4120279
 0.44733753, 0.4093405
 0.53351256, 0.42712972
 0.57802787, 0.53492934
 0.74029898, 0.50953126
 0.6133042, 0.52054554
 0.43826647, 0.35764027
 0.27448351, 0.13033566
 0.25701326, 0.11612257
 0.23181588, 0.0867312
 0.12346716, 0.08223936
 0.12195531, 0.05937344
 0.1175878, 0.07825378
 0.13791372, 0.11013369
 0.34285237, 0.30710462
 0.70115909, 0.5564059
 0.71039816, 0.55648655
 0.4957165, 0.47233015
 0.50865112, 0.46369493
 0.46531163, 0.46618992
 0.48160596, 0.41727954
 0.49269281, 0.41252911
 0.55484628, 0.45171583
 0.51671428, 0.43887967
 0.42465989, 0.40008727
 0.41256515, 0.38099346
 0.49773229, 0.40654221
 0.53905599, 0.47364432
 0.75054595, 0.54737389
 0.69057619, 0.52049983
 0.51621033, 0.34618831
 0.3453721, 0.1179166
