tar,out
 0.27717116, 0.1512111
 0.2425668, 0.11196841
 0.12968254, 0.09775433
 0.12968254, 0.09080881
 0.11809175, 0.08583751
 0.14261716, 0.11912575
 0.3537712, 0.26842469
 0.66756262, 0.54412788
 0.67864946, 0.55198938
 0.51150679, 0.46881539
 0.65261211, 0.46548784
 0.66252314, 0.42796087
 0.47975809, 0.46236199
 0.48278177, 0.43909785
 0.54409546, 0.47743481
 0.50932308, 0.44174838
 0.41038134, 0.3863776
 0.39845461, 0.36716983
 0.48210991, 0.40445256
 0.57282047, 0.46504605
 0.67579369, 0.48217371
 0.65630776, 0.52862579
 0.43759451, 0.40933505
 0.29380143, 0.43798792
 0.2733076, 0.15832838
 0.23064007, 0.13915317
 0.13539398, 0.12087907
 0.13270623, 0.11638266
 0.13119438, 0.11142211
 0.1557198, 0.14304194
 0.33915672, 0.27558315
 0.67596171, 0.55284435
 0.65714763, 0.54396725
 0.51066691, 0.44567627
 0.50277176, 0.45807391
 0.51285071, 0.44830933
 0.44784148, 0.42852652
 0.47841426, 0.41555303
 0.57080468, 0.45777568
 0.55249456, 0.43922871
 0.46228794, 0.37104505
 0.44045018, 0.37791312
 0.50243573, 0.3901968
 0.58189153, 0.47216535
 0.68016131, 0.53045756
 0.56744497, 0.51246816
 0.4194524, 0.36342016
 0.29430538, 0.17232253
 0.27179576, 0.15374824
 0.22257691, 0.11940771
 0.15622375, 0.09625614
 0.16697466, 0.11644155
 0.14681676, 0.09424952
 0.15605583, 0.14063324
 0.35461118, 0.27468175
 0.65093235, 0.5628736
 0.62943052, 0.54129416
 0.48748532, 0.46692306
 0.53048888, 0.43451223
 0.48765333, 0.43266833
 0.49538046, 0.42829752
 0.46413571, 0.42411175
 0.5116748, 0.45362023
 0.51604231, 0.42651796
 0.4194524, 0.37138382
 0.38585593, 0.37861931
 0.41138924, 0.40095764
 0.55434233, 0.46950832
 0.60322524, 0.52504861
 0.60675288, 0.5229488
 0.49487652, 0.38056117
 0.26541246, 0.19431129
 0.2563414, 0.15533945
 0.22660849, 0.10884857
 0.1387536, 0.1014577
 0.14278518, 0.09163052
 0.12161938, 0.08145866
 0.1409374, 0.09118548
 0.36989752, 0.27975714
 0.68503277, 0.54299498
 0.67864946, 0.52727222
 0.53250467, 0.43568677
 0.50461954, 0.44310081
 0.480934, 0.4194532
 0.44985727, 0.42437756
 0.47320677, 0.44936398
 0.56290944, 0.48126093
 0.53317653, 0.48193321
 0.48009412, 0.3917816
 0.43373094, 0.38477713
 0.50747521, 0.38997915
 0.47975809, 0.47065592
 0.56862088, 0.51070213
 0.55165468, 0.49318877
 0.42549977, 0.35855922
 0.26994798, 0.1901916
 0.34789184, 0.14937302
 0.2447506, 0.1339142
 0.17974137, 0.11194226
 0.17235007, 0.11925334
 0.15924743, 0.10958785
 0.14144135, 0.11156964
 0.1705023, 0.14374442
 0.31614314, 0.18377407
 0.52595335, 0.3561877
 0.66151525, 0.55826783
 0.98286578, 0.69754291
 0.86813375, 0.74220175
 0.80127664, 0.59257138
 0.68335291, 0.60643685
 0.73038805, 0.6003598
 0.68688054, 0.5475713
 0.5943222, 0.48019499
 0.53519232, 0.47274312
 0.53552835, 0.49117765
 0.51066691, 0.44645271
 0.49874018, 0.53152353
 0.51402652, 0.41892231
 0.40634976, 0.42566001
 0.2775072, 0.34721291
 0.33764487, 0.40466642
 0.24559048, 0.18162891
 0.15420796, 0.15452237
 0.14664874, 0.13532835
 0.11473213, 0.14895883
 0.10784478, 0.1330252
 0.11909964, 0.18999884
 0.19536374, 0.25305843
 0.37493699, 0.31244373
 0.59650601, 0.55012256
 0.93247103, 0.79996306
 1., 0.90593964
 0.90744166, 0.82009012
 0.7616328, 0.74309522
 0.71745343, 0.68356901
 0.59449022, 0.54292411
 0.47690242, 0.46784046
 0.45304887, 0.41707119
 0.49554848, 0.45163333
 0.56425337, 0.52960503
 0.58306734, 0.5907774
 0.60557707, 0.53891498
 0.43793044, 0.39968699
 0.29564931, 0.20947322
 0.29581723, 0.14651069
 0.25197379, 0.1329146
 0.15017638, 0.12067038
 0.17016636, 0.11038712
 0.11574003, 0.11611277
 0.1906602, 0.12842952
 0.34066856, 0.23731989
 0.66773053, 0.27212182
 0.68620868, 0.53334856
 0.52813706, 0.49427229
 0.57483626, 0.56495672
 0.55518231, 0.51215076
 0.53804809, 0.47027016
 0.5699647, 0.46734375
 0.58945074, 0.47913751
 0.5392239, 0.46473441
 0.43289096, 0.42703238
 0.44733753, 0.40296936
 0.53351256, 0.41580337
 0.57802787, 0.51568317
 0.74029898, 0.49357447
 0.6133042, 0.53698218
 0.43826647, 0.40910402
 0.27448351, 0.2156678
 0.25701326, 0.14693956
 0.23181588, 0.11754432
 0.12346716, 0.11200283
 0.12195531, 0.10464033
 0.1175878, 0.09386718
 0.13791372, 0.23231524
 0.34285237, 0.29848576
 0.70115909, 0.54767215
 0.71039816, 0.52266002
 0.4957165, 0.46593106
 0.50865112, 0.43492419
 0.46531163, 0.41777658
 0.48160596, 0.42050242
 0.49269281, 0.4152922
 0.55484628, 0.44162363
 0.51671428, 0.42378786
 0.42465989, 0.38379273
 0.41256515, 0.38285574
 0.49773229, 0.40853602
 0.53905599, 0.4496707
 0.75054595, 0.52557623
 0.69057619, 0.52188838
 0.51621033, 0.43100804
 0.3453721, 0.1897364
