tar,out
 0.27717116, 0.14838941
 0.2425668, 0.10371658
 0.12968254, 0.09597132
 0.12968254, 0.05706412
 0.11809175, 0.07867354
 0.14261716, 0.10480756
 0.3537712, 0.22656725
 0.66756262, 0.53079391
 0.67864946, 0.54454774
 0.51150679, 0.47830397
 0.65261211, 0.48376018
 0.66252314, 0.42003995
 0.47975809, 0.46957242
 0.48278177, 0.43514523
 0.54409546, 0.47187966
 0.50932308, 0.43472576
 0.41038134, 0.36499628
 0.39845461, 0.35267767
 0.48210991, 0.37172583
 0.57282047, 0.49557835
 0.67579369, 0.49257177
 0.65630776, 0.51528627
 0.43759451, 0.39131275
 0.29380143, 0.25090548
 0.2733076, 0.17159602
 0.23064007, 0.11568935
 0.13539398, 0.11853595
 0.13270623, 0.08629876
 0.13119438, 0.10982881
 0.1557198, 0.129778
 0.33915672, 0.28004143
 0.67596171, 0.56902033
 0.65714763, 0.53165531
 0.51066691, 0.42520571
 0.50277176, 0.46523258
 0.51285071, 0.4235886
 0.44784148, 0.39117652
 0.47841426, 0.39085358
 0.57080468, 0.44115436
 0.55249456, 0.45834664
 0.46228794, 0.36498886
 0.44045018, 0.35794163
 0.50243573, 0.38735774
 0.58189153, 0.49525291
 0.68016131, 0.5120126
 0.56744497, 0.49626377
 0.4194524, 0.36353007
 0.29430538, 0.18503654
 0.27179576, 0.15279517
 0.22257691, 0.135846
 0.15622375, 0.11348289
 0.16697466, 0.10296299
 0.14681676, 0.11221519
 0.15605583, 0.1357705
 0.35461118, 0.29090315
 0.65093235, 0.56320655
 0.62943052, 0.51613665
 0.48748532, 0.47841525
 0.53048888, 0.47720796
 0.48765333, 0.46672317
 0.49538046, 0.40197986
 0.46413571, 0.4625769
 0.5116748, 0.4894256
 0.51604231, 0.46707958
 0.4194524, 0.35414588
 0.38585593, 0.37178999
 0.41138924, 0.40501219
 0.55434233, 0.49566391
 0.60322524, 0.51779246
 0.60675288, 0.51080316
 0.49487652, 0.37169001
 0.26541246, 0.22295159
 0.2563414, 0.16048594
 0.22660849, 0.12091233
 0.1387536, 0.11389996
 0.14278518, 0.0714508
 0.12161938, 0.08578694
 0.1409374, 0.09520236
 0.36989752, 0.26088163
 0.68503277, 0.54847884
 0.67864946, 0.53014207
 0.53250467, 0.4092716
 0.50461954, 0.47696304
 0.480934, 0.41394043
 0.44985727, 0.40091777
 0.47320677, 0.42379695
 0.56290944, 0.47075143
 0.53317653, 0.45248708
 0.48009412, 0.38056916
 0.43373094, 0.35340992
 0.50747521, 0.38437164
 0.47975809, 0.49681151
 0.56862088, 0.50914007
 0.55165468, 0.50044256
 0.42549977, 0.36099011
 0.26994798, 0.19805205
 0.34789184, 0.16673009
 0.2447506, 0.14710072
 0.17974137, 0.14318025
 0.17235007, 0.11102498
 0.15924743, 0.12327294
 0.14144135, 0.10800186
 0.1705023, 0.14254758
 0.31614314, 0.23927705
 0.52595335, 0.36084613
 0.66151525, 0.56097651
 0.98286578, 0.65265268
 0.86813375, 0.76564121
 0.80127664, 0.63589048
 0.68335291, 0.60086918
 0.73038805, 0.51145303
 0.68688054, 0.48363316
 0.5943222, 0.42158878
 0.53519232, 0.48430082
 0.53552835, 0.5055548
 0.51066691, 0.50049502
 0.49874018, 0.55432576
 0.51402652, 0.50150013
 0.40634976, 0.38500673
 0.2775072, 0.470512
 0.33764487, 0.27863222
 0.24559048, 0.20857461
 0.15420796, 0.14255695
 0.14664874, 0.12288934
 0.11473213, 0.12900512
 0.10784478, 0.1229589
 0.11909964, 0.13462375
 0.19536374, 0.29057327
 0.37493699, 0.34357426
 0.59650601, 0.62790537
 0.93247103, 0.86513728
 1., 0.88259941
 0.90744166, 0.83822525
 0.7616328, 0.73041016
 0.71745343, 0.66530502
 0.59449022, 0.53401792
 0.47690242, 0.49924451
 0.45304887, 0.43727836
 0.49554848, 0.4621906
 0.56425337, 0.49584478
 0.58306734, 0.58794326
 0.60557707, 0.57057405
 0.43793044, 0.34770325
 0.29564931, 0.23488648
 0.29581723, 0.11962275
 0.25197379, 0.10562114
 0.15017638, 0.09902006
 0.17016636, 0.08378938
 0.11574003, 0.09721163
 0.1906602, 0.116309
 0.34066856, 0.12882431
 0.66773053, 0.33920616
 0.68620868, 0.52133185
 0.52813706, 0.53893244
 0.57483626, 0.65383971
 0.55518231, 0.57212383
 0.53804809, 0.51379818
 0.5699647, 0.47950083
 0.58945074, 0.499304
 0.5392239, 0.48019779
 0.43289096, 0.40845785
 0.44733753, 0.40002558
 0.53351256, 0.39410049
 0.57802787, 0.51028979
 0.74029898, 0.51021689
 0.6133042, 0.5345313
 0.43826647, 0.38365728
 0.27448351, 0.17855923
 0.25701326, 0.13636026
 0.23181588, 0.11931233
 0.12346716, 0.10384081
 0.12195531, 0.10637134
 0.1175878, 0.10908376
 0.13791372, 0.16136675
 0.34285237, 0.4068414
 0.70115909, 0.54405224
 0.71039816, 0.52523756
 0.4957165, 0.49140641
 0.50865112, 0.4800849
 0.46531163, 0.45901021
 0.48160596, 0.38787931
 0.49269281, 0.46120715
 0.55484628, 0.49218661
 0.51671428, 0.47306836
 0.42465989, 0.37429702
 0.41256515, 0.37287986
 0.49773229, 0.40387747
 0.53905599, 0.48878032
 0.75054595, 0.51171166
 0.69057619, 0.50228918
 0.51621033, 0.35203376
 0.3453721, 0.20278229
