tar,out
 0.27717116, 0.14673202
 0.2425668, 0.09605777
 0.12968254, 0.0985598
 0.12968254, 0.07030332
 0.11809175, 0.07739159
 0.14261716, 0.100667
 0.3537712, 0.24447
 0.66756262, 0.5474968
 0.67864946, 0.55115938
 0.51150679, 0.49261248
 0.65261211, 0.49697769
 0.66252314, 0.4580006
 0.47975809, 0.46116161
 0.48278177, 0.47641921
 0.54409546, 0.47010621
 0.50932308, 0.46131513
 0.41038134, 0.3878414
 0.39845461, 0.37572655
 0.48210991, 0.43043867
 0.57282047, 0.52111471
 0.67579369, 0.51089561
 0.65630776, 0.53439689
 0.43759451, 0.38492087
 0.29380143, 0.25807887
 0.2733076, 0.1703057
 0.23064007, 0.12622547
 0.13539398, 0.10227281
 0.13270623, 0.09099331
 0.13119438, 0.09947309
 0.1557198, 0.13879248
 0.33915672, 0.27762994
 0.67596171, 0.55587417
 0.65714763, 0.54771173
 0.51066691, 0.48312265
 0.50277176, 0.46943796
 0.51285071, 0.45365423
 0.44784148, 0.43341753
 0.47841426, 0.41002506
 0.57080468, 0.45933655
 0.55249456, 0.45183483
 0.46228794, 0.36841297
 0.44045018, 0.37741303
 0.50243573, 0.41233009
 0.58189153, 0.50135982
 0.68016131, 0.5568822
 0.56744497, 0.51807213
 0.4194524, 0.36959693
 0.29430538, 0.19512506
 0.27179576, 0.15440978
 0.22257691, 0.11619382
 0.15622375, 0.09817499
 0.16697466, 0.08845028
 0.14681676, 0.09615782
 0.15605583, 0.11589839
 0.35461118, 0.26916668
 0.65093235, 0.54340899
 0.62943052, 0.52956378
 0.48748532, 0.47151086
 0.53048888, 0.45768416
 0.48765333, 0.464553
 0.49538046, 0.42553532
 0.46413571, 0.41817063
 0.5116748, 0.46976906
 0.51604231, 0.44186163
 0.4194524, 0.36934435
 0.38585593, 0.37728813
 0.41138924, 0.42392132
 0.55434233, 0.50287241
 0.60322524, 0.55250013
 0.60675288, 0.53393197
 0.49487652, 0.38001415
 0.26541246, 0.20423482
 0.2563414, 0.15641056
 0.22660849, 0.09238544
 0.1387536, 0.10345861
 0.14278518, 0.07327841
 0.12161938, 0.08583826
 0.1409374, 0.09608257
 0.36989752, 0.27891979
 0.68503277, 0.55791265
 0.67864946, 0.54863048
 0.53250467, 0.45960337
 0.50461954, 0.4574033
 0.480934, 0.42465982
 0.44985727, 0.41263723
 0.47320677, 0.41720384
 0.56290944, 0.46860576
 0.53317653, 0.46664828
 0.48009412, 0.37747672
 0.43373094, 0.39605749
 0.50747521, 0.41685125
 0.47975809, 0.50496846
 0.56862088, 0.54183125
 0.55165468, 0.49840087
 0.42549977, 0.36005512
 0.26994798, 0.20315686
 0.34789184, 0.17213574
 0.2447506, 0.13537209
 0.17974137, 0.1304915
 0.17235007, 0.09566483
 0.15924743, 0.10253204
 0.14144135, 0.10151809
 0.1705023, 0.15080769
 0.31614314, 0.2486929
 0.52595335, 0.45365015
 0.66151525, 0.54972631
 0.98286578, 0.69334292
 0.86813375, 0.73533905
 0.80127664, 0.63051391
 0.68335291, 0.58341712
 0.73038805, 0.5694173
 0.68688054, 0.53992885
 0.5943222, 0.48216867
 0.53519232, 0.48475343
 0.53552835, 0.53487569
 0.51066691, 0.5175094
 0.49874018, 0.54689789
 0.51402652, 0.50552237
 0.40634976, 0.44720256
 0.2775072, 0.28267241
 0.33764487, 0.23447238
 0.24559048, 0.19599283
 0.15420796, 0.1623995
 0.14664874, 0.17457815
 0.11473213, 0.14387836
 0.10784478, 0.13738209
 0.11909964, 0.13827521
 0.19536374, 0.22147065
 0.37493699, 0.29919845
 0.59650601, 0.55190527
 0.93247103, 0.76949942
 1., 0.8366943
 0.90744166, 0.76518106
 0.7616328, 0.69161898
 0.71745343, 0.63795912
 0.59449022, 0.54873222
 0.47690242, 0.48529989
 0.45304887, 0.45223582
 0.49554848, 0.46183389
 0.56425337, 0.54939175
 0.58306734, 0.59989846
 0.60557707, 0.56512356
 0.43793044, 0.40089235
 0.29564931, 0.25206259
 0.29581723, 0.13937624
 0.25197379, 0.11692253
 0.15017638, 0.11118919
 0.17016636, 0.10725676
 0.11574003, 0.10005075
 0.1906602, 0.12346095
 0.34066856, 0.21901274
 0.66773053, 0.4030928
 0.68620868, 0.50495982
 0.52813706, 0.51503217
 0.57483626, 0.5867815
 0.55518231, 0.54495102
 0.53804809, 0.5132286
 0.5699647, 0.45672062
 0.58945074, 0.49122024
 0.5392239, 0.46734017
 0.43289096, 0.44463179
 0.44733753, 0.40441063
 0.53351256, 0.43300804
 0.57802787, 0.51486355
 0.74029898, 0.5219878
 0.6133042, 0.535631
 0.43826647, 0.37616801
 0.27448351, 0.18598953
 0.25701326, 0.12977389
 0.23181588, 0.11821455
 0.12346716, 0.09298342
 0.12195531, 0.10821599
 0.1175878, 0.11119995
 0.13791372, 0.13831399
 0.34285237, 0.26076052
 0.70115909, 0.56967896
 0.71039816, 0.53437418
 0.4957165, 0.45334858
 0.50865112, 0.43797195
 0.46531163, 0.44856119
 0.48160596, 0.42230356
 0.49269281, 0.42495039
 0.55484628, 0.46818942
 0.51671428, 0.44598311
 0.42465989, 0.37895972
 0.41256515, 0.37981927
 0.49773229, 0.43951514
 0.53905599, 0.5111903
 0.75054595, 0.55420864
 0.69057619, 0.50357985
 0.51621033, 0.35800621
 0.3453721, 0.17804651
