tar,out
 0.27717116, 0.14179301
 0.2425668, 0.09660196
 0.12968254, 0.08346051
 0.12968254, 0.08256911
 0.11809175, 0.07829516
 0.14261716, 0.10015059
 0.3537712, 0.18684641
 0.66756262, 0.55032146
 0.67864946, 0.53834367
 0.51150679, 0.48498729
 0.65261211, 0.47173798
 0.66252314, 0.44851071
 0.47975809, 0.44858006
 0.48278177, 0.47261021
 0.54409546, 0.47013491
 0.50932308, 0.45013958
 0.41038134, 0.41540238
 0.39845461, 0.38143942
 0.48210991, 0.41792744
 0.57282047, 0.49496746
 0.67579369, 0.49458635
 0.65630776, 0.4923889
 0.43759451, 0.38350344
 0.29380143, 0.19211859
 0.2733076, 0.17930192
 0.23064007, 0.11431567
 0.13539398, 0.10168341
 0.13270623, 0.09412265
 0.13119438, 0.09880643
 0.1557198, 0.10683285
 0.33915672, 0.27705589
 0.67596171, 0.54835635
 0.65714763, 0.56118077
 0.51066691, 0.47591949
 0.50277176, 0.46140459
 0.51285071, 0.46129405
 0.44784148, 0.41623574
 0.47841426, 0.42247796
 0.57080468, 0.45963502
 0.55249456, 0.46758661
 0.46228794, 0.3930724
 0.44045018, 0.36710608
 0.50243573, 0.40198761
 0.58189153, 0.48965544
 0.68016131, 0.55380261
 0.56744497, 0.51963723
 0.4194524, 0.38808876
 0.29430538, 0.21436818
 0.27179576, 0.14482328
 0.22257691, 0.10332087
 0.15622375, 0.0908152
 0.16697466, 0.07835233
 0.14681676, 0.10035975
 0.15605583, 0.11350775
 0.35461118, 0.27609152
 0.65093235, 0.53956366
 0.62943052, 0.52414256
 0.48748532, 0.45166135
 0.53048888, 0.47494227
 0.48765333, 0.47362328
 0.49538046, 0.41018403
 0.46413571, 0.4126389
 0.5116748, 0.49902987
 0.51604231, 0.43354535
 0.4194524, 0.37952304
 0.38585593, 0.38174981
 0.41138924, 0.41522634
 0.55434233, 0.51206452
 0.60322524, 0.54009545
 0.60675288, 0.49821821
 0.49487652, 0.39663452
 0.26541246, 0.21110044
 0.2563414, 0.18884318
 0.22660849, 0.11764364
 0.1387536, 0.10443597
 0.14278518, 0.08644745
 0.12161938, 0.09050313
 0.1409374, 0.10098211
 0.36989752, 0.27649143
 0.68503277, 0.53142178
 0.67864946, 0.53856033
 0.53250467, 0.44836175
 0.50461954, 0.45473528
 0.480934, 0.43483222
 0.44985727, 0.38474822
 0.47320677, 0.42307308
 0.56290944, 0.47225094
 0.53317653, 0.46964884
 0.48009412, 0.40657479
 0.43373094, 0.38121927
 0.50747521, 0.40488476
 0.47975809, 0.49143854
 0.56862088, 0.52865994
 0.55165468, 0.50001359
 0.42549977, 0.38481677
 0.26994798, 0.19680122
 0.34789184, 0.19119143
 0.2447506, 0.11911719
 0.17974137, 0.12015137
 0.17235007, 0.09954119
 0.15924743, 0.10358271
 0.14144135, 0.09273669
 0.1705023, 0.12892987
 0.31614314, 0.20775741
 0.52595335, 0.42778265
 0.66151525, 0.5843336
 0.98286578, 0.6243571
 0.86813375, 0.73540556
 0.80127664, 0.63029528
 0.68335291, 0.56272507
 0.73038805, 0.5752334
 0.68688054, 0.53345239
 0.5943222, 0.49250481
 0.53519232, 0.51152027
 0.53552835, 0.52023315
 0.51066691, 0.53161693
 0.49874018, 0.55939406
 0.51402652, 0.49697471
 0.40634976, 0.43528065
 0.2775072, 0.49333078
 0.33764487, 0.21883486
 0.24559048, 0.18950588
 0.15420796, 0.14504471
 0.14664874, 0.14957459
 0.11473213, 0.16136687
 0.10784478, 0.16940401
 0.11909964, 0.16712755
 0.19536374, 0.19911212
 0.37493699, 0.28149396
 0.59650601, 0.58531904
 0.93247103, 0.78192025
 1., 0.82618797
 0.90744166, 0.8056879
 0.7616328, 0.71590859
 0.71745343, 0.65861541
 0.59449022, 0.54712796
 0.47690242, 0.49040151
 0.45304887, 0.42588174
 0.49554848, 0.49142122
 0.56425337, 0.55314398
 0.58306734, 0.61591476
 0.60557707, 0.58309054
 0.43793044, 0.40187371
 0.29564931, 0.24790913
 0.29581723, 0.13132851
 0.25197379, 0.12128711
 0.15017638, 0.11203833
 0.17016636, 0.10253543
 0.11574003, 0.11191709
 0.1906602, 0.12780361
 0.34066856, 0.21367991
 0.66773053, 0.27405363
 0.68620868, 0.48257574
 0.52813706, 0.51284349
 0.57483626, 0.5661447
 0.55518231, 0.56840432
 0.53804809, 0.4979921
 0.5699647, 0.48713881
 0.58945074, 0.50190932
 0.5392239, 0.49374613
 0.43289096, 0.44207591
 0.44733753, 0.4192751
 0.53351256, 0.43415213
 0.57802787, 0.49999958
 0.74029898, 0.54200995
 0.6133042, 0.47858995
 0.43826647, 0.38905841
 0.27448351, 0.19501075
 0.25701326, 0.12470022
 0.23181588, 0.09631608
 0.12346716, 0.07079315
 0.12195531, 0.08784887
 0.1175878, 0.10518983
 0.13791372, 0.12706652
 0.34285237, 0.27875873
 0.70115909, 0.53431785
 0.71039816, 0.5212543
 0.4957165, 0.45358026
 0.50865112, 0.44815564
 0.46531163, 0.45093453
 0.48160596, 0.40878838
 0.49269281, 0.40625924
 0.55484628, 0.47866356
 0.51671428, 0.453895
 0.42465989, 0.39569402
 0.41256515, 0.38814074
 0.49773229, 0.4288097
 0.53905599, 0.50922704
 0.75054595, 0.54074275
 0.69057619, 0.53065467
 0.51621033, 0.43242836
 0.3453721, 0.20591961
