tar,out
 0.27717116, 0.13922194
 0.2425668, 0.10053103
 0.12968254, 0.09435065
 0.12968254, 0.0743452
 0.11809175, 0.08644085
 0.14261716, 0.09392208
 0.3537712, 0.25327784
 0.66756262, 0.54878044
 0.67864946, 0.54722667
 0.51150679, 0.47894365
 0.65261211, 0.46064121
 0.66252314, 0.46048656
 0.47975809, 0.47564131
 0.48278177, 0.47679859
 0.54409546, 0.48183057
 0.50932308, 0.45159161
 0.41038134, 0.38992465
 0.39845461, 0.38370839
 0.48210991, 0.41210559
 0.57282047, 0.5006457
 0.67579369, 0.51050216
 0.65630776, 0.49862853
 0.43759451, 0.37961322
 0.29380143, 0.20638269
 0.2733076, 0.17293045
 0.23064007, 0.14390016
 0.13539398, 0.13176738
 0.13270623, 0.10208765
 0.13119438, 0.10461968
 0.1557198, 0.10669206
 0.33915672, 0.27570385
 0.67596171, 0.53384745
 0.65714763, 0.54911768
 0.51066691, 0.48786464
 0.50277176, 0.49175686
 0.51285071, 0.45501935
 0.44784148, 0.46552375
 0.47841426, 0.45709479
 0.57080468, 0.47022849
 0.55249456, 0.44816816
 0.46228794, 0.38841763
 0.44045018, 0.37743682
 0.50243573, 0.40827978
 0.58189153, 0.49304742
 0.68016131, 0.54507244
 0.56744497, 0.53674191
 0.4194524, 0.38235152
 0.29430538, 0.15329054
 0.27179576, 0.14398845
 0.22257691, 0.12883349
 0.15622375, 0.08729044
 0.16697466, 0.09577547
 0.14681676, 0.08494885
 0.15605583, 0.12774286
 0.35461118, 0.27353659
 0.65093235, 0.53901029
 0.62943052, 0.53787708
 0.48748532, 0.5155952
 0.53048888, 0.46265954
 0.48765333, 0.48182064
 0.49538046, 0.44810987
 0.46413571, 0.43008858
 0.5116748, 0.46613145
 0.51604231, 0.44447505
 0.4194524, 0.4071351
 0.38585593, 0.385021
 0.41138924, 0.43379971
 0.55434233, 0.48276621
 0.60322524, 0.54479098
 0.60675288, 0.52508968
 0.49487652, 0.39745915
 0.26541246, 0.19226325
 0.2563414, 0.15258342
 0.22660849, 0.11294509
 0.1387536, 0.10737817
 0.14278518, 0.08331445
 0.12161938, 0.08447118
 0.1409374, 0.08149393
 0.36989752, 0.27762666
 0.68503277, 0.54871637
 0.67864946, 0.54667997
 0.53250467, 0.46679997
 0.50461954, 0.45285302
 0.480934, 0.4684543
 0.44985727, 0.43166918
 0.47320677, 0.47455311
 0.56290944, 0.48759681
 0.53317653, 0.45854259
 0.48009412, 0.37648258
 0.43373094, 0.3814474
 0.50747521, 0.40811592
 0.47975809, 0.50147694
 0.56862088, 0.53240895
 0.55165468, 0.50176775
 0.42549977, 0.37264687
 0.26994798, 0.17374453
 0.34789184, 0.1596887
 0.2447506, 0.14009133
 0.17974137, 0.11898756
 0.17235007, 0.10187867
 0.15924743, 0.11469315
 0.14144135, 0.10740125
 0.1705023, 0.17377025
 0.31614314, 0.31180081
 0.52595335, 0.40140793
 0.66151525, 0.56823075
 0.98286578, 0.69318485
 0.86813375, 0.7360518
 0.80127664, 0.67190027
 0.68335291, 0.58997548
 0.73038805, 0.54315865
 0.68688054, 0.52462614
 0.5943222, 0.47017518
 0.53519232, 0.48876357
 0.53552835, 0.52152777
 0.51066691, 0.51191425
 0.49874018, 0.50331092
 0.51402652, 0.42599526
 0.40634976, 0.37759718
 0.2775072, 0.49642414
 0.33764487, 0.39158589
 0.24559048, 0.24343896
 0.15420796, 0.16496687
 0.14664874, 0.16337006
 0.11473213, 0.13022146
 0.10784478, 0.1311767
 0.11909964, 0.13470818
 0.19536374, 0.15221441
 0.37493699, 0.26734146
 0.59650601, 0.57838053
 0.93247103, 0.79281354
 1., 0.86101115
 0.90744166, 0.80882859
 0.7616328, 0.74580342
 0.71745343, 0.6616441
 0.59449022, 0.53015018
 0.47690242, 0.49319625
 0.45304887, 0.43836826
 0.49554848, 0.47766933
 0.56425337, 0.51275432
 0.58306734, 0.57598728
 0.60557707, 0.53685123
 0.43793044, 0.40691924
 0.29564931, 0.2077063
 0.29581723, 0.14407264
 0.25197379, 0.10216504
 0.15017638, 0.12649241
 0.17016636, 0.09301485
 0.11574003, 0.10961194
 0.1906602, 0.1100907
 0.34066856, 0.16311744
 0.66773053, 0.1896183
 0.68620868, 0.53786892
 0.52813706, 0.52948427
 0.57483626, 0.52605391
 0.55518231, 0.53002
 0.53804809, 0.49893343
 0.5699647, 0.48204815
 0.58945074, 0.49336475
 0.5392239, 0.4670904
 0.43289096, 0.37254953
 0.44733753, 0.39748847
 0.53351256, 0.44650659
 0.57802787, 0.53969216
 0.74029898, 0.5250386
 0.6133042, 0.53541446
 0.43826647, 0.36624947
 0.27448351, 0.16036314
 0.25701326, 0.14561301
 0.23181588, 0.11684772
 0.12346716, 0.08985575
 0.12195531, 0.11081648
 0.1175878, 0.1018499
 0.13791372, 0.1748956
 0.34285237, 0.29298875
 0.70115909, 0.53080082
 0.71039816, 0.53742158
 0.4957165, 0.5021292
 0.50865112, 0.4564786
 0.46531163, 0.46616974
 0.48160596, 0.44394606
 0.49269281, 0.43959171
 0.55484628, 0.45656419
 0.51671428, 0.44572115
 0.42465989, 0.4086408
 0.41256515, 0.37577873
 0.49773229, 0.43507418
 0.53905599, 0.48379663
 0.75054595, 0.54721469
 0.69057619, 0.54669905
 0.51621033, 0.39404604
 0.3453721, 0.17769958
