tar,out
 0.27717116, 0.1293662
 0.2425668, 0.09968825
 0.12968254, 0.09788091
 0.12968254, 0.07900466
 0.11809175, 0.0894001
 0.14261716, 0.09567595
 0.3537712, 0.20058921
 0.66756262, 0.54290807
 0.67864946, 0.54439306
 0.51150679, 0.48062107
 0.65261211, 0.45534715
 0.66252314, 0.43369001
 0.47975809, 0.45855916
 0.48278177, 0.43430942
 0.54409546, 0.45374101
 0.50932308, 0.43333182
 0.41038134, 0.37761399
 0.39845461, 0.36039287
 0.48210991, 0.41673982
 0.57282047, 0.50180656
 0.67579369, 0.47464108
 0.65630776, 0.49241376
 0.43759451, 0.42070389
 0.29380143, 0.27625829
 0.2733076, 0.17522739
 0.23064007, 0.10990395
 0.13539398, 0.10680653
 0.13270623, 0.09585486
 0.13119438, 0.10033338
 0.1557198, 0.11061499
 0.33915672, 0.27647308
 0.67596171, 0.5632602
 0.65714763, 0.55232465
 0.51066691, 0.48542202
 0.50277176, 0.45576018
 0.51285071, 0.44307616
 0.44784148, 0.41987562
 0.47841426, 0.41497859
 0.57080468, 0.44778866
 0.55249456, 0.44789886
 0.46228794, 0.36898977
 0.44045018, 0.35746536
 0.50243573, 0.39703411
 0.58189153, 0.49219936
 0.68016131, 0.54154992
 0.56744497, 0.49360955
 0.4194524, 0.36846715
 0.29430538, 0.21435821
 0.27179576, 0.14300403
 0.22257691, 0.11420427
 0.15622375, 0.09809446
 0.16697466, 0.10099719
 0.14681676, 0.09324721
 0.15605583, 0.11261514
 0.35461118, 0.27647308
 0.65093235, 0.57723701
 0.62943052, 0.54400527
 0.48748532, 0.51941526
 0.53048888, 0.4470678
 0.48765333, 0.47133771
 0.49538046, 0.42251432
 0.46413571, 0.4237532
 0.5116748, 0.48457611
 0.51604231, 0.43444741
 0.4194524, 0.37459403
 0.38585593, 0.35120872
 0.41138924, 0.41458213
 0.55434233, 0.4938724
 0.60322524, 0.5345577
 0.60675288, 0.49797666
 0.49487652, 0.37381458
 0.26541246, 0.21276501
 0.2563414, 0.13010481
 0.22660849, 0.11001708
 0.1387536, 0.09395233
 0.14278518, 0.09168214
 0.12161938, 0.09257409
 0.1409374, 0.09358011
 0.36989752, 0.27647308
 0.68503277, 0.55722868
 0.67864946, 0.55495071
 0.53250467, 0.44327337
 0.50461954, 0.44629097
 0.480934, 0.42976487
 0.44985727, 0.43345392
 0.47320677, 0.4505834
 0.56290944, 0.4555127
 0.53317653, 0.45372924
 0.48009412, 0.39326841
 0.43373094, 0.367971
 0.50747521, 0.40100259
 0.47975809, 0.48462743
 0.56862088, 0.51885128
 0.55165468, 0.46020427
 0.42549977, 0.36674029
 0.26994798, 0.20897904
 0.34789184, 0.14119282
 0.2447506, 0.13191958
 0.17974137, 0.11364174
 0.17235007, 0.10230888
 0.15924743, 0.10196969
 0.14144135, 0.09755902
 0.1705023, 0.11709528
 0.31614314, 0.2035345
 0.52595335, 0.34864974
 0.66151525, 0.59702492
 0.98286578, 0.7835803
 0.86813375, 0.89475799
 0.80127664, 0.69994962
 0.68335291, 0.6780833
 0.73038805, 0.54333639
 0.68688054, 0.53060508
 0.5943222, 0.48628438
 0.53519232, 0.4873274
 0.53552835, 0.51378679
 0.51066691, 0.51095057
 0.49874018, 0.5421446
 0.51402652, 0.45897502
 0.40634976, 0.46149224
 0.2775072, 0.48950112
 0.33764487, 0.43185329
 0.24559048, 0.19697069
 0.15420796, 0.12519945
 0.14664874, 0.17200273
 0.11473213, 0.13053232
 0.10784478, 0.19022582
 0.11909964, 0.20332339
 0.19536374, 0.26750845
 0.37493699, 0.30105245
 0.59650601, 0.61252427
 0.93247103, 0.84833407
 1., 0.9663049
 0.90744166, 0.84279788
 0.7616328, 0.75174278
 0.71745343, 0.72237068
 0.59449022, 0.55858994
 0.47690242, 0.49811235
 0.45304887, 0.43143421
 0.49554848, 0.45276326
 0.56425337, 0.52967012
 0.58306734, 0.5966081
 0.60557707, 0.54695046
 0.43793044, 0.40961337
 0.29564931, 0.25014371
 0.29581723, 0.13164119
 0.25197379, 0.11215785
 0.15017638, 0.11146826
 0.17016636, 0.09598404
 0.11574003, 0.10806578
 0.1906602, 0.11238246
 0.34066856, 0.19145842
 0.66773053, 0.50362623
 0.68620868, 0.53897399
 0.52813706, 0.51499701
 0.57483626, 0.57662392
 0.55518231, 0.57352263
 0.53804809, 0.50990629
 0.5699647, 0.47764301
 0.58945074, 0.48730409
 0.5392239, 0.46193066
 0.43289096, 0.41884169
 0.44733753, 0.41137704
 0.53351256, 0.46620262
 0.57802787, 0.51126814
 0.74029898, 0.53289098
 0.6133042, 0.5285567
 0.43826647, 0.37904486
 0.27448351, 0.19681112
 0.25701326, 0.12161487
 0.23181588, 0.1039799
 0.12346716, 0.09060587
 0.12195531, 0.09866098
 0.1175878, 0.09625055
 0.13791372, 0.16327947
 0.34285237, 0.27647308
 0.70115909, 0.56668389
 0.71039816, 0.54017878
 0.4957165, 0.53098071
 0.50865112, 0.45590597
 0.46531163, 0.45924413
 0.48160596, 0.43014497
 0.49269281, 0.42538857
 0.55484628, 0.48880839
 0.51671428, 0.44152233
 0.42465989, 0.3911691
 0.41256515, 0.36159515
 0.49773229, 0.41651523
 0.53905599, 0.49199626
 0.75054595, 0.51979309
 0.69057619, 0.50343454
 0.51621033, 0.38815337
 0.3453721, 0.27355948
