tar,out
 0.27717116, 0.13122547
 0.2425668, 0.10763122
 0.12968254, 0.09946613
 0.12968254, 0.07823923
 0.11809175, 0.08224785
 0.14261716, 0.09098133
 0.3537712, 0.20798558
 0.66756262, 0.54241192
 0.67864946, 0.55485833
 0.51150679, 0.48870593
 0.65261211, 0.46001095
 0.66252314, 0.44218796
 0.47975809, 0.44613886
 0.48278177, 0.47869486
 0.54409546, 0.47779673
 0.50932308, 0.47247308
 0.41038134, 0.3738659
 0.39845461, 0.35071895
 0.48210991, 0.40418541
 0.57282047, 0.48094255
 0.67579369, 0.49197507
 0.65630776, 0.48960745
 0.43759451, 0.38291407
 0.29380143, 0.23065422
 0.2733076, 0.15664674
 0.23064007, 0.11778946
 0.13539398, 0.11055006
 0.13270623, 0.09645712
 0.13119438, 0.09948687
 0.1557198, 0.1035808
 0.33915672, 0.25474662
 0.67596171, 0.55493796
 0.65714763, 0.55540329
 0.51066691, 0.47519046
 0.50277176, 0.4500255
 0.51285071, 0.47576183
 0.44784148, 0.41797686
 0.47841426, 0.4067598
 0.57080468, 0.44934252
 0.55249456, 0.43344659
 0.46228794, 0.36173245
 0.44045018, 0.35844854
 0.50243573, 0.39668047
 0.58189153, 0.50276518
 0.68016131, 0.55084819
 0.56744497, 0.50636613
 0.4194524, 0.35529464
 0.29430538, 0.19798063
 0.27179576, 0.13376512
 0.22257691, 0.10582314
 0.15622375, 0.09997852
 0.16697466, 0.08086318
 0.14681676, 0.10341135
 0.15605583, 0.09353542
 0.35461118, 0.26736039
 0.65093235, 0.54964465
 0.62943052, 0.52021372
 0.48748532, 0.45573899
 0.53048888, 0.45729724
 0.48765333, 0.46678329
 0.49538046, 0.42107952
 0.46413571, 0.41712025
 0.5116748, 0.46070635
 0.51604231, 0.42712483
 0.4194524, 0.37708753
 0.38585593, 0.38247555
 0.41138924, 0.42542088
 0.55434233, 0.51357794
 0.60322524, 0.53663689
 0.60675288, 0.51868677
 0.49487652, 0.35781902
 0.26541246, 0.20850497
 0.2563414, 0.13575588
 0.22660849, 0.1088174
 0.1387536, 0.10418101
 0.14278518, 0.087973
 0.12161938, 0.09362862
 0.1409374, 0.09081224
 0.36989752, 0.27159506
 0.68503277, 0.54712284
 0.67864946, 0.54643583
 0.53250467, 0.43003926
 0.50461954, 0.43324563
 0.480934, 0.43861651
 0.44985727, 0.41987383
 0.47320677, 0.42498991
 0.56290944, 0.47020775
 0.53317653, 0.45728233
 0.48009412, 0.38600057
 0.43373094, 0.3656455
 0.50747521, 0.40457925
 0.47975809, 0.4893851
 0.56862088, 0.53900486
 0.55165468, 0.48480588
 0.42549977, 0.3458983
 0.26994798, 0.20701489
 0.34789184, 0.17620359
 0.2447506, 0.12704897
 0.17974137, 0.11841723
 0.17235007, 0.09145325
 0.15924743, 0.09954423
 0.14144135, 0.08444977
 0.1705023, 0.1336244
 0.31614314, 0.2119953
 0.52595335, 0.29282266
 0.66151525, 0.56173968
 0.98286578, 0.68564939
 0.86813375, 0.73847651
 0.80127664, 0.63053274
 0.68335291, 0.63420439
 0.73038805, 0.59378308
 0.68688054, 0.5471679
 0.5943222, 0.49217659
 0.53519232, 0.47194538
 0.53552835, 0.48512548
 0.51066691, 0.46529353
 0.49874018, 0.46537051
 0.51402652, 0.47913256
 0.40634976, 0.45492831
 0.2775072, 0.41359729
 0.33764487, 0.24626857
 0.24559048, 0.13650447
 0.15420796, 0.13810366
 0.14664874, 0.13083211
 0.11473213, 0.13063537
 0.10784478, 0.12536588
 0.11909964, 0.17142157
 0.19536374, 0.22841924
 0.37493699, 0.34229717
 0.59650601, 0.60051024
 0.93247103, 0.74699259
 1., 0.85950935
 0.90744166, 0.80617833
 0.7616328, 0.72694385
 0.71745343, 0.68877387
 0.59449022, 0.56904531
 0.47690242, 0.48578325
 0.45304887, 0.41901875
 0.49554848, 0.47097495
 0.56425337, 0.52633512
 0.58306734, 0.59718955
 0.60557707, 0.55364215
 0.43793044, 0.40472957
 0.29564931, 0.2228231
 0.29581723, 0.13308223
 0.25197379, 0.11981919
 0.15017638, 0.11052294
 0.17016636, 0.10457928
 0.11574003, 0.10539198
 0.1906602, 0.12340175
 0.34066856, 0.23029694
 0.66773053, 0.28814501
 0.68620868, 0.52394086
 0.52813706, 0.53314871
 0.57483626, 0.57896984
 0.55518231, 0.51425201
 0.53804809, 0.48568678
 0.5699647, 0.47250432
 0.58945074, 0.49082547
 0.5392239, 0.46854666
 0.43289096, 0.40552014
 0.44733753, 0.37580496
 0.53351256, 0.43684232
 0.57802787, 0.51863623
 0.74029898, 0.55204928
 0.6133042, 0.51273376
 0.43826647, 0.37943345
 0.27448351, 0.18601543
 0.25701326, 0.13266477
 0.23181588, 0.11259681
 0.12346716, 0.10000055
 0.12195531, 0.10086094
 0.1175878, 0.10629401
 0.13791372, 0.14454514
 0.34285237, 0.27872178
 0.70115909, 0.54814887
 0.71039816, 0.53503454
 0.4957165, 0.45839021
 0.50865112, 0.45825011
 0.46531163, 0.43393302
 0.48160596, 0.40404338
 0.49269281, 0.41845077
 0.55484628, 0.46587616
 0.51671428, 0.42729685
 0.42465989, 0.38568065
 0.41256515, 0.3969295
 0.49773229, 0.45452392
 0.53905599, 0.52450991
 0.75054595, 0.54351443
 0.69057619, 0.52106977
 0.51621033, 0.37933648
 0.3453721, 0.18889157
