tar,out
 0.27717116, 0.13779351
 0.2425668, 0.10139264
 0.12968254, 0.07363288
 0.12968254, 0.05835791
 0.11809175, 0.04709734
 0.14261716, 0.08640167
 0.3537712, 0.21114174
 0.66756262, 0.45044348
 0.67864946, 0.5775969
 0.51150679, 0.50775564
 0.65261211, 0.47485781
 0.66252314, 0.44807413
 0.47975809, 0.44733763
 0.48278177, 0.44298825
 0.54409546, 0.47321743
 0.50932308, 0.46139905
 0.41038134, 0.39634573
 0.39845461, 0.36612427
 0.48210991, 0.39634573
 0.57282047, 0.50524414
 0.67579369, 0.5206126
 0.65630776, 0.48731011
 0.43759451, 0.37744808
 0.29380143, 0.21541807
 0.2733076, 0.14162679
 0.23064007, 0.1076438
 0.13539398, 0.08651549
 0.13270623, 0.08167864
 0.13119438, 0.08306317
 0.1557198, 0.13542594
 0.33915672, 0.28176087
 0.67596171, 0.56367612
 0.65714763, 0.58420217
 0.51066691, 0.4634141
 0.50277176, 0.44132924
 0.51285071, 0.41673899
 0.44784148, 0.41479781
 0.47841426, 0.4346967
 0.57080468, 0.46575028
 0.55249456, 0.44685167
 0.46228794, 0.37825608
 0.44045018, 0.32880309
 0.50243573, 0.39634573
 0.58189153, 0.4865413
 0.68016131, 0.54104936
 0.56744497, 0.54136503
 0.4194524, 0.3425197
 0.29430538, 0.16059326
 0.27179576, 0.14003366
 0.22257691, 0.09523746
 0.15622375, 0.09129117
 0.16697466, 0.06450853
 0.14681676, 0.09790117
 0.15605583, 0.10586239
 0.35461118, 0.26463801
 0.65093235, 0.58900827
 0.62943052, 0.54591048
 0.48748532, 0.48706603
 0.53048888, 0.46596789
 0.48765333, 0.47578838
 0.49538046, 0.43535018
 0.46413571, 0.42490566
 0.5116748, 0.46880352
 0.51604231, 0.41423488
 0.4194524, 0.37114218
 0.38585593, 0.34932515
 0.41138924, 0.39672858
 0.55434233, 0.50012064
 0.60322524, 0.55049324
 0.60675288, 0.54583037
 0.49487652, 0.3914535
 0.26541246, 0.17022383
 0.2563414, 0.15492865
 0.22660849, 0.11267301
 0.1387536, 0.09260121
 0.14278518, 0.07276484
 0.12161938, 0.07632025
 0.1409374, 0.09857994
 0.36989752, 0.21970648
 0.68503277, 0.55090928
 0.67864946, 0.53733587
 0.53250467, 0.44667906
 0.50461954, 0.43052161
 0.480934, 0.41873789
 0.44985727, 0.43190801
 0.47320677, 0.43732661
 0.56290944, 0.47267228
 0.53317653, 0.45636225
 0.48009412, 0.39624983
 0.43373094, 0.36715242
 0.50747521, 0.39634573
 0.47975809, 0.48100376
 0.56862088, 0.51233339
 0.55165468, 0.50070482
 0.42549977, 0.36438727
 0.26994798, 0.18591422
 0.34789184, 0.17563397
 0.2447506, 0.14269671
 0.17974137, 0.12488464
 0.17235007, 0.09932564
 0.15924743, 0.1067013
 0.14144135, 0.10273005
 0.1705023, 0.12688087
 0.31614314, 0.15225203
 0.52595335, 0.24245831
 0.66151525, 0.60714579
 0.98286578, 0.72484595
 0.86813375, 0.80052584
 0.80127664, 0.62696224
 0.68335291, 0.60296285
 0.73038805, 0.57846272
 0.68688054, 0.51956475
 0.5943222, 0.50728536
 0.53519232, 0.47003174
 0.53552835, 0.481796
 0.51066691, 0.47013235
 0.49874018, 0.56834257
 0.51402652, 0.47419778
 0.40634976, 0.41414082
 0.2775072, 0.3750205
 0.33764487, 0.25728479
 0.24559048, 0.17458421
 0.15420796, 0.15763521
 0.14664874, 0.15302907
 0.11473213, 0.13420075
 0.10784478, 0.13166595
 0.11909964, 0.14508183
 0.19536374, 0.19010568
 0.37493699, 0.26748994
 0.59650601, 0.56530547
 0.93247103, 0.74764335
 1., 0.87134796
 0.90744166, 0.87661749
 0.7616328, 0.76979893
 0.71745343, 0.73350954
 0.59449022, 0.55009866
 0.47690242, 0.4920935
 0.45304887, 0.42525995
 0.49554848, 0.43761492
 0.56425337, 0.52499366
 0.58306734, 0.61498058
 0.60557707, 0.57845742
 0.43793044, 0.38919896
 0.29564931, 0.17868745
 0.29581723, 0.14071906
 0.25197379, 0.11857529
 0.15017638, 0.10177672
 0.17016636, 0.08726303
 0.11574003, 0.10099198
 0.1906602, 0.10812633
 0.34066856, 0.17716663
 0.66773053, 0.42950422
 0.68620868, 0.50748277
 0.52813706, 0.5157814
 0.57483626, 0.58935624
 0.55518231, 0.53347862
 0.53804809, 0.51756299
 0.5699647, 0.44633734
 0.58945074, 0.46825746
 0.5392239, 0.45285863
 0.43289096, 0.40538466
 0.44733753, 0.36537448
 0.53351256, 0.39915901
 0.57802787, 0.50856745
 0.74029898, 0.52509987
 0.6133042, 0.50441319
 0.43826647, 0.37546271
 0.27448351, 0.15120494
 0.25701326, 0.13296242
 0.23181588, 0.07984437
 0.12346716, 0.08258414
 0.12195531, 0.06255604
 0.1175878, 0.10252379
 0.13791372, 0.13190475
 0.34285237, 0.32205877
 0.70115909, 0.59778827
 0.71039816, 0.53933835
 0.4957165, 0.46994948
 0.50865112, 0.43302491
 0.46531163, 0.44322503
 0.48160596, 0.4163751
 0.49269281, 0.41299105
 0.55484628, 0.46526349
 0.51671428, 0.42515028
 0.42465989, 0.38634056
 0.41256515, 0.35107791
 0.49773229, 0.3966561
 0.53905599, 0.48741946
 0.75054595, 0.53752637
 0.69057619, 0.54473472
 0.51621033, 0.47625706
 0.3453721, 0.16398805
