tar,out
 0.27717116, 0.17587663
 0.2425668, 0.09188154
 0.12968254, 0.08678769
 0.12968254, 0.07395378
 0.11809175, 0.09036463
 0.14261716, 0.10122177
 0.3537712, 0.21075472
 0.66756262, 0.53243041
 0.67864946, 0.51292664
 0.51150679, 0.46484911
 0.65261211, 0.46131933
 0.66252314, 0.39609382
 0.47975809, 0.41839409
 0.48278177, 0.42257765
 0.54409546, 0.45577013
 0.50932308, 0.4541932
 0.41038134, 0.36998543
 0.39845461, 0.35812601
 0.48210991, 0.37771598
 0.57282047, 0.50811017
 0.67579369, 0.50297654
 0.65630776, 0.47901875
 0.43759451, 0.35812601
 0.29380143, 0.22041796
 0.2733076, 0.19665079
 0.23064007, 0.12142667
 0.13539398, 0.11724946
 0.13270623, 0.12740029
 0.13119438, 0.12344825
 0.1557198, 0.14331663
 0.33915672, 0.26064977
 0.67596171, 0.53559864
 0.65714763, 0.51013494
 0.51066691, 0.46921578
 0.50277176, 0.45881867
 0.51285071, 0.41944501
 0.44784148, 0.41212395
 0.47841426, 0.38235745
 0.57080468, 0.45637062
 0.55249456, 0.43704227
 0.46228794, 0.35812601
 0.44045018, 0.35254851
 0.50243573, 0.39517972
 0.58189153, 0.50142455
 0.68016131, 0.53732842
 0.56744497, 0.48801309
 0.4194524, 0.35812601
 0.29430538, 0.17613022
 0.27179576, 0.17201674
 0.22257691, 0.12968346
 0.15622375, 0.07649988
 0.16697466, 0.0885828
 0.14681676, 0.07946587
 0.15605583, 0.09974229
 0.35461118, 0.28457314
 0.65093235, 0.56182104
 0.62943052, 0.52878428
 0.48748532, 0.46666563
 0.53048888, 0.46636209
 0.48765333, 0.43055096
 0.49538046, 0.42308891
 0.46413571, 0.41914275
 0.5116748, 0.46262538
 0.51604231, 0.42645878
 0.4194524, 0.35175812
 0.38585593, 0.39340189
 0.41138924, 0.40241456
 0.55434233, 0.502859
 0.60322524, 0.51503128
 0.60675288, 0.50605738
 0.49487652, 0.35812601
 0.26541246, 0.22098058
 0.2563414, 0.17493054
 0.22660849, 0.13331141
 0.1387536, 0.11752586
 0.14278518, 0.08029529
 0.12161938, 0.10243465
 0.1409374, 0.08090132
 0.36989752, 0.26226658
 0.68503277, 0.55129385
 0.67864946, 0.50355983
 0.53250467, 0.44344133
 0.50461954, 0.45006061
 0.480934, 0.41355616
 0.44985727, 0.42545536
 0.47320677, 0.42656204
 0.56290944, 0.48231182
 0.53317653, 0.46429017
 0.48009412, 0.35812601
 0.43373094, 0.36596242
 0.50747521, 0.35812601
 0.47975809, 0.50313288
 0.56862088, 0.51584637
 0.55165468, 0.4825342
 0.42549977, 0.35812601
 0.26994798, 0.20335607
 0.34789184, 0.17369574
 0.2447506, 0.14856167
 0.17974137, 0.11556061
 0.17235007, 0.07696968
 0.15924743, 0.08950467
 0.14144135, 0.06075382
 0.1705023, 0.13741557
 0.31614314, 0.25637656
 0.52595335, 0.44991159
 0.66151525, 0.55193347
 0.98286578, 0.68282455
 0.86813375, 0.74043596
 0.80127664, 0.61527407
 0.68335291, 0.60409927
 0.73038805, 0.55597198
 0.68688054, 0.50839269
 0.5943222, 0.4767772
 0.53519232, 0.44837686
 0.53552835, 0.50511926
 0.51066691, 0.47670996
 0.49874018, 0.54047865
 0.51402652, 0.46449441
 0.40634976, 0.35666484
 0.2775072, 0.33710334
 0.33764487, 0.32159987
 0.24559048, 0.23852915
 0.15420796, 0.18843967
 0.14664874, 0.16831663
 0.11473213, 0.1782124
 0.10784478, 0.15239102
 0.11909964, 0.17180935
 0.19536374, 0.26778561
 0.37493699, 0.32444048
 0.59650601, 0.62745208
 0.93247103, 0.84869337
 1., 0.8625536
 0.90744166, 0.77872133
 0.7616328, 0.70457196
 0.71745343, 0.63971889
 0.59449022, 0.53950489
 0.47690242, 0.46556225
 0.45304887, 0.41319287
 0.49554848, 0.43463969
 0.56425337, 0.49956077
 0.58306734, 0.59891933
 0.60557707, 0.55371374
 0.43793044, 0.35812601
 0.29564931, 0.22150537
 0.29581723, 0.15722431
 0.25197379, 0.12659468
 0.15017638, 0.13229389
 0.17016636, 0.12189457
 0.11574003, 0.12527649
 0.1906602, 0.14461036
 0.34066856, 0.19686717
 0.66773053, 0.30589548
 0.68620868, 0.52676189
 0.52813706, 0.52646643
 0.57483626, 0.59554094
 0.55518231, 0.52264225
 0.53804809, 0.4744544
 0.5699647, 0.43375006
 0.58945074, 0.4855299
 0.5392239, 0.45710039
 0.43289096, 0.40827438
 0.44733753, 0.3823581
 0.53351256, 0.41983277
 0.57802787, 0.50977862
 0.74029898, 0.52905023
 0.6133042, 0.50094372
 0.43826647, 0.35812601
 0.27448351, 0.17620051
 0.25701326, 0.15633146
 0.23181588, 0.10995142
 0.12346716, 0.0826939
 0.12195531, 0.10912254
 0.1175878, 0.10017477
 0.13791372, 0.1668269
 0.34285237, 0.28479433
 0.70115909, 0.56261194
 0.71039816, 0.52612805
 0.4957165, 0.45722887
 0.50865112, 0.45363975
 0.46531163, 0.40924954
 0.48160596, 0.43200457
 0.49269281, 0.37475747
 0.55484628, 0.4391402
 0.51671428, 0.43459368
 0.42465989, 0.35673019
 0.41256515, 0.41859403
 0.49773229, 0.43020758
 0.53905599, 0.51424283
 0.75054595, 0.50583971
 0.69057619, 0.47157097
 0.51621033, 0.35812601
 0.3453721, 0.18684858
