tar,out
 0.27717116, 0.12084024
 0.2425668, 0.09424554
 0.12968254, 0.08655643
 0.12968254, 0.07915202
 0.11809175, 0.06710081
 0.14261716, 0.09880076
 0.3537712, 0.26205397
 0.66756262, 0.54761326
 0.67864946, 0.55753183
 0.51150679, 0.46406233
 0.65261211, 0.47049665
 0.66252314, 0.46166494
 0.47975809, 0.45312873
 0.48278177, 0.46958593
 0.54409546, 0.47337541
 0.50932308, 0.46091479
 0.41038134, 0.39166403
 0.39845461, 0.36792424
 0.48210991, 0.40481722
 0.57282047, 0.48979366
 0.67579369, 0.5044027
 0.65630776, 0.49444428
 0.43759451, 0.38853782
 0.29380143, 0.15500642
 0.2733076, 0.1197975
 0.23064007, 0.10424563
 0.13539398, 0.08543377
 0.13270623, 0.08535431
 0.13119438, 0.07567015
 0.1557198, 0.10453607
 0.33915672, 0.27617353
 0.67596171, 0.54702318
 0.65714763, 0.55980051
 0.51066691, 0.44641066
 0.50277176, 0.47343248
 0.51285071, 0.46509951
 0.44784148, 0.41120297
 0.47841426, 0.41704911
 0.57080468, 0.45852131
 0.55249456, 0.44470027
 0.46228794, 0.35595697
 0.44045018, 0.3528803
 0.50243573, 0.39211962
 0.58189153, 0.48997098
 0.68016131, 0.54858959
 0.56744497, 0.52376986
 0.4194524, 0.35714436
 0.29430538, 0.17405629
 0.27179576, 0.11640772
 0.22257691, 0.10374084
 0.15622375, 0.09212664
 0.16697466, 0.07887962
 0.14681676, 0.09049973
 0.15605583, 0.09002359
 0.35461118, 0.26819202
 0.65093235, 0.56275892
 0.62943052, 0.51496083
 0.48748532, 0.43518776
 0.53048888, 0.44018176
 0.48765333, 0.47501221
 0.49538046, 0.41592607
 0.46413571, 0.42582679
 0.5116748, 0.45567757
 0.51604231, 0.4143301
 0.4194524, 0.38023233
 0.38585593, 0.37460172
 0.41138924, 0.42011145
 0.55434233, 0.45834666
 0.60322524, 0.55696529
 0.60675288, 0.50273758
 0.49487652, 0.37022758
 0.26541246, 0.23021512
 0.2563414, 0.12864527
 0.22660849, 0.11303279
 0.1387536, 0.09475452
 0.14278518, 0.08868733
 0.12161938, 0.08414891
 0.1409374, 0.09424776
 0.36989752, 0.27854186
 0.68503277, 0.55427337
 0.67864946, 0.54335272
 0.53250467, 0.44666976
 0.50461954, 0.43974078
 0.480934, 0.43233746
 0.44985727, 0.40900117
 0.47320677, 0.4455905
 0.56290944, 0.47858721
 0.53317653, 0.43377209
 0.48009412, 0.39593565
 0.43373094, 0.37424114
 0.50747521, 0.39736229
 0.47975809, 0.48696721
 0.56862088, 0.52904987
 0.55165468, 0.42572579
 0.42549977, 0.35249195
 0.26994798, 0.19906539
 0.34789184, 0.13169256
 0.2447506, 0.12127072
 0.17974137, 0.11089483
 0.17235007, 0.09575035
 0.15924743, 0.09587669
 0.14144135, 0.08748209
 0.1705023, 0.1103662
 0.31614314, 0.22167218
 0.52595335, 0.41097066
 0.66151525, 0.56538481
 0.98286578, 0.68601429
 0.86813375, 0.7791
 0.80127664, 0.66334081
 0.68335291, 0.62600875
 0.73038805, 0.56773216
 0.68688054, 0.54988915
 0.5943222, 0.49551907
 0.53519232, 0.45470136
 0.53552835, 0.50933659
 0.51066691, 0.50704086
 0.49874018, 0.52383792
 0.51402652, 0.43247685
 0.40634976, 0.40812743
 0.2775072, 0.36005214
 0.33764487, 0.37843785
 0.24559048, 0.16174868
 0.15420796, 0.18017477
 0.14664874, 0.10975514
 0.11473213, 0.13742524
 0.10784478, 0.10930325
 0.11909964, 0.17643629
 0.19536374, 0.23905121
 0.37493699, 0.28861547
 0.59650601, 0.56731009
 0.93247103, 0.79987884
 1., 0.87885499
 0.90744166, 0.83225226
 0.7616328, 0.72461307
 0.71745343, 0.65764785
 0.59449022, 0.55878484
 0.47690242, 0.52592582
 0.45304887, 0.42768794
 0.49554848, 0.44845074
 0.56425337, 0.53772748
 0.58306734, 0.61155361
 0.60557707, 0.56552958
 0.43793044, 0.3933211
 0.29564931, 0.27054229
 0.29581723, 0.13324988
 0.25197379, 0.10909154
 0.15017638, 0.10158524
 0.17016636, 0.09964599
 0.11574003, 0.09137006
 0.1906602, 0.11166681
 0.34066856, 0.2137728
 0.66773053, 0.27945498
 0.68620868, 0.54987961
 0.52813706, 0.53527731
 0.57483626, 0.61677706
 0.55518231, 0.56357479
 0.53804809, 0.46348411
 0.5699647, 0.48687077
 0.58945074, 0.48023096
 0.5392239, 0.48803538
 0.43289096, 0.41612068
 0.44733753, 0.38902879
 0.53351256, 0.42015302
 0.57802787, 0.52334476
 0.74029898, 0.53035903
 0.6133042, 0.52736527
 0.43826647, 0.37156627
 0.27448351, 0.18546624
 0.25701326, 0.1073817
 0.23181588, 0.10370705
 0.12346716, 0.0835654
 0.12195531, 0.10293224
 0.1175878, 0.08909972
 0.13791372, 0.1180225
 0.34285237, 0.27947357
 0.70115909, 0.55805755
 0.71039816, 0.53863865
 0.4957165, 0.43500572
 0.50865112, 0.45660293
 0.46531163, 0.45231318
 0.48160596, 0.3994084
 0.49269281, 0.43674982
 0.55484628, 0.44596481
 0.51671428, 0.40949589
 0.42465989, 0.39329526
 0.41256515, 0.36763564
 0.49773229, 0.42326599
 0.53905599, 0.49083215
 0.75054595, 0.55871022
 0.69057619, 0.51695418
 0.51621033, 0.38328934
 0.3453721, 0.19166963
