tar,out
 0.27717116, 0.14970477
 0.2425668, 0.10575129
 0.12968254, 0.09238712
 0.12968254, 0.05261925
 0.11809175, 0.0992514
 0.14261716, 0.09642884
 0.3537712, 0.23404822
 0.66756262, 0.54262137
 0.67864946, 0.53048575
 0.51150679, 0.51453376
 0.65261211, 0.4681915
 0.66252314, 0.47780976
 0.47975809, 0.47124192
 0.48278177, 0.49052557
 0.54409546, 0.47771275
 0.50932308, 0.46679056
 0.41038134, 0.39485249
 0.39845461, 0.37437126
 0.48210991, 0.39791629
 0.57282047, 0.4859578
 0.67579369, 0.50387096
 0.65630776, 0.51511562
 0.43759451, 0.3661246
 0.29380143, 0.24323615
 0.2733076, 0.1584695
 0.23064007, 0.12913458
 0.13539398, 0.09994835
 0.13270623, 0.08287367
 0.13119438, 0.09681207
 0.1557198, 0.11782816
 0.33915672, 0.26957822
 0.67596171, 0.55217201
 0.65714763, 0.54477
 0.51066691, 0.46456563
 0.50277176, 0.46950459
 0.51285071, 0.45475245
 0.44784148, 0.45705152
 0.47841426, 0.42110506
 0.57080468, 0.46055278
 0.55249456, 0.44394296
 0.46228794, 0.36409831
 0.44045018, 0.39635941
 0.50243573, 0.40540636
 0.58189153, 0.49586827
 0.68016131, 0.53564107
 0.56744497, 0.52545339
 0.4194524, 0.33130762
 0.29430538, 0.16885643
 0.27179576, 0.15844209
 0.22257691, 0.09686567
 0.15622375, 0.0874241
 0.16697466, 0.05317393
 0.14681676, 0.10367921
 0.15605583, 0.10271153
 0.35461118, 0.25945657
 0.65093235, 0.55845201
 0.62943052, 0.5364334
 0.48748532, 0.44912776
 0.53048888, 0.46906382
 0.48765333, 0.46555668
 0.49538046, 0.42699641
 0.46413571, 0.42239338
 0.5116748, 0.465137
 0.51604231, 0.40719888
 0.4194524, 0.37937033
 0.38585593, 0.37329823
 0.41138924, 0.40553468
 0.55434233, 0.49296993
 0.60322524, 0.51710194
 0.60675288, 0.51027524
 0.49487652, 0.33130762
 0.26541246, 0.23483068
 0.2563414, 0.15636234
 0.22660849, 0.10592471
 0.1387536, 0.08962066
 0.14278518, 0.06876814
 0.12161938, 0.08476686
 0.1409374, 0.09888251
 0.36989752, 0.25134382
 0.68503277, 0.57382601
 0.67864946, 0.53999722
 0.53250467, 0.46347791
 0.50461954, 0.46744579
 0.480934, 0.45670825
 0.44985727, 0.45349163
 0.47320677, 0.46701801
 0.56290944, 0.4632197
 0.53317653, 0.4655619
 0.48009412, 0.40346611
 0.43373094, 0.40824038
 0.50747521, 0.41030008
 0.47975809, 0.48884869
 0.56862088, 0.50404251
 0.55165468, 0.50037611
 0.42549977, 0.32995448
 0.26994798, 0.19041227
 0.34789184, 0.15890981
 0.2447506, 0.12666082
 0.17974137, 0.09399451
 0.17235007, 0.08827171
 0.15924743, 0.0835205
 0.14144135, 0.09757315
 0.1705023, 0.13629702
 0.31614314, 0.20476221
 0.52595335, 0.36272994
 0.66151525, 0.55141389
 0.98286578, 0.69332165
 0.86813375, 0.69870007
 0.80127664, 0.6364013
 0.68335291, 0.60171437
 0.73038805, 0.57735485
 0.68688054, 0.50211132
 0.5943222, 0.46244225
 0.53519232, 0.44170052
 0.53552835, 0.49386758
 0.51066691, 0.46180826
 0.49874018, 0.50029171
 0.51402652, 0.47767085
 0.40634976, 0.4322865
 0.2775072, 0.39578548
 0.33764487, 0.31802312
 0.24559048, 0.19362223
 0.15420796, 0.15295248
 0.14664874, 0.14069605
 0.11473213, 0.13943031
 0.10784478, 0.1214741
 0.11909964, 0.15069112
 0.19536374, 0.21997249
 0.37493699, 0.30019149
 0.59650601, 0.54402304
 0.93247103, 0.75258315
 1., 0.84736234
 0.90744166, 0.77468604
 0.7616328, 0.70902848
 0.71745343, 0.63961351
 0.59449022, 0.5272001
 0.47690242, 0.47998646
 0.45304887, 0.44789159
 0.49554848, 0.46675497
 0.56425337, 0.51982993
 0.58306734, 0.58500564
 0.60557707, 0.58269358
 0.43793044, 0.41046137
 0.29564931, 0.22760662
 0.29581723, 0.14739588
 0.25197379, 0.1386345
 0.15017638, 0.10498069
 0.17016636, 0.0960345
 0.11574003, 0.08787933
 0.1906602, 0.09821893
 0.34066856, 0.16848545
 0.66773053, 0.28478912
 0.68620868, 0.43023515
 0.52813706, 0.52143347
 0.57483626, 0.55981618
 0.55518231, 0.48639065
 0.53804809, 0.48194635
 0.5699647, 0.4701516
 0.58945074, 0.46756881
 0.5392239, 0.45962307
 0.43289096, 0.41835976
 0.44733753, 0.39509293
 0.53351256, 0.48019326
 0.57802787, 0.51295662
 0.74029898, 0.54418647
 0.6133042, 0.5736891
 0.43826647, 0.3595221
 0.27448351, 0.17927377
 0.25701326, 0.14122365
 0.23181588, 0.08437166
 0.12346716, 0.08411279
 0.12195531, 0.05961743
 0.1175878, 0.09015492
 0.13791372, 0.15600738
 0.34285237, 0.32962218
 0.70115909, 0.54075748
 0.71039816, 0.53402829
 0.4957165, 0.45649102
 0.50865112, 0.46779519
 0.46531163, 0.45806932
 0.48160596, 0.41161039
 0.49269281, 0.40349823
 0.55484628, 0.44788292
 0.51671428, 0.42445993
 0.42465989, 0.3847369
 0.41256515, 0.38598442
 0.49773229, 0.40788218
 0.53905599, 0.49904287
 0.75054595, 0.53639925
 0.69057619, 0.51148719
 0.51621033, 0.35513389
 0.3453721, 0.17790405
