tar,out
 0.27717116, 0.12152015
 0.2425668, 0.09091373
 0.12968254, 0.08523223
 0.12968254, 0.06639159
 0.11809175, 0.07826214
 0.14261716, 0.09744728
 0.3537712, 0.25732934
 0.66756262, 0.54181874
 0.67864946, 0.54538465
 0.51150679, 0.46401113
 0.65261211, 0.49331102
 0.66252314, 0.44634628
 0.47975809, 0.49467483
 0.48278177, 0.44971505
 0.54409546, 0.49102885
 0.50932308, 0.45802635
 0.41038134, 0.37255526
 0.39845461, 0.35307357
 0.48210991, 0.38881999
 0.57282047, 0.51323211
 0.67579369, 0.5087471
 0.65630776, 0.52164626
 0.43759451, 0.38179767
 0.29380143, 0.22855511
 0.2733076, 0.13223019
 0.23064007, 0.09985036
 0.13539398, 0.10453522
 0.13270623, 0.08224323
 0.13119438, 0.09281483
 0.1557198, 0.11762764
 0.33915672, 0.25732934
 0.67596171, 0.53421426
 0.65714763, 0.55016327
 0.51066691, 0.45603058
 0.50277176, 0.45631832
 0.51285071, 0.4186224
 0.44784148, 0.43368387
 0.47841426, 0.39541787
 0.57080468, 0.46010694
 0.55249456, 0.45577431
 0.46228794, 0.36172497
 0.44045018, 0.33720466
 0.50243573, 0.38714433
 0.58189153, 0.50568944
 0.68016131, 0.53057742
 0.56744497, 0.52370167
 0.4194524, 0.37006363
 0.29430538, 0.19922967
 0.27179576, 0.12670691
 0.22257691, 0.11074777
 0.15622375, 0.09860656
 0.16697466, 0.06985298
 0.14681676, 0.08452462
 0.15605583, 0.10508059
 0.35461118, 0.25732934
 0.65093235, 0.54895061
 0.62943052, 0.54405904
 0.48748532, 0.47679007
 0.53048888, 0.48068741
 0.48765333, 0.45920986
 0.49538046, 0.43592274
 0.46413571, 0.44261742
 0.5116748, 0.48479956
 0.51604231, 0.45003134
 0.4194524, 0.35273665
 0.38585593, 0.39117193
 0.41138924, 0.40810657
 0.55434233, 0.49312782
 0.60322524, 0.53395247
 0.60675288, 0.52163279
 0.49487652, 0.37309122
 0.26541246, 0.22754282
 0.2563414, 0.1340425
 0.22660849, 0.10140693
 0.1387536, 0.09492701
 0.14278518, 0.07468875
 0.12161938, 0.07737023
 0.1409374, 0.07156441
 0.36989752, 0.25732934
 0.68503277, 0.5480957
 0.67864946, 0.55186707
 0.53250467, 0.45707655
 0.50461954, 0.46526712
 0.480934, 0.44838846
 0.44985727, 0.42360196
 0.47320677, 0.41501111
 0.56290944, 0.48644942
 0.53317653, 0.4627164
 0.48009412, 0.37930879
 0.43373094, 0.35685202
 0.50747521, 0.39116767
 0.47975809, 0.50329208
 0.56862088, 0.50251555
 0.55165468, 0.48041883
 0.42549977, 0.35526839
 0.26994798, 0.20213327
 0.34789184, 0.15072225
 0.2447506, 0.13353671
 0.17974137, 0.11293539
 0.17235007, 0.09305239
 0.15924743, 0.09652741
 0.14144135, 0.09875505
 0.1705023, 0.12645127
 0.31614314, 0.2418531
 0.52595335, 0.38248652
 0.66151525, 0.56671369
 0.98286578, 0.68739897
 0.86813375, 0.71673203
 0.80127664, 0.60299981
 0.68335291, 0.57406646
 0.73038805, 0.55149615
 0.68688054, 0.52273357
 0.5943222, 0.45380867
 0.53519232, 0.50663912
 0.53552835, 0.50996262
 0.51066691, 0.51806641
 0.49874018, 0.53431344
 0.51402652, 0.49744588
 0.40634976, 0.35374457
 0.2775072, 0.47318137
 0.33764487, 0.25107595
 0.24559048, 0.14105469
 0.15420796, 0.12735741
 0.14664874, 0.13380282
 0.11473213, 0.1238091
 0.10784478, 0.14916229
 0.11909964, 0.15928814
 0.19536374, 0.23219025
 0.37493699, 0.25634074
 0.59650601, 0.60843575
 0.93247103, 0.79558802
 1., 0.82106006
 0.90744166, 0.7847383
 0.7616328, 0.72883016
 0.71745343, 0.6593461
 0.59449022, 0.53330392
 0.47690242, 0.47656673
 0.45304887, 0.43033552
 0.49554848, 0.45679885
 0.56425337, 0.50508749
 0.58306734, 0.59224367
 0.60557707, 0.53270364
 0.43793044, 0.38941646
 0.29564931, 0.2275261
 0.29581723, 0.12425637
 0.25197379, 0.09993686
 0.15017638, 0.10052633
 0.17016636, 0.08790185
 0.11574003, 0.10023615
 0.1906602, 0.11064494
 0.34066856, 0.20826598
 0.66773053, 0.34584349
 0.68620868, 0.54293776
 0.52813706, 0.52838111
 0.57483626, 0.55856377
 0.55518231, 0.52759504
 0.53804809, 0.50207382
 0.5699647, 0.48964655
 0.58945074, 0.50228035
 0.5392239, 0.46738473
 0.43289096, 0.45193824
 0.44733753, 0.37397206
 0.53351256, 0.4674671
 0.57802787, 0.53170109
 0.74029898, 0.50559449
 0.6133042, 0.52830344
 0.43826647, 0.38239625
 0.27448351, 0.19170341
 0.25701326, 0.11875097
 0.23181588, 0.09250599
 0.12346716, 0.08677508
 0.12195531, 0.05866911
 0.1175878, 0.07924727
 0.13791372, 0.12983884
 0.34285237, 0.25732934
 0.70115909, 0.54964501
 0.71039816, 0.54598826
 0.4957165, 0.45332131
 0.50865112, 0.47765625
 0.46531163, 0.45616174
 0.48160596, 0.43769372
 0.49269281, 0.42640531
 0.55484628, 0.47703677
 0.51671428, 0.45262516
 0.42465989, 0.36632127
 0.41256515, 0.38295555
 0.49773229, 0.40610254
 0.53905599, 0.52123022
 0.75054595, 0.52472907
 0.69057619, 0.52314717
 0.51621033, 0.38281202
 0.3453721, 0.18941042
