tar,out
 0.27717116, 0.15887603
 0.2425668, 0.12547152
 0.12968254, 0.11593284
 0.12968254, 0.0917913
 0.11809175, 0.09383972
 0.14261716, 0.09976923
 0.3537712, 0.22916579
 0.66756262, 0.54522616
 0.67864946, 0.55710363
 0.51150679, 0.47031933
 0.65261211, 0.4872998
 0.66252314, 0.46027187
 0.47975809, 0.48977301
 0.48278177, 0.45093492
 0.54409546, 0.48381764
 0.50932308, 0.45249969
 0.41038134, 0.40178949
 0.39845461, 0.36355379
 0.48210991, 0.42117459
 0.57282047, 0.49525329
 0.67579369, 0.50423276
 0.65630776, 0.47706467
 0.43759451, 0.37248096
 0.29380143, 0.22362244
 0.2733076, 0.16248736
 0.23064007, 0.13332506
 0.13539398, 0.12124152
 0.13270623, 0.11381602
 0.13119438, 0.09932689
 0.1557198, 0.11449039
 0.33915672, 0.23518741
 0.67596171, 0.54641593
 0.65714763, 0.56113809
 0.51066691, 0.47499388
 0.50277176, 0.45986649
 0.51285071, 0.47113878
 0.44784148, 0.42739314
 0.47841426, 0.43484139
 0.57080468, 0.45195076
 0.55249456, 0.44081247
 0.46228794, 0.36112857
 0.44045018, 0.36478761
 0.50243573, 0.3743329
 0.58189153, 0.50243801
 0.68016131, 0.53235024
 0.56744497, 0.52257681
 0.4194524, 0.3470633
 0.29430538, 0.16393474
 0.27179576, 0.1567492
 0.22257691, 0.11494859
 0.15622375, 0.09090972
 0.16697466, 0.07399639
 0.14681676, 0.07741036
 0.15605583, 0.1257465
 0.35461118, 0.27450591
 0.65093235, 0.56029016
 0.62943052, 0.52730405
 0.48748532, 0.52732056
 0.53048888, 0.4749935
 0.48765333, 0.47027898
 0.49538046, 0.43046755
 0.46413571, 0.42811626
 0.5116748, 0.4597064
 0.51604231, 0.42475569
 0.4194524, 0.37070006
 0.38585593, 0.37298244
 0.41138924, 0.40945792
 0.55434233, 0.50835854
 0.60322524, 0.53011727
 0.60675288, 0.51038182
 0.49487652, 0.35999748
 0.26541246, 0.21305427
 0.2563414, 0.16879773
 0.22660849, 0.12123503
 0.1387536, 0.10717027
 0.14278518, 0.0716871
 0.12161938, 0.10251781
 0.1409374, 0.09253554
 0.36989752, 0.26532888
 0.68503277, 0.54133242
 0.67864946, 0.52640885
 0.53250467, 0.45917803
 0.50461954, 0.46743631
 0.480934, 0.45401263
 0.44985727, 0.43956184
 0.47320677, 0.43865067
 0.56290944, 0.46342462
 0.53317653, 0.4446637
 0.48009412, 0.3779076
 0.43373094, 0.37524346
 0.50747521, 0.39627653
 0.47975809, 0.50108212
 0.56862088, 0.51460028
 0.55165468, 0.50426555
 0.42549977, 0.34017581
 0.26994798, 0.19456384
 0.34789184, 0.17142893
 0.2447506, 0.14260644
 0.17974137, 0.11926596
 0.17235007, 0.09388621
 0.15924743, 0.10851152
 0.14144135, 0.09883882
 0.1705023, 0.15961795
 0.31614314, 0.20918481
 0.52595335, 0.39147371
 0.66151525, 0.56514394
 0.98286578, 0.70608997
 0.86813375, 0.76857531
 0.80127664, 0.63901079
 0.68335291, 0.62286836
 0.73038805, 0.57166493
 0.68688054, 0.52242661
 0.5943222, 0.44393602
 0.53519232, 0.4615761
 0.53552835, 0.46740854
 0.51066691, 0.50919056
 0.49874018, 0.53155279
 0.51402652, 0.53415805
 0.40634976, 0.3710742
 0.2775072, 0.22025755
 0.33764487, 0.18100701
 0.24559048, 0.16394252
 0.15420796, 0.14994049
 0.14664874, 0.13254941
 0.11473213, 0.12330741
 0.10784478, 0.13312377
 0.11909964, 0.2012392
 0.19536374, 0.25468558
 0.37493699, 0.28646213
 0.59650601, 0.57575268
 0.93247103, 0.83512187
 1., 0.90222108
 0.90744166, 0.87199283
 0.7616328, 0.7489205
 0.71745343, 0.70308125
 0.59449022, 0.54560411
 0.47690242, 0.49600354
 0.45304887, 0.42101026
 0.49554848, 0.44442958
 0.56425337, 0.51913738
 0.58306734, 0.59847343
 0.60557707, 0.55479532
 0.43793044, 0.37551716
 0.29564931, 0.20910645
 0.29581723, 0.14434238
 0.25197379, 0.11485484
 0.15017638, 0.11818868
 0.17016636, 0.09164953
 0.11574003, 0.09168805
 0.1906602, 0.11365703
 0.34066856, 0.24008662
 0.66773053, 0.43491983
 0.68620868, 0.50995243
 0.52813706, 0.5088914
 0.57483626, 0.58194232
 0.55518231, 0.51559925
 0.53804809, 0.4824779
 0.5699647, 0.44044897
 0.58945074, 0.48280197
 0.5392239, 0.47100225
 0.43289096, 0.42472088
 0.44733753, 0.39349428
 0.53351256, 0.44893926
 0.57802787, 0.50816137
 0.74029898, 0.50879657
 0.6133042, 0.47573292
 0.43826647, 0.34106401
 0.27448351, 0.16800909
 0.25701326, 0.14877446
 0.23181588, 0.12725291
 0.12346716, 0.11160828
 0.12195531, 0.10159366
 0.1175878, 0.10302833
 0.13791372, 0.15966207
 0.34285237, 0.29421163
 0.70115909, 0.57389843
 0.71039816, 0.539038
 0.4957165, 0.51349205
 0.50865112, 0.44999224
 0.46531163, 0.45794913
 0.48160596, 0.41462991
 0.49269281, 0.4445827
 0.55484628, 0.44076693
 0.51671428, 0.41823608
 0.42465989, 0.37219754
 0.41256515, 0.36901328
 0.49773229, 0.37187225
 0.53905599, 0.50763386
 0.75054595, 0.51554209
 0.69057619, 0.51090306
 0.51621033, 0.27952871
 0.3453721, 0.16976722
