tar,out
 0.27717116, 0.1515027
 0.2425668, 0.11079723
 0.12968254, 0.09351853
 0.12968254, 0.07900723
 0.11809175, 0.08316663
 0.14261716, 0.10841122
 0.3537712, 0.19442692
 0.66756262, 0.53082907
 0.67864946, 0.51837176
 0.51150679, 0.46015561
 0.65261211, 0.44354883
 0.66252314, 0.43297216
 0.47975809, 0.43480253
 0.48278177, 0.45346648
 0.54409546, 0.4537971
 0.50932308, 0.43523094
 0.41038134, 0.39997196
 0.39845461, 0.39360487
 0.48210991, 0.43494844
 0.57282047, 0.45258403
 0.67579369, 0.47761846
 0.65630776, 0.45676333
 0.43759451, 0.35910082
 0.29380143, 0.21755944
 0.2733076, 0.16019353
 0.23064007, 0.1226457
 0.13539398, 0.11926486
 0.13270623, 0.1070052
 0.13119438, 0.11534647
 0.1557198, 0.1312626
 0.33915672, 0.341335
 0.67596171, 0.54688132
 0.65714763, 0.52014244
 0.51066691, 0.45578003
 0.50277176, 0.43998998
 0.51285071, 0.43330961
 0.44784148, 0.43519962
 0.47841426, 0.44748032
 0.57080468, 0.44033611
 0.55249456, 0.42883021
 0.46228794, 0.3609789
 0.44045018, 0.37543011
 0.50243573, 0.42901266
 0.58189153, 0.47820169
 0.68016131, 0.52660394
 0.56744497, 0.51143336
 0.4194524, 0.34963498
 0.29430538, 0.18730545
 0.27179576, 0.16508061
 0.22257691, 0.12561437
 0.15622375, 0.11151186
 0.16697466, 0.10121602
 0.14681676, 0.10370179
 0.15605583, 0.13544549
 0.35461118, 0.26240236
 0.65093235, 0.53047282
 0.62943052, 0.50074881
 0.48748532, 0.45310467
 0.53048888, 0.44535846
 0.48765333, 0.44288683
 0.49538046, 0.4359172
 0.46413571, 0.44871849
 0.5116748, 0.43864599
 0.51604231, 0.42969841
 0.4194524, 0.36665982
 0.38585593, 0.40093762
 0.41138924, 0.43162003
 0.55434233, 0.4608227
 0.60322524, 0.48861152
 0.60675288, 0.49901366
 0.49487652, 0.35663551
 0.26541246, 0.20215398
 0.2563414, 0.15965506
 0.22660849, 0.12625448
 0.1387536, 0.1178114
 0.14278518, 0.10142379
 0.12161938, 0.10030384
 0.1409374, 0.11003616
 0.36989752, 0.19665027
 0.68503277, 0.53534937
 0.67864946, 0.49888444
 0.53250467, 0.44564235
 0.50461954, 0.43972668
 0.480934, 0.42840856
 0.44985727, 0.43556452
 0.47320677, 0.45515811
 0.56290944, 0.44832438
 0.53317653, 0.43285191
 0.48009412, 0.37896085
 0.43373094, 0.38820565
 0.50747521, 0.4302702
 0.47975809, 0.46790028
 0.56862088, 0.50032628
 0.55165468, 0.48904949
 0.42549977, 0.34334117
 0.26994798, 0.18498915
 0.34789184, 0.17780107
 0.2447506, 0.15033652
 0.17974137, 0.13812366
 0.17235007, 0.11088209
 0.15924743, 0.11328542
 0.14144135, 0.11731251
 0.1705023, 0.16350357
 0.31614314, 0.20145288
 0.52595335, 0.42405349
 0.66151525, 0.50119954
 0.98286578, 0.54253519
 0.86813375, 0.67603189
 0.80127664, 0.60486323
 0.68335291, 0.53791171
 0.73038805, 0.50632977
 0.68688054, 0.4725697
 0.5943222, 0.46455824
 0.53519232, 0.43862528
 0.53552835, 0.44762498
 0.51066691, 0.46387082
 0.49874018, 0.46450692
 0.51402652, 0.42363453
 0.40634976, 0.38012227
 0.2775072, 0.27412999
 0.33764487, 0.20333269
 0.24559048, 0.16811427
 0.15420796, 0.14118713
 0.14664874, 0.13389698
 0.11473213, 0.12270481
 0.10784478, 0.13915157
 0.11909964, 0.15773782
 0.19536374, 0.16367431
 0.37493699, 0.19945183
 0.59650601, 0.57025653
 0.93247103, 0.69941157
 1., 0.7801404
 0.90744166, 0.70857221
 0.7616328, 0.62726414
 0.71745343, 0.55612355
 0.59449022, 0.48653764
 0.47690242, 0.47855973
 0.45304887, 0.44387865
 0.49554848, 0.45026547
 0.56425337, 0.4776175
 0.58306734, 0.50451833
 0.60557707, 0.47072762
 0.43793044, 0.37340263
 0.29564931, 0.19535393
 0.29581723, 0.15455139
 0.25197379, 0.13987236
 0.15017638, 0.12190988
 0.17016636, 0.10622442
 0.11574003, 0.11144141
 0.1906602, 0.1324801
 0.34066856, 0.17279898
 0.66773053, 0.46300769
 0.68620868, 0.49106991
 0.52813706, 0.47331482
 0.57483626, 0.51118284
 0.55518231, 0.48508257
 0.53804809, 0.44709909
 0.5699647, 0.44679481
 0.58945074, 0.45675075
 0.5392239, 0.43771452
 0.43289096, 0.40682942
 0.44733753, 0.40381968
 0.53351256, 0.43001068
 0.57802787, 0.47524393
 0.74029898, 0.50328314
 0.6133042, 0.47587103
 0.43826647, 0.32787624
 0.27448351, 0.18644883
 0.25701326, 0.147561
 0.23181588, 0.11686004
 0.12346716, 0.10030374
 0.12195531, 0.11022241
 0.1175878, 0.10717935
 0.13791372, 0.15305606
 0.34285237, 0.31395191
 0.70115909, 0.52797484
 0.71039816, 0.51050043
 0.4957165, 0.4581517
 0.50865112, 0.44585299
 0.46531163, 0.44359276
 0.48160596, 0.43764037
 0.49269281, 0.44886935
 0.55484628, 0.43866074
 0.51671428, 0.42946821
 0.42465989, 0.37221885
 0.41256515, 0.39944762
 0.49773229, 0.42914438
 0.53905599, 0.45644653
 0.75054595, 0.48537874
 0.69057619, 0.4819901
 0.51621033, 0.35545316
 0.3453721, 0.19425108
