tar,out
 0.27717116, 0.10390663
 0.2425668, 0.08657028
 0.12968254, 0.06310272
 0.12968254, 0.04912949
 0.11809175, 0.04777348
 0.14261716, 0.05908546
 0.3537712, 0.24818607
 0.66756262, 0.5565486
 0.67864946, 0.55323982
 0.51150679, 0.46674445
 0.65261211, 0.46611345
 0.66252314, 0.43573797
 0.47975809, 0.44981223
 0.48278177, 0.44299197
 0.54409546, 0.4642933
 0.50932308, 0.45072114
 0.41038134, 0.37165463
 0.39845461, 0.36135799
 0.48210991, 0.40292293
 0.57282047, 0.49332362
 0.67579369, 0.46306568
 0.65630776, 0.49613026
 0.43759451, 0.40194842
 0.29380143, 0.20356995
 0.2733076, 0.11245652
 0.23064007, 0.08901097
 0.13539398, 0.06306021
 0.13270623, 0.06800702
 0.13119438, 0.05928206
 0.1557198, 0.08518152
 0.33915672, 0.29295459
 0.67596171, 0.56470704
 0.65714763, 0.5554083
 0.51066691, 0.46063238
 0.50277176, 0.45992535
 0.51285071, 0.45305672
 0.44784148, 0.41888267
 0.47841426, 0.41957757
 0.57080468, 0.45193291
 0.55249456, 0.44495538
 0.46228794, 0.3617557
 0.44045018, 0.35792249
 0.50243573, 0.40618306
 0.58189153, 0.49631345
 0.68016131, 0.54072952
 0.56744497, 0.51459521
 0.4194524, 0.36160216
 0.29430538, 0.16058433
 0.27179576, 0.10673042
 0.22257691, 0.08331734
 0.15622375, 0.05994859
 0.16697466, 0.06042427
 0.14681676, 0.0557206
 0.15605583, 0.0772243
 0.35461118, 0.24235398
 0.65093235, 0.562985
 0.62943052, 0.529369
 0.48748532, 0.47421992
 0.53048888, 0.48122343
 0.48765333, 0.4656902
 0.49538046, 0.42974693
 0.46413571, 0.44188532
 0.5116748, 0.45617554
 0.51604231, 0.42040008
 0.4194524, 0.35006028
 0.38585593, 0.36166275
 0.41138924, 0.41099244
 0.55434233, 0.49475041
 0.60322524, 0.534374
 0.60675288, 0.51539534
 0.49487652, 0.3719418
 0.26541246, 0.18286067
 0.2563414, 0.12622383
 0.22660849, 0.0872182
 0.1387536, 0.06869495
 0.14278518, 0.05782053
 0.12161938, 0.04799393
 0.1409374, 0.0708499
 0.36989752, 0.27517745
 0.68503277, 0.56338233
 0.67864946, 0.5268718
 0.53250467, 0.42697513
 0.50461954, 0.45948046
 0.480934, 0.43089697
 0.44985727, 0.4363685
 0.47320677, 0.42125914
 0.56290944, 0.45152187
 0.53317653, 0.45939583
 0.48009412, 0.37141192
 0.43373094, 0.38669354
 0.50747521, 0.39516848
 0.47975809, 0.48025411
 0.56862088, 0.51781631
 0.55165468, 0.49639553
 0.42549977, 0.35244983
 0.26994798, 0.17586762
 0.34789184, 0.14427218
 0.2447506, 0.12623528
 0.17974137, 0.08121693
 0.17235007, 0.07015561
 0.15924743, 0.06554724
 0.14144135, 0.0711692
 0.1705023, 0.08318496
 0.31614314, 0.20750777
 0.52595335, 0.41862845
 0.66151525, 0.48990828
 0.98286578, 0.6961441
 0.86813375, 0.68869483
 0.80127664, 0.63317013
 0.68335291, 0.56675828
 0.73038805, 0.5973345
 0.68688054, 0.51499641
 0.5943222, 0.44590372
 0.53519232, 0.45080578
 0.53552835, 0.52555048
 0.51066691, 0.48212445
 0.49874018, 0.57118344
 0.51402652, 0.47484982
 0.40634976, 0.2671338
 0.2775072, 0.24721886
 0.33764487, 0.10374574
 0.24559048, 0.1119429
 0.15420796, 0.0929814
 0.14664874, 0.0859364
 0.11473213, 0.11214845
 0.10784478, 0.0845661
 0.11909964, 0.11982433
 0.19536374, 0.26546785
 0.37493699, 0.46373045
 0.59650601, 0.62669826
 0.93247103, 0.8356182
 1., 0.85074604
 0.90744166, 0.81727755
 0.7616328, 0.73979592
 0.71745343, 0.67842919
 0.59449022, 0.5546602
 0.47690242, 0.4601326
 0.45304887, 0.43440619
 0.49554848, 0.44724116
 0.56425337, 0.53941107
 0.58306734, 0.57668453
 0.60557707, 0.57308137
 0.43793044, 0.41884542
 0.29564931, 0.22662699
 0.29581723, 0.09950437
 0.25197379, 0.09384301
 0.15017638, 0.0819042
 0.17016636, 0.07037473
 0.11574003, 0.08097292
 0.1906602, 0.10013576
 0.34066856, 0.19393301
 0.66773053, 0.51363099
 0.68620868, 0.52975595
 0.52813706, 0.52988708
 0.57483626, 0.60188764
 0.55518231, 0.50539476
 0.53804809, 0.47599247
 0.5699647, 0.43548989
 0.58945074, 0.48108831
 0.5392239, 0.46056259
 0.43289096, 0.43903169
 0.44733753, 0.38566458
 0.53351256, 0.4414885
 0.57802787, 0.51176882
 0.74029898, 0.50393742
 0.6133042, 0.52029431
 0.43826647, 0.37901002
 0.27448351, 0.15970448
 0.25701326, 0.0945842
 0.23181588, 0.07602417
 0.12346716, 0.06011751
 0.12195531, 0.05397099
 0.1175878, 0.0698462
 0.13791372, 0.09802385
 0.34285237, 0.2152079
 0.70115909, 0.55886358
 0.71039816, 0.52170593
 0.4957165, 0.47669238
 0.50865112, 0.48959577
 0.46531163, 0.44041854
 0.48160596, 0.43526566
 0.49269281, 0.43152389
 0.55484628, 0.45713994
 0.51671428, 0.42632443
 0.42465989, 0.36214799
 0.41256515, 0.35945421
 0.49773229, 0.41211668
 0.53905599, 0.49513954
 0.75054595, 0.53967494
 0.69057619, 0.52349037
 0.51621033, 0.39875603
 0.3453721, 0.16009712
