tar,out
 0.27717116, 0.14566302
 0.2425668, 0.13216791
 0.12968254, 0.11667526
 0.12968254, 0.09585315
 0.11809175, 0.10632133
 0.14261716, 0.11312924
 0.3537712, 0.27363437
 0.66756262, 0.53099644
 0.67864946, 0.5344466
 0.51150679, 0.48181301
 0.65261211, 0.48360324
 0.66252314, 0.4646253
 0.47975809, 0.47009474
 0.48278177, 0.49384925
 0.54409546, 0.46722186
 0.50932308, 0.468514
 0.41038134, 0.39066857
 0.39845461, 0.36929274
 0.48210991, 0.40935677
 0.57282047, 0.48873359
 0.67579369, 0.48407364
 0.65630776, 0.48647738
 0.43759451, 0.37008518
 0.29380143, 0.21975921
 0.2733076, 0.16998692
 0.23064007, 0.13968715
 0.13539398, 0.12892836
 0.13270623, 0.11002751
 0.13119438, 0.12326619
 0.1557198, 0.1274547
 0.33915672, 0.28291354
 0.67596171, 0.53777736
 0.65714763, 0.53220439
 0.51066691, 0.47094503
 0.50277176, 0.47594309
 0.51285071, 0.4698737
 0.44784148, 0.42718345
 0.47841426, 0.41960049
 0.57080468, 0.45438415
 0.55249456, 0.44619334
 0.46228794, 0.36021557
 0.44045018, 0.36642826
 0.50243573, 0.38947642
 0.58189153, 0.48382273
 0.68016131, 0.52683425
 0.56744497, 0.5105654
 0.4194524, 0.35951379
 0.29430538, 0.19296332
 0.27179576, 0.16771771
 0.22257691, 0.11939044
 0.15622375, 0.10946593
 0.16697466, 0.07475847
 0.14681676, 0.11130239
 0.15605583, 0.10426947
 0.35461118, 0.25450486
 0.65093235, 0.53386426
 0.62943052, 0.48987794
 0.48748532, 0.45514512
 0.53048888, 0.46192324
 0.48765333, 0.42180881
 0.49538046, 0.42115715
 0.46413571, 0.42533278
 0.5116748, 0.45057237
 0.51604231, 0.43521675
 0.4194524, 0.38111386
 0.38585593, 0.3660787
 0.41138924, 0.41110793
 0.55434233, 0.48688376
 0.60322524, 0.52099252
 0.60675288, 0.48426074
 0.49487652, 0.35986659
 0.26541246, 0.23009263
 0.2563414, 0.15072253
 0.22660849, 0.1342299
 0.1387536, 0.11428024
 0.14278518, 0.10355616
 0.12161938, 0.10592023
 0.1409374, 0.1109256
 0.36989752, 0.28094319
 0.68503277, 0.53387213
 0.67864946, 0.52467275
 0.53250467, 0.45521533
 0.50461954, 0.47815806
 0.480934, 0.44802836
 0.44985727, 0.42937946
 0.47320677, 0.48050654
 0.56290944, 0.46271712
 0.53317653, 0.46828946
 0.48009412, 0.37270468
 0.43373094, 0.37683636
 0.50747521, 0.4035804
 0.47975809, 0.50260395
 0.56862088, 0.51895022
 0.55165468, 0.45814842
 0.42549977, 0.35953143
 0.26994798, 0.24291927
 0.34789184, 0.18390775
 0.2447506, 0.14412683
 0.17974137, 0.13342729
 0.17235007, 0.10995325
 0.15924743, 0.11828859
 0.14144135, 0.10808283
 0.1705023, 0.15137364
 0.31614314, 0.18871082
 0.52595335, 0.41561627
 0.66151525, 0.58250636
 0.98286578, 0.72068679
 0.86813375, 0.79591119
 0.80127664, 0.65148872
 0.68335291, 0.57540882
 0.73038805, 0.5410763
 0.68688054, 0.51523763
 0.5943222, 0.51015657
 0.53519232, 0.44918793
 0.53552835, 0.47129881
 0.51066691, 0.46421075
 0.49874018, 0.5246743
 0.51402652, 0.48810613
 0.40634976, 0.39621758
 0.2775072, 0.35656962
 0.33764487, 0.3082971
 0.24559048, 0.17653356
 0.15420796, 0.16750327
 0.14664874, 0.14749277
 0.11473213, 0.15494154
 0.10784478, 0.16816302
 0.11909964, 0.20165479
 0.19536374, 0.25126481
 0.37493699, 0.34163526
 0.59650601, 0.62565768
 0.93247103, 0.82408309
 1., 0.85110426
 0.90744166, 0.81949937
 0.7616328, 0.67790627
 0.71745343, 0.66148424
 0.59449022, 0.53630549
 0.47690242, 0.48671544
 0.45304887, 0.42350543
 0.49554848, 0.44765922
 0.56425337, 0.50045133
 0.58306734, 0.57222021
 0.60557707, 0.53766096
 0.43793044, 0.39352289
 0.29564931, 0.24454716
 0.29581723, 0.15372404
 0.25197379, 0.13798569
 0.15017638, 0.13893983
 0.17016636, 0.13061757
 0.11574003, 0.13235034
 0.1906602, 0.15358111
 0.34066856, 0.19744255
 0.66773053, 0.41213217
 0.68620868, 0.48406765
 0.52813706, 0.52274638
 0.57483626, 0.57834667
 0.55518231, 0.54835522
 0.53804809, 0.51228356
 0.5699647, 0.47729576
 0.58945074, 0.46169576
 0.5392239, 0.46746516
 0.43289096, 0.43599522
 0.44733753, 0.40437394
 0.53351256, 0.42345405
 0.57802787, 0.50508785
 0.74029898, 0.49473959
 0.6133042, 0.54121906
 0.43826647, 0.38071352
 0.27448351, 0.18616478
 0.25701326, 0.14811313
 0.23181588, 0.12438156
 0.12346716, 0.11925679
 0.12195531, 0.09247315
 0.1175878, 0.12416832
 0.13791372, 0.12933142
 0.34285237, 0.31815311
 0.70115909, 0.52618563
 0.71039816, 0.49551558
 0.4957165, 0.48770544
 0.50865112, 0.4686273
 0.46531163, 0.43700078
 0.48160596, 0.41511694
 0.49269281, 0.44838449
 0.55484628, 0.45034072
 0.51671428, 0.44237566
 0.42465989, 0.38558444
 0.41256515, 0.37326249
 0.49773229, 0.40822166
 0.53905599, 0.49636665
 0.75054595, 0.52680504
 0.69057619, 0.48290095
 0.51621033, 0.36671305
 0.3453721, 0.21572542
