tar,out
 0.27717116, 0.12287618
 0.2425668, 0.07233569
 0.12968254, 0.06186233
 0.12968254, 0.05160713
 0.11809175, 0.05007568
 0.14261716, 0.0652447
 0.3537712, 0.23754632
 0.66756262, 0.51415014
 0.67864946, 0.55704659
 0.51150679, 0.43171757
 0.65261211, 0.4676826
 0.66252314, 0.43260133
 0.47975809, 0.4327234
 0.48278177, 0.41932973
 0.54409546, 0.45903522
 0.50932308, 0.45679799
 0.41038134, 0.37229279
 0.39845461, 0.35532269
 0.48210991, 0.38912696
 0.57282047, 0.49363637
 0.67579369, 0.4431828
 0.65630776, 0.51619834
 0.43759451, 0.38097832
 0.29380143, 0.2849375
 0.2733076, 0.12487558
 0.23064007, 0.08052905
 0.13539398, 0.07618645
 0.13270623, 0.06630163
 0.13119438, 0.0707359
 0.1557198, 0.07604006
 0.33915672, 0.27607557
 0.67596171, 0.53649527
 0.65714763, 0.55471581
 0.51066691, 0.40746456
 0.50277176, 0.45796111
 0.51285071, 0.41362584
 0.44784148, 0.41032407
 0.47841426, 0.40452531
 0.57080468, 0.45689821
 0.55249456, 0.46435866
 0.46228794, 0.36845785
 0.44045018, 0.35077548
 0.50243573, 0.38196105
 0.58189153, 0.50799823
 0.68016131, 0.52426821
 0.56744497, 0.51069087
 0.4194524, 0.36570698
 0.29430538, 0.13426942
 0.27179576, 0.12230816
 0.22257691, 0.07215418
 0.15622375, 0.07358855
 0.16697466, 0.06840664
 0.14681676, 0.06963085
 0.15605583, 0.0857053
 0.35461118, 0.26388857
 0.65093235, 0.55884832
 0.62943052, 0.52943087
 0.48748532, 0.44727838
 0.53048888, 0.46347779
 0.48765333, 0.41893417
 0.49538046, 0.40995389
 0.46413571, 0.40460503
 0.5116748, 0.46127266
 0.51604231, 0.42934465
 0.4194524, 0.37513769
 0.38585593, 0.36318836
 0.41138924, 0.41979685
 0.55434233, 0.49692595
 0.60322524, 0.52855402
 0.60675288, 0.49921378
 0.49487652, 0.36319965
 0.26541246, 0.21530199
 0.2563414, 0.11426923
 0.22660849, 0.08490771
 0.1387536, 0.07360527
 0.14278518, 0.07547788
 0.12161938, 0.06141609
 0.1409374, 0.07094772
 0.36989752, 0.27579173
 0.68503277, 0.53802192
 0.67864946, 0.54297578
 0.53250467, 0.40797594
 0.50461954, 0.46079689
 0.480934, 0.45627713
 0.44985727, 0.41991448
 0.47320677, 0.46217239
 0.56290944, 0.45718414
 0.53317653, 0.45765793
 0.48009412, 0.38069656
 0.43373094, 0.35797372
 0.50747521, 0.39079988
 0.47975809, 0.506401
 0.56862088, 0.49041784
 0.55165468, 0.48469654
 0.42549977, 0.36383724
 0.26994798, 0.18658733
 0.34789184, 0.17323618
 0.2447506, 0.10952102
 0.17974137, 0.09796907
 0.17235007, 0.07699776
 0.15924743, 0.084593
 0.14144135, 0.07240903
 0.1705023, 0.10231832
 0.31614314, 0.21309145
 0.52595335, 0.40502197
 0.66151525, 0.58656466
 0.98286578, 0.6620183
 0.86813375, 0.71557981
 0.80127664, 0.64364821
 0.68335291, 0.61105502
 0.73038805, 0.58320642
 0.68688054, 0.5332607
 0.5943222, 0.4696582
 0.53519232, 0.4600563
 0.53552835, 0.49464259
 0.51066691, 0.47317958
 0.49874018, 0.51758057
 0.51402652, 0.48663297
 0.40634976, 0.37714058
 0.2775072, 0.29869619
 0.33764487, 0.2241424
 0.24559048, 0.21195333
 0.15420796, 0.12458111
 0.14664874, 0.11307815
 0.11473213, 0.09156752
 0.10784478, 0.12826397
 0.11909964, 0.18806958
 0.19536374, 0.27007848
 0.37493699, 0.30599129
 0.59650601, 0.65253407
 0.93247103, 0.82158464
 1., 0.85798198
 0.90744166, 0.83834147
 0.7616328, 0.72575831
 0.71745343, 0.69009215
 0.59449022, 0.53252864
 0.47690242, 0.49505332
 0.45304887, 0.42823079
 0.49554848, 0.45417029
 0.56425337, 0.51011491
 0.58306734, 0.58746946
 0.60557707, 0.56926799
 0.43793044, 0.36463517
 0.29564931, 0.24116933
 0.29581723, 0.1274379
 0.25197379, 0.09664632
 0.15017638, 0.09321122
 0.17016636, 0.09124787
 0.11574003, 0.0879738
 0.1906602, 0.0904907
 0.34066856, 0.11510667
 0.66773053, 0.20940587
 0.68620868, 0.51945829
 0.52813706, 0.53568661
 0.57483626, 0.56990373
 0.55518231, 0.56056523
 0.53804809, 0.51481849
 0.5699647, 0.47202462
 0.58945074, 0.49383712
 0.5392239, 0.47285154
 0.43289096, 0.39914873
 0.44733753, 0.36962077
 0.53351256, 0.4313876
 0.57802787, 0.52039731
 0.74029898, 0.52852333
 0.6133042, 0.54106629
 0.43826647, 0.37656835
 0.27448351, 0.13317743
 0.25701326, 0.10618713
 0.23181588, 0.06475326
 0.12346716, 0.07305549
 0.12195531, 0.0674141
 0.1175878, 0.08278164
 0.13791372, 0.10090651
 0.34285237, 0.28316528
 0.70115909, 0.54429138
 0.71039816, 0.52379793
 0.4957165, 0.43702441
 0.50865112, 0.46795991
 0.46531163, 0.41826653
 0.48160596, 0.39356098
 0.49269281, 0.40591609
 0.55484628, 0.4565196
 0.51671428, 0.4330228
 0.42465989, 0.38266954
 0.41256515, 0.36946338
 0.49773229, 0.43848717
 0.53905599, 0.49637413
 0.75054595, 0.52168775
 0.69057619, 0.46933937
 0.51621033, 0.35855243
 0.3453721, 0.18162423
