tar,out
 0.27717116, 0.13676211
 0.2425668, 0.10476236
 0.12968254, 0.10636367
 0.12968254, 0.0809854
 0.11809175, 0.0859763
 0.14261716, 0.09733066
 0.3537712, 0.2439265
 0.66756262, 0.54063177
 0.67864946, 0.57832813
 0.51150679, 0.48483089
 0.65261211, 0.48700428
 0.66252314, 0.43720186
 0.47975809, 0.45713514
 0.48278177, 0.42890251
 0.54409546, 0.49180365
 0.50932308, 0.46023351
 0.41038134, 0.39939874
 0.39845461, 0.38593435
 0.48210991, 0.43402505
 0.57282047, 0.52955496
 0.67579369, 0.54661095
 0.65630776, 0.51132405
 0.43759451, 0.41310269
 0.29380143, 0.17932379
 0.2733076, 0.13876995
 0.23064007, 0.12045589
 0.13539398, 0.10549872
 0.13270623, 0.095772
 0.13119438, 0.09464365
 0.1557198, 0.1057875
 0.33915672, 0.26414475
 0.67596171, 0.57395315
 0.65714763, 0.59074295
 0.51066691, 0.4804675
 0.50277176, 0.4748854
 0.51285071, 0.46668297
 0.44784148, 0.44141686
 0.47841426, 0.42271578
 0.57080468, 0.46797839
 0.55249456, 0.4589524
 0.46228794, 0.3800894
 0.44045018, 0.39124352
 0.50243573, 0.41502112
 0.58189153, 0.48854619
 0.68016131, 0.55595839
 0.56744497, 0.53674513
 0.4194524, 0.41623637
 0.29430538, 0.14658569
 0.27179576, 0.11443004
 0.22257691, 0.10078219
 0.15622375, 0.08020975
 0.16697466, 0.06933153
 0.14681676, 0.09423858
 0.15605583, 0.10860974
 0.35461118, 0.321641
 0.65093235, 0.58973181
 0.62943052, 0.56787926
 0.48748532, 0.49162757
 0.53048888, 0.47905022
 0.48765333, 0.4711678
 0.49538046, 0.46215537
 0.46413571, 0.43025354
 0.5116748, 0.481004
 0.51604231, 0.43202448
 0.4194524, 0.38234192
 0.38585593, 0.40921021
 0.41138924, 0.42272151
 0.55434233, 0.50509417
 0.60322524, 0.55190873
 0.60675288, 0.54692626
 0.49487652, 0.41210341
 0.26541246, 0.16969134
 0.2563414, 0.14440733
 0.22660849, 0.10801429
 0.1387536, 0.10627618
 0.14278518, 0.08172289
 0.12161938, 0.08739729
 0.1409374, 0.09468131
 0.36989752, 0.26210544
 0.68503277, 0.57279247
 0.67864946, 0.55040836
 0.53250467, 0.43061614
 0.50461954, 0.42269245
 0.480934, 0.44859147
 0.44985727, 0.43366063
 0.47320677, 0.45160678
 0.56290944, 0.48320866
 0.53317653, 0.4705562
 0.48009412, 0.40492675
 0.43373094, 0.40606773
 0.50747521, 0.41836315
 0.47975809, 0.48642868
 0.56862088, 0.55031806
 0.55165468, 0.50511765
 0.42549977, 0.40912053
 0.26994798, 0.19874927
 0.34789184, 0.15586019
 0.2447506, 0.13874894
 0.17974137, 0.12674023
 0.17235007, 0.10007352
 0.15924743, 0.11794879
 0.14144135, 0.08074391
 0.1705023, 0.1422839
 0.31614314, 0.22014517
 0.52595335, 0.4079642
 0.66151525, 0.55404007
 0.98286578, 0.68013376
 0.86813375, 0.83025813
 0.80127664, 0.6141786
 0.68335291, 0.58720016
 0.73038805, 0.5966779
 0.68688054, 0.52828789
 0.5943222, 0.49167162
 0.53519232, 0.49077249
 0.53552835, 0.51044166
 0.51066691, 0.48289067
 0.49874018, 0.51481408
 0.51402652, 0.45157826
 0.40634976, 0.4642157
 0.2775072, 0.34872743
 0.33764487, 0.27327803
 0.24559048, 0.17205766
 0.15420796, 0.14264485
 0.14664874, 0.12290449
 0.11473213, 0.12901896
 0.10784478, 0.12313597
 0.11909964, 0.18469116
 0.19536374, 0.25526607
 0.37493699, 0.36496243
 0.59650601, 0.62893546
 0.93247103, 0.91209364
 1., 0.97181225
 0.90744166, 0.88124275
 0.7616328, 0.77040195
 0.71745343, 0.70768559
 0.59449022, 0.59288096
 0.47690242, 0.49040347
 0.45304887, 0.45738637
 0.49554848, 0.44884807
 0.56425337, 0.51227736
 0.58306734, 0.60298121
 0.60557707, 0.53547525
 0.43793044, 0.40411437
 0.29564931, 0.19379127
 0.29581723, 0.14278832
 0.25197379, 0.11699051
 0.15017638, 0.12632413
 0.17016636, 0.09089902
 0.11574003, 0.09859593
 0.1906602, 0.1150115
 0.34066856, 0.14085042
 0.66773053, 0.35427979
 0.68620868, 0.44359338
 0.52813706, 0.5280093
 0.57483626, 0.59818894
 0.55518231, 0.57779074
 0.53804809, 0.50417399
 0.5699647, 0.48222375
 0.58945074, 0.51032156
 0.5392239, 0.47786057
 0.43289096, 0.42257786
 0.44733753, 0.4021371
 0.53351256, 0.424963
 0.57802787, 0.51367962
 0.74029898, 0.52497339
 0.6133042, 0.52018094
 0.43826647, 0.37423968
 0.27448351, 0.12431046
 0.25701326, 0.0908909
 0.23181588, 0.08033887
 0.12346716, 0.03727153
 0.12195531, 0.06168687
 0.1175878, 0.08248918
 0.13791372, 0.1378299
 0.34285237, 0.40085551
 0.70115909, 0.58652192
 0.71039816, 0.56163055
 0.4957165, 0.49664211
 0.50865112, 0.49885643
 0.46531163, 0.44640917
 0.48160596, 0.4576095
 0.49269281, 0.42526019
 0.55484628, 0.47571322
 0.51671428, 0.43294683
 0.42465989, 0.39125344
 0.41256515, 0.41220528
 0.49773229, 0.42702636
 0.53905599, 0.50829482
 0.75054595, 0.54719305
 0.69057619, 0.53353095
 0.51621033, 0.31196743
 0.3453721, 0.11616227
