tar,out
 0.27717116, 0.14730364
 0.2425668, 0.0910036
 0.12968254, 0.06716673
 0.12968254, 0.06307881
 0.11809175, 0.0488127
 0.14261716, 0.09175199
 0.3537712, 0.20535351
 0.66756262, 0.54571754
 0.67864946, 0.56840885
 0.51150679, 0.49691296
 0.65261211, 0.47982314
 0.66252314, 0.46933812
 0.47975809, 0.4640103
 0.48278177, 0.46661615
 0.54409546, 0.48387662
 0.50932308, 0.45458841
 0.41038134, 0.41184461
 0.39845461, 0.34880406
 0.48210991, 0.42330185
 0.57282047, 0.49665964
 0.67579369, 0.50182164
 0.65630776, 0.50682837
 0.43759451, 0.35766631
 0.29380143, 0.19469467
 0.2733076, 0.15401757
 0.23064007, 0.10466632
 0.13539398, 0.09046316
 0.13270623, 0.08273421
 0.13119438, 0.08847846
 0.1557198, 0.11457238
 0.33915672, 0.25602481
 0.67596171, 0.55373764
 0.65714763, 0.56537938
 0.51066691, 0.47130483
 0.50277176, 0.46188527
 0.51285071, 0.48318189
 0.44784148, 0.44502407
 0.47841426, 0.45004714
 0.57080468, 0.46191692
 0.55249456, 0.4559617
 0.46228794, 0.36448285
 0.44045018, 0.33939016
 0.50243573, 0.40621805
 0.58189153, 0.5022577
 0.68016131, 0.54786408
 0.56744497, 0.5397985
 0.4194524, 0.35681203
 0.29430538, 0.15475449
 0.27179576, 0.14963955
 0.22257691, 0.11569947
 0.15622375, 0.0957801
 0.16697466, 0.08179075
 0.14681676, 0.0854446
 0.15605583, 0.11992909
 0.35461118, 0.22383469
 0.65093235, 0.54714715
 0.62943052, 0.55680889
 0.48748532, 0.4784742
 0.53048888, 0.47397012
 0.48765333, 0.47943756
 0.49538046, 0.45698416
 0.46413571, 0.46601254
 0.5116748, 0.45883632
 0.51604231, 0.45405823
 0.4194524, 0.36705917
 0.38585593, 0.37290663
 0.41138924, 0.42858738
 0.55434233, 0.53211623
 0.60322524, 0.53747088
 0.60675288, 0.53616941
 0.49487652, 0.34669256
 0.26541246, 0.20850068
 0.2563414, 0.17226455
 0.22660849, 0.11998515
 0.1387536, 0.08491352
 0.14278518, 0.09208956
 0.12161938, 0.05993654
 0.1409374, 0.09699015
 0.36989752, 0.20752342
 0.68503277, 0.56591558
 0.67864946, 0.53117639
 0.53250467, 0.48041922
 0.50461954, 0.46738738
 0.480934, 0.46105677
 0.44985727, 0.44598699
 0.47320677, 0.46396703
 0.56290944, 0.46529436
 0.53317653, 0.45458841
 0.48009412, 0.38677272
 0.43373094, 0.36618239
 0.50747521, 0.40739089
 0.47975809, 0.49926263
 0.56862088, 0.53723717
 0.55165468, 0.51485628
 0.42549977, 0.34628415
 0.26994798, 0.16257589
 0.34789184, 0.17651525
 0.2447506, 0.14962503
 0.17974137, 0.12118794
 0.17235007, 0.07679611
 0.15924743, 0.07958932
 0.14144135, 0.08605845
 0.1705023, 0.16032749
 0.31614314, 0.20762697
 0.52595335, 0.46274149
 0.66151525, 0.59158933
 0.98286578, 0.72543925
 0.86813375, 0.794276
 0.80127664, 0.69811356
 0.68335291, 0.67669785
 0.73038805, 0.58731043
 0.68688054, 0.52602208
 0.5943222, 0.47845814
 0.53519232, 0.45458841
 0.53552835, 0.47247583
 0.51066691, 0.49179834
 0.49874018, 0.53934181
 0.51402652, 0.50626552
 0.40634976, 0.43800178
 0.2775072, 0.22821607
 0.33764487, 0.21882962
 0.24559048, 0.16448528
 0.15420796, 0.17064008
 0.14664874, 0.11712913
 0.11473213, 0.12326217
 0.10784478, 0.12726723
 0.11909964, 0.17102015
 0.19536374, 0.21558022
 0.37493699, 0.40778065
 0.59650601, 0.63613081
 0.93247103, 0.83904761
 1., 0.92339939
 0.90744166, 0.86692202
 0.7616328, 0.78011888
 0.71745343, 0.72840357
 0.59449022, 0.56913519
 0.47690242, 0.48205799
 0.45304887, 0.45573962
 0.49554848, 0.45498559
 0.56425337, 0.53426576
 0.58306734, 0.60450721
 0.60557707, 0.5725832
 0.43793044, 0.41674805
 0.29564931, 0.18187776
 0.29581723, 0.11970472
 0.25197379, 0.09605038
 0.15017638, 0.09556612
 0.17016636, 0.07319914
 0.11574003, 0.05532745
 0.1906602, 0.09520133
 0.34066856, 0.18601616
 0.66773053, 0.37810624
 0.68620868, 0.55214834
 0.52813706, 0.54829401
 0.57483626, 0.6218518
 0.55518231, 0.5759564
 0.53804809, 0.5055595
 0.5699647, 0.47866851
 0.58945074, 0.46704304
 0.5392239, 0.45846075
 0.43289096, 0.42322731
 0.44733753, 0.36518446
 0.53351256, 0.42259696
 0.57802787, 0.50637305
 0.74029898, 0.52568358
 0.6133042, 0.52060843
 0.43826647, 0.30705261
 0.27448351, 0.14682914
 0.25701326, 0.11349662
 0.23181588, 0.09118801
 0.12346716, 0.09424523
 0.12195531, 0.10010664
 0.1175878, 0.1207865
 0.13791372, 0.16260715
 0.34285237, 0.25375003
 0.70115909, 0.55594957
 0.71039816, 0.56071591
 0.4957165, 0.48295122
 0.50865112, 0.47842759
 0.46531163, 0.47443211
 0.48160596, 0.45458841
 0.49269281, 0.46349758
 0.55484628, 0.45634514
 0.51671428, 0.45413131
 0.42465989, 0.36450607
 0.41256515, 0.36846954
 0.49773229, 0.43320793
 0.53905599, 0.52820289
 0.75054595, 0.5482074
 0.69057619, 0.53962827
 0.51621033, 0.34371802
 0.3453721, 0.15403876
