tar,out
 0.27717116, 0.13653198
 0.2425668, 0.09385696
 0.12968254, 0.07224911
 0.12968254, 0.07072714
 0.11809175, 0.05624662
 0.14261716, 0.08981891
 0.3537712, 0.25939891
 0.66756262, 0.53901124
 0.67864946, 0.55975986
 0.51150679, 0.47131997
 0.65261211, 0.46633095
 0.66252314, 0.47714338
 0.47975809, 0.4730891
 0.48278177, 0.47823346
 0.54409546, 0.47352052
 0.50932308, 0.45587555
 0.41038134, 0.41375798
 0.39845461, 0.39393413
 0.48210991, 0.41416907
 0.57282047, 0.50634551
 0.67579369, 0.51137125
 0.65630776, 0.50644755
 0.43759451, 0.381614
 0.29380143, 0.22444397
 0.2733076, 0.15404609
 0.23064007, 0.1239022
 0.13539398, 0.09330669
 0.13270623, 0.09331028
 0.13119438, 0.09629138
 0.1557198, 0.11409411
 0.33915672, 0.25862634
 0.67596171, 0.55193233
 0.65714763, 0.57129264
 0.51066691, 0.47073781
 0.50277176, 0.47117442
 0.51285071, 0.43095636
 0.44784148, 0.44948873
 0.47841426, 0.41250467
 0.57080468, 0.46715713
 0.55249456, 0.45096567
 0.46228794, 0.40254325
 0.44045018, 0.39385453
 0.50243573, 0.41386989
 0.58189153, 0.48896742
 0.68016131, 0.52600348
 0.56744497, 0.49742556
 0.4194524, 0.38785368
 0.29430538, 0.18203154
 0.27179576, 0.15042508
 0.22257691, 0.12205286
 0.15622375, 0.08588208
 0.16697466, 0.07727823
 0.14681676, 0.0855348
 0.15605583, 0.09592509
 0.35461118, 0.26537901
 0.65093235, 0.55651295
 0.62943052, 0.53038454
 0.48748532, 0.46664879
 0.53048888, 0.47343987
 0.48765333, 0.42075217
 0.49538046, 0.4283011
 0.46413571, 0.41273928
 0.5116748, 0.46143523
 0.51604231, 0.43873033
 0.4194524, 0.3927505
 0.38585593, 0.41250831
 0.41138924, 0.4075684
 0.55434233, 0.50807965
 0.60322524, 0.54349089
 0.60675288, 0.49610457
 0.49487652, 0.37660185
 0.26541246, 0.19119367
 0.2563414, 0.1424827
 0.22660849, 0.12624791
 0.1387536, 0.08816992
 0.14278518, 0.08845687
 0.12161938, 0.07659969
 0.1409374, 0.09728387
 0.36989752, 0.26338241
 0.68503277, 0.56117809
 0.67864946, 0.54480416
 0.53250467, 0.44517726
 0.50461954, 0.45282394
 0.480934, 0.45263213
 0.44985727, 0.44632161
 0.47320677, 0.47627997
 0.56290944, 0.46407151
 0.53317653, 0.46893445
 0.48009412, 0.41825122
 0.43373094, 0.3989121
 0.50747521, 0.41410834
 0.47975809, 0.49905872
 0.56862088, 0.52826738
 0.55165468, 0.49072134
 0.42549977, 0.37896395
 0.26994798, 0.18454018
 0.34789184, 0.14796677
 0.2447506, 0.14019769
 0.17974137, 0.12666275
 0.17235007, 0.08970976
 0.15924743, 0.10157123
 0.14144135, 0.0884538
 0.1705023, 0.15017071
 0.31614314, 0.21678367
 0.52595335, 0.41887084
 0.66151525, 0.54389703
 0.98286578, 0.72985101
 0.86813375, 0.76355618
 0.80127664, 0.6254425
 0.68335291, 0.56568384
 0.73038805, 0.56960535
 0.68688054, 0.49085757
 0.5943222, 0.45986426
 0.53519232, 0.47512543
 0.53552835, 0.51318526
 0.51066691, 0.4783856
 0.49874018, 0.55380321
 0.51402652, 0.5017758
 0.40634976, 0.4681057
 0.2775072, 0.43305957
 0.33764487, 0.40022391
 0.24559048, 0.15850365
 0.15420796, 0.1529891
 0.14664874, 0.12683119
 0.11473213, 0.13716313
 0.10784478, 0.12903154
 0.11909964, 0.1992982
 0.19536374, 0.26356909
 0.37493699, 0.27660125
 0.59650601, 0.64617592
 0.93247103, 0.83846724
 1., 0.91485029
 0.90744166, 0.84877324
 0.7616328, 0.7236619
 0.71745343, 0.66215378
 0.59449022, 0.51088452
 0.47690242, 0.48528904
 0.45304887, 0.43557179
 0.49554848, 0.47523689
 0.56425337, 0.54250747
 0.58306734, 0.60369718
 0.60557707, 0.55688155
 0.43793044, 0.41159639
 0.29564931, 0.20712793
 0.29581723, 0.14320141
 0.25197379, 0.11665726
 0.15017638, 0.11619344
 0.17016636, 0.09324037
 0.11574003, 0.0879816
 0.1906602, 0.11521274
 0.34066856, 0.14939679
 0.66773053, 0.33561489
 0.68620868, 0.56040162
 0.52813706, 0.53290606
 0.57483626, 0.57344067
 0.55518231, 0.56098914
 0.53804809, 0.49041897
 0.5699647, 0.47354096
 0.58945074, 0.46308538
 0.5392239, 0.4702971
 0.43289096, 0.44232473
 0.44733753, 0.40420866
 0.53351256, 0.41749161
 0.57802787, 0.51399994
 0.74029898, 0.5018487
 0.6133042, 0.49197382
 0.43826647, 0.38266957
 0.27448351, 0.16834664
 0.25701326, 0.13517545
 0.23181588, 0.09940845
 0.12346716, 0.06541343
 0.12195531, 0.07280309
 0.1175878, 0.07631388
 0.13791372, 0.14188126
 0.34285237, 0.26807374
 0.70115909, 0.54999089
 0.71039816, 0.52143955
 0.4957165, 0.46173817
 0.50865112, 0.47364664
 0.46531163, 0.41632655
 0.48160596, 0.42731684
 0.49269281, 0.4141508
 0.55484628, 0.45481825
 0.51671428, 0.44416195
 0.42465989, 0.39534983
 0.41256515, 0.40970737
 0.49773229, 0.40245104
 0.53905599, 0.50207675
 0.75054595, 0.53667665
 0.69057619, 0.49569482
 0.51621033, 0.39621389
 0.3453721, 0.15550244
