tar,out
 0.27717116, 0.17737146
 0.2425668, 0.11709064
 0.12968254, 0.11549044
 0.12968254, 0.09970459
 0.11809175, 0.10644549
 0.14261716, 0.13534126
 0.3537712, 0.20981303
 0.66756262, 0.5552271
 0.67864946, 0.54915982
 0.51150679, 0.48709789
 0.65261211, 0.48111093
 0.66252314, 0.48067871
 0.47975809, 0.48689771
 0.48278177, 0.50245607
 0.54409546, 0.5061841
 0.50932308, 0.47528875
 0.41038134, 0.43869209
 0.39845461, 0.36640859
 0.48210991, 0.45458671
 0.57282047, 0.51343656
 0.67579369, 0.53453058
 0.65630776, 0.52229583
 0.43759451, 0.44830334
 0.29380143, 0.21570823
 0.2733076, 0.21998282
 0.23064007, 0.13652793
 0.13539398, 0.13379076
 0.13270623, 0.13177526
 0.13119438, 0.12217242
 0.1557198, 0.1722953
 0.33915672, 0.27052432
 0.67596171, 0.55104196
 0.65714763, 0.54227227
 0.51066691, 0.47438681
 0.50277176, 0.48925748
 0.51285071, 0.47040829
 0.44784148, 0.4577013
 0.47841426, 0.47717702
 0.57080468, 0.46974292
 0.55249456, 0.46571144
 0.46228794, 0.41339427
 0.44045018, 0.37011385
 0.50243573, 0.42752725
 0.58189153, 0.50325871
 0.68016131, 0.53663254
 0.56744497, 0.5317812
 0.4194524, 0.37074712
 0.29430538, 0.20727171
 0.27179576, 0.18553062
 0.22257691, 0.13330382
 0.15622375, 0.108735
 0.16697466, 0.13696352
 0.14681676, 0.10669485
 0.15605583, 0.17798401
 0.35461118, 0.29207394
 0.65093235, 0.5630495
 0.62943052, 0.54185855
 0.48748532, 0.4641875
 0.53048888, 0.48132834
 0.48765333, 0.47202331
 0.49538046, 0.44833809
 0.46413571, 0.45140189
 0.5116748, 0.49405307
 0.51604231, 0.46637374
 0.4194524, 0.37918308
 0.38585593, 0.38378829
 0.41138924, 0.45518094
 0.55434233, 0.51401377
 0.60322524, 0.53756791
 0.60675288, 0.52141094
 0.49487652, 0.38063163
 0.26541246, 0.22310416
 0.2563414, 0.18438253
 0.22660849, 0.14639151
 0.1387536, 0.11203957
 0.14278518, 0.11215296
 0.12161938, 0.11074144
 0.1409374, 0.13178539
 0.36989752, 0.2467435
 0.68503277, 0.56464195
 0.67864946, 0.53611058
 0.53250467, 0.44547167
 0.50461954, 0.47296411
 0.480934, 0.48073214
 0.44985727, 0.45324707
 0.47320677, 0.48261553
 0.56290944, 0.48273811
 0.53317653, 0.47471493
 0.48009412, 0.40909895
 0.43373094, 0.3986122
 0.50747521, 0.42088908
 0.47975809, 0.50569564
 0.56862088, 0.51299781
 0.55165468, 0.50782031
 0.42549977, 0.36994982
 0.26994798, 0.22427306
 0.34789184, 0.18975827
 0.2447506, 0.16422309
 0.17974137, 0.15053514
 0.17235007, 0.13054928
 0.15924743, 0.12799278
 0.14144135, 0.1181311
 0.1705023, 0.15952836
 0.31614314, 0.24192901
 0.52595335, 0.38488299
 0.66151525, 0.57039726
 0.98286578, 0.69269836
 0.86813375, 0.75217927
 0.80127664, 0.60796642
 0.68335291, 0.61016095
 0.73038805, 0.5514608
 0.68688054, 0.54062045
 0.5943222, 0.48104379
 0.53519232, 0.48126704
 0.53552835, 0.5279063
 0.51066691, 0.48399061
 0.49874018, 0.55514598
 0.51402652, 0.47210917
 0.40634976, 0.48810145
 0.2775072, 0.3930915
 0.33764487, 0.26141948
 0.24559048, 0.21951327
 0.15420796, 0.16757081
 0.14664874, 0.1410284
 0.11473213, 0.1615898
 0.10784478, 0.14680964
 0.11909964, 0.20740215
 0.19536374, 0.24172407
 0.37493699, 0.34546536
 0.59650601, 0.60135669
 0.93247103, 0.77654546
 1., 0.86092126
 0.90744166, 0.79064858
 0.7616328, 0.69054627
 0.71745343, 0.64645952
 0.59449022, 0.55614108
 0.47690242, 0.49363703
 0.45304887, 0.44650015
 0.49554848, 0.47611552
 0.56425337, 0.52854651
 0.58306734, 0.60545945
 0.60557707, 0.56937999
 0.43793044, 0.42058131
 0.29564931, 0.28576982
 0.29581723, 0.16019815
 0.25197379, 0.14417043
 0.15017638, 0.12495381
 0.17016636, 0.12677601
 0.11574003, 0.13283291
 0.1906602, 0.12855712
 0.34066856, 0.16316688
 0.66773053, 0.26370063
 0.68620868, 0.49979734
 0.52813706, 0.49738085
 0.57483626, 0.59437966
 0.55518231, 0.54394656
 0.53804809, 0.53046733
 0.5699647, 0.50573272
 0.58945074, 0.50289404
 0.5392239, 0.49376959
 0.43289096, 0.46106273
 0.44733753, 0.42698184
 0.53351256, 0.46703166
 0.57802787, 0.52794611
 0.74029898, 0.5159905
 0.6133042, 0.53325194
 0.43826647, 0.37906724
 0.27448351, 0.22159153
 0.25701326, 0.1687991
 0.23181588, 0.1117883
 0.12346716, 0.10858044
 0.12195531, 0.12952438
 0.1175878, 0.12555018
 0.13791372, 0.21954641
 0.34285237, 0.29679757
 0.70115909, 0.56512731
 0.71039816, 0.53657359
 0.4957165, 0.46874279
 0.50865112, 0.48168847
 0.46531163, 0.46526611
 0.48160596, 0.43756127
 0.49269281, 0.44639814
 0.55484628, 0.47589079
 0.51671428, 0.46249813
 0.42465989, 0.38053554
 0.41256515, 0.37996548
 0.49773229, 0.46475729
 0.53905599, 0.51202673
 0.75054595, 0.54027653
 0.69057619, 0.54091072
 0.51621033, 0.40191549
 0.3453721, 0.1931935
