tar,out
 0.27717116, 0.11123793
 0.2425668, 0.08715799
 0.12968254, 0.07738364
 0.12968254, 0.07254326
 0.11809175, 0.06525508
 0.14261716, 0.0838035
 0.3537712, 0.27483594
 0.66756262, 0.53490484
 0.67864946, 0.5471074
 0.51150679, 0.49372727
 0.65261211, 0.47282746
 0.66252314, 0.44511881
 0.47975809, 0.45942482
 0.48278177, 0.47584766
 0.54409546, 0.48675203
 0.50932308, 0.45802778
 0.41038134, 0.39392185
 0.39845461, 0.38149861
 0.48210991, 0.39495704
 0.57282047, 0.48732015
 0.67579369, 0.49527311
 0.65630776, 0.50850922
 0.43759451, 0.39052245
 0.29380143, 0.22361204
 0.2733076, 0.12966776
 0.23064007, 0.09393737
 0.13539398, 0.08261219
 0.13270623, 0.07870141
 0.13119438, 0.0699935
 0.1557198, 0.10527724
 0.33915672, 0.28635818
 0.67596171, 0.55237895
 0.65714763, 0.55779409
 0.51066691, 0.47005183
 0.50277176, 0.47127882
 0.51285071, 0.44208312
 0.44784148, 0.42972645
 0.47841426, 0.39855725
 0.57080468, 0.46342415
 0.55249456, 0.45243329
 0.46228794, 0.37808663
 0.44045018, 0.37150466
 0.50243573, 0.39092991
 0.58189153, 0.49265853
 0.68016131, 0.54423702
 0.56744497, 0.53504288
 0.4194524, 0.37208694
 0.29430538, 0.1804494
 0.27179576, 0.10629538
 0.22257691, 0.07961157
 0.15622375, 0.07346638
 0.16697466, 0.06653899
 0.14681676, 0.07011817
 0.15605583, 0.09353767
 0.35461118, 0.28689918
 0.65093235, 0.57454169
 0.62943052, 0.52782947
 0.48748532, 0.49077976
 0.53048888, 0.45922923
 0.48765333, 0.46349412
 0.49538046, 0.42054552
 0.46413571, 0.4188976
 0.5116748, 0.45731381
 0.51604231, 0.42838216
 0.4194524, 0.39117211
 0.38585593, 0.38673443
 0.41138924, 0.40129974
 0.55434233, 0.49306455
 0.60322524, 0.54676259
 0.60675288, 0.53873348
 0.49487652, 0.37461534
 0.26541246, 0.19744152
 0.2563414, 0.14364839
 0.22660849, 0.09342568
 0.1387536, 0.07186756
 0.14278518, 0.06533168
 0.12161938, 0.05367213
 0.1409374, 0.07832487
 0.36989752, 0.26344424
 0.68503277, 0.56014788
 0.67864946, 0.53124774
 0.53250467, 0.42997521
 0.50461954, 0.46372813
 0.480934, 0.43835339
 0.44985727, 0.43907019
 0.47320677, 0.45306063
 0.56290944, 0.48180088
 0.53317653, 0.47773233
 0.48009412, 0.39232567
 0.43373094, 0.37670907
 0.50747521, 0.38829148
 0.47975809, 0.48309666
 0.56862088, 0.51251298
 0.55165468, 0.51360607
 0.42549977, 0.36860585
 0.26994798, 0.18947624
 0.34789184, 0.12806186
 0.2447506, 0.10786517
 0.17974137, 0.10121337
 0.17235007, 0.0801138
 0.15924743, 0.08496675
 0.14144135, 0.07034037
 0.1705023, 0.15393269
 0.31614314, 0.18775775
 0.52595335, 0.42615628
 0.66151525, 0.63574767
 0.98286578, 0.68455815
 0.86813375, 0.79682046
 0.80127664, 0.65770555
 0.68335291, 0.60412884
 0.73038805, 0.57324004
 0.68688054, 0.52908969
 0.5943222, 0.44180143
 0.53519232, 0.4731257
 0.53552835, 0.49350321
 0.51066691, 0.48570287
 0.49874018, 0.57235408
 0.51402652, 0.5134151
 0.40634976, 0.49251032
 0.2775072, 0.51139772
 0.33764487, 0.3288573
 0.24559048, 0.22866955
 0.15420796, 0.1228286
 0.14664874, 0.19119033
 0.11473213, 0.10151701
 0.10784478, 0.13418455
 0.11909964, 0.10078467
 0.19536374, 0.24587797
 0.37493699, 0.35564202
 0.59650601, 0.59160674
 0.93247103, 0.79508883
 1., 0.88225472
 0.90744166, 0.83141291
 0.7616328, 0.73260146
 0.71745343, 0.7076835
 0.59449022, 0.55142188
 0.47690242, 0.48870286
 0.45304887, 0.43446168
 0.49554848, 0.45120502
 0.56425337, 0.50950181
 0.58306734, 0.58815664
 0.60557707, 0.56169164
 0.43793044, 0.40784711
 0.29564931, 0.23810673
 0.29581723, 0.10448033
 0.25197379, 0.10131316
 0.15017638, 0.09073929
 0.17016636, 0.08089274
 0.11574003, 0.07743698
 0.1906602, 0.09222007
 0.34066856, 0.26648924
 0.66773053, 0.4664585
 0.68620868, 0.53181446
 0.52813706, 0.5181607
 0.57483626, 0.55904746
 0.55518231, 0.52764416
 0.53804809, 0.4645021
 0.5699647, 0.47202551
 0.58945074, 0.48350707
 0.5392239, 0.48859704
 0.43289096, 0.42986014
 0.44733753, 0.4125081
 0.53351256, 0.4194935
 0.57802787, 0.50511044
 0.74029898, 0.53193867
 0.6133042, 0.55048835
 0.43826647, 0.38327542
 0.27448351, 0.19021761
 0.25701326, 0.09839712
 0.23181588, 0.05880611
 0.12346716, 0.06058875
 0.12195531, 0.05487576
 0.1175878, 0.06054211
 0.13791372, 0.16204569
 0.34285237, 0.29476303
 0.70115909, 0.5728277
 0.71039816, 0.54185098
 0.4957165, 0.45836368
 0.50865112, 0.45015395
 0.46531163, 0.4353615
 0.48160596, 0.39823002
 0.49269281, 0.40981337
 0.55484628, 0.45223585
 0.51671428, 0.43647292
 0.42465989, 0.39519784
 0.41256515, 0.38545236
 0.49773229, 0.39597353
 0.53905599, 0.49302194
 0.75054595, 0.53132558
 0.69057619, 0.52458459
 0.51621033, 0.29251224
 0.3453721, 0.20346078
