tar,out
 0.27717116, 0.14356823
 0.2425668, 0.10975128
 0.12968254, 0.10479791
 0.12968254, 0.07765168
 0.11809175, 0.07946852
 0.14261716, 0.08167434
 0.3537712, 0.24472955
 0.66756262, 0.53101873
 0.67864946, 0.5714345
 0.51150679, 0.47535551
 0.65261211, 0.48515636
 0.66252314, 0.44263205
 0.47975809, 0.46832511
 0.48278177, 0.44638258
 0.54409546, 0.47125903
 0.50932308, 0.46279067
 0.41038134, 0.41061562
 0.39845461, 0.39094162
 0.48210991, 0.42063534
 0.57282047, 0.495316
 0.67579369, 0.51262534
 0.65630776, 0.52029669
 0.43759451, 0.39523414
 0.29380143, 0.19197473
 0.2733076, 0.14213599
 0.23064007, 0.11265838
 0.13539398, 0.11267857
 0.13270623, 0.09144753
 0.13119438, 0.0826425
 0.1557198, 0.08945918
 0.33915672, 0.26918215
 0.67596171, 0.55265909
 0.65714763, 0.55587935
 0.51066691, 0.46870419
 0.50277176, 0.47051007
 0.51285071, 0.47830921
 0.44784148, 0.42202237
 0.47841426, 0.42615551
 0.57080468, 0.43884981
 0.55249456, 0.45469165
 0.46228794, 0.39891574
 0.44045018, 0.38259655
 0.50243573, 0.41555595
 0.58189153, 0.49466282
 0.68016131, 0.5477879
 0.56744497, 0.51663554
 0.4194524, 0.39983088
 0.29430538, 0.1564344
 0.27179576, 0.15427473
 0.22257691, 0.12783886
 0.15622375, 0.09474158
 0.16697466, 0.0889861
 0.14681676, 0.08840138
 0.15605583, 0.09139091
 0.35461118, 0.26488489
 0.65093235, 0.55094153
 0.62943052, 0.55748296
 0.48748532, 0.48403096
 0.53048888, 0.4866246
 0.48765333, 0.48464113
 0.49538046, 0.44525957
 0.46413571, 0.44146454
 0.5116748, 0.47389022
 0.51604231, 0.43722188
 0.4194524, 0.40247649
 0.38585593, 0.40620983
 0.41138924, 0.42378145
 0.55434233, 0.49126145
 0.60322524, 0.52957964
 0.60675288, 0.50896454
 0.49487652, 0.39835256
 0.26541246, 0.20726718
 0.2563414, 0.16033015
 0.22660849, 0.13144021
 0.1387536, 0.12048644
 0.14278518, 0.07937405
 0.12161938, 0.07654321
 0.1409374, 0.06954855
 0.36989752, 0.26256755
 0.68503277, 0.56362498
 0.67864946, 0.52959776
 0.53250467, 0.44759873
 0.50461954, 0.45355403
 0.480934, 0.43883827
 0.44985727, 0.4413074
 0.47320677, 0.45564488
 0.56290944, 0.44398174
 0.53317653, 0.45537901
 0.48009412, 0.40687484
 0.43373094, 0.40304047
 0.50747521, 0.41352838
 0.47975809, 0.49103349
 0.56862088, 0.53240514
 0.55165468, 0.49980432
 0.42549977, 0.38281456
 0.26994798, 0.16958164
 0.34789184, 0.17355466
 0.2447506, 0.1569258
 0.17974137, 0.14840855
 0.17235007, 0.09864071
 0.15924743, 0.10004248
 0.14144135, 0.08322272
 0.1705023, 0.11679719
 0.31614314, 0.18013826
 0.52595335, 0.30732298
 0.66151525, 0.56537884
 0.98286578, 0.69606221
 0.86813375, 0.73548341
 0.80127664, 0.6200304
 0.68335291, 0.58630252
 0.73038805, 0.58076239
 0.68688054, 0.51296252
 0.5943222, 0.46399331
 0.53519232, 0.44698417
 0.53552835, 0.48030549
 0.51066691, 0.48439902
 0.49874018, 0.51996732
 0.51402652, 0.43739384
 0.40634976, 0.42217115
 0.2775072, 0.43768975
 0.33764487, 0.23281938
 0.24559048, 0.17159548
 0.15420796, 0.14796068
 0.14664874, 0.11427996
 0.11473213, 0.10174012
 0.10784478, 0.08821338
 0.11909964, 0.09924568
 0.19536374, 0.15991941
 0.37493699, 0.25758255
 0.59650601, 0.62873793
 0.93247103, 0.78486848
 1., 0.85867649
 0.90744166, 0.78825438
 0.7616328, 0.71400762
 0.71745343, 0.64719176
 0.59449022, 0.53826916
 0.47690242, 0.47722349
 0.45304887, 0.44665858
 0.49554848, 0.46862894
 0.56425337, 0.52278101
 0.58306734, 0.59157729
 0.60557707, 0.5475896
 0.43793044, 0.41087782
 0.29564931, 0.25441095
 0.29581723, 0.14861433
 0.25197379, 0.12407604
 0.15017638, 0.11010148
 0.17016636, 0.08710086
 0.11574003, 0.08000782
 0.1906602, 0.11644225
 0.34066856, 0.17821434
 0.66773053, 0.37813354
 0.68620868, 0.56040132
 0.52813706, 0.53386503
 0.57483626, 0.62869662
 0.55518231, 0.55512178
 0.53804809, 0.50185561
 0.5699647, 0.47270977
 0.58945074, 0.47847003
 0.5392239, 0.48060688
 0.43289096, 0.45677674
 0.44733753, 0.42815715
 0.53351256, 0.42265707
 0.57802787, 0.50690883
 0.74029898, 0.5103178
 0.6133042, 0.51609951
 0.43826647, 0.394301
 0.27448351, 0.16991943
 0.25701326, 0.15275206
 0.23181588, 0.11180498
 0.12346716, 0.10227549
 0.12195531, 0.10047261
 0.1175878, 0.13545978
 0.13791372, 0.11151332
 0.34285237, 0.26352635
 0.70115909, 0.54856026
 0.71039816, 0.53593922
 0.4957165, 0.4679403
 0.50865112, 0.47160381
 0.46531163, 0.46834111
 0.48160596, 0.42127222
 0.49269281, 0.43147296
 0.55484628, 0.45204526
 0.51671428, 0.43026635
 0.42465989, 0.40504602
 0.41256515, 0.40406498
 0.49773229, 0.42314124
 0.53905599, 0.48857856
 0.75054595, 0.52952963
 0.69057619, 0.51559156
 0.51621033, 0.39467439
 0.3453721, 0.15982206
