tar,out
 0.27717116, 0.17664415
 0.2425668, 0.14733216
 0.12968254, 0.12793511
 0.12968254, 0.10568158
 0.11809175, 0.11356674
 0.14261716, 0.13757731
 0.3537712, 0.22193892
 0.66756262, 0.47553295
 0.67864946, 0.54336214
 0.51150679, 0.45929885
 0.65261211, 0.46801892
 0.66252314, 0.45092046
 0.47975809, 0.44873786
 0.48278177, 0.45325643
 0.54409546, 0.48429537
 0.50932308, 0.43573704
 0.41038134, 0.39125967
 0.39845461, 0.36846733
 0.48210991, 0.40886435
 0.57282047, 0.51869321
 0.67579369, 0.50977784
 0.65630776, 0.52710289
 0.43759451, 0.40462142
 0.29380143, 0.24699701
 0.2733076, 0.18936557
 0.23064007, 0.17182559
 0.13539398, 0.13089919
 0.13270623, 0.13634825
 0.13119438, 0.11976965
 0.1557198, 0.1684051
 0.33915672, 0.25144583
 0.67596171, 0.54222691
 0.65714763, 0.53736311
 0.51066691, 0.45110342
 0.50277176, 0.46178252
 0.51285071, 0.44628093
 0.44784148, 0.4283098
 0.47841426, 0.43182689
 0.57080468, 0.46311545
 0.55249456, 0.4363296
 0.46228794, 0.37322894
 0.44045018, 0.37084734
 0.50243573, 0.39324743
 0.58189153, 0.5075236
 0.68016131, 0.54702115
 0.56744497, 0.52935302
 0.4194524, 0.34940827
 0.29430538, 0.19881484
 0.27179576, 0.18619865
 0.22257691, 0.16503797
 0.15622375, 0.13484721
 0.16697466, 0.13872725
 0.14681676, 0.15365896
 0.15605583, 0.17633142
 0.35461118, 0.25459397
 0.65093235, 0.53676003
 0.62943052, 0.52955824
 0.48748532, 0.45312065
 0.53048888, 0.45326936
 0.48765333, 0.45393085
 0.49538046, 0.43009689
 0.46413571, 0.43981749
 0.5116748, 0.46484345
 0.51604231, 0.43022043
 0.4194524, 0.37498453
 0.38585593, 0.37560648
 0.41138924, 0.40169036
 0.55434233, 0.49821359
 0.60322524, 0.54663849
 0.60675288, 0.53459781
 0.49487652, 0.38201925
 0.26541246, 0.24009213
 0.2563414, 0.19695675
 0.22660849, 0.16540791
 0.1387536, 0.13890091
 0.14278518, 0.13958399
 0.12161938, 0.14233023
 0.1409374, 0.15362847
 0.36989752, 0.25485316
 0.68503277, 0.52480721
 0.67864946, 0.50990826
 0.53250467, 0.4333218
 0.50461954, 0.44259337
 0.480934, 0.45229191
 0.44985727, 0.4283098
 0.47320677, 0.45491815
 0.56290944, 0.47456455
 0.53317653, 0.4416731
 0.48009412, 0.3876555
 0.43373094, 0.37706453
 0.50747521, 0.40573972
 0.47975809, 0.51250756
 0.56862088, 0.5396021
 0.55165468, 0.51549149
 0.42549977, 0.33418348
 0.26994798, 0.20438534
 0.34789184, 0.20088366
 0.2447506, 0.18040282
 0.17974137, 0.16045757
 0.17235007, 0.14939132
 0.15924743, 0.15807945
 0.14144135, 0.13934435
 0.1705023, 0.16164191
 0.31614314, 0.17706129
 0.52595335, 0.27097982
 0.66151525, 0.54935384
 0.98286578, 0.65294766
 0.86813375, 0.75562811
 0.80127664, 0.64936149
 0.68335291, 0.61585218
 0.73038805, 0.61463141
 0.68688054, 0.51490813
 0.5943222, 0.46820694
 0.53519232, 0.4450627
 0.53552835, 0.46924275
 0.51066691, 0.47655272
 0.49874018, 0.50998867
 0.51402652, 0.47216821
 0.40634976, 0.40365458
 0.2775072, 0.3667649
 0.33764487, 0.22294933
 0.24559048, 0.1948261
 0.15420796, 0.16350986
 0.14664874, 0.1581775
 0.11473213, 0.14643142
 0.10784478, 0.1539105
 0.11909964, 0.18955421
 0.19536374, 0.22163576
 0.37493699, 0.36946589
 0.59650601, 0.61880547
 0.93247103, 0.79484856
 1., 0.86945283
 0.90744166, 0.76844621
 0.7616328, 0.69816536
 0.71745343, 0.64419508
 0.59449022, 0.53001225
 0.47690242, 0.49756858
 0.45304887, 0.42820758
 0.49554848, 0.43068475
 0.56425337, 0.50976956
 0.58306734, 0.56130946
 0.60557707, 0.53482807
 0.43793044, 0.42848432
 0.29564931, 0.24578202
 0.29581723, 0.16631252
 0.25197379, 0.14318296
 0.15017638, 0.13679326
 0.17016636, 0.12347318
 0.11574003, 0.13616656
 0.1906602, 0.13833155
 0.34066856, 0.16369951
 0.66773053, 0.36642668
 0.68620868, 0.51864684
 0.52813706, 0.53271711
 0.57483626, 0.60087049
 0.55518231, 0.55245644
 0.53804809, 0.50722086
 0.5699647, 0.49058086
 0.58945074, 0.49789205
 0.5392239, 0.44651648
 0.43289096, 0.40643296
 0.44733753, 0.37808198
 0.53351256, 0.39290777
 0.57802787, 0.51584435
 0.74029898, 0.51403546
 0.6133042, 0.52027249
 0.43826647, 0.34714055
 0.27448351, 0.2059821
 0.25701326, 0.18336813
 0.23181588, 0.14614807
 0.12346716, 0.131579
 0.12195531, 0.1458133
 0.1175878, 0.15221125
 0.13791372, 0.21728592
 0.34285237, 0.28614154
 0.70115909, 0.5418818
 0.71039816, 0.53105164
 0.4957165, 0.45654768
 0.50865112, 0.45187357
 0.46531163, 0.44238499
 0.48160596, 0.42901838
 0.49269281, 0.43048555
 0.55484628, 0.45934412
 0.51671428, 0.43158084
 0.42465989, 0.38226074
 0.41256515, 0.37704584
 0.49773229, 0.40452257
 0.53905599, 0.48799786
 0.75054595, 0.52713543
 0.69057619, 0.51231802
 0.51621033, 0.26253679
 0.3453721, 0.17344044
