tar,out
 0.27717116, 0.15203018
 0.2425668, 0.10084668
 0.12968254, 0.07636636
 0.12968254, 0.06869677
 0.11809175, 0.06488708
 0.14261716, 0.08110473
 0.3537712, 0.26055434
 0.66756262, 0.55885762
 0.67864946, 0.56299055
 0.51150679, 0.53746521
 0.65261211, 0.48837227
 0.66252314, 0.48260799
 0.47975809, 0.46789563
 0.48278177, 0.45724696
 0.54409546, 0.47404468
 0.50932308, 0.4600805
 0.41038134, 0.42837799
 0.39845461, 0.36684561
 0.48210991, 0.42097828
 0.57282047, 0.52307016
 0.67579369, 0.53917396
 0.65630776, 0.51166236
 0.43759451, 0.41325819
 0.29380143, 0.18743436
 0.2733076, 0.19336097
 0.23064007, 0.10046259
 0.13539398, 0.1003091
 0.13270623, 0.06761971
 0.13119438, 0.09673303
 0.1557198, 0.10600716
 0.33915672, 0.2843501
 0.67596171, 0.57081246
 0.65714763, 0.57529098
 0.51066691, 0.48942199
 0.50277176, 0.4783763
 0.51285071, 0.4169507
 0.44784148, 0.43903822
 0.47841426, 0.42474848
 0.57080468, 0.4585633
 0.55249456, 0.45125622
 0.46228794, 0.37801859
 0.44045018, 0.36240137
 0.50243573, 0.38744506
 0.58189153, 0.48893455
 0.68016131, 0.54865527
 0.56744497, 0.52129829
 0.4194524, 0.40017772
 0.29430538, 0.17642146
 0.27179576, 0.13075662
 0.22257691, 0.10168122
 0.15622375, 0.05340058
 0.16697466, 0.04210171
 0.14681676, 0.04323071
 0.15605583, 0.08332272
 0.35461118, 0.25231689
 0.65093235, 0.56975323
 0.62943052, 0.5446614
 0.48748532, 0.50019288
 0.53048888, 0.49994481
 0.48765333, 0.46873677
 0.49538046, 0.45293128
 0.46413571, 0.42149293
 0.5116748, 0.48315713
 0.51604231, 0.42527395
 0.4194524, 0.39769518
 0.38585593, 0.37204355
 0.41138924, 0.42856929
 0.55434233, 0.50117046
 0.60322524, 0.5424124
 0.60675288, 0.50469661
 0.49487652, 0.37929508
 0.26541246, 0.19626211
 0.2563414, 0.1476326
 0.22660849, 0.11499092
 0.1387536, 0.07947716
 0.14278518, 0.05202565
 0.12161938, 0.05781239
 0.1409374, 0.0553607
 0.36989752, 0.27403876
 0.68503277, 0.56041127
 0.67864946, 0.55147523
 0.53250467, 0.44500852
 0.50461954, 0.49238187
 0.480934, 0.40155649
 0.44985727, 0.42690837
 0.47320677, 0.43385112
 0.56290944, 0.44558623
 0.53317653, 0.4728601
 0.48009412, 0.41975456
 0.43373094, 0.37227958
 0.50747521, 0.39670217
 0.47975809, 0.50144076
 0.56862088, 0.5214994
 0.55165468, 0.49530727
 0.42549977, 0.34061149
 0.26994798, 0.18121244
 0.34789184, 0.15443297
 0.2447506, 0.13590376
 0.17974137, 0.10350686
 0.17235007, 0.0820272
 0.15924743, 0.09185463
 0.14144135, 0.07955745
 0.1705023, 0.11679178
 0.31614314, 0.2278239
 0.52595335, 0.3804695
 0.66151525, 0.59843469
 0.98286578, 0.6529755
 0.86813375, 0.76944935
 0.80127664, 0.66142344
 0.68335291, 0.61407328
 0.73038805, 0.64849734
 0.68688054, 0.56285155
 0.5943222, 0.47491974
 0.53519232, 0.4942624
 0.53552835, 0.47822171
 0.51066691, 0.45001745
 0.49874018, 0.50635195
 0.51402652, 0.48671004
 0.40634976, 0.45995727
 0.2775072, 0.21161124
 0.33764487, 0.24546969
 0.24559048, 0.14707811
 0.15420796, 0.12253954
 0.14664874, 0.10002086
 0.11473213, 0.12218432
 0.10784478, 0.113691
 0.11909964, 0.15404946
 0.19536374, 0.2477635
 0.37493699, 0.31419957
 0.59650601, 0.62492931
 0.93247103, 0.79338086
 1., 0.86658454
 0.90744166, 0.83289313
 0.7616328, 0.73432732
 0.71745343, 0.70985842
 0.59449022, 0.57701612
 0.47690242, 0.49144906
 0.45304887, 0.44356692
 0.49554848, 0.47164139
 0.56425337, 0.52087462
 0.58306734, 0.6033802
 0.60557707, 0.57011169
 0.43793044, 0.41835594
 0.29564931, 0.21503153
 0.29581723, 0.10746092
 0.25197379, 0.08049601
 0.15017638, 0.06096753
 0.17016636, 0.06207615
 0.11574003, 0.0677512
 0.1906602, 0.10783404
 0.34066856, 0.13155769
 0.66773053, 0.48387131
 0.68620868, 0.53661716
 0.52813706, 0.52753192
 0.57483626, 0.61336851
 0.55518231, 0.58608359
 0.53804809, 0.49218887
 0.5699647, 0.45487034
 0.58945074, 0.46229306
 0.5392239, 0.47908837
 0.43289096, 0.45838279
 0.44733753, 0.39280862
 0.53351256, 0.42370474
 0.57802787, 0.50826055
 0.74029898, 0.50961113
 0.6133042, 0.54258913
 0.43826647, 0.39880469
 0.27448351, 0.22159058
 0.25701326, 0.13081858
 0.23181588, 0.05802733
 0.12346716, 0.04928577
 0.12195531, 0.03637388
 0.1175878, 0.0418357
 0.13791372, 0.11149941
 0.34285237, 0.2950868
 0.70115909, 0.55719638
 0.71039816, 0.53668457
 0.4957165, 0.49337637
 0.50865112, 0.47997195
 0.46531163, 0.43051022
 0.48160596, 0.4527922
 0.49269281, 0.4132475
 0.55484628, 0.47990274
 0.51671428, 0.43876487
 0.42465989, 0.4107174
 0.41256515, 0.37222457
 0.49773229, 0.43455666
 0.53905599, 0.50641072
 0.75054595, 0.55259788
 0.69057619, 0.52248782
 0.51621033, 0.38921577
 0.3453721, 0.17646015
