tar,out
 0.27717116, 0.12715288
 0.2425668, 0.10154212
 0.12968254, 0.08880813
 0.12968254, 0.07962643
 0.11809175, 0.07053101
 0.14261716, 0.08888151
 0.3537712, 0.26304078
 0.66756262, 0.5348978
 0.67864946, 0.5345397
 0.51150679, 0.49221593
 0.65261211, 0.47788382
 0.66252314, 0.44640413
 0.47975809, 0.45985219
 0.48278177, 0.46935642
 0.54409546, 0.45494917
 0.50932308, 0.45688909
 0.41038134, 0.43688467
 0.39845461, 0.39228415
 0.48210991, 0.42225233
 0.57282047, 0.50930083
 0.67579369, 0.50660259
 0.65630776, 0.49984479
 0.43759451, 0.39965165
 0.29380143, 0.21564078
 0.2733076, 0.19238839
 0.23064007, 0.11389898
 0.13539398, 0.10469681
 0.13270623, 0.09014262
 0.13119438, 0.07820319
 0.1557198, 0.09976766
 0.33915672, 0.26537168
 0.67596171, 0.5450362
 0.65714763, 0.52735692
 0.51066691, 0.46794084
 0.50277176, 0.45446971
 0.51285071, 0.44938773
 0.44784148, 0.45006281
 0.47841426, 0.41743207
 0.57080468, 0.4522332
 0.55249456, 0.45941511
 0.46228794, 0.39689732
 0.44045018, 0.38966992
 0.50243573, 0.42255086
 0.58189153, 0.49156713
 0.68016131, 0.52742207
 0.56744497, 0.51211798
 0.4194524, 0.37320668
 0.29430538, 0.14192818
 0.27179576, 0.11873744
 0.22257691, 0.08708256
 0.15622375, 0.07266445
 0.16697466, 0.06509508
 0.14681676, 0.05762365
 0.15605583, 0.07327063
 0.35461118, 0.26537168
 0.65093235, 0.5680784
 0.62943052, 0.51208115
 0.48748532, 0.47618145
 0.53048888, 0.46282724
 0.48765333, 0.45279533
 0.49538046, 0.44209945
 0.46413571, 0.40863356
 0.5116748, 0.45512164
 0.51604231, 0.44318223
 0.4194524, 0.39608997
 0.38585593, 0.39374924
 0.41138924, 0.45139021
 0.55434233, 0.49539757
 0.60322524, 0.52278644
 0.60675288, 0.49237925
 0.49487652, 0.38563129
 0.26541246, 0.2274875
 0.2563414, 0.16471069
 0.22660849, 0.10722616
 0.1387536, 0.09018689
 0.14278518, 0.07766625
 0.12161938, 0.07909536
 0.1409374, 0.08625479
 0.36989752, 0.26537168
 0.68503277, 0.57268143
 0.67864946, 0.53169513
 0.53250467, 0.45592159
 0.50461954, 0.46323973
 0.480934, 0.42950603
 0.44985727, 0.42824399
 0.47320677, 0.42135176
 0.56290944, 0.4619548
 0.53317653, 0.47038937
 0.48009412, 0.41252971
 0.43373094, 0.40372196
 0.50747521, 0.42544597
 0.47975809, 0.49737871
 0.56862088, 0.49306315
 0.55165468, 0.48772776
 0.42549977, 0.37985533
 0.26994798, 0.20629385
 0.34789184, 0.20347655
 0.2447506, 0.10932007
 0.17974137, 0.11204107
 0.17235007, 0.08755475
 0.15924743, 0.09623028
 0.14144135, 0.08762312
 0.1705023, 0.14038807
 0.31614314, 0.23130083
 0.52595335, 0.43106902
 0.66151525, 0.55860841
 0.98286578, 0.71922398
 0.86813375, 0.81928736
 0.80127664, 0.65287471
 0.68335291, 0.61684513
 0.73038805, 0.59143054
 0.68688054, 0.52367496
 0.5943222, 0.44813949
 0.53519232, 0.456386
 0.53552835, 0.51435256
 0.51066691, 0.50238848
 0.49874018, 0.53343666
 0.51402652, 0.45072424
 0.40634976, 0.40221125
 0.2775072, 0.48651588
 0.33764487, 0.28050309
 0.24559048, 0.22517657
 0.15420796, 0.12328997
 0.14664874, 0.11727831
 0.11473213, 0.14901818
 0.10784478, 0.0986798
 0.11909964, 0.19753239
 0.19536374, 0.24380571
 0.37493699, 0.33547848
 0.59650601, 0.59522021
 0.93247103, 0.80461615
 1., 0.89745814
 0.90744166, 0.83256477
 0.7616328, 0.75082397
 0.71745343, 0.71569198
 0.59449022, 0.5422883
 0.47690242, 0.45513964
 0.45304887, 0.41746259
 0.49554848, 0.45384577
 0.56425337, 0.51682246
 0.58306734, 0.59090543
 0.60557707, 0.54215574
 0.43793044, 0.40709275
 0.29564931, 0.23026602
 0.29581723, 0.11978212
 0.25197379, 0.10945618
 0.15017638, 0.1097859
 0.17016636, 0.08647317
 0.11574003, 0.08868186
 0.1906602, 0.10994947
 0.34066856, 0.13646916
 0.66773053, 0.39860237
 0.68620868, 0.50193846
 0.52813706, 0.52248901
 0.57483626, 0.57375091
 0.55518231, 0.56327534
 0.53804809, 0.4877283
 0.5699647, 0.46764302
 0.58945074, 0.47282404
 0.5392239, 0.46216899
 0.43289096, 0.47247723
 0.44733753, 0.40441364
 0.53351256, 0.44917798
 0.57802787, 0.48527133
 0.74029898, 0.51241565
 0.6133042, 0.48546594
 0.43826647, 0.36214277
 0.27448351, 0.13718344
 0.25701326, 0.11481352
 0.23181588, 0.08601996
 0.12346716, 0.08064578
 0.12195531, 0.07952617
 0.1175878, 0.06856743
 0.13791372, 0.10733069
 0.34285237, 0.26537168
 0.70115909, 0.5527854
 0.71039816, 0.50219524
 0.4957165, 0.45538503
 0.50865112, 0.4590978
 0.46531163, 0.44835615
 0.48160596, 0.42988369
 0.49269281, 0.40609425
 0.55484628, 0.45132124
 0.51671428, 0.44619936
 0.42465989, 0.40622109
 0.41256515, 0.39204729
 0.49773229, 0.46429828
 0.53905599, 0.50378907
 0.75054595, 0.5319674
 0.69057619, 0.50940824
 0.51621033, 0.32012987
 0.3453721, 0.11234051
