tar,out
 0.27717116, 0.11669652
 0.2425668, 0.08651105
 0.12968254, 0.07775484
 0.12968254, 0.07052204
 0.11809175, 0.07130484
 0.14261716, 0.08902039
 0.3537712, 0.23059526
 0.66756262, 0.4838441
 0.67864946, 0.52642709
 0.51150679, 0.50498152
 0.65261211, 0.4625392
 0.66252314, 0.4548932
 0.47975809, 0.45064151
 0.48278177, 0.44424754
 0.54409546, 0.47629368
 0.50932308, 0.4624967
 0.41038134, 0.36330444
 0.39845461, 0.36064306
 0.48210991, 0.37164766
 0.57282047, 0.49883449
 0.67579369, 0.48282194
 0.65630776, 0.4992727
 0.43759451, 0.36227676
 0.29380143, 0.21136567
 0.2733076, 0.13960136
 0.23064007, 0.09207152
 0.13539398, 0.08481389
 0.13270623, 0.08282192
 0.13119438, 0.07378617
 0.1557198, 0.11408971
 0.33915672, 0.26419669
 0.67596171, 0.5451414
 0.65714763, 0.53575969
 0.51066691, 0.47635484
 0.50277176, 0.4538787
 0.51285071, 0.44332141
 0.44784148, 0.43608457
 0.47841426, 0.39198005
 0.57080468, 0.4645474
 0.55249456, 0.47071189
 0.46228794, 0.36820611
 0.44045018, 0.36144277
 0.50243573, 0.37846243
 0.58189153, 0.47980267
 0.68016131, 0.52617931
 0.56744497, 0.51375401
 0.4194524, 0.36362815
 0.29430538, 0.18706915
 0.27179576, 0.11410822
 0.22257691, 0.08328852
 0.15622375, 0.08453606
 0.16697466, 0.06739506
 0.14681676, 0.07782163
 0.15605583, 0.08952397
 0.35461118, 0.2653828
 0.65093235, 0.56519943
 0.62943052, 0.50628662
 0.48748532, 0.43698704
 0.53048888, 0.44669503
 0.48765333, 0.43767905
 0.49538046, 0.39810869
 0.46413571, 0.3766385
 0.5116748, 0.45894814
 0.51604231, 0.4109292
 0.4194524, 0.36736947
 0.38585593, 0.36516425
 0.41138924, 0.41393021
 0.55434233, 0.47872829
 0.60322524, 0.5317449
 0.60675288, 0.5051316
 0.49487652, 0.36411113
 0.26541246, 0.21183588
 0.2563414, 0.12202272
 0.22660849, 0.09781057
 0.1387536, 0.08179842
 0.14278518, 0.07477699
 0.12161938, 0.07442294
 0.1409374, 0.08512227
 0.36989752, 0.27345049
 0.68503277, 0.55632031
 0.67864946, 0.52390093
 0.53250467, 0.4348399
 0.50461954, 0.48364076
 0.480934, 0.44242245
 0.44985727, 0.45631468
 0.47320677, 0.47035161
 0.56290944, 0.45457658
 0.53317653, 0.47020322
 0.48009412, 0.37855965
 0.43373094, 0.36164954
 0.50747521, 0.37806252
 0.47975809, 0.46591079
 0.56862088, 0.51376188
 0.55165468, 0.4967218
 0.42549977, 0.36224553
 0.26994798, 0.20390305
 0.34789184, 0.15890658
 0.2447506, 0.15115112
 0.17974137, 0.09510757
 0.17235007, 0.08328427
 0.15924743, 0.07856022
 0.14144135, 0.08271484
 0.1705023, 0.10519038
 0.31614314, 0.24677362
 0.52595335, 0.41193125
 0.66151525, 0.58778906
 0.98286578, 0.66573524
 0.86813375, 0.79978031
 0.80127664, 0.61295283
 0.68335291, 0.60313576
 0.73038805, 0.53275555
 0.68688054, 0.52361685
 0.5943222, 0.42589515
 0.53519232, 0.45784944
 0.53552835, 0.47199368
 0.51066691, 0.49420643
 0.49874018, 0.53861463
 0.51402652, 0.4503541
 0.40634976, 0.39708543
 0.2775072, 0.42903447
 0.33764487, 0.16283599
 0.24559048, 0.2121937
 0.15420796, 0.11672057
 0.14664874, 0.17809051
 0.11473213, 0.08883788
 0.10784478, 0.16364633
 0.11909964, 0.12927999
 0.19536374, 0.26783964
 0.37493699, 0.33528328
 0.59650601, 0.6020689
 0.93247103, 0.79081702
 1., 0.92222881
 0.90744166, 0.82991797
 0.7616328, 0.71766293
 0.71745343, 0.66321993
 0.59449022, 0.54887211
 0.47690242, 0.46762085
 0.45304887, 0.41967243
 0.49554848, 0.4429695
 0.56425337, 0.53383672
 0.58306734, 0.60383934
 0.60557707, 0.55791974
 0.43793044, 0.38229424
 0.29564931, 0.22262126
 0.29581723, 0.10724558
 0.25197379, 0.09635977
 0.15017638, 0.08142143
 0.17016636, 0.07980007
 0.11574003, 0.08137968
 0.1906602, 0.11221772
 0.34066856, 0.22069414
 0.66773053, 0.45782807
 0.68620868, 0.50939155
 0.52813706, 0.52369905
 0.57483626, 0.59072787
 0.55518231, 0.52552831
 0.53804809, 0.48350573
 0.5699647, 0.45430732
 0.58945074, 0.46965706
 0.5392239, 0.46948776
 0.43289096, 0.42692596
 0.44733753, 0.37466595
 0.53351256, 0.42786008
 0.57802787, 0.49428993
 0.74029898, 0.53017652
 0.6133042, 0.48975772
 0.43826647, 0.3582899
 0.27448351, 0.16073176
 0.25701326, 0.10117912
 0.23181588, 0.07303086
 0.12346716, 0.07635739
 0.12195531, 0.06552303
 0.1175878, 0.08953212
 0.13791372, 0.15635216
 0.34285237, 0.48807585
 0.70115909, 0.55285561
 0.71039816, 0.50197303
 0.4957165, 0.46482328
 0.50865112, 0.44677255
 0.46531163, 0.43563473
 0.48160596, 0.42742676
 0.49269281, 0.40962809
 0.55484628, 0.45102829
 0.51671428, 0.424548
 0.42465989, 0.37058219
 0.41256515, 0.36404812
 0.49773229, 0.4045276
 0.53905599, 0.47251463
 0.75054595, 0.51533747
 0.69057619, 0.49358058
 0.51621033, 0.34116012
 0.3453721, 0.17741847
