tar,out
 0.27717116, 0.16769297
 0.2425668, 0.10854316
 0.12968254, 0.08778834
 0.12968254, 0.06580794
 0.11809175, 0.04745415
 0.14261716, 0.07448271
 0.3537712, 0.20618695
 0.66756262, 0.52597928
 0.67864946, 0.52969909
 0.51150679, 0.45629883
 0.65261211, 0.44086179
 0.66252314, 0.44126928
 0.47975809, 0.44088012
 0.48278177, 0.42211533
 0.54409546, 0.48891845
 0.50932308, 0.44687206
 0.41038134, 0.39977407
 0.39845461, 0.36911321
 0.48210991, 0.42162979
 0.57282047, 0.5082773
 0.67579369, 0.50330859
 0.65630776, 0.51684779
 0.43759451, 0.39140213
 0.29380143, 0.18780419
 0.2733076, 0.18142024
 0.23064007, 0.13424216
 0.13539398, 0.12752481
 0.13270623, 0.09215599
 0.13119438, 0.08614105
 0.1557198, 0.12286107
 0.33915672, 0.23902223
 0.67596171, 0.53850967
 0.65714763, 0.53616989
 0.51066691, 0.44914168
 0.50277176, 0.416197
 0.51285071, 0.41119295
 0.44784148, 0.40643916
 0.47841426, 0.4129813
 0.57080468, 0.45978543
 0.55249456, 0.45190936
 0.46228794, 0.38694885
 0.44045018, 0.36537558
 0.50243573, 0.41872767
 0.58189153, 0.50500071
 0.68016131, 0.54577863
 0.56744497, 0.51495081
 0.4194524, 0.38081723
 0.29430538, 0.1698653
 0.27179576, 0.16133748
 0.22257691, 0.12126926
 0.15622375, 0.08692861
 0.16697466, 0.04655829
 0.14681676, 0.0754064
 0.15605583, 0.09617275
 0.35461118, 0.24639653
 0.65093235, 0.53525972
 0.62943052, 0.51603651
 0.48748532, 0.45741397
 0.53048888, 0.4551287
 0.48765333, 0.44726562
 0.49538046, 0.4078432
 0.46413571, 0.41968215
 0.5116748, 0.45711216
 0.51604231, 0.42356038
 0.4194524, 0.38794634
 0.38585593, 0.37246579
 0.41138924, 0.44375816
 0.55434233, 0.4940418
 0.60322524, 0.53200096
 0.60675288, 0.50942266
 0.49487652, 0.37820131
 0.26541246, 0.17799661
 0.2563414, 0.17756113
 0.22660849, 0.1325309
 0.1387536, 0.09889263
 0.14278518, 0.09242871
 0.12161938, 0.07472304
 0.1409374, 0.09246024
 0.36989752, 0.25773227
 0.68503277, 0.54668909
 0.67864946, 0.54167318
 0.53250467, 0.40682852
 0.50461954, 0.43884689
 0.480934, 0.43298534
 0.44985727, 0.42032528
 0.47320677, 0.46975839
 0.56290944, 0.48155695
 0.53317653, 0.4676798
 0.48009412, 0.40873638
 0.43373094, 0.38365972
 0.50747521, 0.40042788
 0.47975809, 0.47961167
 0.56862088, 0.51284468
 0.55165468, 0.50600106
 0.42549977, 0.37522486
 0.26994798, 0.17596629
 0.34789184, 0.16193675
 0.2447506, 0.14059526
 0.17974137, 0.11961119
 0.17235007, 0.084712
 0.15924743, 0.08962679
 0.14144135, 0.10097703
 0.1705023, 0.14561981
 0.31614314, 0.27660602
 0.52595335, 0.3035903
 0.66151525, 0.53902966
 0.98286578, 0.64613324
 0.86813375, 0.72975373
 0.80127664, 0.61628783
 0.68335291, 0.59585589
 0.73038805, 0.59064722
 0.68688054, 0.53444064
 0.5943222, 0.47334594
 0.53519232, 0.47941041
 0.53552835, 0.48848051
 0.51066691, 0.48934102
 0.49874018, 0.50678694
 0.51402652, 0.48088688
 0.40634976, 0.43799466
 0.2775072, 0.45671254
 0.33764487, 0.38367146
 0.24559048, 0.18529466
 0.15420796, 0.17616506
 0.14664874, 0.1248018
 0.11473213, 0.11529849
 0.10784478, 0.12536059
 0.11909964, 0.17914322
 0.19536374, 0.21408217
 0.37493699, 0.2834608
 0.59650601, 0.54153919
 0.93247103, 0.74398392
 1., 0.84168243
 0.90744166, 0.78190267
 0.7616328, 0.71248156
 0.71745343, 0.66557896
 0.59449022, 0.54887801
 0.47690242, 0.49367791
 0.45304887, 0.44073603
 0.49554848, 0.45401487
 0.56425337, 0.50519705
 0.58306734, 0.58482337
 0.60557707, 0.54982674
 0.43793044, 0.39451593
 0.29564931, 0.25011781
 0.29581723, 0.15570426
 0.25197379, 0.12514238
 0.15017638, 0.12301648
 0.17016636, 0.10084105
 0.11574003, 0.08974531
 0.1906602, 0.10621622
 0.34066856, 0.16112772
 0.66773053, 0.29441044
 0.68620868, 0.50327456
 0.52813706, 0.500714
 0.57483626, 0.53734362
 0.55518231, 0.51546919
 0.53804809, 0.49029839
 0.5699647, 0.45763159
 0.58945074, 0.4987812
 0.5392239, 0.46769571
 0.43289096, 0.43687397
 0.44733753, 0.39228097
 0.53351256, 0.4574464
 0.57802787, 0.51719654
 0.74029898, 0.52338386
 0.6133042, 0.5072217
 0.43826647, 0.38496417
 0.27448351, 0.1675487
 0.25701326, 0.15332159
 0.23181588, 0.10647306
 0.12346716, 0.08622015
 0.12195531, 0.07196245
 0.1175878, 0.08207315
 0.13791372, 0.1226792
 0.34285237, 0.26119149
 0.70115909, 0.53657359
 0.71039816, 0.51092863
 0.4957165, 0.44338053
 0.50865112, 0.43963939
 0.46531163, 0.44173315
 0.48160596, 0.40736768
 0.49269281, 0.42491618
 0.55484628, 0.44553423
 0.51671428, 0.42110354
 0.42465989, 0.39261207
 0.41256515, 0.37157756
 0.49773229, 0.43143582
 0.53905599, 0.4758594
 0.75054595, 0.51833671
 0.69057619, 0.48329514
 0.51621033, 0.30598158
 0.3453721, 0.1575188
