tar,out
 0.27717116, 0.16422251
 0.2425668, 0.11581334
 0.12968254, 0.10333872
 0.12968254, 0.0984838
 0.11809175, 0.09961978
 0.14261716, 0.11109968
 0.3537712, 0.23325592
 0.66756262, 0.54348725
 0.67864946, 0.55362248
 0.51150679, 0.49675646
 0.65261211, 0.47632679
 0.66252314, 0.44580162
 0.47975809, 0.44245487
 0.48278177, 0.42386425
 0.54409546, 0.48195332
 0.50932308, 0.4610754
 0.41038134, 0.39742523
 0.39845461, 0.39055967
 0.48210991, 0.40898928
 0.57282047, 0.51241285
 0.67579369, 0.5139581
 0.65630776, 0.52486092
 0.43759451, 0.37848723
 0.29380143, 0.21679477
 0.2733076, 0.18148887
 0.23064007, 0.12597829
 0.13539398, 0.1280539
 0.13270623, 0.12023337
 0.13119438, 0.12470186
 0.1557198, 0.12906508
 0.33915672, 0.27717301
 0.67596171, 0.55143946
 0.65714763, 0.54170412
 0.51066691, 0.44673878
 0.50277176, 0.42827749
 0.51285071, 0.43786728
 0.44784148, 0.43132237
 0.47841426, 0.42921919
 0.57080468, 0.47259986
 0.55249456, 0.44788989
 0.46228794, 0.38209343
 0.44045018, 0.38679683
 0.50243573, 0.41334072
 0.58189153, 0.50692642
 0.68016131, 0.54036748
 0.56744497, 0.53276312
 0.4194524, 0.34851837
 0.29430538, 0.18133555
 0.27179576, 0.15099072
 0.22257691, 0.12309404
 0.15622375, 0.10194245
 0.16697466, 0.11198479
 0.14681676, 0.11932495
 0.15605583, 0.11387017
 0.35461118, 0.28108686
 0.65093235, 0.54273844
 0.62943052, 0.52045876
 0.48748532, 0.46811324
 0.53048888, 0.46668816
 0.48765333, 0.46061373
 0.49538046, 0.45157677
 0.46413571, 0.45783466
 0.5116748, 0.46979049
 0.51604231, 0.42908251
 0.4194524, 0.37315825
 0.38585593, 0.40732008
 0.41138924, 0.41680354
 0.55434233, 0.51647437
 0.60322524, 0.53806996
 0.60675288, 0.52858579
 0.49487652, 0.34943235
 0.26541246, 0.20485339
 0.2563414, 0.15170658
 0.22660849, 0.10825105
 0.1387536, 0.08931208
 0.14278518, 0.09778552
 0.12161938, 0.09604107
 0.1409374, 0.10262717
 0.36989752, 0.29211378
 0.68503277, 0.55202991
 0.67864946, 0.5387283
 0.53250467, 0.47100016
 0.50461954, 0.43700024
 0.480934, 0.47641954
 0.44985727, 0.44458634
 0.47320677, 0.45004916
 0.56290944, 0.47226802
 0.53317653, 0.47304741
 0.48009412, 0.3935082
 0.43373094, 0.39680141
 0.50747521, 0.41241413
 0.47975809, 0.51001698
 0.56862088, 0.5281316
 0.55165468, 0.51549393
 0.42549977, 0.33475056
 0.26994798, 0.1934914
 0.34789184, 0.17211731
 0.2447506, 0.13667978
 0.17974137, 0.11212942
 0.17235007, 0.09825851
 0.15924743, 0.11072363
 0.14144135, 0.08766121
 0.1705023, 0.16144973
 0.31614314, 0.26877746
 0.52595335, 0.36665189
 0.66151525, 0.58453679
 0.98286578, 0.68613523
 0.86813375, 0.73068696
 0.80127664, 0.62466246
 0.68335291, 0.58176619
 0.73038805, 0.5640682
 0.68688054, 0.51959383
 0.5943222, 0.49752027
 0.53519232, 0.46344137
 0.53552835, 0.50802743
 0.51066691, 0.50027114
 0.49874018, 0.52790689
 0.51402652, 0.46429199
 0.40634976, 0.41364214
 0.2775072, 0.42161581
 0.33764487, 0.35965151
 0.24559048, 0.20759293
 0.15420796, 0.15304984
 0.14664874, 0.14345686
 0.11473213, 0.12068497
 0.10784478, 0.1295059
 0.11909964, 0.15122199
 0.19536374, 0.23634803
 0.37493699, 0.36098245
 0.59650601, 0.62113959
 0.93247103, 0.80300933
 1., 0.83368826
 0.90744166, 0.80692291
 0.7616328, 0.71605694
 0.71745343, 0.6557169
 0.59449022, 0.54095459
 0.47690242, 0.4926759
 0.45304887, 0.41893414
 0.49554848, 0.45609552
 0.56425337, 0.52057892
 0.58306734, 0.59083164
 0.60557707, 0.54760212
 0.43793044, 0.39176494
 0.29564931, 0.19705649
 0.29581723, 0.13686237
 0.25197379, 0.12228271
 0.15017638, 0.11272372
 0.17016636, 0.11934499
 0.11574003, 0.1060825
 0.1906602, 0.12705265
 0.34066856, 0.15740468
 0.66773053, 0.37271947
 0.68620868, 0.51369232
 0.52813706, 0.51577246
 0.57483626, 0.55065322
 0.55518231, 0.50694776
 0.53804809, 0.49552476
 0.5699647, 0.46094692
 0.58945074, 0.48321187
 0.5392239, 0.48436496
 0.43289096, 0.41431096
 0.44733753, 0.40786073
 0.53351256, 0.45942795
 0.57802787, 0.52377361
 0.74029898, 0.51554084
 0.6133042, 0.52936536
 0.43826647, 0.33221978
 0.27448351, 0.17615835
 0.25701326, 0.15058421
 0.23181588, 0.109088
 0.12346716, 0.10481215
 0.12195531, 0.11274509
 0.1175878, 0.12483333
 0.13791372, 0.15655211
 0.34285237, 0.29664007
 0.70115909, 0.53533053
 0.71039816, 0.51308978
 0.4957165, 0.43715218
 0.50865112, 0.4310452
 0.46531163, 0.43803394
 0.48160596, 0.4400197
 0.49269281, 0.44543654
 0.55484628, 0.45588112
 0.51671428, 0.42935652
 0.42465989, 0.38882428
 0.41256515, 0.40393016
 0.49773229, 0.42179996
 0.53905599, 0.51755214
 0.75054595, 0.54224759
 0.69057619, 0.50112683
 0.51621033, 0.3219744
 0.3453721, 0.17360243
