tar,out
 0.27717116, 0.12987924
 0.2425668, 0.10532737
 0.12968254, 0.0832656
 0.12968254, 0.08422175
 0.11809175, 0.07943326
 0.14261716, 0.10790616
 0.3537712, 0.26697722
 0.66756262, 0.50826955
 0.67864946, 0.5295825
 0.51150679, 0.4869377
 0.65261211, 0.46617743
 0.66252314, 0.41696376
 0.47975809, 0.44137731
 0.48278177, 0.44918332
 0.54409546, 0.47850657
 0.50932308, 0.47714451
 0.41038134, 0.39230865
 0.39845461, 0.37775937
 0.48210991, 0.38943815
 0.57282047, 0.48400211
 0.67579369, 0.4652864
 0.65630776, 0.46599802
 0.43759451, 0.36707434
 0.29380143, 0.23707722
 0.2733076, 0.13655382
 0.23064007, 0.11177722
 0.13539398, 0.09478197
 0.13270623, 0.10333818
 0.13119438, 0.09541982
 0.1557198, 0.12403321
 0.33915672, 0.29359618
 0.67596171, 0.53300583
 0.65714763, 0.52949661
 0.51066691, 0.46448717
 0.50277176, 0.44175959
 0.51285071, 0.40807754
 0.44784148, 0.41871285
 0.47841426, 0.41006437
 0.57080468, 0.46104085
 0.55249456, 0.44450086
 0.46228794, 0.38255158
 0.44045018, 0.38165206
 0.50243573, 0.3915967
 0.58189153, 0.48001027
 0.68016131, 0.52663636
 0.56744497, 0.50770521
 0.4194524, 0.36188057
 0.29430538, 0.20309708
 0.27179576, 0.13621962
 0.22257691, 0.12023377
 0.15622375, 0.09200552
 0.16697466, 0.08930513
 0.14681676, 0.0927203
 0.15605583, 0.11083132
 0.35461118, 0.28957069
 0.65093235, 0.54078346
 0.62943052, 0.54114044
 0.48748532, 0.51820886
 0.53048888, 0.4502444
 0.48765333, 0.44575322
 0.49538046, 0.41592056
 0.46413571, 0.41495857
 0.5116748, 0.4648397
 0.51604231, 0.41927731
 0.4194524, 0.38443986
 0.38585593, 0.37958983
 0.41138924, 0.39531547
 0.55434233, 0.47173613
 0.60322524, 0.52834547
 0.60675288, 0.50416237
 0.49487652, 0.36680633
 0.26541246, 0.20357215
 0.2563414, 0.14489643
 0.22660849, 0.10998133
 0.1387536, 0.08991179
 0.14278518, 0.0765714
 0.12161938, 0.08203179
 0.1409374, 0.08312407
 0.36989752, 0.28344229
 0.68503277, 0.54800189
 0.67864946, 0.51330459
 0.53250467, 0.48337036
 0.50461954, 0.45400092
 0.480934, 0.42400411
 0.44985727, 0.42993832
 0.47320677, 0.46677583
 0.56290944, 0.46843562
 0.53317653, 0.4683398
 0.48009412, 0.39637622
 0.43373094, 0.39325377
 0.50747521, 0.39392778
 0.47975809, 0.48683101
 0.56862088, 0.49852097
 0.55165468, 0.48749715
 0.42549977, 0.34080207
 0.26994798, 0.22270451
 0.34789184, 0.14605649
 0.2447506, 0.12871936
 0.17974137, 0.1116358
 0.17235007, 0.09211788
 0.15924743, 0.08905998
 0.14144135, 0.08738804
 0.1705023, 0.13441736
 0.31614314, 0.20470247
 0.52595335, 0.38953525
 0.66151525, 0.54562312
 0.98286578, 0.69984472
 0.86813375, 0.72141027
 0.80127664, 0.60362089
 0.68335291, 0.58784473
 0.73038805, 0.56974512
 0.68688054, 0.52610612
 0.5943222, 0.48739845
 0.53519232, 0.47348934
 0.53552835, 0.49323934
 0.51066691, 0.45501408
 0.49874018, 0.52629137
 0.51402652, 0.4827916
 0.40634976, 0.44870433
 0.2775072, 0.36009023
 0.33764487, 0.24642365
 0.24559048, 0.20949213
 0.15420796, 0.1698591
 0.14664874, 0.15545437
 0.11473213, 0.12726754
 0.10784478, 0.1164605
 0.11909964, 0.13859995
 0.19536374, 0.15367602
 0.37493699, 0.3564232
 0.59650601, 0.59661621
 0.93247103, 0.76587212
 1., 0.85436809
 0.90744166, 0.76847911
 0.7616328, 0.70570624
 0.71745343, 0.66751522
 0.59449022, 0.56097293
 0.47690242, 0.48244971
 0.45304887, 0.43730503
 0.49554848, 0.44149953
 0.56425337, 0.50806522
 0.58306734, 0.5763306
 0.60557707, 0.56155896
 0.43793044, 0.35734165
 0.29564931, 0.24327075
 0.29581723, 0.13528976
 0.25197379, 0.12160078
 0.15017638, 0.12003329
 0.17016636, 0.11185095
 0.11574003, 0.11189792
 0.1906602, 0.12721123
 0.34066856, 0.17900345
 0.66773053, 0.34427711
 0.68620868, 0.49659258
 0.52813706, 0.51811647
 0.57483626, 0.56821215
 0.55518231, 0.53059024
 0.53804809, 0.49323967
 0.5699647, 0.45273036
 0.58945074, 0.48260993
 0.5392239, 0.49948305
 0.43289096, 0.4317247
 0.44733753, 0.36494389
 0.53351256, 0.40590248
 0.57802787, 0.49927968
 0.74029898, 0.51617467
 0.6133042, 0.50946128
 0.43826647, 0.31578374
 0.27448351, 0.15519926
 0.25701326, 0.12758885
 0.23181588, 0.10726646
 0.12346716, 0.09224427
 0.12195531, 0.09744081
 0.1175878, 0.10245654
 0.13791372, 0.16226788
 0.34285237, 0.33308545
 0.70115909, 0.53561473
 0.71039816, 0.5247277
 0.4957165, 0.49209026
 0.50865112, 0.44670597
 0.46531163, 0.43435219
 0.48160596, 0.405137
 0.49269281, 0.42218924
 0.55484628, 0.45894712
 0.51671428, 0.41117233
 0.42465989, 0.38740429
 0.41256515, 0.38469887
 0.49773229, 0.40244266
 0.53905599, 0.47868043
 0.75054595, 0.55373347
 0.69057619, 0.50858301
 0.51621033, 0.36734805
 0.3453721, 0.12617004
