tar,out
 0.27717116, 0.15570681
 0.2425668, 0.10930285
 0.12968254, 0.10384871
 0.12968254, 0.08434531
 0.11809175, 0.08522864
 0.14261716, 0.10480778
 0.3537712, 0.25420874
 0.66756262, 0.52958876
 0.67864946, 0.56742966
 0.51150679, 0.46262157
 0.65261211, 0.49358395
 0.66252314, 0.45627034
 0.47975809, 0.44699571
 0.48278177, 0.4547078
 0.54409546, 0.47253025
 0.50932308, 0.4495917
 0.41038134, 0.40565628
 0.39845461, 0.37974858
 0.48210991, 0.40742603
 0.57282047, 0.48345727
 0.67579369, 0.47703552
 0.65630776, 0.46019274
 0.43759451, 0.37257648
 0.29380143, 0.20939912
 0.2733076, 0.16625679
 0.23064007, 0.11836773
 0.13539398, 0.10518931
 0.13270623, 0.10059585
 0.13119438, 0.10487482
 0.1557198, 0.11672211
 0.33915672, 0.2733559
 0.67596171, 0.53946435
 0.65714763, 0.55529547
 0.51066691, 0.44592193
 0.50277176, 0.46556556
 0.51285071, 0.44329241
 0.44784148, 0.42626798
 0.47841426, 0.41805205
 0.57080468, 0.46098423
 0.55249456, 0.43625754
 0.46228794, 0.39475688
 0.44045018, 0.38122278
 0.50243573, 0.39364901
 0.58189153, 0.47510695
 0.68016131, 0.5295527
 0.56744497, 0.52638423
 0.4194524, 0.36954874
 0.29430538, 0.17710075
 0.27179576, 0.15689369
 0.22257691, 0.10371985
 0.15622375, 0.08917713
 0.16697466, 0.08169925
 0.14681676, 0.10396892
 0.15605583, 0.11364894
 0.35461118, 0.27592888
 0.65093235, 0.55553246
 0.62943052, 0.5180248
 0.48748532, 0.43851393
 0.53048888, 0.46051067
 0.48765333, 0.44755781
 0.49538046, 0.44821483
 0.46413571, 0.43081841
 0.5116748, 0.44629747
 0.51604231, 0.425879
 0.4194524, 0.40522349
 0.38585593, 0.39087558
 0.41138924, 0.40486237
 0.55434233, 0.48021927
 0.60322524, 0.52925527
 0.60675288, 0.50451821
 0.49487652, 0.37872273
 0.26541246, 0.21231869
 0.2563414, 0.15544204
 0.22660849, 0.11498871
 0.1387536, 0.10615066
 0.14278518, 0.07638967
 0.12161938, 0.08682229
 0.1409374, 0.08989841
 0.36989752, 0.26290965
 0.68503277, 0.55718696
 0.67864946, 0.53941035
 0.53250467, 0.45235559
 0.50461954, 0.48341429
 0.480934, 0.44939378
 0.44985727, 0.43475491
 0.47320677, 0.44459069
 0.56290944, 0.45678335
 0.53317653, 0.42600948
 0.48009412, 0.40406969
 0.43373094, 0.38222909
 0.50747521, 0.40741
 0.47975809, 0.47370794
 0.56862088, 0.48070887
 0.55165468, 0.47907817
 0.42549977, 0.3540408
 0.26994798, 0.18769568
 0.34789184, 0.16558363
 0.2447506, 0.1409051
 0.17974137, 0.12563382
 0.17235007, 0.10338493
 0.15924743, 0.10170645
 0.14144135, 0.1076078
 0.1705023, 0.13797912
 0.31614314, 0.22250153
 0.52595335, 0.45658755
 0.66151525, 0.56656063
 0.98286578, 0.68577719
 0.86813375, 0.72425622
 0.80127664, 0.5511328
 0.68335291, 0.55935526
 0.73038805, 0.53061175
 0.68688054, 0.52177954
 0.5943222, 0.45291275
 0.53519232, 0.46255186
 0.53552835, 0.4946689
 0.51066691, 0.42844439
 0.49874018, 0.46941227
 0.51402652, 0.43030643
 0.40634976, 0.49674571
 0.2775072, 0.4206062
 0.33764487, 0.36994624
 0.24559048, 0.19224977
 0.15420796, 0.16092369
 0.14664874, 0.14292201
 0.11473213, 0.13422789
 0.10784478, 0.13889162
 0.11909964, 0.16325423
 0.19536374, 0.2563296
 0.37493699, 0.38784242
 0.59650601, 0.5995338
 0.93247103, 0.75403565
 1., 0.852404
 0.90744166, 0.77779102
 0.7616328, 0.70783353
 0.71745343, 0.65662587
 0.59449022, 0.54410207
 0.47690242, 0.48334056
 0.45304887, 0.44141191
 0.49554848, 0.45009243
 0.56425337, 0.51143181
 0.58306734, 0.57845312
 0.60557707, 0.57065129
 0.43793044, 0.3947112
 0.29564931, 0.21595027
 0.29581723, 0.13471746
 0.25197379, 0.11375353
 0.15017638, 0.11512668
 0.17016636, 0.09439504
 0.11574003, 0.08445008
 0.1906602, 0.12099357
 0.34066856, 0.14282241
 0.66773053, 0.38313538
 0.68620868, 0.51141721
 0.52813706, 0.51747584
 0.57483626, 0.57367301
 0.55518231, 0.54501003
 0.53804809, 0.46377057
 0.5699647, 0.45916468
 0.58945074, 0.46286157
 0.5392239, 0.46296385
 0.43289096, 0.42143798
 0.44733753, 0.41080725
 0.53351256, 0.42403561
 0.57802787, 0.47845805
 0.74029898, 0.50217605
 0.6133042, 0.48330632
 0.43826647, 0.38411474
 0.27448351, 0.17358059
 0.25701326, 0.14105149
 0.23181588, 0.1030032
 0.12346716, 0.08481768
 0.12195531, 0.08924781
 0.1175878, 0.12634391
 0.13791372, 0.14154954
 0.34285237, 0.27919289
 0.70115909, 0.57026762
 0.71039816, 0.51398182
 0.4957165, 0.44069514
 0.50865112, 0.45614615
 0.46531163, 0.43756467
 0.48160596, 0.44567829
 0.49269281, 0.41966701
 0.55484628, 0.44385186
 0.51671428, 0.43207952
 0.42465989, 0.41128933
 0.41256515, 0.39768052
 0.49773229, 0.39501125
 0.53905599, 0.49732375
 0.75054595, 0.53393227
 0.69057619, 0.46990973
 0.51621033, 0.32250261
 0.3453721, 0.17697442
