tar,out
 0.27717116, 0.12038669
 0.2425668, 0.08086026
 0.12968254, 0.06276515
 0.12968254, 0.02690893
 0.11809175, 0.03454587
 0.14261716, 0.05404013
 0.3537712, 0.18180816
 0.66756262, 0.55230582
 0.67864946, 0.57064205
 0.51150679, 0.48991501
 0.65261211, 0.45821419
 0.66252314, 0.43820441
 0.47975809, 0.42835456
 0.48278177, 0.45024216
 0.54409546, 0.47249323
 0.50932308, 0.46412703
 0.41038134, 0.40331131
 0.39845461, 0.36468661
 0.48210991, 0.42806295
 0.57282047, 0.48361829
 0.67579369, 0.50182211
 0.65630776, 0.48573825
 0.43759451, 0.38922146
 0.29380143, 0.20412636
 0.2733076, 0.15214662
 0.23064007, 0.10602048
 0.13539398, 0.07929441
 0.13270623, 0.06559476
 0.13119438, 0.06466955
 0.1557198, 0.07832414
 0.33915672, 0.24644715
 0.67596171, 0.56200343
 0.65714763, 0.56353426
 0.51066691, 0.46316135
 0.50277176, 0.45500231
 0.51285071, 0.44823074
 0.44784148, 0.42132163
 0.47841426, 0.4305101
 0.57080468, 0.44796985
 0.55249456, 0.43582922
 0.46228794, 0.39328137
 0.44045018, 0.36274868
 0.50243573, 0.40720478
 0.58189153, 0.49777037
 0.68016131, 0.50239086
 0.56744497, 0.50127363
 0.4194524, 0.37636417
 0.29430538, 0.14116113
 0.27179576, 0.1141893
 0.22257691, 0.07892045
 0.15622375, 0.03488776
 0.16697466, 0.0399203
 0.14681676, 0.02511299
 0.15605583, 0.06606004
 0.35461118, 0.22639057
 0.65093235, 0.57929355
 0.62943052, 0.54562569
 0.48748532, 0.47829512
 0.53048888, 0.45324016
 0.48765333, 0.44234261
 0.49538046, 0.40907779
 0.46413571, 0.40386134
 0.5116748, 0.44329298
 0.51604231, 0.41837299
 0.4194524, 0.3992652
 0.38585593, 0.39998269
 0.41138924, 0.42479193
 0.55434233, 0.5123601
 0.60322524, 0.54222
 0.60675288, 0.50256729
 0.49487652, 0.38595355
 0.26541246, 0.17883834
 0.2563414, 0.12785047
 0.22660849, 0.09204477
 0.1387536, 0.07296711
 0.14278518, 0.06210408
 0.12161938, 0.06248656
 0.1409374, 0.06732789
 0.36989752, 0.25977165
 0.68503277, 0.56204522
 0.67864946, 0.55019784
 0.53250467, 0.45819682
 0.50461954, 0.44384056
 0.480934, 0.42121077
 0.44985727, 0.3600671
 0.47320677, 0.43496418
 0.56290944, 0.4631626
 0.53317653, 0.47235405
 0.48009412, 0.39717743
 0.43373094, 0.38361087
 0.50747521, 0.40945196
 0.47975809, 0.49078399
 0.56862088, 0.4810428
 0.55165468, 0.46492261
 0.42549977, 0.36243528
 0.26994798, 0.15100434
 0.34789184, 0.12546074
 0.2447506, 0.10663526
 0.17974137, 0.08179745
 0.17235007, 0.07651505
 0.15924743, 0.05110449
 0.14144135, 0.07101342
 0.1705023, 0.08440515
 0.31614314, 0.14868741
 0.52595335, 0.33692315
 0.66151525, 0.5778954
 0.98286578, 0.65818954
 0.86813375, 0.71123642
 0.80127664, 0.60644424
 0.68335291, 0.60080177
 0.73038805, 0.56364858
 0.68688054, 0.49455675
 0.5943222, 0.44075239
 0.53519232, 0.45290691
 0.53552835, 0.50858605
 0.51066691, 0.52616751
 0.49874018, 0.57482225
 0.51402652, 0.49061841
 0.40634976, 0.48549223
 0.2775072, 0.52178401
 0.33764487, 0.19122705
 0.24559048, 0.13882177
 0.15420796, 0.09628627
 0.14664874, 0.08433667
 0.11473213, 0.11322246
 0.10784478, 0.09036165
 0.11909964, 0.10764733
 0.19536374, 0.25833291
 0.37493699, 0.32172838
 0.59650601, 0.62064344
 0.93247103, 0.78274047
 1., 0.82958829
 0.90744166, 0.78064632
 0.7616328, 0.69666719
 0.71745343, 0.64813298
 0.59449022, 0.54147363
 0.47690242, 0.45526898
 0.45304887, 0.43769813
 0.49554848, 0.45954347
 0.56425337, 0.53249156
 0.58306734, 0.57771593
 0.60557707, 0.56938928
 0.43793044, 0.38689849
 0.29564931, 0.24268511
 0.29581723, 0.08529019
 0.25197379, 0.07109824
 0.15017638, 0.06152594
 0.17016636, 0.05786422
 0.11574003, 0.06056103
 0.1906602, 0.10143816
 0.34066856, 0.14274903
 0.66773053, 0.31121287
 0.68620868, 0.53982317
 0.52813706, 0.55349106
 0.57483626, 0.57059324
 0.55518231, 0.53923047
 0.53804809, 0.50006789
 0.5699647, 0.47862238
 0.58945074, 0.47006196
 0.5392239, 0.46047902
 0.43289096, 0.42041385
 0.44733753, 0.37959221
 0.53351256, 0.46881759
 0.57802787, 0.50175792
 0.74029898, 0.49156922
 0.6133042, 0.55053842
 0.43826647, 0.39238536
 0.27448351, 0.14525206
 0.25701326, 0.09723577
 0.23181588, 0.06729946
 0.12346716, 0.04455027
 0.12195531, 0.03947484
 0.1175878, 0.05112842
 0.13791372, 0.08037275
 0.34285237, 0.26560405
 0.70115909, 0.5679388
 0.71039816, 0.55511701
 0.4957165, 0.48372933
 0.50865112, 0.44931784
 0.46531163, 0.42811146
 0.48160596, 0.4052625
 0.49269281, 0.40181923
 0.55484628, 0.43708593
 0.51671428, 0.41930783
 0.42465989, 0.39794749
 0.41256515, 0.39667723
 0.49773229, 0.41337427
 0.53905599, 0.52218682
 0.75054595, 0.54465967
 0.69057619, 0.55140138
 0.51621033, 0.25341803
 0.3453721, 0.13498089
