tar,out
 0.27717116, 0.11897628
 0.2425668, 0.08600101
 0.12968254, 0.08233385
 0.12968254, 0.06862468
 0.11809175, 0.06733871
 0.14261716, 0.08198476
 0.3537712, 0.21627665
 0.66756262, 0.51574832
 0.67864946, 0.52761674
 0.51150679, 0.46375334
 0.65261211, 0.44869778
 0.66252314, 0.44103727
 0.47975809, 0.44425881
 0.48278177, 0.46455553
 0.54409546, 0.47059381
 0.50932308, 0.45778346
 0.41038134, 0.37130487
 0.39845461, 0.3684988
 0.48210991, 0.36938989
 0.57282047, 0.50125515
 0.67579369, 0.47616965
 0.65630776, 0.49524736
 0.43759451, 0.36561731
 0.29380143, 0.22228114
 0.2733076, 0.11721164
 0.23064007, 0.1103974
 0.13539398, 0.0961941
 0.13270623, 0.08717048
 0.13119438, 0.08348003
 0.1557198, 0.11052042
 0.33915672, 0.28975996
 0.67596171, 0.55324012
 0.65714763, 0.54569685
 0.51066691, 0.45609161
 0.50277176, 0.41737455
 0.51285071, 0.45026255
 0.44784148, 0.41401789
 0.47841426, 0.42954162
 0.57080468, 0.47072116
 0.55249456, 0.43200016
 0.46228794, 0.36838096
 0.44045018, 0.36342075
 0.50243573, 0.37767151
 0.58189153, 0.4763962
 0.68016131, 0.52965319
 0.56744497, 0.50435722
 0.4194524, 0.36609671
 0.29430538, 0.18961327
 0.27179576, 0.13200457
 0.22257691, 0.09992144
 0.15622375, 0.08524625
 0.16697466, 0.08581591
 0.14681676, 0.08875002
 0.15605583, 0.10140882
 0.35461118, 0.25061136
 0.65093235, 0.5279094
 0.62943052, 0.51933253
 0.48748532, 0.47005388
 0.53048888, 0.44172159
 0.48765333, 0.462843
 0.49538046, 0.41689408
 0.46413571, 0.43924046
 0.5116748, 0.48325729
 0.51604231, 0.44220704
 0.4194524, 0.36862743
 0.38585593, 0.36909285
 0.41138924, 0.3817755
 0.55434233, 0.48819721
 0.60322524, 0.51353711
 0.60675288, 0.50180787
 0.49487652, 0.3646068
 0.26541246, 0.19852173
 0.2563414, 0.16684185
 0.22660849, 0.09279817
 0.1387536, 0.0870634
 0.14278518, 0.07455698
 0.12161938, 0.06915998
 0.1409374, 0.0822978
 0.36989752, 0.25181785
 0.68503277, 0.54419726
 0.67864946, 0.50210321
 0.53250467, 0.41618636
 0.50461954, 0.39256051
 0.480934, 0.41101226
 0.44985727, 0.38223854
 0.47320677, 0.4235861
 0.56290944, 0.48060763
 0.53317653, 0.47002244
 0.48009412, 0.37183338
 0.43373094, 0.36308128
 0.50747521, 0.36738527
 0.47975809, 0.4840413
 0.56862088, 0.51054293
 0.55165468, 0.48060989
 0.42549977, 0.35803884
 0.26994798, 0.19774446
 0.34789184, 0.16239518
 0.2447506, 0.11282428
 0.17974137, 0.10720679
 0.17235007, 0.08807445
 0.15924743, 0.09730385
 0.14144135, 0.07897945
 0.1705023, 0.1051838
 0.31614314, 0.14770122
 0.52595335, 0.38239735
 0.66151525, 0.5699091
 0.98286578, 0.64549291
 0.86813375, 0.76742184
 0.80127664, 0.61867559
 0.68335291, 0.58660793
 0.73038805, 0.55425668
 0.68688054, 0.5275526
 0.5943222, 0.45737165
 0.53519232, 0.45527595
 0.53552835, 0.4767974
 0.51066691, 0.46681559
 0.49874018, 0.51811606
 0.51402652, 0.44065422
 0.40634976, 0.39118984
 0.2775072, 0.2968303
 0.33764487, 0.34424728
 0.24559048, 0.17862897
 0.15420796, 0.13931732
 0.14664874, 0.10493788
 0.11473213, 0.10666735
 0.10784478, 0.12437877
 0.11909964, 0.15791361
 0.19536374, 0.20842376
 0.37493699, 0.29876161
 0.59650601, 0.58163697
 0.93247103, 0.83170527
 1., 0.88181353
 0.90744166, 0.81779659
 0.7616328, 0.72602546
 0.71745343, 0.64967746
 0.59449022, 0.54089826
 0.47690242, 0.48450553
 0.45304887, 0.43837085
 0.49554848, 0.44792703
 0.56425337, 0.50184077
 0.58306734, 0.58227921
 0.60557707, 0.54667348
 0.43793044, 0.3693406
 0.29564931, 0.18365082
 0.29581723, 0.0994692
 0.25197379, 0.09899262
 0.15017638, 0.08242378
 0.17016636, 0.07376695
 0.11574003, 0.06711462
 0.1906602, 0.09299502
 0.34066856, 0.18919779
 0.66773053, 0.46267998
 0.68620868, 0.53129637
 0.52813706, 0.51677871
 0.57483626, 0.55306113
 0.55518231, 0.5225727
 0.53804809, 0.47179037
 0.5699647, 0.46979982
 0.58945074, 0.47447124
 0.5392239, 0.48906785
 0.43289096, 0.39902306
 0.44733753, 0.36364406
 0.53351256, 0.40835601
 0.57802787, 0.49153894
 0.74029898, 0.49174103
 0.6133042, 0.50573272
 0.43826647, 0.35526726
 0.27448351, 0.18408158
 0.25701326, 0.11264862
 0.23181588, 0.0879595
 0.12346716, 0.07853377
 0.12195531, 0.07828297
 0.1175878, 0.0764235
 0.13791372, 0.14567086
 0.34285237, 0.25653788
 0.70115909, 0.52726513
 0.71039816, 0.51516539
 0.4957165, 0.45945197
 0.50865112, 0.44151524
 0.46531163, 0.44519544
 0.48160596, 0.41691211
 0.49269281, 0.42748988
 0.55484628, 0.47459778
 0.51671428, 0.43626624
 0.42465989, 0.37272477
 0.41256515, 0.3694447
 0.49773229, 0.38241845
 0.53905599, 0.48050731
 0.75054595, 0.51351017
 0.69057619, 0.49242145
 0.51621033, 0.36438027
 0.3453721, 0.19257805
