tar,out
 0.27717116, 0.14185041
 0.2425668, 0.09738052
 0.12968254, 0.10629658
 0.12968254, 0.09101543
 0.11809175, 0.08232261
 0.14261716, 0.09718619
 0.3537712, 0.20559946
 0.66756262, 0.52350593
 0.67864946, 0.53085583
 0.51150679, 0.48480254
 0.65261211, 0.46396148
 0.66252314, 0.44136959
 0.47975809, 0.45224538
 0.48278177, 0.45876461
 0.54409546, 0.47305226
 0.50932308, 0.45491672
 0.41038134, 0.37578988
 0.39845461, 0.36479035
 0.48210991, 0.41241533
 0.57282047, 0.47813523
 0.67579369, 0.49917138
 0.65630776, 0.50776213
 0.43759451, 0.40973806
 0.29380143, 0.25328195
 0.2733076, 0.14848635
 0.23064007, 0.11255303
 0.13539398, 0.11439103
 0.13270623, 0.10851739
 0.13119438, 0.1100356
 0.1557198, 0.13260612
 0.33915672, 0.25083145
 0.67596171, 0.56142646
 0.65714763, 0.53625739
 0.51066691, 0.46306816
 0.50277176, 0.45280111
 0.51285071, 0.4625231
 0.44784148, 0.41672292
 0.47841426, 0.37927216
 0.57080468, 0.46034616
 0.55249456, 0.45302773
 0.46228794, 0.36961937
 0.44045018, 0.36998296
 0.50243573, 0.38820022
 0.58189153, 0.48250359
 0.68016131, 0.5434956
 0.56744497, 0.51789725
 0.4194524, 0.31692153
 0.29430538, 0.14064208
 0.27179576, 0.12728986
 0.22257691, 0.0930334
 0.15622375, 0.06842533
 0.16697466, 0.07476653
 0.14681676, 0.07864591
 0.15605583, 0.11079684
 0.35461118, 0.25502604
 0.65093235, 0.55145532
 0.62943052, 0.52672178
 0.48748532, 0.46862718
 0.53048888, 0.4481926
 0.48765333, 0.45489666
 0.49538046, 0.40726995
 0.46413571, 0.4243494
 0.5116748, 0.48004118
 0.51604231, 0.45183718
 0.4194524, 0.37373132
 0.38585593, 0.36998296
 0.41138924, 0.43051362
 0.55434233, 0.49214923
 0.60322524, 0.53418839
 0.60675288, 0.50764424
 0.49487652, 0.36998296
 0.26541246, 0.18805856
 0.2563414, 0.14808962
 0.22660849, 0.11619551
 0.1387536, 0.10574469
 0.14278518, 0.09124482
 0.12161938, 0.08185956
 0.1409374, 0.09717049
 0.36989752, 0.250128
 0.68503277, 0.55332923
 0.67864946, 0.53151125
 0.53250467, 0.48021108
 0.50461954, 0.44253075
 0.480934, 0.41629142
 0.44985727, 0.41914213
 0.47320677, 0.41201425
 0.56290944, 0.48418224
 0.53317653, 0.46175686
 0.48009412, 0.42212743
 0.43373094, 0.36998296
 0.50747521, 0.39969391
 0.47975809, 0.48588687
 0.56862088, 0.50754881
 0.55165468, 0.48144844
 0.42549977, 0.35569942
 0.26994798, 0.17444971
 0.34789184, 0.16188602
 0.2447506, 0.13867511
 0.17974137, 0.12595806
 0.17235007, 0.10422784
 0.15924743, 0.09869373
 0.14144135, 0.08391695
 0.1705023, 0.13417648
 0.31614314, 0.20043224
 0.52595335, 0.2708506
 0.66151525, 0.55714637
 0.98286578, 0.69366151
 0.86813375, 0.81609452
 0.80127664, 0.67003298
 0.68335291, 0.60967976
 0.73038805, 0.55112463
 0.68688054, 0.54940343
 0.5943222, 0.44896102
 0.53519232, 0.46649653
 0.53552835, 0.48170397
 0.51066691, 0.51244956
 0.49874018, 0.51821822
 0.51402652, 0.46542144
 0.40634976, 0.40562654
 0.2775072, 0.3551136
 0.33764487, 0.19106998
 0.24559048, 0.14498042
 0.15420796, 0.14577201
 0.14664874, 0.12154141
 0.11473213, 0.1409322
 0.10784478, 0.13897735
 0.11909964, 0.20018971
 0.19536374, 0.23661752
 0.37493699, 0.30295926
 0.59650601, 0.6530363
 0.93247103, 0.84385657
 1., 0.88607228
 0.90744166, 0.83646107
 0.7616328, 0.75589085
 0.71745343, 0.68403095
 0.59449022, 0.55911726
 0.47690242, 0.48786196
 0.45304887, 0.45104218
 0.49554848, 0.46987835
 0.56425337, 0.52438277
 0.58306734, 0.6150806
 0.60557707, 0.56085181
 0.43793044, 0.38474816
 0.29564931, 0.20938006
 0.29581723, 0.14789428
 0.25197379, 0.11845833
 0.15017638, 0.10160397
 0.17016636, 0.08986862
 0.11574003, 0.08306825
 0.1906602, 0.12594055
 0.34066856, 0.21937037
 0.66773053, 0.32090676
 0.68620868, 0.48723093
 0.52813706, 0.52020967
 0.57483626, 0.61262995
 0.55518231, 0.52748418
 0.53804809, 0.53164715
 0.5699647, 0.49542323
 0.58945074, 0.52558053
 0.5392239, 0.45875219
 0.43289096, 0.4182601
 0.44733753, 0.36998296
 0.53351256, 0.43259084
 0.57802787, 0.52792144
 0.74029898, 0.53484666
 0.6133042, 0.522448
 0.43826647, 0.2883023
 0.27448351, 0.13357015
 0.25701326, 0.11855444
 0.23181588, 0.09390555
 0.12346716, 0.07756533
 0.12195531, 0.08789818
 0.1175878, 0.09469156
 0.13791372, 0.1885629
 0.34285237, 0.29314852
 0.70115909, 0.5594148
 0.71039816, 0.53313512
 0.4957165, 0.46672928
 0.50865112, 0.44442272
 0.46531163, 0.42392236
 0.48160596, 0.40563446
 0.49269281, 0.37634271
 0.55484628, 0.47482955
 0.51671428, 0.44853333
 0.42465989, 0.3793233
 0.41256515, 0.36998296
 0.49773229, 0.44381785
 0.53905599, 0.50572449
 0.75054595, 0.54622012
 0.69057619, 0.5227623
 0.51621033, 0.30198669
 0.3453721, 0.13659368
