tar,out
 0.27717116, 0.16695368
 0.2425668, 0.1197744
 0.12968254, 0.11434926
 0.12968254, 0.07967712
 0.11809175, 0.08788963
 0.14261716, 0.10166396
 0.3537712, 0.23410884
 0.66756262, 0.54107136
 0.67864946, 0.55049318
 0.51150679, 0.4747645
 0.65261211, 0.46922135
 0.66252314, 0.45586663
 0.47975809, 0.46354687
 0.48278177, 0.45982951
 0.54409546, 0.48515135
 0.50932308, 0.4761557
 0.41038134, 0.4030917
 0.39845461, 0.39231893
 0.48210991, 0.42247632
 0.57282047, 0.49288109
 0.67579369, 0.48477149
 0.65630776, 0.47060812
 0.43759451, 0.39995331
 0.29380143, 0.22343367
 0.2733076, 0.19185391
 0.23064007, 0.14182341
 0.13539398, 0.12089409
 0.13270623, 0.08774689
 0.13119438, 0.09472974
 0.1557198, 0.12920353
 0.33915672, 0.21001145
 0.67596171, 0.55389762
 0.65714763, 0.55359733
 0.51066691, 0.46803385
 0.50277176, 0.46243864
 0.51285071, 0.44567901
 0.44784148, 0.44306493
 0.47841426, 0.40914881
 0.57080468, 0.46337053
 0.55249456, 0.46629936
 0.46228794, 0.39139
 0.44045018, 0.38481197
 0.50243573, 0.41482371
 0.58189153, 0.48909971
 0.68016131, 0.53112912
 0.56744497, 0.53225595
 0.4194524, 0.39065629
 0.29430538, 0.17249082
 0.27179576, 0.16404785
 0.22257691, 0.13340327
 0.15622375, 0.11663589
 0.16697466, 0.10064454
 0.14681676, 0.10776387
 0.15605583, 0.15713289
 0.35461118, 0.27975297
 0.65093235, 0.55246949
 0.62943052, 0.53168809
 0.48748532, 0.46996763
 0.53048888, 0.46048081
 0.48765333, 0.44954285
 0.49538046, 0.44772142
 0.46413571, 0.45613676
 0.5116748, 0.46582749
 0.51604231, 0.445645
 0.4194524, 0.37687781
 0.38585593, 0.37080246
 0.41138924, 0.45490041
 0.55434233, 0.49260825
 0.60322524, 0.52548999
 0.60675288, 0.52056456
 0.49487652, 0.40499294
 0.26541246, 0.19379838
 0.2563414, 0.16246165
 0.22660849, 0.12117702
 0.1387536, 0.1169613
 0.14278518, 0.09552267
 0.12161938, 0.08969408
 0.1409374, 0.09405476
 0.36989752, 0.29899591
 0.68503277, 0.55640829
 0.67864946, 0.5331915
 0.53250467, 0.46462128
 0.50461954, 0.46717498
 0.480934, 0.45967299
 0.44985727, 0.41971475
 0.47320677, 0.45139349
 0.56290944, 0.4679299
 0.53317653, 0.47747639
 0.48009412, 0.4018476
 0.43373094, 0.39232895
 0.50747521, 0.44320548
 0.47975809, 0.4933773
 0.56862088, 0.52947319
 0.55165468, 0.48870319
 0.42549977, 0.39086354
 0.26994798, 0.20475377
 0.34789184, 0.19556107
 0.2447506, 0.15165339
 0.17974137, 0.15015146
 0.17235007, 0.10527994
 0.15924743, 0.1188067
 0.14144135, 0.10138069
 0.1705023, 0.1840719
 0.31614314, 0.21966675
 0.52595335, 0.40223318
 0.66151525, 0.53969359
 0.98286578, 0.65620327
 0.86813375, 0.74884593
 0.80127664, 0.58759028
 0.68335291, 0.53276509
 0.73038805, 0.54321766
 0.68688054, 0.52203429
 0.5943222, 0.46467689
 0.53519232, 0.46761662
 0.53552835, 0.48890391
 0.51066691, 0.45830053
 0.49874018, 0.47379231
 0.51402652, 0.46431917
 0.40634976, 0.48024523
 0.2775072, 0.4670414
 0.33764487, 0.37620112
 0.24559048, 0.20037782
 0.15420796, 0.17608821
 0.14664874, 0.13060249
 0.11473213, 0.10814887
 0.10784478, 0.12258901
 0.11909964, 0.16439202
 0.19536374, 0.21955037
 0.37493699, 0.3277491
 0.59650601, 0.57574236
 0.93247103, 0.78806424
 1., 0.83483911
 0.90744166, 0.77327275
 0.7616328, 0.70199364
 0.71745343, 0.64730513
 0.59449022, 0.53414023
 0.47690242, 0.48195508
 0.45304887, 0.44424501
 0.49554848, 0.46648303
 0.56425337, 0.50457078
 0.58306734, 0.57903361
 0.60557707, 0.53334343
 0.43793044, 0.40354675
 0.29564931, 0.26080883
 0.29581723, 0.16242518
 0.25197379, 0.11243233
 0.15017638, 0.12732548
 0.17016636, 0.10529485
 0.11574003, 0.09608778
 0.1906602, 0.12514591
 0.34066856, 0.1852971
 0.66773053, 0.31335434
 0.68620868, 0.52878416
 0.52813706, 0.51118016
 0.57483626, 0.57368791
 0.55518231, 0.55462503
 0.53804809, 0.50077748
 0.5699647, 0.46009579
 0.58945074, 0.49816465
 0.5392239, 0.48505294
 0.43289096, 0.42275548
 0.44733753, 0.41696498
 0.53351256, 0.4601289
 0.57802787, 0.52085787
 0.74029898, 0.52192062
 0.6133042, 0.51842076
 0.43826647, 0.39804351
 0.27448351, 0.18060389
 0.25701326, 0.15814014
 0.23181588, 0.10809383
 0.12346716, 0.10884474
 0.12195531, 0.11244419
 0.1175878, 0.12529294
 0.13791372, 0.19353497
 0.34285237, 0.27826521
 0.70115909, 0.54041052
 0.71039816, 0.49642524
 0.4957165, 0.46660691
 0.50865112, 0.45404375
 0.46531163, 0.44435966
 0.48160596, 0.44291517
 0.49269281, 0.45476982
 0.55484628, 0.47812673
 0.51671428, 0.45974821
 0.42465989, 0.39618427
 0.41256515, 0.3765288
 0.49773229, 0.45988715
 0.53905599, 0.49628267
 0.75054595, 0.52685171
 0.69057619, 0.52181959
 0.51621033, 0.41126069
 0.3453721, 0.15267274
