tar,out
 0.27717116, 0.15617274
 0.2425668, 0.11385055
 0.12968254, 0.06869943
 0.12968254, 0.07654446
 0.11809175, 0.0526371
 0.14261716, 0.06795049
 0.3537712, 0.22113493
 0.66756262, 0.50880301
 0.67864946, 0.52644068
 0.51150679, 0.50563169
 0.65261211, 0.45037964
 0.66252314, 0.42926627
 0.47975809, 0.44495997
 0.48278177, 0.42913419
 0.54409546, 0.48065734
 0.50932308, 0.43798453
 0.41038134, 0.38061348
 0.39845461, 0.36048904
 0.48210991, 0.38320559
 0.57282047, 0.4992134
 0.67579369, 0.5158456
 0.65630776, 0.51574785
 0.43759451, 0.36431682
 0.29380143, 0.21369267
 0.2733076, 0.15267235
 0.23064007, 0.11960702
 0.13539398, 0.08575627
 0.13270623, 0.09170091
 0.13119438, 0.08526695
 0.1557198, 0.11638552
 0.33915672, 0.2835384
 0.67596171, 0.5251565
 0.65714763, 0.53226256
 0.51066691, 0.44046217
 0.50277176, 0.42696273
 0.51285071, 0.42638218
 0.44784148, 0.39216554
 0.47841426, 0.37631917
 0.57080468, 0.47357816
 0.55249456, 0.43955952
 0.46228794, 0.36354488
 0.44045018, 0.34976998
 0.50243573, 0.36733529
 0.58189153, 0.46982646
 0.68016131, 0.52289116
 0.56744497, 0.50185257
 0.4194524, 0.35463107
 0.29430538, 0.17326063
 0.27179576, 0.14951979
 0.22257691, 0.10493325
 0.15622375, 0.07792954
 0.16697466, 0.07947209
 0.14681676, 0.07512361
 0.15605583, 0.10570005
 0.35461118, 0.26058871
 0.65093235, 0.53696209
 0.62943052, 0.53785205
 0.48748532, 0.4595468
 0.53048888, 0.42776659
 0.48765333, 0.47550189
 0.49538046, 0.39014193
 0.46413571, 0.425843
 0.5116748, 0.46816188
 0.51604231, 0.42603087
 0.4194524, 0.37036014
 0.38585593, 0.36597222
 0.41138924, 0.40845218
 0.55434233, 0.4999015
 0.60322524, 0.52200484
 0.60675288, 0.51798677
 0.49487652, 0.35546976
 0.26541246, 0.21991116
 0.2563414, 0.1736356
 0.22660849, 0.12787388
 0.1387536, 0.10328197
 0.14278518, 0.08776698
 0.12161938, 0.09373617
 0.1409374, 0.07179558
 0.36989752, 0.27033153
 0.68503277, 0.54635894
 0.67864946, 0.52714306
 0.53250467, 0.43980187
 0.50461954, 0.43680131
 0.480934, 0.43444112
 0.44985727, 0.39395025
 0.47320677, 0.43953311
 0.56290944, 0.46818376
 0.53317653, 0.45851299
 0.48009412, 0.37401527
 0.43373094, 0.36216336
 0.50747521, 0.36699724
 0.47975809, 0.4819935
 0.56862088, 0.51422966
 0.55165468, 0.51040339
 0.42549977, 0.31084117
 0.26994798, 0.20128551
 0.34789184, 0.17270224
 0.2447506, 0.15666024
 0.17974137, 0.12238914
 0.17235007, 0.10807878
 0.15924743, 0.08710043
 0.14144135, 0.10629059
 0.1705023, 0.15054204
 0.31614314, 0.18971583
 0.52595335, 0.41092753
 0.66151525, 0.57337314
 0.98286578, 0.64884591
 0.86813375, 0.73881912
 0.80127664, 0.65409625
 0.68335291, 0.58554399
 0.73038805, 0.57385051
 0.68688054, 0.51848257
 0.5943222, 0.47431165
 0.53519232, 0.46250725
 0.53552835, 0.47005308
 0.51066691, 0.48171121
 0.49874018, 0.54700029
 0.51402652, 0.45751792
 0.40634976, 0.37532938
 0.2775072, 0.43555525
 0.33764487, 0.21702844
 0.24559048, 0.19790107
 0.15420796, 0.15369038
 0.14664874, 0.15723932
 0.11473213, 0.14255512
 0.10784478, 0.13635416
 0.11909964, 0.1486178
 0.19536374, 0.16691779
 0.37493699, 0.31602052
 0.59650601, 0.56625807
 0.93247103, 0.7917546
 1., 0.81434089
 0.90744166, 0.83595002
 0.7616328, 0.73299342
 0.71745343, 0.65477902
 0.59449022, 0.54520077
 0.47690242, 0.49429747
 0.45304887, 0.40946835
 0.49554848, 0.42575541
 0.56425337, 0.51897329
 0.58306734, 0.59780669
 0.60557707, 0.56181562
 0.43793044, 0.36998785
 0.29564931, 0.20475535
 0.29581723, 0.15729649
 0.25197379, 0.10107917
 0.15017638, 0.10422455
 0.17016636, 0.09288943
 0.11574003, 0.1105642
 0.1906602, 0.13227399
 0.34066856, 0.19540004
 0.66773053, 0.37329197
 0.68620868, 0.49950922
 0.52813706, 0.48990011
 0.57483626, 0.51160395
 0.55518231, 0.50737262
 0.53804809, 0.4709523
 0.5699647, 0.47660619
 0.58945074, 0.47900581
 0.5392239, 0.45275271
 0.43289096, 0.38507766
 0.44733753, 0.37726727
 0.53351256, 0.43531322
 0.57802787, 0.50585288
 0.74029898, 0.52014667
 0.6133042, 0.51234221
 0.43826647, 0.37072489
 0.27448351, 0.15379128
 0.25701326, 0.12109832
 0.23181588, 0.1011419
 0.12346716, 0.08974706
 0.12195531, 0.09665978
 0.1175878, 0.08054642
 0.13791372, 0.14970435
 0.34285237, 0.28642964
 0.70115909, 0.53989208
 0.71039816, 0.53183347
 0.4957165, 0.43526751
 0.50865112, 0.42471862
 0.46531163, 0.46185243
 0.48160596, 0.39278674
 0.49269281, 0.40512359
 0.55484628, 0.46427226
 0.51671428, 0.43183285
 0.42465989, 0.37581411
 0.41256515, 0.36262119
 0.49773229, 0.40828815
 0.53905599, 0.50066835
 0.75054595, 0.51355243
 0.69057619, 0.51678127
 0.51621033, 0.3514367
 0.3453721, 0.18057346
