tar,out
 0.27717116, 0.1268692
 0.2425668, 0.08443956
 0.12968254, 0.07365963
 0.12968254, 0.05460286
 0.11809175, 0.05595192
 0.14261716, 0.07259281
 0.3537712, 0.22342426
 0.66756262, 0.51498979
 0.67864946, 0.52652323
 0.51150679, 0.42649484
 0.65261211, 0.49046794
 0.66252314, 0.43200737
 0.47975809, 0.47198284
 0.48278177, 0.47914174
 0.54409546, 0.48754999
 0.50932308, 0.43733516
 0.41038134, 0.37886909
 0.39845461, 0.37576842
 0.48210991, 0.396734
 0.57282047, 0.49671763
 0.67579369, 0.48243523
 0.65630776, 0.48904678
 0.43759451, 0.35595477
 0.29380143, 0.20658627
 0.2733076, 0.13616599
 0.23064007, 0.09373115
 0.13539398, 0.07056361
 0.13270623, 0.07342425
 0.13119438, 0.05934879
 0.1557198, 0.11479315
 0.33915672, 0.27989551
 0.67596171, 0.5390656
 0.65714763, 0.53970343
 0.51066691, 0.40369245
 0.50277176, 0.45666796
 0.51285071, 0.423574
 0.44784148, 0.43619153
 0.47841426, 0.40482152
 0.57080468, 0.46476281
 0.55249456, 0.41893625
 0.46228794, 0.37251911
 0.44045018, 0.35496712
 0.50243573, 0.3994177
 0.58189153, 0.48259348
 0.68016131, 0.51755738
 0.56744497, 0.50685948
 0.4194524, 0.36778048
 0.29430538, 0.17306255
 0.27179576, 0.13712379
 0.22257691, 0.10676683
 0.15622375, 0.06400844
 0.16697466, 0.06538916
 0.14681676, 0.07778758
 0.15605583, 0.09187599
 0.35461118, 0.28509617
 0.65093235, 0.52397698
 0.62943052, 0.52745068
 0.48748532, 0.40978441
 0.53048888, 0.47350904
 0.48765333, 0.44735816
 0.49538046, 0.4298256
 0.46413571, 0.39930198
 0.5116748, 0.4751806
 0.51604231, 0.41319093
 0.4194524, 0.3661733
 0.38585593, 0.37752125
 0.41138924, 0.40435708
 0.55434233, 0.48248619
 0.60322524, 0.49893814
 0.60675288, 0.50420189
 0.49487652, 0.36374292
 0.26541246, 0.2031621
 0.2563414, 0.14087743
 0.22660849, 0.11159785
 0.1387536, 0.07818085
 0.14278518, 0.06195167
 0.12161938, 0.07085761
 0.1409374, 0.06605604
 0.36989752, 0.23478845
 0.68503277, 0.5315361
 0.67864946, 0.53368568
 0.53250467, 0.43022451
 0.50461954, 0.45252347
 0.480934, 0.41685006
 0.44985727, 0.42760369
 0.47320677, 0.418623
 0.56290944, 0.46705085
 0.53317653, 0.42595989
 0.48009412, 0.38916743
 0.43373094, 0.36858362
 0.50747521, 0.4030112
 0.47975809, 0.49565554
 0.56862088, 0.4980745
 0.55165468, 0.48854315
 0.42549977, 0.36673039
 0.26994798, 0.19150411
 0.34789184, 0.15291812
 0.2447506, 0.13637294
 0.17974137, 0.12558198
 0.17235007, 0.09074327
 0.15924743, 0.1003412
 0.14144135, 0.08912803
 0.1705023, 0.11817294
 0.31614314, 0.15153728
 0.52595335, 0.38188469
 0.66151525, 0.58233821
 0.98286578, 0.69402891
 0.86813375, 0.8189702
 0.80127664, 0.69468576
 0.68335291, 0.61967087
 0.73038805, 0.67125905
 0.68688054, 0.53644073
 0.5943222, 0.45693463
 0.53519232, 0.49013734
 0.53552835, 0.4873544
 0.51066691, 0.45696756
 0.49874018, 0.48803005
 0.51402652, 0.43738225
 0.40634976, 0.39368558
 0.2775072, 0.41924086
 0.33764487, 0.22390778
 0.24559048, 0.21766128
 0.15420796, 0.13401076
 0.14664874, 0.11167054
 0.11473213, 0.10355012
 0.10784478, 0.10543114
 0.11909964, 0.19079039
 0.19536374, 0.23393418
 0.37493699, 0.30661374
 0.59650601, 0.61387545
 0.93247103, 0.83573472
 1., 0.91579926
 0.90744166, 0.83002913
 0.7616328, 0.74469173
 0.71745343, 0.70176589
 0.59449022, 0.5556528
 0.47690242, 0.47128025
 0.45304887, 0.40634042
 0.49554848, 0.43296155
 0.56425337, 0.51382732
 0.58306734, 0.56185782
 0.60557707, 0.54295045
 0.43793044, 0.38600826
 0.29564931, 0.21286935
 0.29581723, 0.13810533
 0.25197379, 0.12309657
 0.15017638, 0.11835505
 0.17016636, 0.07908519
 0.11574003, 0.09484909
 0.1906602, 0.10187586
 0.34066856, 0.15308169
 0.66773053, 0.33066729
 0.68620868, 0.52588165
 0.52813706, 0.49751717
 0.57483626, 0.56097138
 0.55518231, 0.51132667
 0.53804809, 0.48335481
 0.5699647, 0.46910489
 0.58945074, 0.49203339
 0.5392239, 0.4554863
 0.43289096, 0.39972195
 0.44733753, 0.37332064
 0.53351256, 0.42127436
 0.57802787, 0.51688129
 0.74029898, 0.51645494
 0.6133042, 0.52411848
 0.43826647, 0.35454741
 0.27448351, 0.19777653
 0.25701326, 0.15538833
 0.23181588, 0.09157027
 0.12346716, 0.07616155
 0.12195531, 0.05715135
 0.1175878, 0.08772536
 0.13791372, 0.13575788
 0.34285237, 0.30574888
 0.70115909, 0.53100026
 0.71039816, 0.52504134
 0.4957165, 0.4197574
 0.50865112, 0.47890681
 0.46531163, 0.43521488
 0.48160596, 0.4385716
 0.49269281, 0.3889887
 0.55484628, 0.4661485
 0.51671428, 0.42362002
 0.42465989, 0.37078196
 0.41256515, 0.37350193
 0.49773229, 0.39862061
 0.53905599, 0.48514581
 0.75054595, 0.48345032
 0.69057619, 0.52641183
 0.51621033, 0.3568387
 0.3453721, 0.17459172
