tar,out
 0.27717116, 0.16262522
 0.2425668, 0.12103537
 0.12968254, 0.1167084
 0.12968254, 0.07814954
 0.11809175, 0.09268589
 0.14261716, 0.10142399
 0.3537712, 0.1891937
 0.66756262, 0.51052058
 0.67864946, 0.55587739
 0.51150679, 0.48452225
 0.65261211, 0.45998091
 0.66252314, 0.44416401
 0.47975809, 0.45175606
 0.48278177, 0.44881684
 0.54409546, 0.47462276
 0.50932308, 0.43517697
 0.41038134, 0.39670619
 0.39845461, 0.36486113
 0.48210991, 0.39974606
 0.57282047, 0.49070433
 0.67579369, 0.49769619
 0.65630776, 0.49873322
 0.43759451, 0.37629575
 0.29380143, 0.20875125
 0.2733076, 0.17558622
 0.23064007, 0.14485654
 0.13539398, 0.14084086
 0.13270623, 0.1051784
 0.13119438, 0.1345108
 0.1557198, 0.15077902
 0.33915672, 0.21622606
 0.67596171, 0.52886009
 0.65714763, 0.55236161
 0.51066691, 0.4458397
 0.50277176, 0.43554258
 0.51285071, 0.43505427
 0.44784148, 0.44161969
 0.47841426, 0.44027495
 0.57080468, 0.46085864
 0.55249456, 0.42661545
 0.46228794, 0.37589139
 0.44045018, 0.33848372
 0.50243573, 0.39642233
 0.58189153, 0.49546123
 0.68016131, 0.5328021
 0.56744497, 0.52942097
 0.4194524, 0.35410681
 0.29430538, 0.18105005
 0.27179576, 0.15358675
 0.22257691, 0.14413233
 0.15622375, 0.10309277
 0.16697466, 0.10464646
 0.14681676, 0.11161295
 0.15605583, 0.14845949
 0.35461118, 0.2114239
 0.65093235, 0.5335685
 0.62943052, 0.53395355
 0.48748532, 0.48546958
 0.53048888, 0.4570719
 0.48765333, 0.45136523
 0.49538046, 0.44102988
 0.46413571, 0.43513462
 0.5116748, 0.45345119
 0.51604231, 0.41881508
 0.4194524, 0.3633284
 0.38585593, 0.3576017
 0.41138924, 0.40153605
 0.55434233, 0.4815858
 0.60322524, 0.51331913
 0.60675288, 0.52050525
 0.49487652, 0.35134158
 0.26541246, 0.20212162
 0.2563414, 0.17754844
 0.22660849, 0.13851698
 0.1387536, 0.11678343
 0.14278518, 0.08669619
 0.12161938, 0.09688604
 0.1409374, 0.11054932
 0.36989752, 0.20013879
 0.68503277, 0.53043449
 0.67864946, 0.53808212
 0.53250467, 0.46178895
 0.50461954, 0.46221107
 0.480934, 0.43557554
 0.44985727, 0.44485879
 0.47320677, 0.44852877
 0.56290944, 0.46833456
 0.53317653, 0.43754309
 0.48009412, 0.39695594
 0.43373094, 0.3730658
 0.50747521, 0.39928967
 0.47975809, 0.48848063
 0.56862088, 0.51881671
 0.55165468, 0.51442897
 0.42549977, 0.36104029
 0.26994798, 0.19615074
 0.34789184, 0.18445233
 0.2447506, 0.16855569
 0.17974137, 0.14588167
 0.17235007, 0.12002978
 0.15924743, 0.1319304
 0.14144135, 0.12876162
 0.1705023, 0.1722438
 0.31614314, 0.20096311
 0.52595335, 0.36430418
 0.66151525, 0.58632541
 0.98286578, 0.71654391
 0.86813375, 0.74309927
 0.80127664, 0.61578774
 0.68335291, 0.59214503
 0.73038805, 0.57180524
 0.68688054, 0.51321638
 0.5943222, 0.46552563
 0.53519232, 0.44930309
 0.53552835, 0.49727482
 0.51066691, 0.47290215
 0.49874018, 0.5000267
 0.51402652, 0.45252088
 0.40634976, 0.44985747
 0.2775072, 0.39065534
 0.33764487, 0.30876049
 0.24559048, 0.19850156
 0.15420796, 0.16638337
 0.14664874, 0.15710039
 0.11473213, 0.13980468
 0.10784478, 0.14305279
 0.11909964, 0.15705469
 0.19536374, 0.1802377
 0.37493699, 0.23724999
 0.59650601, 0.59537542
 0.93247103, 0.79948086
 1., 0.84786409
 0.90744166, 0.78488714
 0.7616328, 0.67804682
 0.71745343, 0.62205523
 0.59449022, 0.55926836
 0.47690242, 0.47929013
 0.45304887, 0.43632621
 0.49554848, 0.43888587
 0.56425337, 0.49644732
 0.58306734, 0.56252903
 0.60557707, 0.50741148
 0.43793044, 0.37318492
 0.29564931, 0.19211608
 0.29581723, 0.16172516
 0.25197379, 0.13722825
 0.15017638, 0.13946466
 0.17016636, 0.11464655
 0.11574003, 0.12470855
 0.1906602, 0.13079622
 0.34066856, 0.1896185
 0.66773053, 0.46005303
 0.68620868, 0.51448244
 0.52813706, 0.51348948
 0.57483626, 0.58760428
 0.55518231, 0.50276053
 0.53804809, 0.46564478
 0.5699647, 0.45684212
 0.58945074, 0.48308903
 0.5392239, 0.44110751
 0.43289096, 0.40357223
 0.44733753, 0.37611672
 0.53351256, 0.40018833
 0.57802787, 0.49720252
 0.74029898, 0.50474572
 0.6133042, 0.48847991
 0.43826647, 0.34471864
 0.27448351, 0.17499337
 0.25701326, 0.14576575
 0.23181588, 0.1326357
 0.12346716, 0.09526053
 0.12195531, 0.11826491
 0.1175878, 0.12755337
 0.13791372, 0.16896485
 0.34285237, 0.244504
 0.70115909, 0.51823604
 0.71039816, 0.5195418
 0.4957165, 0.46558264
 0.50865112, 0.44146252
 0.46531163, 0.44298065
 0.48160596, 0.43664867
 0.49269281, 0.43389004
 0.55484628, 0.45149231
 0.51671428, 0.4263151
 0.42465989, 0.37019509
 0.41256515, 0.37159139
 0.49773229, 0.39847094
 0.53905599, 0.46848053
 0.75054595, 0.53000551
 0.69057619, 0.47621185
 0.51621033, 0.35403231
 0.3453721, 0.17647219
