tar,out
 0.27717116, 0.1515646
 0.2425668, 0.11318228
 0.12968254, 0.07675274
 0.12968254, 0.06940152
 0.11809175, 0.04879086
 0.14261716, 0.06323129
 0.3537712, 0.19874048
 0.66756262, 0.48224527
 0.67864946, 0.55403179
 0.51150679, 0.47292298
 0.65261211, 0.44081563
 0.66252314, 0.43673068
 0.47975809, 0.4352316
 0.48278177, 0.44782621
 0.54409546, 0.4568415
 0.50932308, 0.42684829
 0.41038134, 0.38525748
 0.39845461, 0.36622742
 0.48210991, 0.40462732
 0.57282047, 0.45725971
 0.67579369, 0.48396903
 0.65630776, 0.48909676
 0.43759451, 0.35998344
 0.29380143, 0.19828114
 0.2733076, 0.16709402
 0.23064007, 0.13678081
 0.13539398, 0.10584591
 0.13270623, 0.08190146
 0.13119438, 0.08913939
 0.1557198, 0.09247373
 0.33915672, 0.23514026
 0.67596171, 0.53655678
 0.65714763, 0.54409754
 0.51066691, 0.44400638
 0.50277176, 0.43208686
 0.51285071, 0.4227888
 0.44784148, 0.4227888
 0.47841426, 0.43468609
 0.57080468, 0.44371516
 0.55249456, 0.42476529
 0.46228794, 0.36230874
 0.44045018, 0.361404
 0.50243573, 0.40557015
 0.58189153, 0.45821917
 0.68016131, 0.52971548
 0.56744497, 0.52130657
 0.4194524, 0.38107759
 0.29430538, 0.16076806
 0.27179576, 0.14440133
 0.22257691, 0.12301705
 0.15622375, 0.08717088
 0.16697466, 0.07954147
 0.14681676, 0.07822163
 0.15605583, 0.12146878
 0.35461118, 0.24359281
 0.65093235, 0.53612304
 0.62943052, 0.53908706
 0.48748532, 0.44398883
 0.53048888, 0.45495999
 0.48765333, 0.42694917
 0.49538046, 0.42597079
 0.46413571, 0.44428682
 0.5116748, 0.43366128
 0.51604231, 0.42199945
 0.4194524, 0.36622366
 0.38585593, 0.37214708
 0.41138924, 0.40857923
 0.55434233, 0.46384138
 0.60322524, 0.51725948
 0.60675288, 0.51761574
 0.49487652, 0.34491223
 0.26541246, 0.19678348
 0.2563414, 0.17061916
 0.22660849, 0.12810563
 0.1387536, 0.09396397
 0.14278518, 0.07713421
 0.12161938, 0.07715981
 0.1409374, 0.06812204
 0.36989752, 0.2191433
 0.68503277, 0.51292956
 0.67864946, 0.51736563
 0.53250467, 0.42200601
 0.50461954, 0.43056256
 0.480934, 0.41978335
 0.44985727, 0.42649803
 0.47320677, 0.44160855
 0.56290944, 0.46283066
 0.53317653, 0.43755341
 0.48009412, 0.38763869
 0.43373094, 0.38105917
 0.50747521, 0.40051848
 0.47975809, 0.46619976
 0.56862088, 0.51679772
 0.55165468, 0.493213
 0.42549977, 0.34889114
 0.26994798, 0.18755119
 0.34789184, 0.17673847
 0.2447506, 0.15006062
 0.17974137, 0.12894051
 0.17235007, 0.10404825
 0.15924743, 0.09996325
 0.14144135, 0.09436543
 0.1705023, 0.1662789
 0.31614314, 0.22073784
 0.52595335, 0.3821063
 0.66151525, 0.54893869
 0.98286578, 0.68477392
 0.86813375, 0.79014111
 0.80127664, 0.58746487
 0.68335291, 0.59571862
 0.73038805, 0.55637884
 0.68688054, 0.51724988
 0.5943222, 0.44048303
 0.53519232, 0.42049548
 0.53552835, 0.49181646
 0.51066691, 0.4817878
 0.49874018, 0.50391805
 0.51402652, 0.46179533
 0.40634976, 0.40709159
 0.2775072, 0.39907718
 0.33764487, 0.30449107
 0.24559048, 0.18018401
 0.15420796, 0.15220305
 0.14664874, 0.13380191
 0.11473213, 0.13859062
 0.10784478, 0.13844243
 0.11909964, 0.16137934
 0.19536374, 0.17583574
 0.37493699, 0.28346217
 0.59650601, 0.55010867
 0.93247103, 0.75567001
 1., 0.83745825
 0.90744166, 0.79179156
 0.7616328, 0.67695743
 0.71745343, 0.62887603
 0.59449022, 0.52933472
 0.47690242, 0.45602769
 0.45304887, 0.4186818
 0.49554848, 0.43420231
 0.56425337, 0.49215224
 0.58306734, 0.59053755
 0.60557707, 0.51312268
 0.43793044, 0.40916711
 0.29564931, 0.19935995
 0.29581723, 0.16353074
 0.25197379, 0.12887809
 0.15017638, 0.11935412
 0.17016636, 0.09815563
 0.11574003, 0.10254429
 0.1906602, 0.12628895
 0.34066856, 0.1766029
 0.66773053, 0.31443927
 0.68620868, 0.46961945
 0.52813706, 0.49069637
 0.57483626, 0.55880475
 0.55518231, 0.49890465
 0.53804809, 0.46947962
 0.5699647, 0.44846287
 0.58945074, 0.46720859
 0.5392239, 0.43237457
 0.43289096, 0.39035422
 0.44733753, 0.38406652
 0.53351256, 0.41136146
 0.57802787, 0.46853048
 0.74029898, 0.50943577
 0.6133042, 0.49915338
 0.43826647, 0.40322143
 0.27448351, 0.15176558
 0.25701326, 0.1131552
 0.23181588, 0.10578699
 0.12346716, 0.07146291
 0.12195531, 0.10462692
 0.1175878, 0.08118235
 0.13791372, 0.15299132
 0.34285237, 0.2804893
 0.70115909, 0.52373606
 0.71039816, 0.52363104
 0.4957165, 0.45858246
 0.50865112, 0.45334077
 0.46531163, 0.42646658
 0.48160596, 0.42453274
 0.49269281, 0.44545352
 0.55484628, 0.42965168
 0.51671428, 0.42175406
 0.42465989, 0.36360604
 0.41256515, 0.3654747
 0.49773229, 0.41173741
 0.53905599, 0.45349079
 0.75054595, 0.51921242
 0.69057619, 0.50973916
 0.51621033, 0.41903973
 0.3453721, 0.16356915
