tar,out
 0.27717116, 0.15002999
 0.2425668, 0.12742774
 0.12968254, 0.11450931
 0.12968254, 0.10053153
 0.11809175, 0.0990525
 0.14261716, 0.11170144
 0.3537712, 0.24189281
 0.66756262, 0.56544065
 0.67864946, 0.57909024
 0.51150679, 0.48132515
 0.65261211, 0.48292589
 0.66252314, 0.45095828
 0.47975809, 0.47891435
 0.48278177, 0.47955263
 0.54409546, 0.50260937
 0.50932308, 0.46179554
 0.41038134, 0.41330349
 0.39845461, 0.39132535
 0.48210991, 0.41229916
 0.57282047, 0.50340533
 0.67579369, 0.48538613
 0.65630776, 0.51466835
 0.43759451, 0.38949713
 0.29380143, 0.21644831
 0.2733076, 0.16377273
 0.23064007, 0.13267247
 0.13539398, 0.1205629
 0.13270623, 0.11526042
 0.13119438, 0.11064656
 0.1557198, 0.13456841
 0.33915672, 0.27986646
 0.67596171, 0.58037925
 0.65714763, 0.5633443
 0.51066691, 0.47314322
 0.50277176, 0.4706603
 0.51285071, 0.47318646
 0.44784148, 0.44587147
 0.47841426, 0.42335069
 0.57080468, 0.48246527
 0.55249456, 0.45330012
 0.46228794, 0.40322691
 0.44045018, 0.39870876
 0.50243573, 0.41973931
 0.58189153, 0.48113334
 0.68016131, 0.53590494
 0.56744497, 0.51425397
 0.4194524, 0.38270506
 0.29430538, 0.18685961
 0.27179576, 0.17997009
 0.22257691, 0.13229322
 0.15622375, 0.12310804
 0.16697466, 0.1000592
 0.14681676, 0.11402997
 0.15605583, 0.12440452
 0.35461118, 0.28071034
 0.65093235, 0.57926357
 0.62943052, 0.53348887
 0.48748532, 0.50178683
 0.53048888, 0.48014173
 0.48765333, 0.49760744
 0.49538046, 0.46723542
 0.46413571, 0.42904592
 0.5116748, 0.50383824
 0.51604231, 0.45345402
 0.4194524, 0.41998839
 0.38585593, 0.39369622
 0.41138924, 0.43415976
 0.55434233, 0.50121808
 0.60322524, 0.54525745
 0.60675288, 0.51940596
 0.49487652, 0.38594308
 0.26541246, 0.22724813
 0.2563414, 0.17693107
 0.22660849, 0.13451716
 0.1387536, 0.11735046
 0.14278518, 0.10921635
 0.12161938, 0.10315275
 0.1409374, 0.11670315
 0.36989752, 0.27953207
 0.68503277, 0.56703603
 0.67864946, 0.56061345
 0.53250467, 0.44679856
 0.50461954, 0.46967161
 0.480934, 0.45357788
 0.44985727, 0.44574922
 0.47320677, 0.47187045
 0.56290944, 0.48356926
 0.53317653, 0.47106487
 0.48009412, 0.40461728
 0.43373094, 0.39923212
 0.50747521, 0.40976438
 0.47975809, 0.49418628
 0.56862088, 0.53625959
 0.55165468, 0.47566831
 0.42549977, 0.39610448
 0.26994798, 0.18577476
 0.34789184, 0.1814407
 0.2447506, 0.1479077
 0.17974137, 0.14160807
 0.17235007, 0.1188606
 0.15924743, 0.12291418
 0.14144135, 0.12383457
 0.1705023, 0.14177018
 0.31614314, 0.29927462
 0.52595335, 0.43487272
 0.66151525, 0.5800662
 0.98286578, 0.65749466
 0.86813375, 0.75252992
 0.80127664, 0.64736474
 0.68335291, 0.61522317
 0.73038805, 0.58852792
 0.68688054, 0.56530869
 0.5943222, 0.48801607
 0.53519232, 0.50973862
 0.53552835, 0.50281882
 0.51066691, 0.50235718
 0.49874018, 0.51611799
 0.51402652, 0.43492997
 0.40634976, 0.45082355
 0.2775072, 0.41678724
 0.33764487, 0.31227452
 0.24559048, 0.20137101
 0.15420796, 0.15521286
 0.14664874, 0.14927694
 0.11473213, 0.12450945
 0.10784478, 0.13606411
 0.11909964, 0.16134761
 0.19536374, 0.26774666
 0.37493699, 0.3202152
 0.59650601, 0.57908064
 0.93247103, 0.78211629
 1., 0.85916364
 0.90744166, 0.82647204
 0.7616328, 0.7097137
 0.71745343, 0.6911813
 0.59449022, 0.5636068
 0.47690242, 0.49879053
 0.45304887, 0.46363461
 0.49554848, 0.48181558
 0.56425337, 0.53489709
 0.58306734, 0.61386073
 0.60557707, 0.58047432
 0.43793044, 0.40644059
 0.29564931, 0.2493562
 0.29581723, 0.13693649
 0.25197379, 0.1150561
 0.15017638, 0.11848333
 0.17016636, 0.09880786
 0.11574003, 0.11323778
 0.1906602, 0.14282599
 0.34066856, 0.24705571
 0.66773053, 0.38663602
 0.68620868, 0.52619594
 0.52813706, 0.52806425
 0.57483626, 0.57498932
 0.55518231, 0.53700817
 0.53804809, 0.50572944
 0.5699647, 0.475254
 0.58945074, 0.49493495
 0.5392239, 0.47746819
 0.43289096, 0.42078546
 0.44733753, 0.42506215
 0.53351256, 0.4330231
 0.57802787, 0.52008474
 0.74029898, 0.52025402
 0.6133042, 0.5208109
 0.43826647, 0.34941894
 0.27448351, 0.172521
 0.25701326, 0.15219152
 0.23181588, 0.12928632
 0.12346716, 0.10927184
 0.12195531, 0.11354265
 0.1175878, 0.11471304
 0.13791372, 0.15500075
 0.34285237, 0.28396979
 0.70115909, 0.55598938
 0.71039816, 0.5273807
 0.4957165, 0.50584447
 0.50865112, 0.48246861
 0.46531163, 0.46994883
 0.48160596, 0.45382658
 0.49269281, 0.41840476
 0.55484628, 0.50895101
 0.51671428, 0.44362369
 0.42465989, 0.42584008
 0.41256515, 0.38468814
 0.49773229, 0.44300348
 0.53905599, 0.49626648
 0.75054595, 0.53935099
 0.69057619, 0.54194868
 0.51621033, 0.36463302
 0.3453721, 0.17981037
