tar,out
 0.27717116, 0.15103206
 0.2425668, 0.08560851
 0.12968254, 0.08340818
 0.12968254, 0.05048472
 0.11809175, 0.05769524
 0.14261716, 0.08663294
 0.3537712, 0.20340411
 0.66756262, 0.54750347
 0.67864946, 0.55346805
 0.51150679, 0.47964466
 0.65261211, 0.49954602
 0.66252314, 0.47143972
 0.47975809, 0.44595554
 0.48278177, 0.46146983
 0.54409546, 0.47998631
 0.50932308, 0.47321743
 0.41038134, 0.368527
 0.39845461, 0.38622466
 0.48210991, 0.39844587
 0.57282047, 0.50990611
 0.67579369, 0.52221656
 0.65630776, 0.48354605
 0.43759451, 0.40101704
 0.29380143, 0.21982951
 0.2733076, 0.15226015
 0.23064007, 0.10693213
 0.13539398, 0.10334101
 0.13270623, 0.07611349
 0.13119438, 0.08396822
 0.1557198, 0.11269228
 0.33915672, 0.26475972
 0.67596171, 0.54780984
 0.65714763, 0.55408973
 0.51066691, 0.43212393
 0.50277176, 0.48684576
 0.51285071, 0.42702904
 0.44784148, 0.42892516
 0.47841426, 0.40897197
 0.57080468, 0.46565565
 0.55249456, 0.4645603
 0.46228794, 0.36430717
 0.44045018, 0.37046543
 0.50243573, 0.38537663
 0.58189153, 0.5068953
 0.68016131, 0.53973877
 0.56744497, 0.5148198
 0.4194524, 0.37679267
 0.29430538, 0.18308006
 0.27179576, 0.14806469
 0.22257691, 0.1068736
 0.15622375, 0.09174713
 0.16697466, 0.07879743
 0.14681676, 0.08121592
 0.15605583, 0.1045191
 0.35461118, 0.31560117
 0.65093235, 0.540932
 0.62943052, 0.53375435
 0.48748532, 0.44290707
 0.53048888, 0.48500997
 0.48765333, 0.45505884
 0.49538046, 0.42839971
 0.46413571, 0.42572498
 0.5116748, 0.47554988
 0.51604231, 0.41915464
 0.4194524, 0.376266
 0.38585593, 0.38969117
 0.41138924, 0.40080488
 0.55434233, 0.5076834
 0.60322524, 0.53004313
 0.60675288, 0.50484562
 0.49487652, 0.39094099
 0.26541246, 0.2094271
 0.2563414, 0.15002662
 0.22660849, 0.11275366
 0.1387536, 0.09412169
 0.14278518, 0.07718989
 0.12161938, 0.09169327
 0.1409374, 0.08909473
 0.36989752, 0.28760958
 0.68503277, 0.54964131
 0.67864946, 0.51862264
 0.53250467, 0.42597461
 0.50461954, 0.45902508
 0.480934, 0.45013729
 0.44985727, 0.42498484
 0.47320677, 0.44855055
 0.56290944, 0.47064659
 0.53317653, 0.46539414
 0.48009412, 0.38885391
 0.43373094, 0.38197702
 0.50747521, 0.39817092
 0.47975809, 0.48518461
 0.56862088, 0.52945197
 0.55165468, 0.48805144
 0.42549977, 0.37267935
 0.26994798, 0.20566389
 0.34789184, 0.15486459
 0.2447506, 0.12824759
 0.17974137, 0.10575713
 0.17235007, 0.10873289
 0.15924743, 0.10177647
 0.14144135, 0.10821418
 0.1705023, 0.13455886
 0.31614314, 0.25302541
 0.52595335, 0.39165083
 0.66151525, 0.57271755
 0.98286578, 0.67413497
 0.86813375, 0.77301407
 0.80127664, 0.69006342
 0.68335291, 0.64012051
 0.73038805, 0.60391027
 0.68688054, 0.53734297
 0.5943222, 0.4876093
 0.53519232, 0.49730355
 0.53552835, 0.4634181
 0.51066691, 0.47689742
 0.49874018, 0.52653754
 0.51402652, 0.44643235
 0.40634976, 0.43839872
 0.2775072, 0.31035146
 0.33764487, 0.30356893
 0.24559048, 0.20691518
 0.15420796, 0.12077424
 0.14664874, 0.13102536
 0.11473213, 0.11129804
 0.10784478, 0.11665423
 0.11909964, 0.14352772
 0.19536374, 0.15700902
 0.37493699, 0.30229509
 0.59650601, 0.57096064
 0.93247103, 0.80722499
 1., 0.90554631
 0.90744166, 0.85593867
 0.7616328, 0.76113701
 0.71745343, 0.66425681
 0.59449022, 0.53767729
 0.47690242, 0.48802722
 0.45304887, 0.45595556
 0.49554848, 0.45939964
 0.56425337, 0.49303073
 0.58306734, 0.56754076
 0.60557707, 0.54484808
 0.43793044, 0.39835179
 0.29564931, 0.24513471
 0.29581723, 0.15817592
 0.25197379, 0.10297377
 0.15017638, 0.11082414
 0.17016636, 0.08807382
 0.11574003, 0.11323158
 0.1906602, 0.12969486
 0.34066856, 0.19983009
 0.66773053, 0.38788587
 0.68620868, 0.500835
 0.52813706, 0.52805829
 0.57483626, 0.57296234
 0.55518231, 0.53629673
 0.53804809, 0.47540462
 0.5699647, 0.45833027
 0.58945074, 0.46972048
 0.5392239, 0.47758842
 0.43289096, 0.41029423
 0.44733753, 0.39670345
 0.53351256, 0.45365465
 0.57802787, 0.50689006
 0.74029898, 0.53805065
 0.6133042, 0.52874362
 0.43826647, 0.39499944
 0.27448351, 0.1796532
 0.25701326, 0.15339336
 0.23181588, 0.11278573
 0.12346716, 0.09430972
 0.12195531, 0.09743688
 0.1175878, 0.09864838
 0.13791372, 0.13243507
 0.34285237, 0.31686744
 0.70115909, 0.54088998
 0.71039816, 0.52878451
 0.4957165, 0.43906006
 0.50865112, 0.4759199
 0.46531163, 0.43670398
 0.48160596, 0.42143995
 0.49269281, 0.41887391
 0.55484628, 0.45346791
 0.51671428, 0.41912359
 0.42465989, 0.38914585
 0.41256515, 0.39230829
 0.49773229, 0.40096471
 0.53905599, 0.52254689
 0.75054595, 0.54114801
 0.69057619, 0.53272265
 0.51621033, 0.40320563
 0.3453721, 0.19419375
