tar,out
 0.27717116, 0.13335189
 0.2425668, 0.09333171
 0.12968254, 0.09293255
 0.12968254, 0.07349248
 0.11809175, 0.07845798
 0.14261716, 0.08957657
 0.3537712, 0.17544362
 0.66756262, 0.55749315
 0.67864946, 0.55830353
 0.51150679, 0.48809436
 0.65261211, 0.47964865
 0.66252314, 0.46376407
 0.47975809, 0.46976066
 0.48278177, 0.46216583
 0.54409546, 0.46916339
 0.50932308, 0.45731592
 0.41038134, 0.38369173
 0.39845461, 0.35505316
 0.48210991, 0.41013548
 0.57282047, 0.50103962
 0.67579369, 0.51698792
 0.65630776, 0.51607609
 0.43759451, 0.43877429
 0.29380143, 0.22907747
 0.2733076, 0.17108805
 0.23064007, 0.1182543
 0.13539398, 0.10235526
 0.13270623, 0.09803331
 0.13119438, 0.09774198
 0.1557198, 0.11631426
 0.33915672, 0.25481692
 0.67596171, 0.55422843
 0.65714763, 0.53925592
 0.51066691, 0.46805611
 0.50277176, 0.48397148
 0.51285071, 0.45452034
 0.44784148, 0.43421584
 0.47841426, 0.41096717
 0.57080468, 0.449352
 0.55249456, 0.45803344
 0.46228794, 0.3599984
 0.44045018, 0.36689135
 0.50243573, 0.42189324
 0.58189153, 0.49489993
 0.68016131, 0.56221682
 0.56744497, 0.51070535
 0.4194524, 0.37289566
 0.29430538, 0.19386059
 0.27179576, 0.1443309
 0.22257691, 0.1095651
 0.15622375, 0.07710946
 0.16697466, 0.09557158
 0.14681676, 0.09389283
 0.15605583, 0.11881389
 0.35461118, 0.25496519
 0.65093235, 0.55269396
 0.62943052, 0.54876947
 0.48748532, 0.46827191
 0.53048888, 0.47324401
 0.48765333, 0.47512907
 0.49538046, 0.43392965
 0.46413571, 0.42029008
 0.5116748, 0.45847645
 0.51604231, 0.43887207
 0.4194524, 0.34152076
 0.38585593, 0.37289566
 0.41138924, 0.43038672
 0.55434233, 0.50003594
 0.60322524, 0.52495098
 0.60675288, 0.52006507
 0.49487652, 0.37289566
 0.26541246, 0.22003698
 0.2563414, 0.16798291
 0.22660849, 0.10639141
 0.1387536, 0.09135461
 0.14278518, 0.08544834
 0.12161938, 0.08002326
 0.1409374, 0.0946697
 0.36989752, 0.23812258
 0.68503277, 0.58814621
 0.67864946, 0.53712118
 0.53250467, 0.45594847
 0.50461954, 0.45912656
 0.480934, 0.45429295
 0.44985727, 0.40957749
 0.47320677, 0.44194332
 0.56290944, 0.46285924
 0.53317653, 0.45436847
 0.48009412, 0.37974405
 0.43373094, 0.37289566
 0.50747521, 0.37827018
 0.47975809, 0.48969871
 0.56862088, 0.52237004
 0.55165468, 0.47750521
 0.42549977, 0.36384985
 0.26994798, 0.18981126
 0.34789184, 0.14313316
 0.2447506, 0.12583873
 0.17974137, 0.11349587
 0.17235007, 0.09584188
 0.15924743, 0.10049972
 0.14144135, 0.10181509
 0.1705023, 0.12272461
 0.31614314, 0.24399054
 0.52595335, 0.41553026
 0.66151525, 0.55905759
 0.98286578, 0.66816032
 0.86813375, 0.81300557
 0.80127664, 0.66790307
 0.68335291, 0.64553559
 0.73038805, 0.57343698
 0.68688054, 0.55042809
 0.5943222, 0.45719719
 0.53519232, 0.4709188
 0.53552835, 0.44901386
 0.51066691, 0.46439016
 0.49874018, 0.51146138
 0.51402652, 0.45425814
 0.40634976, 0.43704909
 0.2775072, 0.28251621
 0.33764487, 0.27148861
 0.24559048, 0.1879297
 0.15420796, 0.13142782
 0.14664874, 0.12004904
 0.11473213, 0.10469986
 0.10784478, 0.10800123
 0.11909964, 0.15676588
 0.19536374, 0.20319526
 0.37493699, 0.26459622
 0.59650601, 0.65761256
 0.93247103, 0.87863898
 1., 0.95245743
 0.90744166, 0.89114785
 0.7616328, 0.78836405
 0.71745343, 0.69051301
 0.59449022, 0.5456804
 0.47690242, 0.46919188
 0.45304887, 0.44029993
 0.49554848, 0.45555398
 0.56425337, 0.50609618
 0.58306734, 0.59468949
 0.60557707, 0.5563792
 0.43793044, 0.40648186
 0.29564931, 0.23691308
 0.29581723, 0.13126311
 0.25197379, 0.11585976
 0.15017638, 0.11247713
 0.17016636, 0.10157405
 0.11574003, 0.10004738
 0.1906602, 0.11587083
 0.34066856, 0.15229955
 0.66773053, 0.50114799
 0.68620868, 0.53958833
 0.52813706, 0.57248563
 0.57483626, 0.59551889
 0.55518231, 0.54322433
 0.53804809, 0.48504362
 0.5699647, 0.45746392
 0.58945074, 0.48240557
 0.5392239, 0.46645308
 0.43289096, 0.38574326
 0.44733753, 0.3663443
 0.53351256, 0.41865739
 0.57802787, 0.50808668
 0.74029898, 0.50309265
 0.6133042, 0.51878309
 0.43826647, 0.36517406
 0.27448351, 0.20043349
 0.25701326, 0.13127813
 0.23181588, 0.10794058
 0.12346716, 0.08039625
 0.12195531, 0.10512069
 0.1175878, 0.09114581
 0.13791372, 0.13441341
 0.34285237, 0.2732251
 0.70115909, 0.55487347
 0.71039816, 0.53263414
 0.4957165, 0.49206015
 0.50865112, 0.46800587
 0.46531163, 0.45312896
 0.48160596, 0.43357015
 0.49269281, 0.40222931
 0.55484628, 0.45426443
 0.51671428, 0.45206955
 0.42465989, 0.35915953
 0.41256515, 0.37289566
 0.49773229, 0.42863202
 0.53905599, 0.49737915
 0.75054595, 0.5076344
 0.69057619, 0.49766123
 0.51621033, 0.34906393
 0.3453721, 0.19371834
