tar,out
 0.27717116, 0.16540584
 0.2425668, 0.13229115
 0.12968254, 0.10830817
 0.12968254, 0.10283989
 0.11809175, 0.09122631
 0.14261716, 0.1241325
 0.3537712, 0.26786986
 0.66756262, 0.55797052
 0.67864946, 0.54775703
 0.51150679, 0.47179663
 0.65261211, 0.48713875
 0.66252314, 0.46624631
 0.47975809, 0.44469416
 0.48278177, 0.4409602
 0.54409546, 0.48528761
 0.50932308, 0.45062736
 0.41038134, 0.39108384
 0.39845461, 0.38276428
 0.48210991, 0.42751789
 0.57282047, 0.48541248
 0.67579369, 0.5175153
 0.65630776, 0.49631998
 0.43759451, 0.40774658
 0.29380143, 0.26737916
 0.2733076, 0.18331663
 0.23064007, 0.15781373
 0.13539398, 0.11759181
 0.13270623, 0.13641514
 0.13119438, 0.11746149
 0.1557198, 0.14095622
 0.33915672, 0.2628116
 0.67596171, 0.53929871
 0.65714763, 0.5279566
 0.51066691, 0.44600648
 0.50277176, 0.46759844
 0.51285071, 0.46879226
 0.44784148, 0.44629735
 0.47841426, 0.39601418
 0.57080468, 0.47124973
 0.55249456, 0.44705161
 0.46228794, 0.37707353
 0.44045018, 0.37406537
 0.50243573, 0.39256585
 0.58189153, 0.4876987
 0.68016131, 0.54965627
 0.56744497, 0.5332759
 0.4194524, 0.37488803
 0.29430538, 0.17831387
 0.27179576, 0.17219031
 0.22257691, 0.10935014
 0.15622375, 0.0812805
 0.16697466, 0.10358563
 0.14681676, 0.10992266
 0.15605583, 0.13188107
 0.35461118, 0.29713726
 0.65093235, 0.53349102
 0.62943052, 0.52238458
 0.48748532, 0.47467732
 0.53048888, 0.46536618
 0.48765333, 0.48456389
 0.49538046, 0.43173498
 0.46413571, 0.40754706
 0.5116748, 0.47477466
 0.51604231, 0.42451549
 0.4194524, 0.3795149
 0.38585593, 0.39091235
 0.41138924, 0.3959569
 0.55434233, 0.5070321
 0.60322524, 0.54714799
 0.60675288, 0.52341431
 0.49487652, 0.37834778
 0.26541246, 0.20528109
 0.2563414, 0.17315564
 0.22660849, 0.1349012
 0.1387536, 0.1243304
 0.14278518, 0.09361726
 0.12161938, 0.11115083
 0.1409374, 0.09687574
 0.36989752, 0.27563667
 0.68503277, 0.57388544
 0.67864946, 0.54290104
 0.53250467, 0.44685429
 0.50461954, 0.4785111
 0.480934, 0.44520921
 0.44985727, 0.41713452
 0.47320677, 0.44856334
 0.56290944, 0.46418417
 0.53317653, 0.4594785
 0.48009412, 0.38888809
 0.43373094, 0.38206157
 0.50747521, 0.3936764
 0.47975809, 0.47641316
 0.56862088, 0.52731329
 0.55165468, 0.50990468
 0.42549977, 0.3689993
 0.26994798, 0.21313548
 0.34789184, 0.19853073
 0.2447506, 0.16346052
 0.17974137, 0.15068197
 0.17235007, 0.13438776
 0.15924743, 0.12620838
 0.14144135, 0.12226187
 0.1705023, 0.17597985
 0.31614314, 0.239527
 0.52595335, 0.41413021
 0.66151525, 0.56553978
 0.98286578, 0.69604707
 0.86813375, 0.73995328
 0.80127664, 0.65404445
 0.68335291, 0.60428256
 0.73038805, 0.60305065
 0.68688054, 0.5157389
 0.5943222, 0.47143811
 0.53519232, 0.46971399
 0.53552835, 0.4944002
 0.51066691, 0.48891401
 0.49874018, 0.56667602
 0.51402652, 0.43059775
 0.40634976, 0.37185901
 0.2775072, 0.35794336
 0.33764487, 0.2464269
 0.24559048, 0.2319625
 0.15420796, 0.18259865
 0.14664874, 0.16816255
 0.11473213, 0.1360247
 0.10784478, 0.15728606
 0.11909964, 0.21426126
 0.19536374, 0.35942695
 0.37493699, 0.49406555
 0.59650601, 0.58287054
 0.93247103, 0.80279082
 1., 0.84691817
 0.90744166, 0.77377188
 0.7616328, 0.73694736
 0.71745343, 0.68671095
 0.59449022, 0.5375579
 0.47690242, 0.45424861
 0.45304887, 0.4414537
 0.49554848, 0.45606363
 0.56425337, 0.53300381
 0.58306734, 0.59243548
 0.60557707, 0.58643574
 0.43793044, 0.37866956
 0.29564931, 0.21135101
 0.29581723, 0.17677584
 0.25197379, 0.14688624
 0.15017638, 0.16335471
 0.17016636, 0.14005896
 0.11574003, 0.13102305
 0.1906602, 0.14224732
 0.34066856, 0.20365784
 0.66773053, 0.49009719
 0.68620868, 0.53604698
 0.52813706, 0.55573857
 0.57483626, 0.5909934
 0.55518231, 0.59426594
 0.53804809, 0.48852089
 0.5699647, 0.46967638
 0.58945074, 0.50121224
 0.5392239, 0.45357627
 0.43289096, 0.40799245
 0.44733753, 0.38979134
 0.53351256, 0.41026539
 0.57802787, 0.49849296
 0.74029898, 0.51336586
 0.6133042, 0.5177992
 0.43826647, 0.37909085
 0.27448351, 0.18161871
 0.25701326, 0.14234556
 0.23181588, 0.09405652
 0.12346716, 0.06663308
 0.12195531, 0.10610896
 0.1175878, 0.1220713
 0.13791372, 0.17458571
 0.34285237, 0.319906
 0.70115909, 0.53193307
 0.71039816, 0.52038109
 0.4957165, 0.47300109
 0.50865112, 0.4633553
 0.46531163, 0.47497433
 0.48160596, 0.41999882
 0.49269281, 0.39895114
 0.55484628, 0.46383786
 0.51671428, 0.43091586
 0.42465989, 0.39298677
 0.41256515, 0.39889163
 0.49773229, 0.41006157
 0.53905599, 0.49872762
 0.75054595, 0.54901731
 0.69057619, 0.51813817
 0.51621033, 0.35823613
 0.3453721, 0.19559753
