tar,out
 0.27717116, 0.10143292
 0.2425668, 0.0577759
 0.12968254, 0.04748178
 0.12968254, 0.03794417
 0.11809175, 0.05804539
 0.14261716, 0.06959917
 0.3537712, 0.17360075
 0.66756262, 0.44038871
 0.67864946, 0.51203483
 0.51150679, 0.47985345
 0.65261211, 0.4829216
 0.66252314, 0.41624442
 0.47975809, 0.40853989
 0.48278177, 0.45210639
 0.54409546, 0.45358524
 0.50932308, 0.43194297
 0.41038134, 0.36377677
 0.39845461, 0.35912544
 0.48210991, 0.38884905
 0.57282047, 0.47166908
 0.67579369, 0.4953551
 0.65630776, 0.4392837
 0.43759451, 0.31498283
 0.29380143, 0.20431614
 0.2733076, 0.14815992
 0.23064007, 0.08907665
 0.13539398, 0.08990686
 0.13270623, 0.06864133
 0.13119438, 0.08235689
 0.1557198, 0.10331368
 0.33915672, 0.25293547
 0.67596171, 0.48716459
 0.65714763, 0.54783899
 0.51066691, 0.4863472
 0.50277176, 0.48252165
 0.51285071, 0.38621852
 0.44784148, 0.39058962
 0.47841426, 0.44284621
 0.57080468, 0.42541352
 0.55249456, 0.39245078
 0.46228794, 0.34020177
 0.44045018, 0.34296766
 0.50243573, 0.36470163
 0.58189153, 0.47039169
 0.68016131, 0.50184935
 0.56744497, 0.39876097
 0.4194524, 0.29233593
 0.29430538, 0.17045343
 0.27179576, 0.11045683
 0.22257691, 0.07177846
 0.15622375, 0.056596
 0.16697466, 0.04507964
 0.14681676, 0.07082938
 0.15605583, 0.10065737
 0.35461118, 0.24444529
 0.65093235, 0.47763634
 0.62943052, 0.52358121
 0.48748532, 0.45744637
 0.53048888, 0.47828114
 0.48765333, 0.39791197
 0.49538046, 0.40631399
 0.46413571, 0.43500435
 0.5116748, 0.42083648
 0.51604231, 0.39019793
 0.4194524, 0.36132094
 0.38585593, 0.35265422
 0.41138924, 0.39022323
 0.55434233, 0.46415293
 0.60322524, 0.4503428
 0.60675288, 0.44569704
 0.49487652, 0.31337276
 0.26541246, 0.20632175
 0.2563414, 0.10846379
 0.22660849, 0.07357538
 0.1387536, 0.04957408
 0.14278518, 0.0479972
 0.12161938, 0.05492416
 0.1409374, 0.07414445
 0.36989752, 0.19233081
 0.68503277, 0.44304723
 0.67864946, 0.46706358
 0.53250467, 0.44736424
 0.50461954, 0.45022196
 0.480934, 0.4109582
 0.44985727, 0.39723578
 0.47320677, 0.44181916
 0.56290944, 0.43928984
 0.53317653, 0.417871
 0.48009412, 0.38071808
 0.43373094, 0.38823226
 0.50747521, 0.39857838
 0.47975809, 0.48353946
 0.56862088, 0.49731734
 0.55165468, 0.42683294
 0.42549977, 0.31779838
 0.26994798, 0.18078461
 0.34789184, 0.11139011
 0.2447506, 0.0839542
 0.17974137, 0.05151778
 0.17235007, 0.05039009
 0.15924743, 0.06655475
 0.14144135, 0.0827029
 0.1705023, 0.12521991
 0.31614314, 0.25932637
 0.52595335, 0.38011125
 0.66151525, 0.42174208
 0.98286578, 0.51600206
 0.86813375, 0.60105544
 0.80127664, 0.57866216
 0.68335291, 0.55260664
 0.73038805, 0.50199658
 0.68688054, 0.4548291
 0.5943222, 0.44682664
 0.53519232, 0.44075048
 0.53552835, 0.42494404
 0.51066691, 0.43898734
 0.49874018, 0.44180763
 0.51402652, 0.37660059
 0.40634976, 0.29715157
 0.2775072, 0.18277657
 0.33764487, 0.13472219
 0.24559048, 0.13197763
 0.15420796, 0.1038456
 0.14664874, 0.09596854
 0.11473213, 0.09178538
 0.10784478, 0.07920692
 0.11909964, 0.1120407
 0.19536374, 0.15979142
 0.37493699, 0.28547558
 0.59650601, 0.56639969
 0.93247103, 0.64137727
 1., 0.6752122
 0.90744166, 0.64917487
 0.7616328, 0.62197435
 0.71745343, 0.56589824
 0.59449022, 0.50390708
 0.47690242, 0.45064017
 0.45304887, 0.4519861
 0.49554848, 0.43358672
 0.56425337, 0.44176596
 0.58306734, 0.44501546
 0.60557707, 0.4147273
 0.43793044, 0.31885689
 0.29564931, 0.17056003
 0.29581723, 0.11121266
 0.25197379, 0.10929149
 0.15017638, 0.10319383
 0.17016636, 0.08822344
 0.11574003, 0.11668825
 0.1906602, 0.10128555
 0.34066856, 0.10589824
 0.66773053, 0.24880087
 0.68620868, 0.35895231
 0.52813706, 0.44996297
 0.57483626, 0.5253129
 0.55518231, 0.47697067
 0.53804809, 0.4432292
 0.5699647, 0.41800711
 0.58945074, 0.42352086
 0.5392239, 0.42149061
 0.43289096, 0.37167054
 0.44733753, 0.38064891
 0.53351256, 0.40397236
 0.57802787, 0.48978609
 0.74029898, 0.51962268
 0.6133042, 0.3856833
 0.43826647, 0.27608255
 0.27448351, 0.18933997
 0.25701326, 0.12853774
 0.23181588, 0.08326813
 0.12346716, 0.08777448
 0.12195531, 0.06385067
 0.1175878, 0.10013527
 0.13791372, 0.13399261
 0.34285237, 0.29239017
 0.70115909, 0.51559514
 0.71039816, 0.55950165
 0.4957165, 0.48635241
 0.50865112, 0.4993118
 0.46531163, 0.39898109
 0.48160596, 0.40433827
 0.49269281, 0.43537986
 0.55484628, 0.42054
 0.51671428, 0.39351326
 0.42465989, 0.35989469
 0.41256515, 0.35707158
 0.49773229, 0.37753862
 0.53905599, 0.44523382
 0.75054595, 0.41652039
 0.69057619, 0.31056347
 0.51621033, 0.22728543
 0.3453721, 0.18510447
