tar,out
 0.27717116, 0.12976071
 0.2425668, 0.09251921
 0.12968254, 0.08180334
 0.12968254, 0.07501967
 0.11809175, 0.07221469
 0.14261716, 0.08496527
 0.3537712, 0.22953057
 0.66756262, 0.51923156
 0.67864946, 0.5654875
 0.51150679, 0.48350063
 0.65261211, 0.48404887
 0.66252314, 0.45009136
 0.47975809, 0.45121551
 0.48278177, 0.46731627
 0.54409546, 0.46314779
 0.50932308, 0.45134121
 0.41038134, 0.37720886
 0.39845461, 0.36822599
 0.48210991, 0.40452439
 0.57282047, 0.50090694
 0.67579369, 0.47355133
 0.65630776, 0.49295518
 0.43759451, 0.38188696
 0.29380143, 0.23406954
 0.2733076, 0.16672784
 0.23064007, 0.09590392
 0.13539398, 0.0884234
 0.13270623, 0.08518162
 0.13119438, 0.07868919
 0.1557198, 0.09371099
 0.33915672, 0.24073036
 0.67596171, 0.55979514
 0.65714763, 0.56150401
 0.51066691, 0.47776043
 0.50277176, 0.46187887
 0.51285071, 0.44246969
 0.44784148, 0.4215613
 0.47841426, 0.4067741
 0.57080468, 0.4720701
 0.55249456, 0.44382259
 0.46228794, 0.36883515
 0.44045018, 0.37234348
 0.50243573, 0.38094464
 0.58189153, 0.48103914
 0.68016131, 0.52130032
 0.56744497, 0.50777221
 0.4194524, 0.36749023
 0.29430538, 0.2047817
 0.27179576, 0.13762322
 0.22257691, 0.09334536
 0.15622375, 0.08428395
 0.16697466, 0.07529408
 0.14681676, 0.07593098
 0.15605583, 0.0873263
 0.35461118, 0.23326792
 0.65093235, 0.55166358
 0.62943052, 0.53987062
 0.48748532, 0.50309658
 0.53048888, 0.4696154
 0.48765333, 0.46192387
 0.49538046, 0.40912652
 0.46413571, 0.42402524
 0.5116748, 0.47129405
 0.51604231, 0.42155159
 0.4194524, 0.37006858
 0.38585593, 0.36969972
 0.41138924, 0.42379171
 0.55434233, 0.48140624
 0.60322524, 0.53422201
 0.60675288, 0.50356799
 0.49487652, 0.36084545
 0.26541246, 0.21576209
 0.2563414, 0.16636568
 0.22660849, 0.09522445
 0.1387536, 0.08686329
 0.14278518, 0.07542029
 0.12161938, 0.07672128
 0.1409374, 0.08167979
 0.36989752, 0.23084918
 0.68503277, 0.5503844
 0.67864946, 0.53556776
 0.53250467, 0.43280444
 0.50461954, 0.46530527
 0.480934, 0.45029134
 0.44985727, 0.42011076
 0.47320677, 0.43667486
 0.56290944, 0.48023093
 0.53317653, 0.471214
 0.48009412, 0.38082886
 0.43373094, 0.37377125
 0.50747521, 0.37713265
 0.47975809, 0.47956207
 0.56862088, 0.50378001
 0.55165468, 0.48027998
 0.42549977, 0.35130209
 0.26994798, 0.21268217
 0.34789184, 0.1660331
 0.2447506, 0.14879371
 0.17974137, 0.09709018
 0.17235007, 0.08480781
 0.15924743, 0.08625478
 0.14144135, 0.08360554
 0.1705023, 0.12987807
 0.31614314, 0.23565243
 0.52595335, 0.40258443
 0.66151525, 0.54179698
 0.98286578, 0.68591225
 0.86813375, 0.81050849
 0.80127664, 0.67302394
 0.68335291, 0.64396971
 0.73038805, 0.62272239
 0.68688054, 0.50413966
 0.5943222, 0.45797956
 0.53519232, 0.46206701
 0.53552835, 0.45031163
 0.51066691, 0.46044177
 0.49874018, 0.49462426
 0.51402652, 0.49042946
 0.40634976, 0.43101531
 0.2775072, 0.28285092
 0.33764487, 0.43101186
 0.24559048, 0.20866808
 0.15420796, 0.15544537
 0.14664874, 0.13829201
 0.11473213, 0.13133991
 0.10784478, 0.15783441
 0.11909964, 0.21766354
 0.19536374, 0.22512317
 0.37493699, 0.26320928
 0.59650601, 0.56389701
 0.93247103, 0.79733771
 1., 0.92253238
 0.90744166, 0.81932396
 0.7616328, 0.74579829
 0.71745343, 0.66722691
 0.59449022, 0.51824737
 0.47690242, 0.45190686
 0.45304887, 0.40746498
 0.49554848, 0.44524211
 0.56425337, 0.50338376
 0.58306734, 0.59262002
 0.60557707, 0.56411308
 0.43793044, 0.39443293
 0.29564931, 0.2282154
 0.29581723, 0.11664986
 0.25197379, 0.09589627
 0.15017638, 0.09238783
 0.17016636, 0.08530594
 0.11574003, 0.08376527
 0.1906602, 0.10695801
 0.34066856, 0.22358473
 0.66773053, 0.25763959
 0.68620868, 0.55146319
 0.52813706, 0.51780134
 0.57483626, 0.59971994
 0.55518231, 0.56027794
 0.53804809, 0.48241842
 0.5699647, 0.49026525
 0.58945074, 0.47520423
 0.5392239, 0.48750287
 0.43289096, 0.38335329
 0.44733753, 0.38721189
 0.53351256, 0.39571732
 0.57802787, 0.49832848
 0.74029898, 0.51900238
 0.6133042, 0.53586704
 0.43826647, 0.35735732
 0.27448351, 0.19531789
 0.25701326, 0.10078317
 0.23181588, 0.08820447
 0.12346716, 0.07983196
 0.12195531, 0.07705872
 0.1175878, 0.07537824
 0.13791372, 0.09840143
 0.34285237, 0.24220385
 0.70115909, 0.56295401
 0.71039816, 0.52591908
 0.4957165, 0.46752656
 0.50865112, 0.46919268
 0.46531163, 0.45777911
 0.48160596, 0.4079847
 0.49269281, 0.42340577
 0.55484628, 0.47095352
 0.51671428, 0.43205288
 0.42465989, 0.37189075
 0.41256515, 0.37683758
 0.49773229, 0.42914903
 0.53905599, 0.48543704
 0.75054595, 0.52201676
 0.69057619, 0.54166174
 0.51621033, 0.403597
 0.3453721, 0.21054263
