tar,out
 0.27717116, 0.15507817
 0.2425668, 0.10619231
 0.12968254, 0.08414131
 0.12968254, 0.0126031
 0.11809175, 0.02496013
 0.14261716, 0.04322207
 0.3537712, 0.12780215
 0.66756262, 0.55565572
 0.67864946, 0.54434752
 0.51150679, 0.47743028
 0.65261211, 0.50980371
 0.66252314, 0.47271398
 0.47975809, 0.44519341
 0.48278177, 0.47488511
 0.54409546, 0.4977749
 0.50932308, 0.47236353
 0.41038134, 0.40529922
 0.39845461, 0.38069406
 0.48210991, 0.42536938
 0.57282047, 0.51180494
 0.67579369, 0.51528472
 0.65630776, 0.53998005
 0.43759451, 0.41856951
 0.29380143, 0.18126461
 0.2733076, 0.1785537
 0.23064007, 0.10888189
 0.13539398, 0.08194762
 0.13270623, 0.03218839
 0.13119438, 0.04638243
 0.1557198, 0.0909069
 0.33915672, 0.19502184
 0.67596171, 0.55856031
 0.65714763, 0.55094552
 0.51066691, 0.4775182
 0.50277176, 0.49997193
 0.51285071, 0.44384137
 0.44784148, 0.42746019
 0.47841426, 0.43937033
 0.57080468, 0.46776426
 0.55249456, 0.44322562
 0.46228794, 0.3977012
 0.44045018, 0.39713472
 0.50243573, 0.43456614
 0.58189153, 0.53411478
 0.68016131, 0.54702252
 0.56744497, 0.55173123
 0.4194524, 0.39500555
 0.29430538, 0.18150859
 0.27179576, 0.16073544
 0.22257691, 0.12171556
 0.15622375, 0.09301975
 0.16697466, 0.0537951
 0.14681676, 0.05104706
 0.15605583, 0.08414179
 0.35461118, 0.25905713
 0.65093235, 0.55265409
 0.62943052, 0.54770362
 0.48748532, 0.47666264
 0.53048888, 0.49193335
 0.48765333, 0.46511084
 0.49538046, 0.42904377
 0.46413571, 0.44928497
 0.5116748, 0.48983324
 0.51604231, 0.43116745
 0.4194524, 0.38731012
 0.38585593, 0.40617892
 0.41138924, 0.44265079
 0.55434233, 0.5247578
 0.60322524, 0.54099184
 0.60675288, 0.54850024
 0.49487652, 0.40283948
 0.26541246, 0.19398159
 0.2563414, 0.16083743
 0.22660849, 0.11990175
 0.1387536, 0.09240085
 0.14278518, 0.04337835
 0.12161938, 0.0414409
 0.1409374, 0.0555667
 0.36989752, 0.22741684
 0.68503277, 0.5551272
 0.67864946, 0.5280993
 0.53250467, 0.48335674
 0.50461954, 0.47838131
 0.480934, 0.4946284
 0.44985727, 0.42106366
 0.47320677, 0.48047483
 0.56290944, 0.46053851
 0.53317653, 0.45458692
 0.48009412, 0.40121198
 0.43373094, 0.40265247
 0.50747521, 0.43134683
 0.47975809, 0.52747214
 0.56862088, 0.53860259
 0.55165468, 0.5336017
 0.42549977, 0.38555101
 0.26994798, 0.19399127
 0.34789184, 0.17014144
 0.2447506, 0.12963645
 0.17974137, 0.12108622
 0.17235007, 0.06450048
 0.15924743, 0.06063238
 0.14144135, 0.06739089
 0.1705023, 0.09645003
 0.31614314, 0.21885726
 0.52595335, 0.432733
 0.66151525, 0.57257694
 0.98286578, 0.72149146
 0.86813375, 0.8643589
 0.80127664, 0.72385788
 0.68335291, 0.63614488
 0.73038805, 0.5906502
 0.68688054, 0.55803317
 0.5943222, 0.52149665
 0.53519232, 0.48098487
 0.53552835, 0.49444902
 0.51066691, 0.46541449
 0.49874018, 0.50963676
 0.51402652, 0.49166638
 0.40634976, 0.41299278
 0.2775072, 0.42497522
 0.33764487, 0.30431092
 0.24559048, 0.21375673
 0.15420796, 0.14129046
 0.14664874, 0.13153218
 0.11473213, 0.12130314
 0.10784478, 0.13493653
 0.11909964, 0.1694676
 0.19536374, 0.23904656
 0.37493699, 0.31781125
 0.59650601, 0.62159336
 0.93247103, 0.88137054
 1., 1.00166881
 0.90744166, 0.91231287
 0.7616328, 0.80114782
 0.71745343, 0.70115232
 0.59449022, 0.55547988
 0.47690242, 0.49881029
 0.45304887, 0.4534505
 0.49554848, 0.44268668
 0.56425337, 0.52799547
 0.58306734, 0.6083324
 0.60557707, 0.58783126
 0.43793044, 0.41393304
 0.29564931, 0.20072593
 0.29581723, 0.15572612
 0.25197379, 0.11928688
 0.15017638, 0.1081062
 0.17016636, 0.1086995
 0.11574003, 0.10476111
 0.1906602, 0.13694108
 0.34066856, 0.17605446
 0.66773053, 0.30743912
 0.68620868, 0.55896735
 0.52813706, 0.54533553
 0.57483626, 0.59876168
 0.55518231, 0.57279444
 0.53804809, 0.51546836
 0.5699647, 0.4597865
 0.58945074, 0.49994797
 0.5392239, 0.46468449
 0.43289096, 0.40819257
 0.44733753, 0.39314219
 0.53351256, 0.43992949
 0.57802787, 0.52401221
 0.74029898, 0.53363228
 0.6133042, 0.55573732
 0.43826647, 0.41656336
 0.27448351, 0.21230522
 0.25701326, 0.16376978
 0.23181588, 0.10986678
 0.12346716, 0.08863184
 0.12195531, 0.07891592
 0.1175878, 0.08029473
 0.13791372, 0.15717837
 0.34285237, 0.2620962
 0.70115909, 0.53949243
 0.71039816, 0.52595294
 0.4957165, 0.46583
 0.50865112, 0.45581412
 0.46531163, 0.44973215
 0.48160596, 0.41790268
 0.49269281, 0.44213355
 0.55484628, 0.45882979
 0.51671428, 0.42182121
 0.42465989, 0.38629299
 0.41256515, 0.38022935
 0.49773229, 0.4276073
 0.53905599, 0.51765388
 0.75054595, 0.53955525
 0.69057619, 0.54828143
 0.51621033, 0.39051116
 0.3453721, 0.17688277
