tar,out
 0.22315789, 0.21781707
 0.19789474, 0.23090844
 0.29473684, 0.14194231
 0.47789474, 0.1835447
 0.25263158, 0.27151436
 0.09894737, 0.23624295
 0.08631579, 0.25740337
 0.21894737, 0.15005438
 0.09684211, 0.18014646
 0.11157895, 0.14612032
 0.10736842, 0.25740337
 0.15789474, 0.15875778
 0.51578947, 0.25255403
 0.61894737, 0.3225669
 0.72210526, 0.3740364
 0.57894737, 0.44472045
 0.48631579, 0.30515915
 0.47368421, 0.25777718
 0.49894737, 0.25808132
 0.42736842, 0.30345011
 0.16210526, 0.32497245
 0.20631579, 0.19302914
 0.10315789, 0.23940299
 0.2, 0.09715523
 0.14315789, 0.12742636
 0.06315789, 0.17697868
 0.04631579, 0.09975475
 0.04631579, 0.12138012
 0.04842105, 0.06310177
 0.05894737, 0.07363923
 0.01894737, 0.11568478
 0.07789474, 0.25393078
 0.16631579, 0.17891853
 0.15578947, 0.2975052
 0.13263158, 0.26132929
 0.12842105, 0.26738861
 0.10947368, 0.23007846
 0.17052632, 0.24802978
 0.69684211, 0.28718221
 0.65684211, 0.39923415
 0.61684211, 0.2949127
 0.45894737, 0.38584122
 0.36842105, 0.26452377
 0.31157895, 0.18205731
 0.36842105, 0.1486731
 0.32421053, 0.11542614
 0.26526316, 0.24139938
 0.21263158, 0.14114299
 0.25052632, 0.253048
 0.26736842, 0.11644615
 0.37684211, 0.23872565
 0.23368421, 0.17132948
 0.11789474, 0.25761706
 0.01894737, 0.09541647
 0.09894737, 0.23677197
 0.21473684, 0.11959951
 0.14315789, 0.20533264
 0.08, 0.25740337
 0.13894737, 0.24079591
 0.13894737, 0.25740337
 0.18105263, 0.20119852
 0.20421053, 0.33319592
 0.38315789, 0.31395295
 0.42526316, 0.40495503
 0.36631579, 0.36136404
 0.19789474, 0.37896201
 0.09473684, 0.27987328
 0.12210526, 0.19600463
 0.11789474, 0.25625876
 0.12421053, 0.19029631
 0.21473684, 0.25740337
 0.17263158, 0.30943501
 0.04210526, 0.22795674
 0.03578947, 0.27403426
 0.08421053, 0.19421959
 0.05894737, 0.22701527
 0.12210526, 0.14402291
 0.07157895, 0.27227363
 0.12421053, 0.17306322
 0.08631579, 0.31521201
 0.20421053, 0.2687853
 0.09894737, 0.35494953
 0.09684211, 0.30574214
 0.06736842, 0.29382002
 0.16210526, 0.22619711
 0.53894737, 0.27976501
 0.46736842, 0.36501944
 0.68631579, 0.24877167
 0.57263158, 0.4775852
 0.35368421, 0.44166252
 0.26315789, 0.37908912
 0.17473684, 0.21432316
 0.30315789, 0.17503068
 0.2, 0.16670439
 0.05684211, 0.25245166
 0.07157895, 0.11527845
 0.07368421, 0.23621862
 0.09263158, 0.1211621
 0.06315789, 0.20431122
 0.10105263, 0.17158902
 0.15578947, 0.17975068
 0.30315789, 0.18936837
 0.45052632, 0.24997592
 0.38526316, 0.42280909
 0.17473684, 0.19218346
 0.29052632, 0.2697916
 0.32631579, 0.19407356
 0.34736842, 0.26462421
 0.44842105, 0.30334198
 0.60210526, 0.35503727
 0.70526316, 0.29770586
 0.74736842, 0.2964552
 0.75368421, 0.363594
 0.84631579, 0.38968104
 0.63368421, 0.47919822
 0.37894737, 0.40961921
 0.28842105, 0.25740337
 0.22947368, 0.25740337
 0.28842105, 0.18031074
 0.14947368, 0.26774347
 0.21473684, 0.20119636
 0.30736842, 0.12853715
 0.27157895, 0.19092266
 0.22947368, 0.20961311
 0.19578947, 0.20907521
 0.27368421, 0.26188794
 0.22736842, 0.17835578
 0.32631579, 0.25101075
 0.41263158, 0.26673594
 0.41894737, 0.30764917
 0.44631579, 0.30774471
 0.45894737, 0.35383433
 0.4, 0.44109958
 0.47157895, 0.40592593
 0.50526316, 0.31584468
 0.59368421, 0.33965451
 0.57684211, 0.26487115
 0.6, 0.28459007
 0.64, 0.53024429
 0.55789474, 0.41520736
 0.50736842, 0.41854385
 0.48631579, 0.22325653
 0.44842105, 0.36535931
 0.34947368, 0.15217572
 0.28421053, 0.26384148
 0.20842105, 0.12539701
 0.33473684, 0.13381109
 0.26526316, 0.13554105
 0.13684211, 0.2174913
 0.09473684, 0.06474695
 0.04, 0.18905175
 0.16631579, 0.04824662
 0.32631579, 0.1231436
 0.34105263, 0.25740337
 0.31789474, 0.27124131
 0.24210526, 0.28700805
 0.21263158, 0.29860461
 0.22736842, 0.26741147
 0.22526316, 0.29022348
 0.34526316, 0.28136319
 0.52842105, 0.31088203
 0.35578947, 0.30993962
 0.60631579, 0.40437746
 0.50736842, 0.35481545
 0.18105263, 0.33241624
 0.13263158, 0.25740337
 0.14526316, 0.24975376
 0.19578947, 0.22221646
 0.17263158, 0.19251549
 0.09052632, 0.25740337
 0.02315789, 0.11153038
 0.06947368, 0.31216839
 0.07368421, 0.11032525
 0.02315789, 0.233109
 0.01894737, 0.04619199
 0.05052632, 0.25460529
 0.11578947, 0.24762392
 0.16, 0.20131223
 0.26526316, 0.25740337
 0.36, 0.28461513
 0.41473684, 0.26707754
 0.37684211, 0.3832463
 0.33894737, 0.39490622
 0.51157895, 0.30358317
 0.58526316, 0.34243327
 0.33473684, 0.5130651
 0.33894737, 0.19133034
 0.18947368, 0.25740337
 0.23157895, 0.14312264
 0.09473684, 0.22892837
 0.25894737, 0.12509972
 0.30947368, 0.22359844
 0.33684211, 0.26555762
 0.38526316, 0.25740337
 0.32210526, 0.25317156
 0.20842105, 0.25740337
 0.26105263, 0.16257235
 0.03157895, 0.2460677
 0.09473684, 0.15879379
 0.04210526, 0.18214372
 0.12210526, 0.13504919
 0.13684211, 0.12559909
 0.16210526, 0.21656723
 0.24421053, 0.27849516
 0.33263158, 0.25740337
 0.34105263, 0.3569414
 0.39578947, 0.37516302
 0.39578947, 0.3118751
 0.30526316, 0.29015905
 0.28421053, 0.31833643
 0.38947368, 0.27067369
 0.28210526, 0.12677102
 0.37263158, 0.24613088
 0.18315789, 0.25155371
 0.22105263, 0.16773611
 0.17473684, 0.20051505
 0.30526316, 0.22283171
 0.31578947, 0.15241304
 0.19789474, 0.23557785
 0.06736842, 0.15243429
 0.05473684, 0.17292665
 0.06105263, 0.09029396
 0.08, 0.16111431
 0.05052632, 0.21634075
 0.09473684, 0.24473403
 0.15368421, 0.17960179
 0.27578947, 0.2566404
 0.20210526, 0.22043973
 0.17684211, 0.23804623
 0.25894737, 0.20285437
 0.29263158, 0.2883482
 0.51157895, 0.25740337
 0.59578947, 0.50194502
 0.58736842, 0.40821099
 0.45052632, 0.53184736
 0.37052632, 0.28014714
 0.50105263, 0.27155396
 0.40210526, 0.27497986
 0.38105263, 0.26885661
 0.38105263, 0.22489533
 0.26736842, 0.28597793
 0.31578947, 0.18249561
 0.17473684, 0.13799632
 0.09473684, 0.10496551
 0.09473684, 0.11568354
 0.09473684, 0.09037927
 0.05473684, 0.08150569
 0.02315789, 0.09164321
 0.11368421, 0.08939263
 0.09473684, 0.09271976
 0.09684211, 0.12223333
 0.13684211, 0.14257407
 0.19368421, 0.2317124
 0.18105263, 0.2428052
 0.16421053, 0.31074387
 0.15578947, 0.26437992
 0.42736842, 0.28359246
 0.53263158, 0.35441273
 0.38526316, 0.29695326
 0.25052632, 0.26472983
 0.22105263, 0.23364019
 0.17684211, 0.16027096
 0.27157895, 0.15848674
 0.19578947, 0.14780688
 0.12210526, 0.21427408
 0.17684211, 0.14928089
 0.14736842, 0.25390908
 0.30105263, 0.09915081
 0.16631579, 0.17781194
 0.09263158, 0.14900956
 0.06947368, 0.18214269
 0.33263158, 0.14968823
 0.30736842, 0.08571288
 0.26315789, 0.25740337
 0.18315789, 0.20660943
 0.37894737, 0.26365674
 0.57052632, 0.19191524
 0.45052632, 0.25740337
 0.45263158, 0.20292144
 0.64421053, 0.3087543
 0.67578947, 0.27640203
 0.63578947, 0.2795229
 0.58736842, 0.2902658
 0.43789474, 0.28740284
 0.32421053, 0.25449842
 0.27789474, 0.18660897
 0.29263158, 0.17265645
 0.07578947, 0.18394679
 0.17894737, 0.12858422
 0.07157895, 0.11623468
 0.16421053, 0.09801863
 0.12, 0.0923302
 0.10736842, 0.16589643
 0.04, 0.0889228
 0.02526316, 0.10384838
 0.06105263, 0.09671538
 0.06947368, 0.09007327
 0.17684211, 0.21432403
 0.42315789, 0.40855646
 0.55578947, 0.27169606
 0.64631579, 0.36665699
 0.79789474, 0.45050159
 0.81894737, 0.60092008
 0.72631579, 0.62913728
 0.73894737, 0.43003041
 0.70526316, 0.50157261
 0.52631579, 0.43746841
 0.37684211, 0.35007167
 0.32421053, 0.31315142
 0.36, 0.31476519
 0.22315789, 0.22694479
 0.24, 0.15662707
 0.35368421, 0.15667585
 0.38947368, 0.14698923
 0.49894737, 0.32026303
 0.08842105, 0.36289281
 0.08631579, 0.24541745
 0.18736842, 0.21701235
 0.24, 0.24144822
 0.33894737, 0.23552871
 0.45894737, 0.24189615
 0.45684211, 0.36751983
 0.30947368, 0.28748366
 0.37684211, 0.27821928
 0.44842105, 0.33232379
 0.40210526, 0.38684666
 0.53473684, 0.34367996
 0.65052632, 0.402722
 0.70947368, 0.45333749
 0.69684211, 0.4718883
 0.60631579, 0.30402061
 0.45894737, 0.42559865
 0.46315789, 0.25701588
 0.42947368, 0.34736109
 0.27368421, 0.43678799
 0.27157895, 0.22397897
 0.20631579, 0.23610778
 0.18105263, 0.23126069
 0.06736842, 0.12121569
 0.16210526, 0.1512199
 0.15368421, 0.10891503
 0.11368421, 0.22308399
 0.09052632, 0.16417745
 0.05052632, 0.18485443
 0.29473684, 0.17783086
 0.36421053, 0.235313
 0.29473684, 0.32912877
 0.40842105, 0.25567934
 0.51789474, 0.3484498
 0.58736842, 0.26566672
 0.66315789, 0.39942881
 0.70526316, 0.38760728
 0.71157895, 0.46602106
 0.70526316, 0.37494791
 0.52631579, 0.34741122
 0.40210526, 0.37080467
 0.38315789, 0.30173987
 0.35578947, 0.28888166
 0.33473684, 0.24550644
 0.20842105, 0.18072398
 0.14526316, 0.16403694
 0.15157895, 0.14026882
 0.16210526, 0.12610513
 0.12631579, 0.1293609
 0.20842105, 0.1199021
 0.17473684, 0.19736624
 0.07368421, 0.23432697
 0.05894737, 0.18300179
 0.12421053, 0.27358201
 0.42526316, 0.18039966
 0.41684211, 0.33861426
 0.42947368, 0.38466316
 0.57894737, 0.34138587
 0.65263158, 0.41539782
 0.65894737, 0.40954441
 0.70315789, 0.52114427
 0.70736842, 0.46412396
 0.68842105, 0.4399395
 0.63578947, 0.32194743
 0.55157895, 0.27270779
 0.23789474, 0.26239663
 0.23157895, 0.17040865
 0.19578947, 0.12879738
 0.07789474, 0.16945508
 0.21473684, 0.14036243
 0.20631579, 0.17097631
 0.12210526, 0.16202803
 0.2, 0.16513348
 0.17684211, 0.19053546
 0.18947368, 0.12363854
 0.16631579, 0.23971391
 0.17052632, 0.1869539
 0.15368421, 0.25199106
 0.06315789, 0.21160498
 0.10315789, 0.18430874
 0.13894737, 0.17326203
 0.15368421, 0.19206421
 0.23368421, 0.18790114
 0.36842105, 0.1547654
 0.52, 0.22178915
 0.34315789, 0.32724333
 0.56210526, 0.20407252
 0.30947368, 0.34895441
 0.36421053, 0.16990331
 0.54526316, 0.1759214
 0.31157895, 0.32137954
 0.44631579, 0.18714875
 0.42947368, 0.29839966
 0.36842105, 0.15476803
 0.52210526, 0.14004472
 0.09052632, 0.24159753
 0.05473684, 0.10031529
 0.13473684, 0.1340709
 0.11789474, 0.10822779
 0.08842105, 0.11177488
 0.18947368, 0.09123543
 0.13473684, 0.18480825
 0.07789474, 0.10793626
 0.13894737, 0.1120404
 0.26526316, 0.27193129
 0.66315789, 0.0949119
 0.61684211, 0.40741903
 0.42526316, 0.23625609
 0.60842105, 0.270814
 0.51578947, 0.23946235
 0.67368421, 0.24704041
 0.24210526, 0.30384862
 0.32, 0.17802136
 0.14736842, 0.23452343
 0.19578947, 0.15632607
 0.04421053, 0.19093698
 0.04210526, 0.14628249
 0.08842105, 0.11841318
 0.18947368, 0.14126076
 0.18947368, 0.12440899
 0.13473684, 0.16625917
 0.13052632, 0.20349509
 0.09052632, 0.10175323
 0.07578947, 0.1112061
 0.04631579, 0.07973745
 0.07578947, 0.12008949
 0.07789474, 0.12018886
 0.16210526, 0.19288717
 0.21473684, 0.21755007
 0.54105263, 0.23095246
 0.54315789, 0.32575968
 0.21684211, 0.30365539
 0.22526316, 0.25740337
 0.34736842, 0.25740337
 0.26315789, 0.23308873
 0.38105263, 0.24711969
 0.25684211, 0.22668168
 0.17263158, 0.25779185
 0.10736842, 0.15182382
 0.23578947, 0.17973951
 0.34315789, 0.14543192
 0.53473684, 0.23754248
 0.45684211, 0.30684325
 0.40421053, 0.25562605
 0.25263158, 0.26302034
 0.07157895, 0.10440493
 0.06315789, 0.24777533
 0.02947368, 0.12727392
 0.02105263, 0.17866988
 0.08421053, 0.15191135
 0.08, 0.22940136
 0.13263158, 0.25262225
 0.23368421, 0.20268193
 0.12842105, 0.25249165
 0.24842105, 0.29325339
 0.54947368, 0.18675122
 0.38947368, 0.29687059
 0.54105263, 0.2632772
 0.60210526, 0.26106057
 0.59157895, 0.37677035
 0.38526316, 0.33440578
 0.31789474, 0.35211489
 0.48842105, 0.26277035
 0.15157895, 0.33000106
 0.25263158, 0.13534857
 0.21894737, 0.23825493
 0.10736842, 0.13568988
 0.13684211, 0.17970565
 0.10736842, 0.08605714
 0.09684211, 0.16274472
 0.09684211, 0.13347337
 0.20631579, 0.10439943
 0.43578947, 0.25686467
 0.37052632, 0.29457051
 0.29684211, 0.21033342
 0.25684211, 0.18482867
 0.27789474, 0.1719453
 0.21684211, 0.16899675
 0.17052632, 0.24281141
 0.17052632, 0.18242487
 0.06947368, 0.150435
 0.53894737, 0.16665751
 0.52842105, 0.21708721
 0.39578947, 0.50573826
 0.16842105, 0.19861141
 0.37052632, 0.25740337
 0.25684211, 0.20808664
 0.20210526, 0.18303284
 0.14105263, 0.20900336
 0.18526316, 0.25740337
 0.12842105, 0.22717459
 0.14526316, 0.25758892
 0.10526316, 0.16716939
 0.10105263, 0.24858013
 0.09052632, 0.20896764
 0.03578947, 0.21480271
 0.02105263, 0.18917483
 0.07368421, 0.18810689
 0.09263158, 0.16831842
 0.14315789, 0.21438175
 0.14315789, 0.21420601
 0.18105263, 0.20718122
 0.31578947, 0.22652517
 0.34315789, 0.24121591
 0.29473684, 0.35687819
 0.29684211, 0.25115862
 0.46947368, 0.27911854
 0.56631579, 0.28437313
 0.34947368, 0.29851472
 0.28210526, 0.18012279
 0.12, 0.25740337
 0.23368421, 0.11941218
 0.23789474, 0.18103598
 0.07789474, 0.25740337
 0.11578947, 0.25174427
 0.08421053, 0.25740337
 0.10315789, 0.25732148
 0.19157895, 0.20815477
 0.11789474, 0.25740337
 0.18105263, 0.23295623
 0.16631579, 0.20870593
 0.19368421, 0.22084144
 0.27789474, 0.29539731
 0.24, 0.24191771
 0.37473684, 0.25857228
 0.45894737, 0.29339713
 0.38105263, 0.3293086
 0.44842105, 0.20053566
 0.47157895, 0.27635342
 0.29473684, 0.29302648
 0.29263158, 0.17068766
 0.52210526, 0.11988421
 0.63368421, 0.25596547
 0.48842105, 0.25936913
 0.10105263, 0.24209501
 0.09684211, 0.24656673
 0.15157895, 0.1196813
 0.09684211, 0.10670976
 0.12, 0.16487153
 0.08842105, 0.21959078
 0.06947368, 0.09476186
 0.07789474, 0.14228849
 0.09473684, 0.08304878
 0.06105263, 0.14111561
 0.04210526, 0.10667783
 0.11368421, 0.22793108
 0.29052632, 0.19027346
 0.43368421, 0.25956756
 0.43368421, 0.29559132
 0.31789474, 0.2850697
 0.22315789, 0.26353416
 0.22315789, 0.256372
 0.24, 0.25736567
 0.31578947, 0.25740337
 0.38736842, 0.30554637
 0.41473684, 0.29134578
 0.61052632, 0.30228341
 0.21263158, 0.37298498
 0.12421053, 0.25464001
 0.16421053, 0.20515147
 0.08842105, 0.28327256
 0.09684211, 0.2163042
 0.08210526, 0.33427468
 0.09052632, 0.25740337
 0.08210526, 0.3663106
 0.09263158, 0.26823446
 0.07578947, 0.47808665
 0.03578947, 0.25740337
 0.03368421, 0.26731452
 0.06105263, 0.25496545
 0.09052632, 0.25740337
 0.17263158, 0.24907717
 0.19157895, 0.25879124
 0.2, 0.25568038
 0.27578947, 0.25740337
 0.35368421, 0.26630008
 0.32421053, 0.24692973
 0.31368421, 0.37000382
 0.33052632, 0.23170325
 0.37052632, 0.24451919
 0.29894737, 0.25629091
 0.03157895, 0.21384653
 0.10105263, 0.09475672
 0.15157895, 0.10654435
 0.14736842, 0.15872423
 0.10947368, 0.18251222
 0.05684211, 0.22876664
 0.07578947, 0.18779899
 0.10526316, 0.15765317
 0.10947368, 0.13265041
 0.15157895, 0.18425652
 0.10105263, 0.14359078
 0.03368421, 0.14206171
 0.05473684, 0.13985287
 0.09894737, 0.10920629
 0.11789474, 0.20921272
 0.19578947, 0.27638817
 0.18736842, 0.29734761
 0.16210526, 0.28721404
 0.21473684, 0.27168337
 0.07789474, 0.33857271
 0.51157895, 0.23773748
 0.66736842, 0.38836616
 0.33894737, 0.31971562
 0.24842105, 0.19246732
 0.19368421, 0.25475591
 0.08421053, 0.12389183
 0.13473684, 0.23182555
 0.18947368, 0.10137469
 0.09894737, 0.23478663
 0.13473684, 0.27396816
 0.24631579, 0.26522699
 0.17052632, 0.27812868
 0.13473684, 0.23376077
 0.21894737, 0.23047566
 0.05473684, 0.22174606
 0.03789474, 0.25699401
 0.05263158, 0.18269083
 0.07789474, 0.17049265
 0.08421053, 0.2558431
 0.13473684, 0.18921484
 0.18105263, 0.23802052
 0.28210526, 0.19609907
 0.19368421, 0.25368282
 0.63157895, 0.28325456
 0.75578947, 0.37253177
 0.73684211, 0.53143853
 0.52631579, 0.46020731
 0.48631579, 0.29970384
 0.33263158, 0.27106956
 0.28421053, 0.25090367
 0.29263158, 0.24157025
 0.16210526, 0.21843116
 0.15368421, 0.17727642
 0.07368421, 0.12947145
 0.14315789, 0.12030965
 0.14736842, 0.08918551
 0.2, 0.21510841
 0.22315789, 0.13296364
 0.18315789, 0.25518382
 0.24842105, 0.10823722
 0.11789474, 0.23454508
 0.05263158, 0.12962592
 0.06526316, 0.18623313
 0.12842105, 0.10222355
 0.14947368, 0.22938707
 0.21263158, 0.09062319
 0.24421053, 0.25882384
 0.70315789, 0.21176624
 0.72, 0.39982751
 0.62947368, 0.36337101
 0.56, 0.48912024
 0.42105263, 0.27676132
 0.35368421, 0.31573543
 0.38736842, 0.19260442
 0.30526316, 0.24818778
 0.24421053, 0.22785784
 0.12421053, 0.2072363
 0.14105263, 0.19619964
 0.04842105, 0.14135675
 0.08210526, 0.18350525
 0.14105263, 0.13258991
 0.19368421, 0.23078176
 0.13263158, 0.16529
 0.14736842, 0.20922124
 0.09263158, 0.21896023
 0.10526316, 0.25445586
 0.08421053, 0.23641579
 0.12421053, 0.22698176
 0.13473684, 0.20988928
 0.16421053, 0.23346667
 0.15368421, 0.2417416
 0.15157895, 0.29828149
 0.65263158, 0.28046143
 0.71368421, 0.4527691
 0.53473684, 0.49685395
 0.55789474, 0.28940332
 0.44210526, 0.25928944
 0.40631579, 0.28506523
 0.34315789, 0.2280729
 0.25263158, 0.22255942
 0.41473684, 0.19348212
 0.51578947, 0.17519875
 0.52, 0.25740337
 0.33894737, 0.29557702
 0.18315789, 0.2458725
 0.15368421, 0.15507476
 0.09052632, 0.14230222
 0.06947368, 0.07731944
 0.10105263, 0.14280982
 0.14315789, 0.1225981
 0.14947368, 0.18745756
 0.17473684, 0.16252677
 0.25263158, 0.15738101
 0.22736842, 0.13003179
 0.26526316, 0.23567452
 0.32421053, 0.21362296
 0.39368421, 0.24744369
 0.61263158, 0.27185473
 0.52631579, 0.29763114
 0.43578947, 0.25225061
 0.22736842, 0.2518442
 0.08631579, 0.19895124
 0.17684211, 0.21503849
 0.17052632, 0.16958641
 0.09263158, 0.25740337
 0.18947368, 0.1899115
 0.20421053, 0.2557503
 0.05473684, 0.23982474
 0.09052632, 0.16575566
 0.05263158, 0.19959989
 0.02736842, 0.12863185
 0.04210526, 0.15714666
 0.05894737, 0.14075293
 0.10947368, 0.2472371
 0.21052632, 0.20143236
 0.24631579, 0.34260237
 0.20842105, 0.31461886
 0.28, 0.35949403
 0.24210526, 0.38378027
 0.23157895, 0.35680369
 0.64421053, 0.20551097
 0.62947368, 0.46175212
 0.51789474, 0.39069405
 0.25263158, 0.28643301
 0.04842105, 0.24165791
 0.07157895, 0.11087932
 0.09894737, 0.12472227
 0.10947368, 0.11478573
 0.06315789, 0.16854268
 0.13263158, 0.16394337
 0.15368421, 0.1791842
 0.08842105, 0.1207923
 0.15368421, 0.12772048
 0.06947368, 0.21777639
 0.08631579, 0.14120296
 0.20631579, 0.12391995
 0.32842105, 0.26110548
 0.13052632, 0.2441617
 0.21052632, 0.21455911
 0.22315789, 0.24522194
 0.23368421, 0.24379073
 0.35157895, 0.22166978
 0.35789474, 0.28075188
 0.35789474, 0.31135193
 0.37894737, 0.37044883
 0.41894737, 0.27524608
 0.47368421, 0.3021881
 0.27578947, 0.30154666
 0.17894737, 0.24429898
 0.06315789, 0.25286692
 0.11157895, 0.16015264
 0.07368421, 0.18416615
 0.10947368, 0.13204525
 0.07578947, 0.17770015
 0.11789474, 0.15349412
 0.10526316, 0.18094678
 0.07157895, 0.19880509
 0.17684211, 0.15239133
 0.15368421, 0.22634743
 0.09473684, 0.20661315
 0.12842105, 0.1607569
 0.08210526, 0.1937273
 0.09263158, 0.10214239
 0.12, 0.13503429
 0.17263158, 0.25970066
 0.38526316, 0.22444025
 0.56842105, 0.30654392
 0.53263158, 0.36855131
 0.58315789, 0.44957644
 0.73894737, 0.383744
 0.60842105, 0.50531006
 0.45052632, 0.45078397
 0.36842105, 0.24652778
 0.16, 0.21201582
 0.13684211, 0.14085531
 0.06947368, 0.1249902
 0.12421053, 0.14460629
 0.12, 0.10894181
 0.11578947, 0.16262674
 0.13263158, 0.19457227
 0.13894737, 0.15313643
 0.09894737, 0.19123729
 0.15578947, 0.10630639
 0.34526316, 0.15529367
 0.44210526, 0.26358616
 0.46526316, 0.30831993
 0.20631579, 0.30783087
 0.14105263, 0.24829768
 0.17263158, 0.2283186
 0.40842105, 0.23132668
 0.59578947, 0.25212154
 0.66736842, 0.26945382
 0.68210526, 0.28915527
 0.61894737, 0.30775738
 0.58947368, 0.30267516
 0.54526316, 0.24787882
 0.45052632, 0.28473973
 0.35368421, 0.26186809
 0.18947368, 0.17164296
 0.11368421, 0.25740337
 0.09052632, 0.20382409
 0.08631579, 0.23031554
 0.13473684, 0.09536317
 0.06947368, 0.10438657
 0.06315789, 0.16090859
 0.07578947, 0.10055369
 0.16842105, 0.16250366
 0.36210526, 0.09523533
 0.23157895, 0.30358693
 0.10736842, 0.24940522
 0.08421053, 0.25740337
 0.17473684, 0.24596567
 0.21052632, 0.24409233
 0.36842105, 0.25740337
 0.61473684, 0.42403859
 0.79789474, 0.28042337
 0.91789474, 0.45193142
 0.43368421, 0.45027629
 0.27368421, 0.2535713
 0.19157895, 0.25727385
 0.08842105, 0.15107331
 0.10315789, 0.12265866
 0.11157895, 0.22281057
 0.10947368, 0.27727407
 0.13052632, 0.37850732
 0.15578947, 0.25189048
 0.18947368, 0.36480856
 0.10947368, 0.25821716
 0.06947368, 0.31230003
 0.05894737, 0.22259411
 0.11578947, 0.25740337
 0.06315789, 0.23073292
 0.08631579, 0.18122357
 0.06947368, 0.25740337
 0.07578947, 0.25740337
 0.09894737, 0.25740337
 0.33263158, 0.25641361
 0.40421053, 0.29138198
 0.51157895, 0.37617761
 0.41894737, 0.37184888
 0.13684211, 0.34568214
 0.20842105, 0.25853813
 0.12, 0.24485737
 0.09894737, 0.16641714
 0.09052632, 0.24002603
 0.04842105, 0.20170546
 0.02315789, 0.15543999
 0.03368421, 0.08845541
 0.04842105, 0.07116315
 0.09473684, 0.10852143
 0.08842105, 0.12281063
 0.08631579, 0.07525203
 0.07157895, 0.14452618
 0.07578947, 0.07566129
 0.02736842, 0.14889166
 0.06736842, 0.10657455
 0.14736842, 0.21407816
 0.25894737, 0.18530574
 0.21473684, 0.29061836
 0.18526316, 0.24256709
 0.16421053, 0.27789378
 0.56421053, 0.31189373
 0.48842105, 0.37754509
 0.54105263, 0.46360385
 0.26105263, 0.30880806
 0.16421053, 0.24609216
 0.33052632, 0.2497133
 0.22315789, 0.21895802
 0.32842105, 0.23943254
 0.20210526, 0.15683763
 0.25894737, 0.17947605
 0.10105263, 0.13282162
 0.11157895, 0.29491833
 0.04842105, 0.23518182
 0.06526316, 0.30322084
 0.04, 0.10055754
 0.04631579, 0.10408841
 0.05684211, 0.16525221
 0.08631579, 0.09730318
 0.16421053, 0.09751742
 0.26947368, 0.21707563
 0.30526316, 0.22418745
 0.28631579, 0.27903277
 0.29263158, 0.22154769
 0.26947368, 0.27824149
 0.63789474, 0.23818652
 0.73052632, 0.46990585
 0.61263158, 0.47567749
 0.50526316, 0.34180754
 0.27578947, 0.26698065
 0.40631579, 0.19952852
 0.26105263, 0.22835453
 0.30315789, 0.13828108
 0.19578947, 0.20150504
 0.10736842, 0.14115094
 0.09052632, 0.15124603
 0.03789474, 0.12623999
 0.01894737, 0.08483389
 0.07578947, 0.08474585
 0.02315789, 0.08245796
 0.02526316, 0.13206896
 0.04210526, 0.08682375
 0.02526316, 0.1640428
 0.16210526, 0.09856182
 0.18947368, 0.15163442
 0.21263158, 0.11652601
 0.18315789, 0.22427037
 0.15368421, 0.23074883
 0.13894737, 0.26133043
 0.27368421, 0.27097654
 0.31578947, 0.32225183
 0.34315789, 0.31752217
 0.45894737, 0.27945676
 0.34947368, 0.38067335
 0.16842105, 0.33278096
 0.11578947, 0.2539632
 0.03368421, 0.12607113
 0.05684211, 0.16992742
 0.08631579, 0.10116591
 0.03789474, 0.21017413
 0.02105263, 0.20053639
 0.04, 0.19985217
 0.06947368, 0.17026031
 0.09052632, 0.12936011
 0.09684211, 0.23298542
 0.10315789, 0.2584419
 0.04, 0.25848481
 0.08421053, 0.18838775
 0.22315789, 0.25740337
 0.24631579, 0.25631377
 0.26526316, 0.25740337
 0.24421053, 0.26171094
 0.28842105, 0.25748116
 0.44, 0.26877719
 0.56631579, 0.33780503
 0.56, 0.370354
 0.56, 0.488231
 0.49894737, 0.4312962
 0.38526316, 0.38040745
 0.09473684, 0.3648113
 0.05263158, 0.21480542
 0.07368421, 0.19262345
 0.09684211, 0.2171566
 0.13894737, 0.16301443
 0.07789474, 0.14845654
 0.04631579, 0.1553129
 0.08421053, 0.11786059
 0.08210526, 0.13110064
 0.04842105, 0.08307049
 0.05473684, 0.08670679
 0.16842105, 0.10665601
 0.18736842, 0.16903667
 0.2, 0.26139015
 0.37684211, 0.29447055
 0.34947368, 0.31752846
 0.38315789, 0.33119154
 0.28842105, 0.31403226
 0.57052632, 0.29469761
 0.36842105, 0.37568456
 0.11368421, 0.31315619
 0.32210526, 0.22509977
 0.34315789, 0.22421616
 0.44421053, 0.19543147
 0.32, 0.20213479
 0.46736842, 0.24931362
 0.37684211, 0.21690838
 0.37894737, 0.27342689
 0.47368421, 0.19502716
 0.53263158, 0.2671043
 0.44631579, 0.44310972
 0.45894737, 0.25310382
 0.45473684, 0.41414469
 0.41473684, 0.24927652
 0.41684211, 0.25362632
 0.35789474, 0.28230524
 0.53052632, 0.27126333
 0.57684211, 0.20861125
 0.73052632, 0.56965375
 0.73473684, 0.39455128
 0.80421053, 0.46984762
 1., 0.42663485
 0.83789474, 0.80328625
 0.81894737, 0.54909813
 0.70947368, 0.54814476
 0.66947368, 0.34370005
 0.55157895, 0.32324612
 0.37894737, 0.30794078
 0.23157895, 0.25740337
 0.24, 0.25398412
 0.19789474, 0.25740337
 0.27789474, 0.19656752
 0.20421053, 0.24969085
 0.14526316, 0.24953294
 0.14315789, 0.17923461
 0.15157895, 0.25136119
 0.08, 0.2052795
 0.01052632, 0.20221339
 0.08842105, 0.23549545
 0.06526316, 0.18954013
 0.03157895, 0.20070113
 0.08631579, 0.17357969
 0.05473684, 0.32678878
 0.08210526, 0.19170231
 0.07789474, 0.32659236
 0.09473684, 0.18243504
 0.07368421, 0.2026071
 0.09263158, 0.21948288
 0.40210526, 0.24380857
 0.56421053, 0.43045929
 0.51789474, 0.45164949
 0.49263158, 0.46447116
 0.33052632, 0.30486012
 0.20421053, 0.1631771
 0.16842105, 0.15441337
 0.16842105, 0.13630897
 0.06736842, 0.25615275
 0.09473684, 0.09325258
 0.19789474, 0.25740337
 0.16631579, 0.09078836
 0.07368421, 0.11088796
 0.02947368, 0.08802588
 0.10105263, 0.08061291
 0.07368421, 0.08171327
 0.06105263, 0.10571405
 0.05263158, 0.09876533
 0.04842105, 0.13713345
 0.07157895, 0.14907154
 0.11578947, 0.25268725
 0.06736842, 0.35412508
 0.13684211, 0.28684109
 0.18105263, 0.36440343
 0.34947368, 0.2834551
 0.40842105, 0.48436302
 0.24842105, 0.3683545
 0.20842105, 0.27974948
 0.20421053, 0.25918671
 0.34947368, 0.1899215
 0.21052632, 0.25708151
 0.20421053, 0.21825407
 0.09263158, 0.25682181
 0.09684211, 0.1650953
 0.07157895, 0.10064347
 0.06315789, 0.10278456
 0.17894737, 0.08120945
 0.16, 0.1247696
 0.07368421, 0.25740337
 0.07789474, 0.09714486
 0.06526316, 0.27331871
 0.10315789, 0.08724678
 0.17263158, 0.13920835
 0.21052632, 0.26628798
 0.24210526, 0.39929387
 0.24210526, 0.32509422
 0.18736842, 0.37605074
 0.37894737, 0.30681372
 0.36, 0.50468802
 0.27789474, 0.30002147
 0.31368421, 0.21931392
 0.13263158, 0.24637176
 0.06526316, 0.17266014
 0.03368421, 0.11829142
 0.06947368, 0.18489361
 0.09052632, 0.13220333
 0.11578947, 0.21407688
 0.10105263, 0.25901943
 0.06736842, 0.26765394
 0.07157895, 0.2516984
 0.01052632, 0.20056699
 0.04210526, 0.12175772
 0.06947368, 0.10792086
 0.04631579, 0.2428589
 0.03578947, 0.12045555
 0.02526316, 0.2750681
 0.15789474, 0.2102524
 0.17894737, 0.24210852
 0.12210526, 0.27222201
 0.10526316, 0.23566253
 0.15368421, 0.25740337
 0.51368421, 0.17917022
 0.41684211, 0.39666346
 0.22947368, 0.38036531
 0.26526316, 0.25740337
 0.29263158, 0.25740337
 0.18526316, 0.18014365
 0.12210526, 0.23660316
 0.16, 0.2422794
 0.17684211, 0.20458959
 0.13894737, 0.1431555
 0.12631579, 0.26336652
 0.05473684, 0.19073971
 0.06526316, 0.25740337
 0.10736842, 0.25517291
 0.11789474, 0.21748045
 0.08421053, 0.25673622
 0.02736842, 0.22077122
 0.01684211, 0.25338101
 0.05052632, 0.18772134
 0.08421053, 0.24728034
 0.13052632, 0.20603997
 0.12421053, 0.21578884
 0.26736842, 0.22751214
 0.57052632, 0.30797544
 0.50315789, 0.5672636
 0.31368421, 0.41036505
 0.30105263, 0.25740337
 0.28421053, 0.2388874
 0.19368421, 0.22079375
 0.18105263, 0.15599926
 0.14947368, 0.15608421
 0.07789474, 0.14323753
 0.04421053, 0.12331003
 0.08, 0.20316152
 0.12421053, 0.19470963
 0.08631579, 0.21689117
 0.07368421, 0.05624864
 0.07789474, 0.22131106
 0.11157895, 0.04232141
 0.08, 0.15862498
 0.09894737, 0.25108418
 0.29684211, 0.17384695
 0.44842105, 0.2879388
 0.47789474, 0.26075378
 0.40842105, 0.25930545
 0.27157895, 0.25774029
 0.27368421, 0.25836536
 0.31789474, 0.2137334
 0.50315789, 0.19653192
 0.60842105, 0.28200594
 0.59578947, 0.36275691
 0.65894737, 0.34272024
 0.53052632, 0.33787018
 0.46736842, 0.32076716
 0.32421053, 0.21637252
 0.19368421, 0.19172506
 0.21052632, 0.17871985
 0.18105263, 0.15749079
 0.16842105, 0.17277625
 0.17473684, 0.12918033
 0.19789474, 0.14715499
 0.14315789, 0.08909491
 0.14526316, 0.12673682
 0.13473684, 0.09437272
 0.13473684, 0.14913844
 0.04421053, 0.13670775
 0.03789474, 0.16209309
 0.04210526, 0.10703103
 0.07578947, 0.11883616
 0.08210526, 0.13804644
 0.13684211, 0.19391645
 0.24421053, 0.17828961
 0.28421053, 0.24119401
 0.33684211, 0.31598854
 0.43789474, 0.27801108
 0.45052632, 0.40991443
 0.32631579, 0.40119821
 0.20210526, 0.19838658
 0.14947368, 0.24685054
 0.07578947, 0.13624786
 0.11157895, 0.18106584
 0.14315789, 0.10436739
 0.09684211, 0.2230885
 0.09894737, 0.24852559
 0.06105263, 0.18897307
 0.05473684, 0.25829214
 0.08421053, 0.12214351
 0.13894737, 0.23796761
 0.03368421, 0.23145422
 0.05052632, 0.20795426
 0.11578947, 0.20701224
 0.07157895, 0.17508909
 0.08421053, 0.18483634
 0.10105263, 0.18865633
 0.12631579, 0.23633081
 0.18736842, 0.28601772
 0.20631579, 0.2535165
 0.60210526, 0.39984721
 0.18947368, 0.46373343
 0.16, 0.22687411
 0.16210526, 0.26424852
 0.14526316, 0.13076547
 0.07368421, 0.26330486
 0.15157895, 0.18375614
 0.22105263, 0.25740337
 0.12, 0.26947683
 0.09052632, 0.29958099
 0.07157895, 0.52058136
 0.07578947, 0.20755041
 0.06105263, 0.34037203
 0.13894737, 0.24629141
 0.11157895, 0.3027221
 0.08210526, 0.2268703
 0.06736842, 0.25596377
 0.05263158, 0.2383185
 0.08, 0.16652223
 0.05052632, 0.19189258
 0.05052632, 0.218692
 0.08421053, 0.24865986
 0.10736842, 0.28712332
 0.15368421, 0.28143758
 0.06947368, 0.25142789
 0.08842105, 0.27161583
 0.17684211, 0.25968617
 0.08421053, 0.26721793
 0.04842105, 0.18332446
 0.10736842, 0.2593607
 0.13052632, 0.18202686
 0.08842105, 0.25045016
 0.08, 0.23151657
 0.08421053, 0.26065797
 0.07157895, 0.24198018
 0.07789474, 0.24426328
 0.09263158, 0.23593827
 0.12842105, 0.17371029
 0.09894737, 0.37745148
 0.03789474, 0.23029813
 0.07157895, 0.2492649
 0.05894737, 0.11095925
 0.08421053, 0.12092756
 0.12210526, 0.11775976
 0.15368421, 0.25884396
 0.23789474, 0.10760668
 0.10947368, 0.38231602
 0.24, 0.29310864
 0.20631579, 0.32018006
 0.24, 0.38546461
 0.21684211, 0.37078086
 0.13894737, 0.38223767
 0.05894737, 0.25740337
 0.11578947, 0.27988359
 0.11157895, 0.23809463
 0.08210526, 0.25507605
 0.12421053, 0.24708752
 0.17263158, 0.20806088
 0.17894737, 0.29246211
 0.11789474, 0.25740337
 0.16, 0.13311513
 0.05473684, 0.25740337
 0.16842105, 0.14536783
 0.10105263, 0.14561558
 0.05052632, 0.24006347
 0.05263158, 0.1578038
 0.10526316, 0.15890606
 0.11157895, 0.15497038
 0.08421053, 0.15053944
 0.05473684, 0.35886419
 0.58526316, 0.17899622
 0.40842105, 0.39056882
 0.11157895, 0.31238297
 0.05894737, 0.08370307
 0.05473684, 0.17497846
 0.03789474, 0.02769123
 0.09263158, 0.00437194
 0.12421053, 0.16582963
 0.05473684, 0.25326192
 0.06736842, 0.24386863
 0.58105263, 0.33104637
 0.37684211, 0.26338515
 0.34315789, 0.53934944
 0.15789474, 0.32253957
 0.09684211, 0.29450667
 0.08631579, 0.11222707
 0.10736842, 0.25740337
 0.06736842, 0.26210693
 0.02315789, 0.32517788
 0.01684211, 0.31892878
 0.22315789, 0.28059641
 0.25684211, 0.26467252
 0.44631579, 0.270816
 0.56210526, 0.29427865
 0.56421053, 0.31566244
 0.60842105, 0.28353104
 0.64, 0.33991328
 0.45684211, 0.25917175
 0.21263158, 0.25782505
 0.20421053, 0.24641226
 0.18947368, 0.1878632
 0.16210526, 0.22218801
 0.07578947, 0.17615958
 0.08421053, 0.15663597
 0.08421053, 0.10753798
 0.10315789, 0.10084988
 0.12, 0.11154738
 0.08421053, 0.11112875
 0.08631579, 0.07438999
 0.04842105, 0.06621771
 0.05052632, 0.09375773
 0.06315789, 0.11704396
 0.02105263, 0.19056469
 0.05894737, 0.18918622
 0.15157895, 0.2235755
 0.24421053, 0.22591877
 0.21894737, 0.28876483
 0.23368421, 0.30175549
 0.20210526, 0.27958441
 0.28210526, 0.32120806
 0.32210526, 0.23526689
 0.05684211, 0.37065351
 0.12842105, 0.14962345
 0.23578947, 0.23083222
 0.18947368, 0.25736493
 0.23368421, 0.21159725
 0.16842105, 0.24034707
 0.08842105, 0.25302926
 0.17263158, 0.20167261
 0.07157895, 0.14240053
 0., 0.13386315
 0.04842105, 0.22168735
 0.05052632, 0.14800836
 0.04, 0.05632526
 0.01684211, 0.09942079
 0.02947368, 0.11132076
 0.03368421, 0.17082627
 0.07157895, 0.16226676
 0.17473684, 0.14963856
 0.19578947, 0.22226393
 0.25684211, 0.22045194
 0.28210526, 0.29570913
 0.31368421, 0.26094607
 0.34315789, 0.37007928
 0.26736842, 0.34338206
 0.26105263, 0.25069702
 0.17684211, 0.29421771
 0.33894737, 0.23665887
 0.31157895, 0.25525546
 0.22736842, 0.23531698
 0.17052632, 0.25411409
 0.11157895, 0.19792864
 0.11789474, 0.13979612
 0.09473684, 0.12940732
 0.08210526, 0.23693964
 0.07789474, 0.16586201
 0.16631579, 0.29856354
 0.24631579, 0.13216339
 0.34736842, 0.29252902
 0.08842105, 0.252675
 0.20842105, 0.31279588
 0.10947368, 0.23158725
 0.06947368, 0.20717452
 0.16631579, 0.20150028
 0.17894737, 0.24548814
 0.17473684, 0.31419706
 0.25263158, 0.26720801
 0.29684211, 0.2818456
 0.26526316, 0.33602896
 0.32631579, 0.25550357
 0.49473684, 0.30104217
 0.40631579, 0.39372402
 0.21684211, 0.28964141
 0.20842105, 0.25548711
 0.11789474, 0.24421173
 0.09684211, 0.16329256
 0.10315789, 0.07619932
 0.07368421, 0.11667044
 0.13894737, 0.17968942
 0.10526316, 0.10780673
 0.06736842, 0.25558048
 0.09684211, 0.10010454
 0.03578947, 0.20288846
 0.07157895, 0.11016566
 0.02526316, 0.13932118
 0.08842105, 0.13653262
 0.14105263, 0.16921619
 0.11789474, 0.23788302
 0.16421053, 0.23059644
 0.28421053, 0.26039222
 0.28842105, 0.32018447
 0.36, 0.29277113
 0.37052632, 0.39639205
 0.43157895, 0.39242482
 0.39368421, 0.4014791
 0.25894737, 0.46990955
 0.34736842, 0.22035247
 0.18105263, 0.24917972
 0.25473684, 0.1950077
 0.18736842, 0.17610438
 0.17894737, 0.17752041
 0.05263158, 0.1507142
 0.18526316, 0.1187284
 0.08210526, 0.12110288
 0.10315789, 0.11524171
 0.12210526, 0.11406775
 0.16421053, 0.11925717
 0.22947368, 0.11494912
 0.33684211, 0.13316238
 0.41684211, 0.1245518
 0.45473684, 0.38620955
 0.32631579, 0.43375444
 0.46947368, 0.21899024
 0.47789474, 0.30411431
 0.42315789, 0.26777014
 0.40631579, 0.3325581
 0.44, 0.2781499
 0.60842105, 0.2959899
 0.53052632, 0.26490879
 0.68421053, 0.29866058
 0.37052632, 0.3559162
 0.34526316, 0.26711354
 0.20210526, 0.24998993
 0.32421053, 0.1974851
 0.25684211, 0.18597461
 0.21684211, 0.19355506
 0.19789474, 0.16679138
 0.32842105, 0.13989434
 0.27578947, 0.15121683
 0.23789474, 0.12179168
 0.21052632, 0.19316751
 0.22105263, 0.18828046
 0.24842105, 0.1600627
 0.29473684, 0.25360128
 0.20210526, 0.20655093
 0.27789474, 0.19154821
 0.32, 0.22828943
 0.36, 0.26502615
 0.39368421, 0.30191538
 0.56421053, 0.30123264
 0.55368421, 0.33489233
 0.43789474, 0.27533472
 0.60210526, 0.28246084
 0.43157895, 0.35934013
 0.40842105, 0.21876419
 0.29684211, 0.26004514
 0.23578947, 0.18530434
 0.24210526, 0.25529611
 0.26526316, 0.09337637
 0.29473684, 0.14035589
 0.35578947, 0.20008713
 0.37052632, 0.23761103
 0.26105263, 0.20469764
 0.08, 0.1921069
 0.17894737, 0.16037005
 0.25263158, 0.15485319
 0.22315789, 0.25156108
 0.34736842, 0.26073635
 0.50736842, 0.30854672
 0.50947368, 0.28542265
 0.59789474, 0.27633369
 0.50526316, 0.39334032
 0.49684211, 0.42959696
 0.46105263, 0.42806605
 0.52, 0.36390951
 0.61894737, 0.38060671
 0.58526316, 0.36234647
 0.46105263, 0.33062032
 0.36631579, 0.30148476
 0.16842105, 0.25582689
 0.17684211, 0.19238487
 0.32, 0.19076836
 0.32631579, 0.24849153
 0.34105263, 0.2542688
 0.10736842, 0.23481217
 0.30315789, 0.21286197
 0.10526316, 0.18879068
 0.11157895, 0.22016516
 0.05263158, 0.15993369
 0.04842105, 0.20429043
 0.06526316, 0.17290196
 0.15368421, 0.16618636
 0.09473684, 0.32747459
 0.05684211, 0.2288426
 0.08210526, 0.30431402
 0.07368421, 0.18823379
 0.15368421, 0.30423254
 0.39157895, 0.2392973
 0.48210526, 0.47048485
 0.28631579, 0.35097057
 0.33473684, 0.26861012
 0.22947368, 0.25740337
 0.15157895, 0.14192641
 0.11789474, 0.2405751
 0.08421053, 0.12798311
 0.08, 0.14838441
 0.04631579, 0.1491819
 0.05052632, 0.15859219
 0.10315789, 0.07564078
 0.08421053, 0.08802089
 0.08842105, 0.06426054
 0.04631579, 0.03033741
 0.02526316, 0.03774253
 0.05894737, 0.13196516
 0.08842105, 0.06673579
 0.16631579, 0.16511843
 0.17684211, 0.22746791
 0.30315789, 0.23629558
 0.31157895, 0.2568886
 0.30315789, 0.28271249
 0.49684211, 0.25705785
 0.63789474, 0.4051353
 0.68210526, 0.41798252
 0.65684211, 0.48476741
 0.68421053, 0.39278299
 0.41684211, 0.36891323
 0.41473684, 0.26684946
 0.29684211, 0.24974525
 0.21894737, 0.17951635
 0.11368421, 0.14591214
 0.04631579, 0.15780926
 0.09052632, 0.11505155
 0.04842105, 0.08924551
 0.08842105, 0.09170751
 0.14736842, 0.10157514
 0.10105263, 0.15306289
 0.19578947, 0.11683431
 0.22526316, 0.16912591
 0.32, 0.18628374
 0.14105263, 0.26628733
 0.07578947, 0.16776991
 0.08631579, 0.22827645
 0.17052632, 0.14922099
 0.21263158, 0.17118314
 0.29473684, 0.27172846
 0.30526316, 0.26826051
 0.26947368, 0.28912416
 0.41263158, 0.30992472
 0.23368421, 0.36813623
 0.28421053, 0.30088568
 0.17263158, 0.26224053
 0.13684211, 0.20929979
 0.07157895, 0.17307031
 0.10947368, 0.18567708
 0.11578947, 0.14275835
 0.11578947, 0.12104098
 0.18947368, 0.08946373
 0.12210526, 0.23167805
 0.06526316, 0.18784766
 0.06105263, 0.20078455
 0.06315789, 0.11821914
 0.04842105, 0.09763265
 0.03157895, 0.16614527
 0.08421053, 0.17596939
 0.11789474, 0.19350377
 0.14947368, 0.17798005
 0.18315789, 0.23420683
 0.19157895, 0.18656334
 0.22315789, 0.32043743
 0.26736842, 0.27975729
 0.29894737, 0.29939264
 0.23157895, 0.23998308
 0.52421053, 0.38346469
 0.45684211, 0.42794186
 0.22736842, 0.31669256
 0.18315789, 0.25740337
 0.12421053, 0.25740337
 0.15157895, 0.22336891
 0.17684211, 0.14896742
 0.08421053, 0.25541508
 0.12421053, 0.23995696
 0.06947368, 0.2437917
 0.08631579, 0.25740337
 0.15368421, 0.2010853
 0.06736842, 0.18806198
 0.02947368, 0.11097524
 0.03157895, 0.13935399
 0.07157895, 0.21174592
 0.14526316, 0.13751455
 0.15789474, 0.24151021
 0.16631579, 0.2241253
 0.23368421, 0.26593596
 0.30526316, 0.29982182
 0.24842105, 0.29745272
 0.29473684, 0.34167594
 0.66736842, 0.36048487
 0.38105263, 0.43642789
 0.26526316, 0.28942442
 0.08842105, 0.2485429
 0.12210526, 0.14963681
 0.08, 0.13801719
 0.07789474, 0.13478665
 0.12842105, 0.25740337
 0.08421053, 0.27127039
 0.11578947, 0.2870152
 0.09894737, 0.36870629
 0.11368421, 0.24109437
 0.11368421, 0.25431526
 0.11368421, 0.2634244
 0.04210526, 0.1803467
 0.02526316, 0.28615332
 0.07578947, 0.14425896
 0.12, 0.19990005
 0.15789474, 0.26933476
 0.23157895, 0.18966477
 0.20631579, 0.23004794
 0.24421053, 0.23819311
 0.18315789, 0.30961704
 0.32842105, 0.39331335
 0.32631579, 0.42061394
 0.19157895, 0.38730276
 0.25894737, 0.17917803
 0.37473684, 0.2561599
 0.19368421, 0.24465711
 0.12421053, 0.1739268
 0.17263158, 0.17334425
 0.11368421, 0.15119718
 0.11789474, 0.15730305
 0.11789474, 0.12934999
 0.11578947, 0.18856448
 0.08631579, 0.12163568
 0.09473684, 0.16331787
 0.11157895, 0.15142475
 0.08210526, 0.1943101
 0.03157895, 0.15342748
 0.04421053, 0.16641727
 0.06736842, 0.14432317
 0.12, 0.1471732
 0.18736842, 0.21764714
 0.2, 0.26529196
 0.28, 0.34435412
 0.35368421, 0.26025474
 0.46947368, 0.32867742
 0.51368421, 0.37330806
 0.25894737, 0.43400311
 0.29052632, 0.21669631
 0.22526316, 0.21282318
 0.12631579, 0.25424463
 0.13052632, 0.16189894
 0.09263158, 0.25731981
 0.08421053, 0.17008056
 0.09263158, 0.14156365
 0.08842105, 0.10695103
 0.06526316, 0.11022985
 0.13473684, 0.09013352
 0.08842105, 0.08332542
 0.12210526, 0.13663799
 0.05263158, 0.10901734
 0.06526316, 0.08038597
 0.05684211, 0.14990395
 0.07789474, 0.11389723
 0.09473684, 0.19823207
 0.19789474, 0.21824448
 0.20421053, 0.27902859
 0.29894737, 0.37746349
 0.30315789, 0.40424573
 0.29894737, 0.50881755
 0.25263158, 0.42539066
 0.20421053, 0.27221772
 0.68, 0.24987838
 0.47368421, 0.41848162
 0.13894737, 0.30646676
 0.17263158, 0.22798775
 0.11157895, 0.25740337
 0.10105263, 0.09032777
 0.11789474, 0.11719404
 0.11368421, 0.12769489
 0.19368421, 0.24117889
 0.20631579, 0.2634362
 0.10526316, 0.3969669
 0.06947368, 0.38268614
 0.04421053, 0.25740337
 0.07789474, 0.33799097
 0.15157895, 0.20743054
 0.25263158, 0.28527826
 0.09473684, 0.25038549
 0.12421053, 0.21338874
 0.17052632, 0.25624859
 0.37894737, 0.31179625
 0.49473684, 0.22723745
 0.49473684, 0.35402915
 0.64210526, 0.25769174
 0.43789474, 0.3556031
 0.40210526, 0.26145193
 0.21473684, 0.32330406
 0.08631579, 0.16652042
 0.08, 0.24281433
 0.04210526, 0.14231575
 0.08, 0.24458051
 0.08842105, 0.09651469
 0.06947368, 0.17720479
 0.08421053, 0.17193604
 0.08631579, 0.17297967
 0.05263158, 0.19140807
 0.04210526, 0.080768
 0.06315789, 0.15114507
 0.00842105, 0.10369304
 0.05894737, 0.14746307
 0.08842105, 0.11962254
 0.11368421, 0.21315312
 0.11789474, 0.11626479
 0.12842105, 0.26330799
 0.20631579, 0.20950253
 0.54526316, 0.26973382
 0.55578947, 0.5583576
 0.38526316, 0.4396438
 0.25473684, 0.26124752
 0.13052632, 0.2435132
 0.17894737, 0.23833027
 0.07157895, 0.13866109
 0.15368421, 0.25620663
 0.09052632, 0.14928281
 0.09684211, 0.25640592
 0.05894737, 0.25300014
 0.10315789, 0.20862445
 0.09263158, 0.23091909
 0.10526316, 0.12420478
 0.06736842, 0.15578693
 0.03368421, 0.08163816
 0.04421053, 0.17924926
 0.01473684, 0.10129923
 0.05473684, 0.11445341
 0.05473684, 0.11251591
 0.03789474, 0.17859694
 0.06105263, 0.1139687
 0.12421053, 0.2537187
 0.12421053, 0.25402546
 0.26736842, 0.4123354
 0.25052632, 0.46593821
 0.46947368, 0.42821777
 0.27578947, 0.53013539
 0.21263158, 0.27374446
 0.10526316, 0.26060778
 0.13894737, 0.13111563
 0.03789474, 0.22857182
 0.06315789, 0.17877123
 0.10105263, 0.2456681
 0.08842105, 0.21445258
 0.05473684, 0.25740337
 0.10736842, 0.25370309
 0.06526316, 0.25781304
 0.12631579, 0.17703202
 0.10736842, 0.19881031
 0.05684211, 0.16211727
 0.08, 0.14735886
 0.03157895, 0.1571506
 0.04, 0.12968808
 0.04842105, 0.112997
 0.10315789, 0.16763586
 0.09894737, 0.17117928
 0.19578947, 0.17574784
 0.41684211, 0.26758134
 0.34105263, 0.3782737
 0.30105263, 0.43159136
 0.26105263, 0.24648502
 0.25263158, 0.17589849
 0.17263158, 0.22951382
 0.18315789, 0.18191275
 0.09263158, 0.18787456
 0.07578947, 0.16257152
 0.02736842, 0.15076984
 0.05052632, 0.10878851
 0.04842105, 0.14600506
 0.06105263, 0.15995651
 0.03578947, 0.13377528
 0.08, 0.17132048
 0.09894737, 0.15901321
 0.09263158, 0.14338773
 0.05263158, 0.32072204
 0.05684211, 0.2022374
 0.04210526, 0.2661047
 0.09894737, 0.25377333
 0.12421053, 0.26473325
 0.29263158, 0.25740337
 0.15578947, 0.33734748
 0.07578947, 0.25872296
 0.15789474, 0.25740337
 0.16842105, 0.24232614
 0.41473684, 0.25643525
 0.11157895, 0.2454478
 0.10736842, 0.25535262
 0.06315789, 0.18404047
 0.10105263, 0.19400351
 0.17684211, 0.10820001
 0.11157895, 0.24150205
 0.21052632, 0.25771779
 0.15368421, 0.47170115
 0.09263158, 0.24385789
 0.08631579, 0.42576724
 0.08210526, 0.2768757
 0.03578947, 0.28915119
 0.08842105, 0.25334853
 0.09263158, 0.25740337
 0.16631579, 0.25813177
 0.18105263, 0.29927665
 0.19578947, 0.2764225
 0.27368421, 0.3422046
 0.20631579, 0.29346243
 0.18736842, 0.25297812
 0.22526316, 0.37381023
 0.24421053, 0.22417292
 0.50947368, 0.37577587
 0.48631579, 0.39567497
 0.16631579, 0.35779953
 0.18526316, 0.25740337
 0.07368421, 0.21116546
 0.12, 0.12103575
 0.24842105, 0.1648266
 0.10105263, 0.24731889
 0.11157895, 0.18874139
 0.14947368, 0.21704103
 0.09473684, 0.21779472
 0.08421053, 0.17324206
 0.13052632, 0.17763969
 0.05263158, 0.20307285
 0.04421053, 0.12181608
 0.11578947, 0.15098289
 0.04210526, 0.24578023
 0.05473684, 0.14182846
 0.04842105, 0.21654591
 0.07157895, 0.14579287
 0.21052632, 0.13816366
 0.56210526, 0.26439521
 0.45052632, 0.53394997
 0.52631579, 0.3108623
 0.51578947, 0.42747605
 0.42736842, 0.28738883
 0.48, 0.31702572
 0.66315789, 0.24782941
 0.49894737, 0.39580911
 0.37052632, 0.20219061
 0.28210526, 0.24885432
 0.25052632, 0.13270724
 0.2, 0.25740337
 0.20210526, 0.10864888
 0.32842105, 0.21101309
 0.22526316, 0.12039782
 0.18315789, 0.16499412
 0.11157895, 0.12534876
 0.15789474, 0.1103102
 0.17263158, 0.09062627
 0.13263158, 0.20872885
 0.08, 0.20579855
 0.29263158, 0.20829776
 0.22526316, 0.29276314
 0.45263158, 0.317213
 0.57473684, 0.49694991
 0.57684211, 0.39570865
 0.62105263, 0.4432146
 0.66947368, 0.43722659
 0.67368421, 0.52625424
 0.39157895, 0.55794358
 0.17052632, 0.28778708
 0.26736842, 0.25740337
 0.16, 0.24348694
 0.08210526, 0.25740337
 0.07157895, 0.21560174
 0.08631579, 0.20443623
 0.06736842, 0.12767236
 0.05263158, 0.20160709
 0.06526316, 0.12239556
 0.05473684, 0.15986913
 0.06736842, 0.09795451
 0.04842105, 0.1502687
 0.02526316, 0.09984177
 0.06315789, 0.17069468
 0.14526316, 0.13749716
 0.15157895, 0.24931486
 0.19578947, 0.20546708
 0.22736842, 0.19717231
 0.20210526, 0.2027044
 0.19368421, 0.2295289
 0.13894737, 0.27414626
 0.15578947, 0.23555675
 0.21684211, 0.19271269
 0.19789474, 0.25497466
 0.14526316, 0.23424591
 0.11157895, 0.25740337
 0.12631579, 0.22913519
 0.09263158, 0.23050354
 0.04421053, 0.18386623
 0.12842105, 0.13305411
 0.05684211, 0.19386405
 0.09684211, 0.15456581
 0.03578947, 0.16516414
 0.07157895, 0.0993965
 0.02526316, 0.11082526
 0.00842105, 0.12538375
 0.02315789, 0.10019763
 0.14736842, 0.1730049
 0.17894737, 0.28538054
 0.18947368, 0.3927654
 0.18315789, 0.47903544
 0.22947368, 0.4930006
 0.23157895, 0.4374679
 0.24631579, 0.34690681
 0.24210526, 0.34445825
 0.30526316, 0.40082058
 0.66315789, 0.34760052
 0.53473684, 0.48326677
 0.46105263, 0.41575783
 0.40421053, 0.30312917
 0.19157895, 0.28736514
 0.16, 0.24921547
 0.10526316, 0.21439104
 0.08631579, 0.21815132
 0.08, 0.20606759
 0.07578947, 0.22433363
 0.06736842, 0.1591398
 0.09263158, 0.22381781
 0.06736842, 0.19410545
 0.04842105, 0.11115396
 0.04210526, 0.09829779
 0.06736842, 0.11297677
 0.07368421, 0.11156389
 0.14105263, 0.11672463
 0.21684211, 0.19491327
 0.29894737, 0.17670672
 0.38947368, 0.25838286
 0.32, 0.23227264
 0.52210526, 0.28970945
 0.64210526, 0.31979704
 0.36210526, 0.45618215
 0.23789474, 0.22488418
 0.15789474, 0.25740337
 0.04842105, 0.13643831
 0.10736842, 0.14244236
 0.13473684, 0.12946577
 0.10105263, 0.25740337
 0.06736842, 0.25740337
 0.12421053, 0.24623173
 0.10736842, 0.28153682
 0.13473684, 0.15598103
 0.06526316, 0.22305168
 0.08842105, 0.21883893
 0.07789474, 0.1742571
 0.06315789, 0.25548902
 0.12421053, 0.19350156
 0.12421053, 0.25740337
 0.15368421, 0.24070743
 0.16210526, 0.22484037
 0.15789474, 0.22136734
 0.22105263, 0.32997292
 0.21894737, 0.33073869
 0.26526316, 0.34816539
 0.27578947, 0.33168826
 0.17052632, 0.31762496
 0.55578947, 0.20574532
 0.38315789, 0.44392487
 0.12631579, 0.25740337
 0.15157895, 0.24638687
 0.11368421, 0.25491777
 0.03157895, 0.13702765
 0.13684211, 0.14504626
 0.06105263, 0.15292633
 0.08, 0.22361024
 0.07789474, 0.19444793
 0.09473684, 0.32994494
 0.05052632, 0.22225007
 0.04631579, 0.26771545
 0.02526316, 0.24324407
 0.09052632, 0.18626933
 0.13052632, 0.16774824
 0.14105263, 0.25166601
 0.18315789, 0.2162824
 0.22105263, 0.24735995
 0.24, 0.20639393
 0.21684211, 0.25647905
 0.23578947, 0.25232142
 0.53263158, 0.24556789
 0.54105263, 0.38482803
 0.38315789, 0.28386769
 0.21263158, 0.25740337
 0.36, 0.25740337
 0.07578947, 0.22345954
 0.2, 0.20015781
 0.08842105, 0.17133707
 0.08, 0.131218
 0.02526316, 0.11274986
 0.04842105, 0.12438777
 0.12631579, 0.07526496
 0.14947368, 0.09504713
 0.11157895, 0.16783503
 0.08631579, 0.2471005
 0.03789474, 0.2040776
 0.08631579, 0.25468984
 0.10526316, 0.15355664
 0.20210526, 0.19969779
 0.24631579, 0.22472756
 0.25473684, 0.23576801
 0.24210526, 0.22256531
 0.62736842, 0.23678932
 0.63368421, 0.3477205
 0.57894737, 0.35768294
 0.57473684, 0.29803544
 0.42736842, 0.280384
 0.36, 0.23908198
 0.29052632, 0.28486571
 0.13263158, 0.20306423
 0.20842105, 0.2242783
 0.20631579, 0.1872274
 0.17052632, 0.17463286
 0.08210526, 0.16224997
 0.09473684, 0.1142702
 0.07578947, 0.08626045
 0.09263158, 0.15078729
 0.10105263, 0.1188259
 0.03789474, 0.1303429
 0.09894737, 0.12313698
 0.16631579, 0.14095056
 0.18105263, 0.25211957
 0.14315789, 0.22383513
 0.21052632, 0.23113075
 0.20210526, 0.26625809
 0.23789474, 0.2692242
 0.56, 0.29986155
 0.62105263, 0.46988416
 0.63368421, 0.44591022
 0.34526316, 0.45862082
 0.21052632, 0.24555618
 0.17263158, 0.24382302
 0.27578947, 0.13958667
 0.07578947, 0.17793454
 0.07789474, 0.23864175
 0.06105263, 0.16261333
 0.11157895, 0.22961996
 0.13473684, 0.15933514
 0.08, 0.11211737
 0.09473684, 0.13132083
 0.07157895, 0.11692818
 0.09473684, 0.10655499
 0.02947368, 0.0863656
 0.02315789, 0.11091632
 0.18736842, 0.10584809
 0.17052632, 0.15846893
 0.18947368, 0.2399174
 0.24842105, 0.28300571
 0.28421053, 0.29159352
 0.30736842, 0.32439128
 0.26315789, 0.29554692
 0.50105263, 0.31684017
 0.62105263, 0.36349204
 0.66947368, 0.36268634
 0.25684211, 0.39178213
 0.23789474, 0.25740337
 0.17263158, 0.25740337
 0.20842105, 0.14620306
 0.16210526, 0.16766533
 0.11157895, 0.15878412
 0.09894737, 0.25329825
 0.09263158, 0.12929295
 0.11157895, 0.21331891
 0.05894737, 0.13317749
 0.09894737, 0.14972755
 0.14736842, 0.14060025
 0.05894737, 0.19882825
 0.11157895, 0.09572086
 0.26105263, 0.16666816
 0.19157895, 0.15694135
 0.17894737, 0.16361153
 0.18736842, 0.24148758
 0.24631579, 0.20122997
 0.18526316, 0.22586304
 0.15578947, 0.19794676
 0.51157895, 0.26319623
 0.62105263, 0.27751312
 0.66736842, 0.28555954
 0.44, 0.30634862
 0.24210526, 0.25606653
 0.19368421, 0.24842522
 0.06526316, 0.12915741
 0.04210526, 0.05766146
 0.09473684, 0.04743281
 0.13052632, 0.15824002
 0.10736842, 0.21719085
 0.12, 0.19885173
 0.12421053, 0.18763351
 0.07157895, 0.20191476
 0.05263158, 0.21602425
 0.03578947, 0.2081863
 0.04421053, 0.1475206
 0.06736842, 0.1939877
 0.07789474, 0.19516425
 0.10526316, 0.16499355
 0.07368421, 0.20823832
 0.17263158, 0.15714839
 0.52210526, 0.23803993
 0.45473684, 0.38771474
 0.29473684, 0.49550799
 0.38315789, 0.3375963
 0.52842105, 0.35778129
 0.41684211, 0.24578716
 0.50105263, 0.26626456
 0.35578947, 0.26366815
 0.15368421, 0.24245262
 0.12210526, 0.22017954
 0.14526316, 0.12845764
 0.08421053, 0.14529139
 0.04842105, 0.12117615
 0.06105263, 0.08492818
 0.10526316, 0.10974997
 0.06736842, 0.0838854
 0.04421053, 0.11586677
 0.01894737, 0.25358742
 0.04210526, 0.09135029
 0.08421053, 0.25119615
 0.07578947, 0.08431359
 0.07789474, 0.16686374
 0.23368421, 0.14290652
 0.34315789, 0.26603061
 0.57052632, 0.34824127
 0.16421053, 0.38000572
 0.18526316, 0.25740337
 0.12, 0.26239613
 0.37052632, 0.15643716
 0.12, 0.2610068
 0.14105263, 0.22489229
 0.13473684, 0.29031765
 0.06526316, 0.2198422
 0.06736842, 0.24909715
 0.11789474, 0.20195785
 0.06736842, 0.23466188
 0.08842105, 0.15777783
 0.15578947, 0.19748773
 0.11578947, 0.36640164
 0.10947368, 0.21651374
 0.08631579, 0.19503959
 0.09052632, 0.22838289
 0.03157895, 0.17375007
 0.06315789, 0.24171643
 0.04842105, 0.14042892
 0.06947368, 0.11211343
 0.08, 0.30630195
 0.07157895, 0.15053459
 0.08631579, 0.19450432
 0.11368421, 0.2160406
 0.10315789, 0.16531801
 0.16, 0.20543917
 0.30315789, 0.26489851
 0.32, 0.36978194
 0.26315789, 0.45613748
 0.13894737, 0.25494906
 0.07157895, 0.1760525
 0.11368421, 0.18560454
 0.08210526, 0.1214692
 0.05473684, 0.20963788
 0.06315789, 0.12200792
 0.08210526, 0.19805047
 0.12631579, 0.20431396
 0.09894737, 0.17851213
 0.05894737, 0.16182061
 0.04631579, 0.14524326
 0.08210526, 0.15030643
 0.20210526, 0.05368939
 0.32210526, 0.17459096
 0.27157895, 0.25292107
 0.37684211, 0.26476765
 0.25684211, 0.31261078
 0.39789474, 0.22052366
 0.61894737, 0.3280437
 0.40631579, 0.35424298
 0.23368421, 0.46622688
 0.47578947, 0.25740337
 0.25684211, 0.37908578
 0.16, 0.13330986
 0.09052632, 0.12967111
 0.05473684, 0.14495872
 0.06315789, 0.11695498
 0.06947368, 0.12915066
 0.08421053, 0.14293502
 0.10526316, 0.15324314
 0.10105263, 0.13943872
 0.11578947, 0.2501823
 0.09473684, 0.08699276
 0.07157895, 0.11056685
 0.04842105, 0.13130359
 0.10947368, 0.1827534
 0.14736842, 0.23219633
 0.16, 0.20341027
 0.20842105, 0.28983402
 0.27789474, 0.22684941
 0.26315789, 0.21717533
 0.31157895, 0.25292608
 0.36842105, 0.34701699
 0.36421053, 0.30688733
 0.36210526, 0.25585815
 0.17894737, 0.27325058
 0.18947368, 0.25167519
 0.18736842, 0.25819147
 0.06526316, 0.17542472
 0.14736842, 0.17305507
 0.13684211, 0.12778829
 0.09684211, 0.13365841
 0.09684211, 0.10284482
 0.11368421, 0.16376999
 0.08210526, 0.09234476
 0.08, 0.16886456
 0.08842105, 0.13194752
 0.09052632, 0.10251927
 0.06315789, 0.14502981
 0.06947368, 0.21580961
 0.09263158, 0.19724748
 0.25684211, 0.18625399
 0.30526316, 0.25740337
 0.28210526, 0.25740337
 0.24842105, 0.25740337
 0.33263158, 0.26477611
 0.27157895, 0.24655867
 0.32210526, 0.26225546
 0.37473684, 0.31913689
 0.38526316, 0.3833701
 0.33052632, 0.29841655
 0.39789474, 0.3330563
 0.06105263, 0.35034391
 0.08, 0.20012072
 0.17263158, 0.182098
 0.12631579, 0.25087616
 0.10736842, 0.19056138
 0.13894737, 0.21534686
 0.16842105, 0.25247309
 0.07157895, 0.26587313
 0.05052632, 0.20300886
 0.07789474, 0.21075243
 0.06315789, 0.18583633
 0.05052632, 0.18501526
 0.09684211, 0.15605424
 0.08631579, 0.16854249
 0.10736842, 0.16580443
 0.16210526, 0.24798213
 0.15157895, 0.36439914
 0.14526316, 0.21937931
 0.26526316, 0.30233493
 0.38736842, 0.33779639
 0.47368421, 0.32076466
 0.48210526, 0.32574493
 0.36421053, 0.37314686
 0.28, 0.26648584
 0.20421053, 0.25740337
 0.15789474, 0.19630453
 0.10105263, 0.21817979
 0.06526316, 0.17856671
 0.06105263, 0.12638453
 0.08842105, 0.09891762
 0.07368421, 0.10924487
 0.03157895, 0.12455265
 0.07368421, 0.0945935
 0.06736842, 0.10969418
 0.05894737, 0.14183375
 0.02526316, 0.1566827
 0.08631579, 0.12433788
 0.16421053, 0.15109707
 0.15789474, 0.25903627
 0.19157895, 0.27657694
 0.17684211, 0.29831293
 0.19789474, 0.31816444
 0.18526316, 0.25947136
 0.27157895, 0.30317682
 0.27368421, 0.2718471
 0.64631579, 0.30267358
 0.57473684, 0.46035033
 0.32842105, 0.49667311
 0.19157895, 0.25740337
 0.19789474, 0.25740337
 0.18105263, 0.25688544
 0.37473684, 0.25740337
 0.12421053, 0.25740337
 0.19368421, 0.25687847
 0.18736842, 0.2502704
 0.13473684, 0.24553679
 0.06526316, 0.23246872
 0.04421053, 0.24968775
 0.01894737, 0.13783056
 0.03578947, 0.08555362
 0.10315789, 0.24508324
 0.15368421, 0.25065702
 0.12210526, 0.22770812
 0.13052632, 0.22631073
 0.19368421, 0.22814205
 0.22526316, 0.21335109
 0.22105263, 0.25057304
 0.58526316, 0.28540277
 0.68210526, 0.38992739
 0.68421053, 0.41729805
 0.41052632, 0.48170224
 0.17052632, 0.24095847
 0.15157895, 0.25740337
 0.20421053, 0.12987335
 0.28842105, 0.20363088
 0.26105263, 0.22501975
 0.20842105, 0.28740695
 0.17473684, 0.25418973
 0.16842105, 0.26748416
 0.11157895, 0.22081754
 0.03578947, 0.21134666
 0.02736842, 0.12648982
 0.02736842, 0.21708114
 0.04631579, 0.15367398
 0.06736842, 0.1385949
 0.12842105, 0.18301013
 0.14736842, 0.17688052
 0.14947368, 0.26414409
 0.21473684, 0.21326931
 0.18315789, 0.28376773
 0.64842105, 0.23928022
 0.80210526, 0.52670485
 0.66947368, 0.52075565
 0.72210526, 0.50912213
 0.52421053, 0.39769894
 0.32842105, 0.35489589
 0.17894737, 0.26064447
 0.16210526, 0.24634835
 0.10526316, 0.17893282
 0.17263158, 0.13954875
 0.06105263, 0.13645217
 0.12842105, 0.1214529
 0.07368421, 0.10479195
 0.08842105, 0.11743104
 0.09473684, 0.09946746
 0.09473684, 0.08930507
 0.05263158, 0.10247791
 0.07789474, 0.14779688
 0.08210526, 0.1339601
 0.05473684, 0.17534861
 0.09473684, 0.20319159
 0.16, 0.15060276
 0.15789474, 0.23119754
 0.19157895, 0.2345584
 0.47157895, 0.23516935
 0.40421053, 0.46059325
 0.55578947, 0.36123019
 0.30315789, 0.35093495
 0.17263158, 0.23756357
 0.09263158, 0.24747378
 0.05894737, 0.11975923
 0.05684211, 0.08704428
 0.04210526, 0.11015068
 0.08210526, 0.15768684
 0.08, 0.23477355
 0.06315789, 0.18623751
 0.11368421, 0.22538234
 0.09473684, 0.19622345
 0.08210526, 0.16811763
 0.04842105, 0.17740512
 0.03157895, 0.15191403
 0.04210526, 0.1572704
 0.08210526, 0.22614107
 0.08421053, 0.25090283
 0.11578947, 0.25004521
 0.10105263, 0.2581656
 0.18105263, 0.21549518
 0.07789474, 0.3841106
 0.24, 0.3344295
 0.45473684, 0.37681752
 0.36421053, 0.47376034
 0.32421053, 0.26784515
 0.17052632, 0.25576907
 0.14526316, 0.14960806
 0.15157895, 0.16925931
 0.16210526, 0.12302724
 0.08421053, 0.19835086
 0.10315789, 0.1273779
 0.03789474, 0.18894112
 0.02315789, 0.23147896
 0.09473684, 0.09254549
 0.03157895, 0.14618444
 0.01894737, 0.19341514
 0.09684211, 0.09569067
 0.01684211, 0.10121717
 0.05684211, 0.08086281
 0.03578947, 0.10485592
 0.11578947, 0.15858121
 0.31368421, 0.18210517
 0.22526316, 0.3189849
 0.25263158, 0.31344223
 0.32210526, 0.3110446
 0.24, 0.3100051
 0.24842105, 0.28979981
 0.09052632, 0.30872551
 0.10105263, 0.2199797
 0.15789474, 0.15146688
 0.37263158, 0.20046559
 0.33473684, 0.25740337
 0.18105263, 0.23609027
 0.08421053, 0.25740337
 0.07157895, 0.20670599
