tar,out
 0.22315789, 0.27088487
 0.19789474, 0.24616672
 0.29473684, 0.14706373
 0.47789474, 0.18456699
 0.25263158, 0.38789588
 0.09894737, 0.21259628
 0.08631579, 0.25222284
 0.21894737, 0.09082538
 0.09684211, 0.1550736
 0.11157895, 0.07737349
 0.10736842, 0.19652005
 0.15789474, 0.15081945
 0.51578947, 0.25222284
 0.61894737, 0.25222284
 0.72210526, 0.26257116
 0.57894737, 0.34481317
 0.48631579, 0.31047186
 0.47368421, 0.27650994
 0.49894737, 0.30375761
 0.42736842, 0.24421123
 0.16210526, 0.31039777
 0.20631579, 0.22218096
 0.10315789, 0.17158243
 0.2, 0.10704879
 0.14315789, 0.14461167
 0.06315789, 0.12584089
 0.04631579, 0.11300099
 0.04631579, 0.11644471
 0.04842105, 0.07458967
 0.05894737, 0.16814199
 0.01894737, 0.16019641
 0.07789474, 0.19017103
 0.16631579, 0.11409047
 0.15578947, 0.18245678
 0.13263158, 0.18255618
 0.12842105, 0.25854975
 0.10947368, 0.30458027
 0.17052632, 0.31222916
 0.69684211, 0.40134755
 0.65684211, 0.46808815
 0.61684211, 0.44033337
 0.45894737, 0.38872781
 0.36842105, 0.21044677
 0.31157895, 0.20028277
 0.36842105, 0.19761589
 0.32421053, 0.22377075
 0.26526316, 0.24854217
 0.21263158, 0.19395438
 0.25052632, 0.25222284
 0.26736842, 0.2044365
 0.37684211, 0.24195351
 0.23368421, 0.24705303
 0.11789474, 0.17280325
 0.01894737, 0.22016853
 0.09894737, 0.09288175
 0.21473684, 0.11514595
 0.14315789, 0.22142611
 0.08, 0.21939699
 0.13894737, 0.25222284
 0.13894737, 0.24391717
 0.18105263, 0.25222284
 0.20421053, 0.33522287
 0.38315789, 0.31818396
 0.42526316, 0.41856027
 0.36631579, 0.41117245
 0.19789474, 0.38066646
 0.09473684, 0.27338454
 0.12210526, 0.25222284
 0.11789474, 0.23865949
 0.12421053, 0.22024529
 0.21473684, 0.22814582
 0.17263158, 0.25222284
 0.04210526, 0.27898771
 0.03578947, 0.22492567
 0.08421053, 0.26296258
 0.05894737, 0.17939523
 0.12210526, 0.21122654
 0.07157895, 0.24168828
 0.12421053, 0.18791299
 0.08631579, 0.25608408
 0.20421053, 0.1849532
 0.09894737, 0.26631394
 0.09684211, 0.33310643
 0.06736842, 0.19191307
 0.16210526, 0.23126562
 0.53894737, 0.25223851
 0.46736842, 0.259516
 0.68631579, 0.25900343
 0.57263158, 0.43703187
 0.35368421, 0.48373502
 0.26315789, 0.23610318
 0.17473684, 0.18001245
 0.30315789, 0.18945792
 0.2, 0.16506773
 0.05684211, 0.23216297
 0.07157895, 0.17215598
 0.07368421, 0.16500899
 0.09263158, 0.08631252
 0.06315789, 0.20098391
 0.10105263, 0.15074691
 0.15578947, 0.13267089
 0.30315789, 0.09594493
 0.45052632, 0.24202166
 0.38526316, 0.25222284
 0.17473684, 0.24025798
 0.29052632, 0.25222284
 0.32631579, 0.25222284
 0.34736842, 0.27643406
 0.44842105, 0.27068326
 0.60210526, 0.44891471
 0.70526316, 0.35266256
 0.74736842, 0.31554067
 0.75368421, 0.29419139
 0.84631579, 0.30262136
 0.63368421, 0.26703286
 0.37894737, 0.35041884
 0.28842105, 0.25545552
 0.22947368, 0.24967338
 0.28842105, 0.17559499
 0.14947368, 0.17643273
 0.21473684, 0.15013516
 0.30736842, 0.14630596
 0.27157895, 0.25044298
 0.22947368, 0.1702275
 0.19578947, 0.25046462
 0.27368421, 0.16736913
 0.22736842, 0.2273892
 0.32631579, 0.20991915
 0.41263158, 0.20009741
 0.41894737, 0.35771364
 0.44631579, 0.33223695
 0.45894737, 0.29726201
 0.4, 0.30237341
 0.47157895, 0.26619786
 0.50526316, 0.31052619
 0.59368421, 0.34446827
 0.57684211, 0.32015529
 0.6, 0.33604276
 0.64, 0.37291336
 0.55789474, 0.38357693
 0.50736842, 0.37080577
 0.48631579, 0.26882666
 0.44842105, 0.32280681
 0.34947368, 0.27115867
 0.28421053, 0.2620784
 0.20842105, 0.16922891
 0.33473684, 0.11586893
 0.26526316, 0.13828191
 0.13684211, 0.16305852
 0.09473684, 0.08986512
 0.04, 0.05573459
 0.16631579, 0.07939595
 0.32631579, 0.05773875
 0.34105263, 0.265183
 0.31789474, 0.25278524
 0.24210526, 0.32058582
 0.21263158, 0.18525663
 0.22736842, 0.27610475
 0.22526316, 0.25894761
 0.34526316, 0.33165097
 0.52842105, 0.27305984
 0.35578947, 0.45020184
 0.60631579, 0.25973418
 0.50736842, 0.39221817
 0.18105263, 0.27859256
 0.13263158, 0.17537658
 0.14526316, 0.16583921
 0.19578947, 0.14137131
 0.17263158, 0.17451237
 0.09052632, 0.15905097
 0.02315789, 0.18375212
 0.06947368, 0.15551788
 0.07368421, 0.14755437
 0.02315789, 0.15961811
 0.01894737, 0.25222284
 0.05052632, 0.21346854
 0.11578947, 0.21170065
 0.16, 0.2082921
 0.26526316, 0.25222284
 0.36, 0.309432
 0.41473684, 0.26587701
 0.37684211, 0.39501566
 0.33894737, 0.33630347
 0.51157895, 0.29645202
 0.58526316, 0.47155249
 0.33473684, 0.36874491
 0.33894737, 0.22202656
 0.18947368, 0.2537612
 0.23157895, 0.13907725
 0.09473684, 0.21337268
 0.25894737, 0.12733385
 0.30947368, 0.23047714
 0.33684211, 0.13003147
 0.38526316, 0.16777176
 0.32210526, 0.29558176
 0.20842105, 0.26782402
 0.26105263, 0.14993292
 0.03157895, 0.21282114
 0.09473684, 0.09287244
 0.04210526, 0.119671
 0.12210526, 0.112886
 0.13684211, 0.1451627
 0.16210526, 0.21376316
 0.24421053, 0.20771714
 0.33263158, 0.23247124
 0.34105263, 0.25222284
 0.39578947, 0.25222284
 0.39578947, 0.27266261
 0.30526316, 0.284814
 0.28421053, 0.2591579
 0.38947368, 0.21918152
 0.28210526, 0.25498477
 0.37263158, 0.17489752
 0.18315789, 0.22145209
 0.22105263, 0.14064738
 0.17473684, 0.13229415
 0.30526316, 0.1088018
 0.31578947, 0.10887043
 0.19789474, 0.1176969
 0.06736842, 0.11127692
 0.05473684, 0.06717801
 0.06105263, 0.08951689
 0.08, 0.06877483
 0.05052632, 0.25376689
 0.09473684, 0.18703973
 0.15368421, 0.24618962
 0.27578947, 0.25743249
 0.20210526, 0.25222284
 0.17684211, 0.25932387
 0.25894737, 0.25222284
 0.29263158, 0.29841557
 0.51157895, 0.25481343
 0.59578947, 0.41033792
 0.58736842, 0.43149048
 0.45052632, 0.54176283
 0.37052632, 0.2863467
 0.50105263, 0.27709329
 0.40210526, 0.26694712
 0.38105263, 0.30968541
 0.38105263, 0.32420939
 0.26736842, 0.26973423
 0.31578947, 0.31427819
 0.17473684, 0.19560257
 0.09473684, 0.20675834
 0.09473684, 0.11491594
 0.09473684, 0.10519101
 0.05473684, 0.14548725
 0.02315789, 0.10258934
 0.11368421, 0.15347445
 0.09473684, 0.12954542
 0.09684211, 0.18610761
 0.13684211, 0.14373726
 0.19368421, 0.23285678
 0.18105263, 0.32636362
 0.16421053, 0.33386233
 0.15578947, 0.21988949
 0.42736842, 0.21145914
 0.53263158, 0.41989082
 0.38526316, 0.37147677
 0.25052632, 0.32038349
 0.22105263, 0.20504095
 0.17684211, 0.13286695
 0.27157895, 0.15328091
 0.19578947, 0.11841053
 0.12210526, 0.25032568
 0.17684211, 0.08607753
 0.14736842, 0.23265812
 0.30105263, 0.22519541
 0.16631579, 0.2504082
 0.09263158, 0.24686795
 0.06947368, 0.23399141
 0.33263158, 0.08277427
 0.30736842, 0.1202077
 0.26315789, 0.20863856
 0.18315789, 0.14194116
 0.37894737, 0.19062229
 0.57052632, 0.23836689
 0.45052632, 0.25222284
 0.45263158, 0.25222284
 0.64421053, 0.3548359
 0.67578947, 0.35615981
 0.63578947, 0.424622
 0.58736842, 0.34995538
 0.43789474, 0.29919317
 0.32421053, 0.32121578
 0.27789474, 0.25222284
 0.29263158, 0.21590623
 0.07578947, 0.24345276
 0.17894737, 0.16506335
 0.07157895, 0.18622291
 0.16421053, 0.10920648
 0.12, 0.12770331
 0.10736842, 0.13628434
 0.04, 0.11116533
 0.02526316, 0.12715507
 0.06105263, 0.07169388
 0.06947368, 0.08857726
 0.17684211, 0.14778496
 0.42315789, 0.23264699
 0.55578947, 0.25935331
 0.64631579, 0.23924054
 0.79789474, 0.44162923
 0.81894737, 0.49524152
 0.72631579, 0.5082283
 0.73894737, 0.40820763
 0.70526316, 0.3746894
 0.52631579, 0.39924785
 0.37684211, 0.21750125
 0.32421053, 0.22550714
 0.36, 0.16079524
 0.22315789, 0.17678863
 0.24, 0.15344203
 0.35368421, 0.14203441
 0.38947368, 0.22522359
 0.49894737, 0.24691483
 0.08842105, 0.28830478
 0.08631579, 0.2530539
 0.18736842, 0.21946625
 0.24, 0.1971412
 0.33894737, 0.24011308
 0.45894737, 0.21762584
 0.45684211, 0.27647716
 0.30947368, 0.27618027
 0.37684211, 0.18829164
 0.44842105, 0.28186041
 0.40210526, 0.25222284
 0.53473684, 0.27192378
 0.65052632, 0.39014792
 0.70947368, 0.27825549
 0.69684211, 0.39020634
 0.60631579, 0.3676281
 0.45894737, 0.36985973
 0.46315789, 0.25181106
 0.42947368, 0.30970716
 0.27368421, 0.32386154
 0.27157895, 0.2820732
 0.20631579, 0.23328964
 0.18105263, 0.19679481
 0.06736842, 0.16703361
 0.16210526, 0.13379371
 0.15368421, 0.15854114
 0.11368421, 0.21399671
 0.09052632, 0.19322298
 0.05052632, 0.23170136
 0.29473684, 0.22017048
 0.36421053, 0.21319214
 0.29473684, 0.37310982
 0.40842105, 0.20094442
 0.51789474, 0.2448938
 0.58736842, 0.26217365
 0.66315789, 0.2928246
 0.70526316, 0.43615219
 0.71157895, 0.45126921
 0.70526316, 0.38904217
 0.52631579, 0.39822924
 0.40210526, 0.34782311
 0.38315789, 0.25328115
 0.35578947, 0.28435192
 0.33473684, 0.2465699
 0.20842105, 0.27070525
 0.14526316, 0.16708934
 0.15157895, 0.15349019
 0.16210526, 0.14246541
 0.12631579, 0.1529175
 0.20842105, 0.1182355
 0.17473684, 0.11775739
 0.07368421, 0.17746182
 0.05894737, 0.10379989
 0.12421053, 0.11999449
 0.42526316, 0.11054386
 0.41684211, 0.33779678
 0.42947368, 0.30061075
 0.57894737, 0.2908318
 0.65263158, 0.40890518
 0.65894737, 0.36748773
 0.70315789, 0.55830163
 0.70736842, 0.48758009
 0.68842105, 0.41969538
 0.63578947, 0.32147622
 0.55157895, 0.37514704
 0.23789474, 0.35400426
 0.23157895, 0.21367392
 0.19578947, 0.23315524
 0.07789474, 0.18268137
 0.21473684, 0.16641375
 0.20631579, 0.14848652
 0.12210526, 0.15257961
 0.2, 0.19655575
 0.17684211, 0.1592356
 0.18947368, 0.15685229
 0.16631579, 0.14234284
 0.17052632, 0.17104729
 0.15368421, 0.11786173
 0.06315789, 0.17295565
 0.10315789, 0.10641621
 0.13894737, 0.21198189
 0.15368421, 0.14743759
 0.23368421, 0.18631074
 0.36842105, 0.20696405
 0.52, 0.26905605
 0.34315789, 0.33445662
 0.56210526, 0.23664737
 0.30947368, 0.33965856
 0.36421053, 0.23536268
 0.54526316, 0.20009956
 0.31157895, 0.28081185
 0.44631579, 0.14867491
 0.42947368, 0.22802792
 0.36842105, 0.14540905
 0.52210526, 0.14745814
 0.09052632, 0.19023485
 0.05473684, 0.13345572
 0.13473684, 0.14430586
 0.11789474, 0.11219606
 0.08842105, 0.0758779
 0.18947368, 0.1516996
 0.13473684, 0.18867683
 0.07789474, 0.17223147
 0.13894737, 0.17971088
 0.26526316, 0.20827004
 0.66315789, 0.19169955
 0.61684211, 0.34667879
 0.42526316, 0.26132667
 0.60842105, 0.23171312
 0.51578947, 0.29819274
 0.67368421, 0.2755436
 0.24210526, 0.3709411
 0.32, 0.23870267
 0.14736842, 0.25059903
 0.19578947, 0.12996848
 0.04421053, 0.12987119
 0.04210526, 0.12266843
 0.08842105, 0.10239792
 0.18947368, 0.16952153
 0.18947368, 0.17364764
 0.13473684, 0.22195977
 0.13052632, 0.17054583
 0.09052632, 0.21936186
 0.07578947, 0.15801524
 0.04631579, 0.14301743
 0.07578947, 0.14945501
 0.07789474, 0.11028616
 0.16210526, 0.27969083
 0.21473684, 0.24576432
 0.54105263, 0.29445934
 0.54315789, 0.38375086
 0.21684211, 0.38006455
 0.22526316, 0.25222284
 0.34736842, 0.25222284
 0.26315789, 0.25022894
 0.38105263, 0.24608263
 0.25684211, 0.24457343
 0.17263158, 0.24642237
 0.10736842, 0.19679743
 0.23578947, 0.13282099
 0.34315789, 0.24195094
 0.53473684, 0.25222284
 0.45684211, 0.25222284
 0.40421053, 0.25222284
 0.25263158, 0.24807443
 0.07157895, 0.23379743
 0.06315789, 0.12461318
 0.02947368, 0.13985527
 0.02105263, 0.19842635
 0.08421053, 0.23619664
 0.08, 0.24473558
 0.13263158, 0.24219163
 0.23368421, 0.24043605
 0.12842105, 0.21315388
 0.24842105, 0.26261437
 0.54947368, 0.23072901
 0.38947368, 0.37410665
 0.54105263, 0.29462859
 0.60210526, 0.42322654
 0.59157895, 0.46107179
 0.38526316, 0.49601001
 0.31789474, 0.38793463
 0.48842105, 0.32835335
 0.15157895, 0.28009522
 0.25263158, 0.18983123
 0.21894737, 0.23881696
 0.10736842, 0.18156052
 0.13684211, 0.13170199
 0.10736842, 0.12433773
 0.09684211, 0.18822707
 0.09684211, 0.1335113
 0.20631579, 0.18835624
 0.43578947, 0.18849921
 0.37052632, 0.25222284
 0.29684211, 0.27240986
 0.25684211, 0.26596412
 0.27789474, 0.16770327
 0.21684211, 0.1900773
 0.17052632, 0.2311857
 0.17052632, 0.17960459
 0.06947368, 0.18626276
 0.53894737, 0.17544135
 0.52842105, 0.19420949
 0.39578947, 0.25222284
 0.16842105, 0.16184744
 0.37052632, 0.25222284
 0.25684211, 0.20022869
 0.20210526, 0.25222284
 0.14105263, 0.22563522
 0.18526316, 0.21996294
 0.12842105, 0.22002769
 0.14526316, 0.20773682
 0.10526316, 0.21556634
 0.10105263, 0.24543144
 0.09052632, 0.22326837
 0.03578947, 0.2490911
 0.02105263, 0.10365434
 0.07368421, 0.22003715
 0.09263158, 0.15863606
 0.14315789, 0.24671826
 0.14315789, 0.22541827
 0.18105263, 0.21877944
 0.31578947, 0.21168144
 0.34315789, 0.26273885
 0.29473684, 0.2648004
 0.29684211, 0.26028284
 0.46947368, 0.26579067
 0.56631579, 0.44892091
 0.34947368, 0.34378684
 0.28210526, 0.20163074
 0.12, 0.25222284
 0.23368421, 0.10587801
 0.23789474, 0.16718817
 0.07789474, 0.10694641
 0.11578947, 0.18427011
 0.08421053, 0.15365154
 0.10315789, 0.12969077
 0.19157895, 0.10695735
 0.11789474, 0.18648061
 0.18105263, 0.25228876
 0.16631579, 0.19224663
 0.19368421, 0.26119164
 0.27789474, 0.2188409
 0.24, 0.32400495
 0.37473684, 0.35908926
 0.45894737, 0.36103335
 0.38105263, 0.35471356
 0.44842105, 0.26832753
 0.47157895, 0.3279275
 0.29473684, 0.29974762
 0.29263158, 0.27045092
 0.52210526, 0.25463131
 0.63368421, 0.28672954
 0.48842105, 0.28475302
 0.10105263, 0.30153996
 0.09684211, 0.25076085
 0.15157895, 0.0822778
 0.09684211, 0.07191405
 0.12, 0.21309344
 0.08842105, 0.24829897
 0.06947368, 0.25222284
 0.07789474, 0.24601299
 0.09473684, 0.21992746
 0.06105263, 0.25222284
 0.04210526, 0.25000241
 0.11368421, 0.22613204
 0.29052632, 0.26080576
 0.43368421, 0.26008397
 0.43368421, 0.33034697
 0.31789474, 0.32471243
 0.22315789, 0.28691801
 0.22315789, 0.24512792
 0.24, 0.22327468
 0.31578947, 0.25765249
 0.38736842, 0.25933003
 0.41473684, 0.25628236
 0.61052632, 0.2641128
 0.21263158, 0.328376
 0.12421053, 0.21647659
 0.16421053, 0.24794547
 0.08842105, 0.16360867
 0.09684211, 0.12084094
 0.08210526, 0.1135872
 0.09052632, 0.16392905
 0.08210526, 0.12742038
 0.09263158, 0.17628567
 0.07578947, 0.17208035
 0.03578947, 0.22669297
 0.03368421, 0.26404411
 0.06105263, 0.20011543
 0.09052632, 0.2511144
 0.17263158, 0.23511824
 0.19157895, 0.26044577
 0.2, 0.26596677
 0.27578947, 0.30900839
 0.35368421, 0.26700023
 0.32421053, 0.32992101
 0.31368421, 0.33669713
 0.33052632, 0.24694735
 0.37052632, 0.15569353
 0.29894737, 0.2132169
 0.03157895, 0.21795461
 0.10105263, 0.23353252
 0.15157895, 0.0760106
 0.14736842, 0.18564355
 0.10947368, 0.15180457
 0.05684211, 0.18661563
 0.07578947, 0.18555212
 0.10526316, 0.14403412
 0.10947368, 0.21656066
 0.15157895, 0.17981869
 0.10105263, 0.22922628
 0.03368421, 0.19170395
 0.05473684, 0.11639658
 0.09894737, 0.10551664
 0.11789474, 0.25040418
 0.19578947, 0.25222284
 0.18736842, 0.25825223
 0.16210526, 0.26823893
 0.21473684, 0.25222284
 0.07789474, 0.27535769
 0.51157895, 0.25222284
 0.66736842, 0.32697883
 0.33894737, 0.30216634
 0.24842105, 0.24593049
 0.19368421, 0.25222284
 0.08421053, 0.25222284
 0.13473684, 0.25222284
 0.18947368, 0.25222284
 0.09894737, 0.25222284
 0.13473684, 0.2945728
 0.24631579, 0.24212903
 0.17052632, 0.25222284
 0.13473684, 0.25222284
 0.21894737, 0.33728653
 0.05473684, 0.25222284
 0.03789474, 0.25222284
 0.05263158, 0.24140884
 0.07789474, 0.23657846
 0.08421053, 0.25289795
 0.13473684, 0.26222327
 0.18105263, 0.25222284
 0.28210526, 0.25222284
 0.19368421, 0.34342197
 0.63157895, 0.28672659
 0.75578947, 0.38988179
 0.73684211, 0.44900292
 0.52631579, 0.58998251
 0.48631579, 0.37195626
 0.33263158, 0.37800831
 0.28421053, 0.22931403
 0.29263158, 0.26372612
 0.16210526, 0.26863316
 0.15368421, 0.26795751
 0.07368421, 0.25222284
 0.14315789, 0.14943105
 0.14736842, 0.13927181
 0.2, 0.11335762
 0.22315789, 0.1897774
 0.18315789, 0.1854074
 0.24842105, 0.14625666
 0.11789474, 0.18769023
 0.05263158, 0.2009851
 0.06526316, 0.15992579
 0.12842105, 0.10082538
 0.14947368, 0.1110297
 0.21263158, 0.16332029
 0.24421053, 0.18831947
 0.70315789, 0.26914448
 0.72, 0.36490259
 0.62947368, 0.36454797
 0.56, 0.35580587
 0.42105263, 0.32934654
 0.35368421, 0.29368657
 0.38736842, 0.22372063
 0.30526316, 0.23993526
 0.24421053, 0.20269048
 0.12421053, 0.16970305
 0.14105263, 0.11162381
 0.04842105, 0.11516704
 0.08210526, 0.14260474
 0.14105263, 0.09137866
 0.19368421, 0.15837219
 0.13263158, 0.15820333
 0.14736842, 0.15611005
 0.09263158, 0.14585049
 0.10526316, 0.13068682
 0.08421053, 0.13381493
 0.12421053, 0.18915048
 0.13473684, 0.15426421
 0.16421053, 0.23525374
 0.15368421, 0.28241268
 0.15157895, 0.26876575
 0.65263158, 0.27333748
 0.71368421, 0.39697063
 0.53473684, 0.41792038
 0.55789474, 0.4235189
 0.44210526, 0.25222284
 0.40631579, 0.39234233
 0.34315789, 0.24623628
 0.25263158, 0.3250275
 0.41473684, 0.22759208
 0.51578947, 0.15640172
 0.52, 0.25457519
 0.33894737, 0.29517075
 0.18315789, 0.21677037
 0.15368421, 0.21189743
 0.09052632, 0.14556222
 0.06947368, 0.13911359
 0.10105263, 0.18840273
 0.14315789, 0.16477351
 0.14947368, 0.24822555
 0.17473684, 0.24158874
 0.25263158, 0.23000212
 0.22736842, 0.26488566
 0.26526316, 0.34784934
 0.32421053, 0.29641095
 0.39368421, 0.309414
 0.61263158, 0.31816167
 0.52631579, 0.42481938
 0.43578947, 0.31413284
 0.22736842, 0.3023816
 0.08631579, 0.17755342
 0.17684211, 0.21911858
 0.17052632, 0.16661564
 0.09263158, 0.24343687
 0.18947368, 0.1507048
 0.20421053, 0.12460342
 0.05473684, 0.15673053
 0.09052632, 0.10976182
 0.05263158, 0.11318384
 0.02736842, 0.11807893
 0.04210526, 0.099278
 0.05894737, 0.087991
 0.10947368, 0.17884472
 0.21052632, 0.21581513
 0.24631579, 0.25992191
 0.20842105, 0.28009599
 0.28, 0.28051311
 0.24210526, 0.31521156
 0.23157895, 0.33810258
 0.64421053, 0.2649492
 0.62947368, 0.53178108
 0.51789474, 0.41336048
 0.25263158, 0.38101178
 0.04842105, 0.21380821
 0.07157895, 0.14964661
 0.09894737, 0.08491613
 0.10947368, 0.19029942
 0.06315789, 0.19118494
 0.13263158, 0.22707978
 0.15368421, 0.23386353
 0.08842105, 0.20075613
 0.15368421, 0.16177973
 0.06947368, 0.17924741
 0.08631579, 0.16331121
 0.20631579, 0.1299569
 0.32842105, 0.19048169
 0.13052632, 0.2419354
 0.21052632, 0.19112906
 0.22315789, 0.25228059
 0.23368421, 0.24174285
 0.35157895, 0.29146513
 0.35789474, 0.28372318
 0.35789474, 0.30112875
 0.37894737, 0.26237875
 0.41894737, 0.27341419
 0.47368421, 0.25837523
 0.27578947, 0.25368443
 0.17894737, 0.27702451
 0.06315789, 0.25222284
 0.11157895, 0.128216
 0.07368421, 0.20096311
 0.10947368, 0.12838715
 0.07578947, 0.22024962
 0.11789474, 0.18646207
 0.10526316, 0.15646675
 0.07157895, 0.18251467
 0.17684211, 0.18750803
 0.15368421, 0.28760803
 0.09473684, 0.15620157
 0.12842105, 0.20796855
 0.08210526, 0.18924671
 0.09263158, 0.2285134
 0.12, 0.14872009
 0.17263158, 0.23678809
 0.38526316, 0.18970671
 0.56842105, 0.27772713
 0.53263158, 0.30138883
 0.58315789, 0.36804694
 0.73894737, 0.36866835
 0.60842105, 0.46813583
 0.45052632, 0.30605754
 0.36842105, 0.26671016
 0.16, 0.22544987
 0.13684211, 0.22444734
 0.06947368, 0.19015954
 0.12421053, 0.16122946
 0.12, 0.12127563
 0.11578947, 0.1853632
 0.13263158, 0.12111478
 0.13894737, 0.20054564
 0.09894737, 0.08663778
 0.15578947, 0.14476816
 0.34526316, 0.18879798
 0.44210526, 0.25511193
 0.46526316, 0.26373312
 0.20631579, 0.35028905
 0.14105263, 0.23176008
 0.17263158, 0.23441301
 0.40842105, 0.18732572
 0.59578947, 0.23140213
 0.66736842, 0.25222284
 0.68210526, 0.26523781
 0.61894737, 0.31284678
 0.58947368, 0.224325
 0.54526316, 0.25451955
 0.45052632, 0.22628938
 0.35368421, 0.2155112
 0.18947368, 0.17711586
 0.11368421, 0.12628704
 0.09052632, 0.10697871
 0.08631579, 0.09524994
 0.13473684, 0.10600796
 0.06947368, 0.19721498
 0.06315789, 0.09959842
 0.07578947, 0.16631168
 0.16842105, 0.08030388
 0.36210526, 0.16987738
 0.23157895, 0.23806344
 0.10736842, 0.21201348
 0.08421053, 0.2294946
 0.17473684, 0.16246687
 0.21052632, 0.23311009
 0.36842105, 0.27529299
 0.61473684, 0.25245866
 0.79789474, 0.32750285
 0.91789474, 0.3714858
 0.43368421, 0.4181875
 0.27368421, 0.31622484
 0.19157895, 0.25222284
 0.08842105, 0.23391594
 0.10315789, 0.24428809
 0.11157895, 0.15576123
 0.10947368, 0.23423877
 0.13052632, 0.25682026
 0.15578947, 0.236494
 0.18947368, 0.27948394
 0.10947368, 0.24860899
 0.06947368, 0.1992128
 0.05894737, 0.20950149
 0.11578947, 0.18272999
 0.06315789, 0.2267663
 0.08631579, 0.24981162
 0.06947368, 0.25044963
 0.07578947, 0.25877681
 0.09894737, 0.27047586
 0.33263158, 0.30267945
 0.40421053, 0.40646049
 0.51157895, 0.35148615
 0.41894737, 0.38931781
 0.13684211, 0.39025721
 0.20842105, 0.20856926
 0.12, 0.2392572
 0.09894737, 0.11895022
 0.09052632, 0.22009136
 0.04842105, 0.15901205
 0.02315789, 0.14413431
 0.03368421, 0.13295776
 0.04842105, 0.09409752
 0.09473684, 0.23360588
 0.08842105, 0.20811579
 0.08631579, 0.24149093
 0.07157895, 0.16293231
 0.07578947, 0.24634363
 0.02736842, 0.21769395
 0.06736842, 0.15143499
 0.14736842, 0.20105751
 0.25894737, 0.13742253
 0.21473684, 0.32659
 0.18526316, 0.37197018
 0.16421053, 0.25719497
 0.56421053, 0.29605305
 0.48842105, 0.3801018
 0.54105263, 0.38893598
 0.26105263, 0.35274401
 0.16421053, 0.23906077
 0.33052632, 0.18641619
 0.22315789, 0.17667308
 0.32842105, 0.19446217
 0.20210526, 0.16396801
 0.25894737, 0.24665295
 0.10105263, 0.11057845
 0.11157895, 0.14733395
 0.04842105, 0.11811844
 0.06526316, 0.19527709
 0.04, 0.13713017
 0.04631579, 0.18383271
 0.05684211, 0.07065448
 0.08631579, 0.1586929
 0.16421053, 0.16003704
 0.26947368, 0.16775817
 0.30526316, 0.20703077
 0.28631579, 0.22889555
 0.29263158, 0.19693235
 0.26947368, 0.2270869
 0.63789474, 0.25452933
 0.73052632, 0.30430898
 0.61263158, 0.31763425
 0.50526316, 0.46191022
 0.27578947, 0.29657534
 0.40631579, 0.14962971
 0.26105263, 0.19652982
 0.30315789, 0.15399355
 0.19578947, 0.2164627
 0.10736842, 0.12890385
 0.09052632, 0.13345097
 0.03789474, 0.1220715
 0.01894737, 0.07543562
 0.07578947, 0.1193669
 0.02315789, 0.1219265
 0.02526316, 0.15609714
 0.04210526, 0.0823646
 0.02526316, 0.10608108
 0.16210526, 0.12083526
 0.18947368, 0.15021864
 0.21263158, 0.24807955
 0.18315789, 0.22676286
 0.15368421, 0.26925418
 0.13894737, 0.24553807
 0.27368421, 0.29681924
 0.31578947, 0.30005002
 0.34315789, 0.32213455
 0.45894737, 0.37810713
 0.34947368, 0.39197305
 0.16842105, 0.2989493
 0.11578947, 0.24592778
 0.03368421, 0.11090109
 0.05684211, 0.16515654
 0.08631579, 0.10132879
 0.03789474, 0.16773474
 0.02105263, 0.20013355
 0.04, 0.15770864
 0.06947368, 0.19455978
 0.09052632, 0.1487827
 0.09684211, 0.25943273
 0.10315789, 0.18069428
 0.04, 0.25222284
 0.08421053, 0.15726583
 0.22315789, 0.25194481
 0.24631579, 0.28165728
 0.26526316, 0.38920107
 0.24421053, 0.26748317
 0.28842105, 0.29414627
 0.44, 0.25391367
 0.56631579, 0.34428936
 0.56, 0.43492749
 0.56, 0.56589466
 0.49894737, 0.48444411
 0.38526316, 0.39874285
 0.09473684, 0.36692491
 0.05263158, 0.17468908
 0.07368421, 0.1312039
 0.09684211, 0.15970609
 0.13894737, 0.09836258
 0.07789474, 0.13579911
 0.04631579, 0.11486678
 0.08421053, 0.13881275
 0.08210526, 0.12732284
 0.04842105, 0.10917634
 0.05473684, 0.1125883
 0.16842105, 0.10288578
 0.18736842, 0.14953472
 0.2, 0.21655561
 0.37684211, 0.24585329
 0.34947368, 0.34024143
 0.38315789, 0.34545502
 0.28842105, 0.29197678
 0.57052632, 0.25668958
 0.36842105, 0.29799387
 0.11368421, 0.21479449
 0.32210526, 0.14203539
 0.34315789, 0.12808841
 0.44421053, 0.10099758
 0.32, 0.16982509
 0.46736842, 0.25222284
 0.37684211, 0.16361454
 0.37894737, 0.22971421
 0.47368421, 0.12899907
 0.53263158, 0.23782456
 0.44631579, 0.28742659
 0.45894737, 0.28654703
 0.45473684, 0.26066741
 0.41473684, 0.28254843
 0.41684211, 0.21035367
 0.35789474, 0.28074479
 0.53052632, 0.24738266
 0.57684211, 0.25996268
 0.73052632, 0.39202115
 0.73473684, 0.46353608
 0.80421053, 0.46527052
 1., 0.45492634
 0.83789474, 0.77676624
 0.81894737, 0.52517891
 0.70947368, 0.64927292
 0.66947368, 0.29102385
 0.55157895, 0.43460381
 0.37894737, 0.26376063
 0.23157895, 0.3490549
 0.24, 0.22294709
 0.19789474, 0.18952581
 0.27789474, 0.18957707
 0.20421053, 0.25222284
 0.14526316, 0.25945064
 0.14315789, 0.24873163
 0.15157895, 0.25194496
 0.08, 0.22552079
 0.01052632, 0.25057828
 0.08842105, 0.20199707
 0.06526316, 0.23081069
 0.03157895, 0.26727128
 0.08631579, 0.20875861
 0.05473684, 0.30918315
 0.08210526, 0.33715731
 0.07789474, 0.25242412
 0.09473684, 0.42806035
 0.07368421, 0.25368536
 0.09263158, 0.4517628
 0.40210526, 0.33365488
 0.56421053, 0.4602887
 0.51789474, 0.41317904
 0.49263158, 0.41988346
 0.33052632, 0.29186061
 0.20421053, 0.24762383
 0.16842105, 0.24320039
 0.16842105, 0.13502172
 0.06736842, 0.22594327
 0.09473684, 0.1584217
 0.19789474, 0.12701881
 0.16631579, 0.12559435
 0.07368421, 0.12145047
 0.02947368, 0.13151161
 0.10105263, 0.14845082
 0.07368421, 0.10147002
 0.06105263, 0.09564796
 0.05263158, 0.15562746
 0.04842105, 0.13004494
 0.07157895, 0.25106284
 0.11578947, 0.25222284
 0.06736842, 0.26037243
 0.13684211, 0.29864895
 0.18105263, 0.29606515
 0.34947368, 0.26685572
 0.40842105, 0.45311531
 0.24842105, 0.40884954
 0.20842105, 0.34977135
 0.20421053, 0.25222284
 0.34947368, 0.25651532
 0.21052632, 0.24627475
 0.20421053, 0.24583301
 0.09263158, 0.27114597
 0.09684211, 0.1310817
 0.07157895, 0.08197656
 0.06315789, 0.11034682
 0.17894737, 0.08157705
 0.16, 0.20105261
 0.07368421, 0.32171053
 0.07789474, 0.11129601
 0.06526316, 0.16287076
 0.10315789, 0.18277575
 0.17263158, 0.14319673
 0.21052632, 0.2135974
 0.24210526, 0.20333317
 0.24210526, 0.40226254
 0.18736842, 0.28897834
 0.37894737, 0.31500432
 0.36, 0.35885209
 0.27789474, 0.31007835
 0.31368421, 0.25222284
 0.13263158, 0.29615381
 0.06526316, 0.11417696
 0.03368421, 0.14683969
 0.06947368, 0.08662137
 0.09052632, 0.11677948
 0.11578947, 0.16221064
 0.10105263, 0.24052142
 0.06736842, 0.25146616
 0.07157895, 0.15792143
 0.01052632, 0.17385897
 0.04210526, 0.1078873
 0.06947368, 0.09932746
 0.04631579, 0.0905609
 0.03578947, 0.16960332
 0.02526316, 0.15833868
 0.15789474, 0.16152862
 0.17894737, 0.25699446
 0.12210526, 0.28070456
 0.10526316, 0.25804177
 0.15368421, 0.25617427
 0.51368421, 0.21827453
 0.41684211, 0.54253924
 0.22947368, 0.40875435
 0.26526316, 0.25222284
 0.29263158, 0.25222284
 0.18526316, 0.25222284
 0.12210526, 0.25222284
 0.16, 0.24997705
 0.17684211, 0.25222284
 0.13894737, 0.25203523
 0.12631579, 0.24427898
 0.05473684, 0.25222284
 0.06526316, 0.25222284
 0.10736842, 0.25222284
 0.11789474, 0.25222284
 0.08421053, 0.16769142
 0.02736842, 0.25222284
 0.01684211, 0.1690588
 0.05052632, 0.25222284
 0.08421053, 0.25130686
 0.13052632, 0.25222284
 0.12421053, 0.25956067
 0.26736842, 0.30976269
 0.57052632, 0.31139854
 0.50315789, 0.30485496
 0.31368421, 0.42358661
 0.30105263, 0.25222284
 0.28421053, 0.25222284
 0.19368421, 0.22797716
 0.18105263, 0.23346508
 0.14947368, 0.22826499
 0.07789474, 0.21239951
 0.04421053, 0.12661792
 0.08, 0.13371678
 0.12421053, 0.25222284
 0.08631579, 0.24876888
 0.07368421, 0.21696822
 0.07789474, 0.25222284
 0.11157895, 0.17290992
 0.08, 0.25222284
 0.09894737, 0.2264397
 0.29684211, 0.25374612
 0.44842105, 0.28909573
 0.47789474, 0.34713781
 0.40842105, 0.26215345
 0.27157895, 0.34606984
 0.27368421, 0.24334455
 0.31789474, 0.25222284
 0.50315789, 0.18587124
 0.60842105, 0.29327291
 0.59578947, 0.28204954
 0.65894737, 0.3019298
 0.53052632, 0.28483129
 0.46736842, 0.23024879
 0.32421053, 0.23900752
 0.19368421, 0.15174009
 0.21052632, 0.16864067
 0.18105263, 0.12209909
 0.16842105, 0.10224044
 0.17473684, 0.16038948
 0.19789474, 0.11853784
 0.14315789, 0.16948241
 0.14526316, 0.11343944
 0.13473684, 0.13256846
 0.13473684, 0.10884467
 0.04421053, 0.174349
 0.03789474, 0.12046388
 0.04210526, 0.08259848
 0.07578947, 0.09521775
 0.08210526, 0.09103023
 0.13684211, 0.18009557
 0.24421053, 0.20290011
 0.28421053, 0.24486202
 0.33684211, 0.2815676
 0.43789474, 0.35530037
 0.45052632, 0.37318593
 0.32631579, 0.38931251
 0.20210526, 0.24070141
 0.14947368, 0.24823864
 0.07578947, 0.14826667
 0.11157895, 0.16548082
 0.14315789, 0.10271169
 0.09684211, 0.17727003
 0.09894737, 0.13569689
 0.06105263, 0.16700704
 0.05473684, 0.13892069
 0.08421053, 0.09398608
 0.13894737, 0.19351061
 0.03368421, 0.24588306
 0.05052632, 0.1436055
 0.11578947, 0.15686223
 0.07157895, 0.20306641
 0.08421053, 0.25222284
 0.10105263, 0.26961738
 0.12631579, 0.27119991
 0.18736842, 0.25413164
 0.20631579, 0.307614
 0.60210526, 0.27532011
 0.18947368, 0.42505008
 0.16, 0.34576297
 0.16210526, 0.25222284
 0.14526316, 0.16356176
 0.07368421, 0.25007671
 0.15157895, 0.20873287
 0.22105263, 0.25114998
 0.12, 0.24704005
 0.09052632, 0.25222284
 0.07157895, 0.25222284
 0.07578947, 0.25222284
 0.06105263, 0.25518852
 0.13894737, 0.25222284
 0.11157895, 0.25222284
 0.08210526, 0.26025093
 0.06736842, 0.32220966
 0.05263158, 0.26324034
 0.08, 0.25222284
 0.05052632, 0.57326174
 0.05052632, 0.3160708
 0.08421053, 0.49516004
 0.10736842, 0.38954061
 0.15368421, 0.28734571
 0.06947368, 0.37969857
 0.08842105, 0.31243813
 0.17684211, 0.24503428
 0.08421053, 0.45292762
 0.04842105, 0.22610557
 0.10736842, 0.25222284
 0.13052632, 0.25222284
 0.08842105, 0.25222284
 0.08, 0.2239956
 0.08421053, 0.25222284
 0.07157895, 0.2182961
 0.07789474, 0.25222284
 0.09263158, 0.25301743
 0.12842105, 0.25222284
 0.09894737, 0.25222284
 0.03789474, 0.29611641
 0.07157895, 0.25222284
 0.05894737, 0.25222284
 0.08421053, 0.25222284
 0.12210526, 0.2604838
 0.15368421, 0.25222284
 0.23789474, 0.30097225
 0.10947368, 0.34459752
 0.24, 0.2852892
 0.20631579, 0.34631464
 0.24, 0.47633684
 0.21684211, 0.26857254
 0.13894737, 0.43589902
 0.05894737, 0.27963936
 0.11578947, 0.16387179
 0.11157895, 0.19390041
 0.08210526, 0.14819521
 0.12421053, 0.18229339
 0.17263158, 0.17507869
 0.17894737, 0.26352108
 0.11789474, 0.19452745
 0.16, 0.23728517
 0.05473684, 0.19202615
 0.16842105, 0.12249452
 0.10105263, 0.14491779
 0.05052632, 0.08158477
 0.05263158, 0.05637556
 0.10526316, 0.08842708
 0.11157895, 0.09236716
 0.08421053, 0.15574276
 0.05473684, 0.17262235
 0.58526316, 0.1699995
 0.40842105, 0.31600606
 0.11157895, 0.25616995
 0.05894737, 0.25222284
 0.05473684, 0.2300505
 0.03789474, 0.23332828
 0.09263158, 0.24875455
 0.12421053, 0.26810554
 0.05473684, 0.25645751
 0.06736842, 0.30718488
 0.58105263, 0.26342759
 0.37684211, 0.32070586
 0.34315789, 0.2708855
 0.15789474, 0.26234409
 0.09684211, 0.25850821
 0.08631579, 0.25222284
 0.10736842, 0.27514571
 0.06736842, 0.25222284
 0.02315789, 0.26481459
 0.01684211, 0.2665334
 0.22315789, 0.28861651
 0.25684211, 0.25468582
 0.44631579, 0.25222284
 0.56210526, 0.26261622
 0.56421053, 0.25222284
 0.60842105, 0.26323986
 0.64, 0.24485576
 0.45684211, 0.27686834
 0.21263158, 0.24930216
 0.20421053, 0.22329494
 0.18947368, 0.2212134
 0.16210526, 0.22783451
 0.07578947, 0.19408649
 0.08421053, 0.13522837
 0.08421053, 0.11342327
 0.10315789, 0.09421548
 0.12, 0.13502751
 0.08421053, 0.12463129
 0.08631579, 0.11925514
 0.04842105, 0.08153519
 0.05052632, 0.08890988
 0.06315789, 0.08788455
 0.02105263, 0.12560143
 0.05894737, 0.12625729
 0.15157895, 0.23363438
 0.24421053, 0.24729666
 0.21894737, 0.43665692
 0.23368421, 0.32164457
 0.20210526, 0.35299757
 0.28210526, 0.31233722
 0.32210526, 0.3222276
 0.05684211, 0.30597296
 0.12842105, 0.16948318
 0.23578947, 0.24942917
 0.18947368, 0.16539484
 0.23368421, 0.23045062
 0.16842105, 0.19592513
 0.08842105, 0.25222284
 0.17263158, 0.10519595
 0.07157895, 0.17085409
 0., 0.05079016
 0.04842105, 0.22491357
 0.05052632, 0.18310529
 0.04, 0.23169284
 0.01684211, 0.17434655
 0.02947368, 0.23532078
 0.03368421, 0.19766524
 0.07157895, 0.25222284
 0.17473684, 0.24864785
 0.19578947, 0.23920637
 0.25684211, 0.26373461
 0.28210526, 0.26846352
 0.31368421, 0.27884299
 0.34315789, 0.27560517
 0.26736842, 0.31438398
 0.26105263, 0.26428676
 0.17684211, 0.25680527
 0.33894737, 0.20357075
 0.31157895, 0.25652763
 0.22736842, 0.19894087
 0.17052632, 0.22774845
 0.11157895, 0.13026583
 0.11789474, 0.1559225
 0.09473684, 0.10775515
 0.08210526, 0.17056371
 0.07789474, 0.20266056
 0.16631579, 0.18390717
 0.24631579, 0.23861937
 0.34736842, 0.28597546
 0.08842105, 0.29696178
 0.20842105, 0.37925038
 0.10947368, 0.24804851
 0.06947368, 0.25222284
 0.16631579, 0.14588779
 0.17894737, 0.23034398
 0.17473684, 0.2269409
 0.25263158, 0.20590542
 0.29684211, 0.28271392
 0.26526316, 0.25666237
 0.32631579, 0.30491203
 0.49473684, 0.3299464
 0.40631579, 0.3014721
 0.21684211, 0.25222284
 0.20842105, 0.23100634
 0.11789474, 0.25222284
 0.09684211, 0.13402706
 0.10315789, 0.18907598
 0.07368421, 0.15211096
 0.13894737, 0.16616535
 0.10526316, 0.12019476
 0.06736842, 0.16267338
 0.09684211, 0.13539034
 0.03578947, 0.18175885
 0.07157895, 0.18711835
 0.02526316, 0.1507051
 0.08842105, 0.13371781
 0.14105263, 0.13858016
 0.11789474, 0.23740475
 0.16421053, 0.26428244
 0.28421053, 0.30142805
 0.28842105, 0.33320877
 0.36, 0.34854627
 0.37052632, 0.36741766
 0.43157895, 0.3476415
 0.39368421, 0.33567971
 0.25894737, 0.37311524
 0.34736842, 0.2021689
 0.18105263, 0.26124722
 0.25473684, 0.14024049
 0.18736842, 0.17925958
 0.17894737, 0.14248957
 0.05263158, 0.11646749
 0.18526316, 0.10576923
 0.08210526, 0.11178976
 0.10315789, 0.11652704
 0.12210526, 0.08939472
 0.16421053, 0.19087711
 0.22947368, 0.12875192
 0.33684211, 0.25080657
 0.41684211, 0.25222284
 0.45473684, 0.37616077
 0.32631579, 0.32495975
 0.46947368, 0.22030714
 0.47789474, 0.33556974
 0.42315789, 0.28660375
 0.40631579, 0.2647841
 0.44, 0.29574111
 0.60842105, 0.26209342
 0.53052632, 0.26125985
 0.68421053, 0.30396742
 0.37052632, 0.30843139
 0.34526316, 0.2294132
 0.20210526, 0.16197723
 0.32421053, 0.14681339
 0.25684211, 0.14496991
 0.21684211, 0.14637762
 0.19789474, 0.13260852
 0.32842105, 0.14662886
 0.27578947, 0.22920206
 0.23789474, 0.24807009
 0.21052632, 0.25061217
 0.22105263, 0.25797477
 0.24842105, 0.23385219
 0.29473684, 0.22157848
 0.20210526, 0.36289051
 0.27789474, 0.28701949
 0.32, 0.3302595
 0.36, 0.28449699
 0.39368421, 0.35685119
 0.56421053, 0.34994605
 0.55368421, 0.32104865
 0.43789474, 0.31560645
 0.60210526, 0.25222284
 0.43157895, 0.38604552
 0.40842105, 0.25222284
 0.29684211, 0.24987991
 0.23578947, 0.25222284
 0.24210526, 0.1934339
 0.26526316, 0.16300225
 0.29473684, 0.15620159
 0.35578947, 0.17454584
 0.37052632, 0.25209334
 0.26105263, 0.26747346
 0.08, 0.2618573
 0.17894737, 0.15308833
 0.25263158, 0.11047468
 0.22315789, 0.23770472
 0.34736842, 0.24151953
 0.50736842, 0.25222284
 0.50947368, 0.32141307
 0.59789474, 0.29355532
 0.50526316, 0.38952273
 0.49684211, 0.30589965
 0.46105263, 0.32978946
 0.52, 0.38030577
 0.61894737, 0.31771123
 0.58526316, 0.38566387
 0.46105263, 0.32443225
 0.36631579, 0.28099978
 0.16842105, 0.23044121
 0.17684211, 0.16393423
 0.32, 0.11938736
 0.32631579, 0.21669886
 0.34105263, 0.26346999
 0.10736842, 0.23212785
 0.30315789, 0.25222284
 0.10526316, 0.24828523
 0.11157895, 0.18653297
 0.05263158, 0.12861672
 0.04842105, 0.18195929
 0.06526316, 0.13298166
 0.15368421, 0.16376263
 0.09473684, 0.17883071
 0.05684211, 0.24628109
 0.08210526, 0.25767577
 0.07368421, 0.17785019
 0.15368421, 0.26190698
 0.39157895, 0.25222284
 0.48210526, 0.36550605
 0.28631579, 0.31763694
 0.33473684, 0.26590845
 0.22947368, 0.19277906
 0.15157895, 0.17551365
 0.11789474, 0.11259556
 0.08421053, 0.17272569
 0.08, 0.16477235
 0.04631579, 0.1626319
 0.05052632, 0.17635493
 0.10315789, 0.09048912
 0.08421053, 0.21363044
 0.08842105, 0.19489554
 0.04631579, 0.12703973
 0.02526316, 0.14429575
 0.05894737, 0.13859934
 0.08842105, 0.08268829
 0.16631579, 0.17420223
 0.17684211, 0.22171828
 0.30315789, 0.27979684
 0.31157895, 0.25222284
 0.30315789, 0.35056514
 0.49684211, 0.28902492
 0.63789474, 0.45635223
 0.68210526, 0.40712768
 0.65684211, 0.48609716
 0.68421053, 0.39752552
 0.41684211, 0.43085414
 0.41473684, 0.25162053
 0.29684211, 0.25424954
 0.21894737, 0.15729968
 0.11368421, 0.14470002
 0.04631579, 0.13014701
 0.09052632, 0.10843305
 0.04842105, 0.11263558
 0.08842105, 0.1072958
 0.14736842, 0.10767303
 0.10105263, 0.13030535
 0.19578947, 0.1343168
 0.22526316, 0.14485949
 0.32, 0.31910685
 0.14105263, 0.41850549
 0.07578947, 0.24438463
 0.08631579, 0.1638771
 0.17052632, 0.15491369
 0.21263158, 0.166503
 0.29473684, 0.23652832
 0.30526316, 0.23516592
 0.26947368, 0.23935662
 0.41263158, 0.24461603
 0.23368421, 0.29088342
 0.28421053, 0.18298414
 0.17263158, 0.18225753
 0.13684211, 0.18568358
 0.07157895, 0.16375393
 0.10947368, 0.13296208
 0.11578947, 0.10615078
 0.11578947, 0.17449644
 0.18947368, 0.16741556
 0.12210526, 0.21965879
 0.06526316, 0.20965764
 0.06105263, 0.23131786
 0.06315789, 0.21722493
 0.04842105, 0.12615377
 0.03157895, 0.13592693
 0.08421053, 0.17521891
 0.11789474, 0.1593906
 0.14947368, 0.25222284
 0.18315789, 0.2417299
 0.19157895, 0.25758857
 0.22315789, 0.30657786
 0.26736842, 0.29139176
 0.29894737, 0.35012835
 0.23157895, 0.36369437
 0.52421053, 0.30530545
 0.45684211, 0.39079219
 0.22736842, 0.33545029
 0.18315789, 0.25222284
 0.12421053, 0.25222284
 0.15157895, 0.1734817
 0.17684211, 0.15481116
 0.08421053, 0.20097385
 0.12421053, 0.16110545
 0.06947368, 0.1762545
 0.08631579, 0.17030853
 0.15368421, 0.16953361
 0.06736842, 0.2299494
 0.02947368, 0.25222284
 0.03157895, 0.21296211
 0.07157895, 0.07582897
 0.14526316, 0.23302771
 0.15789474, 0.25119415
 0.16631579, 0.2478646
 0.23368421, 0.28333849
 0.30526316, 0.26463315
 0.24842105, 0.30193728
 0.29473684, 0.29810378
 0.66736842, 0.3110624
 0.38105263, 0.33388928
 0.26526316, 0.30343074
 0.08842105, 0.25222284
 0.12210526, 0.07535344
 0.08, 0.1481747
 0.07789474, 0.08699717
 0.12842105, 0.1975176
 0.08421053, 0.15751393
 0.11578947, 0.17553486
 0.09894737, 0.15615836
 0.11368421, 0.25222284
 0.11368421, 0.25155884
 0.11368421, 0.26178247
 0.04210526, 0.25222284
 0.02526316, 0.25222284
 0.07578947, 0.24864118
 0.12, 0.25583574
 0.15789474, 0.26565978
 0.23157895, 0.26796246
 0.20631579, 0.32181674
 0.24421053, 0.33288324
 0.18315789, 0.37341177
 0.32842105, 0.3223879
 0.32631579, 0.32781503
 0.19157895, 0.37413672
 0.25894737, 0.25222284
 0.37473684, 0.2889145
 0.19368421, 0.24229683
 0.12421053, 0.26306272
 0.17263158, 0.24211882
 0.11368421, 0.25241002
 0.11789474, 0.167575
 0.11789474, 0.19144732
 0.11578947, 0.14473079
 0.08631579, 0.12401688
 0.09473684, 0.15619391
 0.11157895, 0.1173971
 0.08210526, 0.23648393
 0.03157895, 0.11568213
 0.04421053, 0.24335907
 0.06736842, 0.13885342
 0.12, 0.14690629
 0.18736842, 0.22543101
 0.2, 0.25376204
 0.28, 0.25977686
 0.35368421, 0.25985152
 0.46947368, 0.33386183
 0.51368421, 0.39858747
 0.25894737, 0.47669482
 0.29052632, 0.25222284
 0.22526316, 0.25222284
 0.12631579, 0.140645
 0.13052632, 0.11503644
 0.09263158, 0.16125913
 0.08421053, 0.1189657
 0.09263158, 0.10392423
 0.08842105, 0.17854732
 0.06526316, 0.1272146
 0.13473684, 0.14243855
 0.08842105, 0.19739391
 0.12210526, 0.2214644
 0.05263158, 0.09340748
 0.06526316, 0.15991706
 0.05684211, 0.08931129
 0.07789474, 0.20624059
 0.09473684, 0.12689881
 0.19789474, 0.17615819
 0.20421053, 0.23670281
 0.29894737, 0.35439852
 0.30315789, 0.3197158
 0.29894737, 0.44396287
 0.25263158, 0.35871604
 0.20421053, 0.20501103
 0.68, 0.21052162
 0.47368421, 0.43976992
 0.13894737, 0.31428012
 0.17263158, 0.25222284
 0.11157895, 0.14876911
 0.10105263, 0.06099266
 0.11789474, 0.1186851
 0.11368421, 0.2135303
 0.19368421, 0.25222284
 0.20631579, 0.24439386
 0.10526316, 0.24648891
 0.06947368, 0.25409245
 0.04421053, 0.25222284
 0.07789474, 0.25222284
 0.15157895, 0.25222284
 0.25263158, 0.25222284
 0.09473684, 0.3203727
 0.12421053, 0.28202966
 0.17052632, 0.34784955
 0.37894737, 0.30307823
 0.49473684, 0.3840915
 0.49473684, 0.41261277
 0.64210526, 0.45999658
 0.43789474, 0.39240175
 0.40210526, 0.37434351
 0.21473684, 0.26388392
 0.08631579, 0.2461291
 0.08, 0.236994
 0.04210526, 0.19228423
 0.08, 0.186584
 0.08842105, 0.13842955
 0.06947368, 0.16872211
 0.08421053, 0.13442612
 0.08631579, 0.18370837
 0.05263158, 0.12664533
 0.04210526, 0.15422697
 0.06315789, 0.12733358
 0.00842105, 0.14718264
 0.05894737, 0.11064702
 0.08842105, 0.17252941
 0.11368421, 0.13459221
 0.11789474, 0.24640022
 0.12842105, 0.23348059
 0.20631579, 0.28455567
 0.54526316, 0.32810432
 0.55578947, 0.49846086
 0.38526316, 0.48023057
 0.25473684, 0.34120765
 0.13052632, 0.25222284
 0.17894737, 0.21756393
 0.07157895, 0.20976081
 0.15368421, 0.15659758
 0.09052632, 0.18664345
 0.09684211, 0.16106537
 0.05894737, 0.14448795
 0.10315789, 0.13668823
 0.09263158, 0.13215496
 0.10526316, 0.23479567
 0.06736842, 0.15558681
 0.03368421, 0.1406395
 0.04421053, 0.11343676
 0.01473684, 0.13996598
 0.05473684, 0.10374083
 0.05473684, 0.14586872
 0.03789474, 0.23491685
 0.06105263, 0.17736222
 0.12421053, 0.27624226
 0.12421053, 0.26849681
 0.26736842, 0.3550964
 0.25052632, 0.37552261
 0.46947368, 0.33704802
 0.27578947, 0.44820824
 0.21263158, 0.41969931
 0.10526316, 0.25222284
 0.13894737, 0.12393296
 0.03789474, 0.1508462
 0.06315789, 0.13315418
 0.10105263, 0.17234227
 0.08842105, 0.18568745
 0.05473684, 0.14995578
 0.10736842, 0.23008099
 0.06526316, 0.23684298
 0.12631579, 0.20787452
 0.10736842, 0.18953484
 0.05684211, 0.18874507
 0.08, 0.12953117
 0.03157895, 0.21263108
 0.04, 0.15284774
 0.04842105, 0.25004357
 0.10315789, 0.25803235
 0.09894737, 0.25162005
 0.19578947, 0.25455868
 0.41684211, 0.2818543
 0.34105263, 0.36477852
 0.30105263, 0.3939428
 0.26105263, 0.28967768
 0.25263158, 0.24937548
 0.17263158, 0.25193471
 0.18315789, 0.20287347
 0.09263158, 0.25013021
 0.07578947, 0.13742478
 0.02736842, 0.20006858
 0.05052632, 0.09737533
 0.04842105, 0.15599763
 0.06105263, 0.16673255
 0.03578947, 0.19924027
 0.08, 0.17821363
 0.09894737, 0.20474315
 0.09263158, 0.23943566
 0.05263158, 0.25120652
 0.05684211, 0.22652437
 0.04210526, 0.2509532
 0.09894737, 0.25203151
 0.12421053, 0.23894896
 0.29263158, 0.25222284
 0.15578947, 0.28776908
 0.07578947, 0.24027704
 0.15789474, 0.25222284
 0.16842105, 0.14545009
 0.41473684, 0.25222284
 0.11157895, 0.25222284
 0.10736842, 0.25222284
 0.06315789, 0.25222284
 0.10105263, 0.16687581
 0.17684211, 0.04137182
 0.11157895, 0.23577088
 0.21052632, 0.24155986
 0.15368421, 0.25222284
 0.09263158, 0.27370659
 0.08631579, 0.24223369
 0.08210526, 0.30810302
 0.03578947, 0.23377171
 0.08842105, 0.25342539
 0.09263158, 0.2517702
 0.16631579, 0.31144652
 0.18105263, 0.31400371
 0.19578947, 0.28020272
 0.27368421, 0.29372519
 0.20631579, 0.45692468
 0.18736842, 0.35929215
 0.22526316, 0.23991959
 0.24421053, 0.38563395
 0.50947368, 0.21858609
 0.48631579, 0.3235732
 0.16631579, 0.3433193
 0.18526316, 0.1973656
 0.07368421, 0.24401934
 0.12, 0.09841074
 0.24842105, 0.12992753
 0.10105263, 0.2172263
 0.11157895, 0.19719844
 0.14947368, 0.2186446
 0.09473684, 0.15242895
 0.08421053, 0.24414985
 0.13052632, 0.25155532
 0.05263158, 0.26200518
 0.04421053, 0.27993816
 0.11578947, 0.22977883
 0.04210526, 0.24915424
 0.05473684, 0.25232807
 0.04842105, 0.30399308
 0.07157895, 0.25222284
 0.21052632, 0.33498886
 0.56210526, 0.34885713
 0.45052632, 0.34801775
 0.52631579, 0.44842774
 0.51578947, 0.44125125
 0.42736842, 0.52633131
 0.48, 0.45709202
 0.66315789, 0.48928642
 0.49894737, 0.54663122
 0.37052632, 0.50005645
 0.28210526, 0.26039225
 0.25052632, 0.18181565
 0.2, 0.17381744
 0.20210526, 0.15330623
 0.32842105, 0.16274127
 0.22526316, 0.13588166
 0.18315789, 0.12738343
 0.11157895, 0.10860786
 0.15789474, 0.09967914
 0.17263158, 0.10586409
 0.13263158, 0.16834196
 0.08, 0.28929317
 0.29263158, 0.19438128
 0.22526316, 0.25222284
 0.45263158, 0.25734091
 0.57473684, 0.28562504
 0.57684211, 0.40483099
 0.62105263, 0.31247628
 0.66947368, 0.40666392
 0.67368421, 0.50781167
 0.39157895, 0.57542109
 0.17052632, 0.27851394
 0.26736842, 0.25355145
 0.16, 0.26099548
 0.08210526, 0.24675259
 0.07157895, 0.18682466
 0.08631579, 0.15453641
 0.06736842, 0.12215438
 0.05263158, 0.11463244
 0.06526316, 0.08909969
 0.05473684, 0.12675782
 0.06736842, 0.10177194
 0.04842105, 0.09592749
 0.02526316, 0.12181264
 0.06315789, 0.11153254
 0.14526316, 0.14786723
 0.15157895, 0.15569425
 0.19578947, 0.157915
 0.22736842, 0.20745809
 0.20210526, 0.27993658
 0.19368421, 0.31694537
 0.13894737, 0.28655136
 0.15578947, 0.21507195
 0.21684211, 0.22841461
 0.19789474, 0.24376392
 0.14526316, 0.25220484
 0.11157895, 0.15032698
 0.12631579, 0.13581431
 0.09263158, 0.11407439
 0.04421053, 0.1212932
 0.12842105, 0.11884952
 0.05684211, 0.12590535
 0.09684211, 0.09525679
 0.03578947, 0.08423476
 0.07157895, 0.10808438
 0.02526316, 0.10334016
 0.00842105, 0.12069842
 0.02315789, 0.13520421
 0.14736842, 0.12006924
 0.17894737, 0.23722699
 0.18947368, 0.25711852
 0.18315789, 0.35899761
 0.22947368, 0.3547675
 0.23157895, 0.29611617
 0.24631579, 0.31549898
 0.24210526, 0.27670038
 0.30526316, 0.26452941
 0.66315789, 0.25668976
 0.53473684, 0.48309687
 0.46105263, 0.41871777
 0.40421053, 0.31455493
 0.19157895, 0.19864416
 0.16, 0.1947262
 0.10526316, 0.11827937
 0.08631579, 0.19622886
 0.08, 0.12260614
 0.07578947, 0.15621369
 0.06736842, 0.10791025
 0.09263158, 0.19400793
 0.06736842, 0.18525821
 0.04842105, 0.20170857
 0.04210526, 0.20897189
 0.06736842, 0.13138089
 0.07368421, 0.20104708
 0.14105263, 0.17289433
 0.21684211, 0.21854718
 0.29894737, 0.24629369
 0.38947368, 0.28582877
 0.32, 0.31639081
 0.52210526, 0.32192993
 0.64210526, 0.3394227
 0.36210526, 0.49658987
 0.23789474, 0.22768801
 0.15789474, 0.25207499
 0.04842105, 0.10736725
 0.10736842, 0.1405288
 0.13473684, 0.08864303
 0.10105263, 0.21456362
 0.06736842, 0.12028265
 0.12421053, 0.23544548
 0.10736842, 0.12178759
 0.13473684, 0.16113177
 0.06526316, 0.24273087
 0.08842105, 0.2171056
 0.07789474, 0.17950571
 0.06315789, 0.24724853
 0.12421053, 0.23372564
 0.12421053, 0.26078475
 0.15368421, 0.31918007
 0.16210526, 0.28359061
 0.15789474, 0.31173888
 0.22105263, 0.36902523
 0.21894737, 0.38099277
 0.26526316, 0.3349337
 0.27578947, 0.38353175
 0.17052632, 0.28111398
 0.55578947, 0.26197782
 0.38315789, 0.37463966
 0.12631579, 0.16799998
 0.15157895, 0.21187112
 0.11368421, 0.12306118
 0.03157895, 0.05671787
 0.13684211, 0.06213567
 0.06105263, 0.24431384
 0.08, 0.20771541
 0.07789474, 0.13942431
 0.09473684, 0.19381183
 0.05052632, 0.25222284
 0.04631579, 0.25222284
 0.02526316, 0.24426
 0.09052632, 0.26013154
 0.13052632, 0.25222284
 0.14105263, 0.29520944
 0.18315789, 0.26209927
 0.22105263, 0.41334096
 0.24, 0.31276539
 0.21684211, 0.35035568
 0.23578947, 0.32291529
 0.53263158, 0.38066882
 0.54105263, 0.35859364
 0.38315789, 0.34420475
 0.21263158, 0.25428736
 0.36, 0.23999444
 0.07578947, 0.18182918
 0.2, 0.1242779
 0.08842105, 0.12220083
 0.08, 0.1073094
 0.02526316, 0.10100879
 0.04842105, 0.09794116
 0.12631579, 0.07707419
 0.14947368, 0.15446669
 0.11157895, 0.23869473
 0.08631579, 0.20200512
 0.03789474, 0.16103587
 0.08631579, 0.12256448
 0.10526316, 0.11435448
 0.20210526, 0.13239925
 0.24631579, 0.25200328
 0.25473684, 0.25222284
 0.24210526, 0.2501922
 0.62736842, 0.23763737
 0.63368421, 0.31469998
 0.57894737, 0.3231813
 0.57473684, 0.34001228
 0.42736842, 0.2822074
 0.36, 0.35617632
 0.29052632, 0.23902972
 0.13263158, 0.24164997
 0.20842105, 0.16750531
 0.20631579, 0.17878333
 0.17052632, 0.13217726
 0.08210526, 0.1894868
 0.09473684, 0.12681812
 0.07578947, 0.1347793
 0.09263158, 0.08721656
 0.10105263, 0.09508646
 0.03789474, 0.11488639
 0.09894737, 0.09913123
 0.16631579, 0.10468373
 0.18105263, 0.16580036
 0.14315789, 0.19411813
 0.21052632, 0.18047962
 0.20210526, 0.22469167
 0.23789474, 0.28427294
 0.56, 0.28023368
 0.62105263, 0.50586998
 0.63368421, 0.34580603
 0.34526316, 0.44231576
 0.21052632, 0.24242586
 0.17263158, 0.22380531
 0.27578947, 0.11270721
 0.07578947, 0.15676717
 0.07789474, 0.18414018
 0.06105263, 0.1267591
 0.11157895, 0.17003289
 0.13473684, 0.1082277
 0.08, 0.0864256
 0.09473684, 0.10786834
 0.07157895, 0.11283679
 0.09473684, 0.12531269
 0.02947368, 0.16512036
 0.02315789, 0.17751373
 0.18736842, 0.18847449
 0.17052632, 0.21887261
 0.18947368, 0.25745699
 0.24842105, 0.29451692
 0.28421053, 0.25760043
 0.30736842, 0.34917474
 0.26315789, 0.33119392
 0.50105263, 0.27908051
 0.62105263, 0.36521778
 0.66947368, 0.45742899
 0.25684211, 0.41602433
 0.23789474, 0.23917803
 0.17263158, 0.25222284
 0.20842105, 0.13506985
 0.16210526, 0.17677431
 0.11157895, 0.10507566
 0.09894737, 0.18494484
 0.09263158, 0.08773515
 0.11157895, 0.12643088
 0.05894737, 0.09967352
 0.09894737, 0.10152467
 0.14736842, 0.16702937
 0.05894737, 0.1602082
 0.11157895, 0.16048202
 0.26105263, 0.20704468
 0.19157895, 0.24034879
 0.17894737, 0.37392184
 0.18736842, 0.22133496
 0.24631579, 0.30722168
 0.18526316, 0.25222284
 0.15578947, 0.28998545
 0.51157895, 0.25222284
 0.62105263, 0.30571043
 0.66736842, 0.33401865
 0.44, 0.33734417
 0.24210526, 0.30230427
 0.19368421, 0.25222284
 0.06526316, 0.25148568
 0.04210526, 0.1968527
 0.09473684, 0.23198752
 0.13052632, 0.20160332
 0.10736842, 0.27128771
 0.12, 0.12352002
 0.12421053, 0.244574
 0.07157895, 0.17828831
 0.05263158, 0.17520958
 0.03578947, 0.10483837
 0.04421053, 0.12364116
 0.06736842, 0.15703166
 0.07789474, 0.21926953
 0.10526316, 0.25030217
 0.07368421, 0.27949736
 0.17263158, 0.32853597
 0.52210526, 0.32547155
 0.45473684, 0.44420916
 0.29473684, 0.4309777
 0.38315789, 0.25222284
 0.52842105, 0.26670712
 0.41684211, 0.25771433
 0.50105263, 0.25222284
 0.35578947, 0.25222284
 0.15368421, 0.25222284
 0.12210526, 0.24472423
 0.14526316, 0.17296793
 0.08421053, 0.20688975
 0.04842105, 0.17065151
 0.06105263, 0.18577413
 0.10526316, 0.16575798
 0.06736842, 0.11663733
 0.04421053, 0.15238534
 0.01894737, 0.1011121
 0.04210526, 0.0931876
 0.08421053, 0.09366882
 0.07578947, 0.16348666
 0.07789474, 0.18848291
 0.23368421, 0.26143456
 0.34315789, 0.27558443
 0.57052632, 0.32371488
 0.16421053, 0.43699998
 0.18526316, 0.29285389
 0.12, 0.25222284
 0.37052632, 0.11349879
 0.12, 0.12934288
 0.14105263, 0.12125149
 0.13473684, 0.23894523
 0.06526316, 0.21568188
 0.06736842, 0.11885273
 0.11789474, 0.24083169
 0.06736842, 0.25222284
 0.08842105, 0.24600443
 0.15578947, 0.24625516
 0.11578947, 0.25311479
 0.10947368, 0.25222284
 0.08631579, 0.24554831
 0.09052632, 0.25045818
 0.03157895, 0.25331384
 0.06315789, 0.26027626
 0.04842105, 0.31414306
 0.06947368, 0.25345409
 0.08, 0.33847362
 0.07157895, 0.26585642
 0.08631579, 0.34339055
 0.11368421, 0.3616578
 0.10315789, 0.33270773
 0.16, 0.29978144
 0.30315789, 0.3116456
 0.32, 0.35420275
 0.26315789, 0.35074729
 0.13894737, 0.28745291
 0.07157895, 0.21403176
 0.11368421, 0.16364893
 0.08210526, 0.12572105
 0.05473684, 0.13706164
 0.06315789, 0.11017762
 0.08210526, 0.12307461
 0.12631579, 0.10228956
 0.09894737, 0.10221857
 0.05894737, 0.10087979
 0.04631579, 0.15031873
 0.08210526, 0.07408713
 0.20210526, 0.09392537
 0.32210526, 0.22448879
 0.27157895, 0.24045458
 0.37684211, 0.27076223
 0.25684211, 0.26873794
 0.39789474, 0.25660688
 0.61894737, 0.25238156
 0.40631579, 0.46996534
 0.23368421, 0.26721445
 0.47578947, 0.25058651
 0.25684211, 0.25347304
 0.16, 0.25187343
 0.09052632, 0.13709477
 0.05473684, 0.25222284
 0.06315789, 0.0713684
 0.06947368, 0.13881055
 0.08421053, 0.07921526
 0.10526316, 0.25222284
 0.10105263, 0.19315025
 0.11578947, 0.23208396
 0.09473684, 0.21324503
 0.07157895, 0.25222284
 0.04842105, 0.20902869
 0.10947368, 0.21781714
 0.14736842, 0.15444726
 0.16, 0.2466415
 0.20842105, 0.24790914
 0.27789474, 0.28441831
 0.26315789, 0.29834372
 0.31157895, 0.24512883
 0.36842105, 0.31353134
 0.36421053, 0.34347671
 0.36210526, 0.31801289
 0.17894737, 0.31180343
 0.18947368, 0.25222284
 0.18736842, 0.21499547
 0.06526316, 0.24071528
 0.14736842, 0.13279353
 0.13684211, 0.20694299
 0.09684211, 0.10287049
 0.09684211, 0.12596487
 0.11368421, 0.10669729
 0.08210526, 0.12270275
 0.08, 0.1283582
 0.08842105, 0.12672985
 0.09052632, 0.15145871
 0.06315789, 0.10618579
 0.06947368, 0.09961978
 0.09263158, 0.20500423
 0.25684211, 0.19583489
 0.30526316, 0.25994188
 0.28210526, 0.25222284
 0.24842105, 0.26946247
 0.33263158, 0.25416538
 0.27157895, 0.35152519
 0.32210526, 0.26369628
 0.37473684, 0.32103023
 0.38526316, 0.35713911
 0.33052632, 0.32947224
 0.39789474, 0.25575799
 0.06105263, 0.31350306
 0.08, 0.09616673
 0.17263158, 0.15164338
 0.12631579, 0.1730575
 0.10736842, 0.09554592
 0.13894737, 0.18574633
 0.16842105, 0.21117216
 0.07157895, 0.20275772
 0.05052632, 0.14805757
 0.07789474, 0.17205003
 0.06315789, 0.15150118
 0.05052632, 0.09064434
 0.09684211, 0.15419592
 0.08631579, 0.25120455
 0.10736842, 0.25926244
 0.16210526, 0.26381639
 0.15157895, 0.24665466
 0.14526316, 0.2718935
 0.26526316, 0.28189123
 0.38736842, 0.29305625
 0.47368421, 0.41319066
 0.48210526, 0.54907173
 0.36421053, 0.49670064
 0.28, 0.38923287
 0.20421053, 0.27951849
 0.15789474, 0.20732406
 0.10105263, 0.20395449
 0.06526316, 0.20330112
 0.06105263, 0.16208664
 0.08842105, 0.10697888
 0.07368421, 0.10112804
 0.03157895, 0.11565571
 0.07368421, 0.0999977
 0.06736842, 0.17124236
 0.05894737, 0.17101632
 0.02526316, 0.15240876
 0.08631579, 0.15694287
 0.16421053, 0.19186015
 0.15789474, 0.25222284
 0.19157895, 0.25290364
 0.17684211, 0.2881242
 0.19789474, 0.27147496
 0.18526316, 0.28771985
 0.27157895, 0.26076841
 0.27368421, 0.29560113
 0.64631579, 0.3001847
 0.57473684, 0.45767266
 0.32842105, 0.44235933
 0.19157895, 0.25222284
 0.19789474, 0.25222284
 0.18105263, 0.249412
 0.37473684, 0.20157517
 0.12421053, 0.23575747
 0.19368421, 0.18926188
 0.18736842, 0.17684202
 0.13473684, 0.17729211
 0.06526316, 0.14415647
 0.04421053, 0.21391349
 0.01894737, 0.25126904
 0.03578947, 0.24033447
 0.10315789, 0.21751076
 0.15368421, 0.25222284
 0.12210526, 0.25222284
 0.13052632, 0.24462153
 0.19368421, 0.25867113
 0.22526316, 0.25637263
 0.22105263, 0.25831091
 0.58526316, 0.33210069
 0.68210526, 0.32967517
 0.68421053, 0.35357916
 0.41052632, 0.36417085
 0.17052632, 0.25222284
 0.15157895, 0.24191433
 0.20421053, 0.13835028
 0.28842105, 0.13989535
 0.26105263, 0.16029117
 0.20842105, 0.25737005
 0.17473684, 0.13556764
 0.16842105, 0.2269381
 0.11157895, 0.10992019
 0.03578947, 0.24261908
 0.02736842, 0.0985209
 0.02736842, 0.24040651
 0.04631579, 0.06636553
 0.06736842, 0.1816961
 0.12842105, 0.19696552
 0.14736842, 0.28213692
 0.14947368, 0.24840982
 0.21473684, 0.28556958
 0.18315789, 0.3032538
 0.64842105, 0.33167988
 0.80210526, 0.58519101
 0.66947368, 0.59855986
 0.72210526, 0.51918572
 0.52421053, 0.48581803
 0.32842105, 0.2705625
 0.17894737, 0.25222284
 0.16210526, 0.24151823
 0.10526316, 0.20581868
 0.17263158, 0.21020596
 0.06105263, 0.20886236
 0.12842105, 0.14267302
 0.07368421, 0.12073453
 0.08842105, 0.11492839
 0.09473684, 0.13840052
 0.09473684, 0.11828943
 0.05263158, 0.12590584
 0.07789474, 0.11071099
 0.08210526, 0.12763077
 0.05473684, 0.12728041
 0.09473684, 0.14705551
 0.16, 0.15947825
 0.15789474, 0.21845776
 0.19157895, 0.2495551
 0.47157895, 0.28528678
 0.40421053, 0.42899731
 0.55578947, 0.37186211
 0.30315789, 0.44178236
 0.17263158, 0.20347455
 0.09263158, 0.24686572
 0.05894737, 0.10634035
 0.05684211, 0.1112151
 0.04210526, 0.07601449
 0.08210526, 0.17009073
 0.08, 0.11518979
 0.06315789, 0.12027474
 0.11368421, 0.10042131
 0.09473684, 0.13685808
 0.08210526, 0.16396308
 0.04842105, 0.1676352
 0.03157895, 0.20917356
 0.04210526, 0.09646572
 0.08210526, 0.15509154
 0.08421053, 0.16128016
 0.11578947, 0.23396792
 0.10105263, 0.24813141
 0.18105263, 0.26613021
 0.07789474, 0.28670403
 0.24, 0.40898085
 0.45473684, 0.35477465
 0.36421053, 0.40065497
 0.32421053, 0.32896566
 0.17052632, 0.25222284
 0.14526316, 0.1543221
 0.15157895, 0.21195142
 0.16210526, 0.16318627
 0.08421053, 0.2470168
 0.10315789, 0.16153407
 0.03789474, 0.21478023
 0.02315789, 0.14659679
 0.09473684, 0.16313863
 0.03157895, 0.1503038
 0.01894737, 0.17816626
 0.09684211, 0.10056001
 0.01684211, 0.17037626
 0.05684211, 0.14078084
 0.03578947, 0.22201432
 0.11578947, 0.17099386
 0.31368421, 0.36056566
 0.22526316, 0.33767462
 0.25263158, 0.40563971
 0.32210526, 0.30308583
 0.24, 0.340179
 0.24842105, 0.34778661
 0.09052632, 0.42605582
 0.10105263, 0.25341243
 0.15789474, 0.2500678
 0.37263158, 0.2521885
 0.33473684, 0.25222284
 0.18105263, 0.25548196
 0.08421053, 0.22114499
 0.07157895, 0.25222284
