tar,out
 0.39274318, 0.45336306
 0.36939357, 0.4367671
 0.44834542, 0.48834449
 0.42835544, 0.47460771
 0.38199226, 0.37209138
 0.35494711, 0.40730444
 0.42298003, 0.36518687
 0.4501932, 0.38803118
 0.59667393, 0.49852657
 0.558206, 0.40045431
 0.36956159, 0.39158028
 0.21921719, 0.2708956
 0.19519573, 0.10542956
 0.18494876, 0.10201518
 0.09541411, 0.0649461
 0.07256845, 0.07175326
 0.0614816, 0.06867918
 0.09087858, 0.09654632
 0.27549141, 0.2671853
 0.52897704, 0.56650913
 0.52948098, 0.56764746
 0.44162609, 0.53311706
 0.49168492, 0.44610339
 0.48664544, 0.54090273
 0.45842438, 0.49191761
 0.47119098, 0.45308343
 0.48664544, 0.49717045
 0.49857217, 0.4719395
 0.41693266, 0.36289757
 0.40063832, 0.36631382
 0.43944228, 0.4362551
 0.49924413, 0.50626922
 0.50142783, 0.51873636
 0.45724846, 0.54010582
 0.3537712, 0.38064817
 0.25718128, 0.1959275
 0.28036287, 0.13141717
 0.18511678, 0.10542634
 0.11960359, 0.10150635
 0.11322029, 0.11683227
 0.0974299, 0.09592788
 0.07928778, 0.10559234
 0.12766675, 0.3121286
 0.21652954, 0.4862538
 0.44666557, 0.53352726
 0.63094236, 0.55122966
 0.78531833, 0.62379128
 0.76331266, 0.78156018
 0.63195026, 0.72149748
 0.62019155, 0.68095034
 0.64051736, 0.57801747
 0.57198049, 0.5793367
 0.53082481, 0.52536678
 0.55887786, 0.45558304
 0.54056783, 0.39763117
 0.46144806, 0.40386015
 0.48866123, 0.40216938
 0.47807833, 0.43802363
 0.37695278, 0.27465746
 0.2733076, 0.31884608
 0.36166644, 0.14646345
 0.28153878, 0.12400784
 0.19754745, 0.10553038
 0.18898034, 0.08677173
 0.15807162, 0.08148572
 0.14664874, 0.08006947
 0.16647072, 0.06029861
 0.25163785, 0.08635947
 0.35578699, 0.19680384
 0.56593312, 0.53239453
 0.95044512, 0.68146741
 0.98084999, 0.94660187
 0.8209306, 0.85597157
 0.72450869, 0.80879951
 0.67730554, 0.60476613
 0.56929284, 0.52704155
 0.45708045, 0.46821433
 0.41928438, 0.45995581
 0.47303886, 0.44425109
 0.50898705, 0.52721024
 0.6430371, 0.56707931
 0.62859064, 0.52655053
 0.42365199, 0.41552711
 0.28825801, 0.27465746
 0.26977997, 0.11909907
 0.22677641, 0.10559142
 0.14580886, 0.09443159
 0.13572991, 0.08917201
 0.13001847, 0.08956619
 0.19519573, 0.09860547
 0.35612302, 0.16096795
 0.66403499, 0.4926284
 0.67092224, 0.55245531
 0.5180581, 0.57793331
 0.64001342, 0.58740866
 0.59667393, 0.54750484
 0.52981691, 0.48513567
 0.54375943, 0.46731186
 0.53015285, 0.48140448
 0.51604231, 0.46800774
 0.44565767, 0.38371915
 0.43457082, 0.3693338
 0.49588441, 0.40381652
 0.53804809, 0.54677367
 0.65110026, 0.522964
 0.63497394, 0.52170217
 0.47623046, 0.40173274
 0.28657825, 0.20314018
 0.27717116, 0.10990311
 0.2425668, 0.07518348
 0.12968254, 0.07022996
 0.12968254, 0.05865608
 0.11809175, 0.04652327
 0.14261716, 0.07875511
 0.3537712, 0.21614829
 0.66756262, 0.59989631
 0.67864946, 0.5979178
 0.51150679, 0.49528944
 0.65261211, 0.50293541
 0.66252314, 0.46823466
 0.47975809, 0.48189712
 0.48278177, 0.46517909
 0.54409546, 0.48504412
 0.50932308, 0.41890323
 0.41038134, 0.38954192
 0.39845461, 0.36072677
 0.48210991, 0.39124912
 0.57282047, 0.54545772
 0.67579369, 0.51197124
 0.65630776, 0.51666433
 0.43759451, 0.37554014
 0.29380143, 0.1960123
 0.2733076, 0.12198795
 0.23064007, 0.0889805
 0.13539398, 0.0789028
 0.13270623, 0.06580529
 0.13119438, 0.0621848
 0.1557198, 0.08600791
 0.33915672, 0.27465746
 0.67596171, 0.5723455
 0.65714763, 0.58313364
 0.51066691, 0.48221359
 0.50277176, 0.45431447
 0.51285071, 0.43119168
 0.44784148, 0.4831163
 0.47841426, 0.43121195
 0.57080468, 0.47061288
 0.55249456, 0.46702856
 0.46228794, 0.37359959
 0.44045018, 0.37606615
 0.50243573, 0.37834364
 0.58189153, 0.52003193
 0.68016131, 0.54519385
 0.56744497, 0.53646886
 0.4194524, 0.33393195
 0.29430538, 0.10744403
 0.27179576, 0.12532222
 0.22257691, 0.08142576
 0.15622375, 0.07321796
 0.16697466, 0.04773542
 0.14681676, 0.07666348
 0.15605583, 0.08353002
 0.35461118, 0.27465746
 0.65093235, 0.55773044
 0.62943052, 0.5649904
 0.48748532, 0.53661823
 0.53048888, 0.4753572
 0.48765333, 0.51829433
 0.49538046, 0.45084172
 0.46413571, 0.46143824
 0.5116748, 0.47664499
 0.51604231, 0.47043923
 0.4194524, 0.36391619
 0.38585593, 0.39565992
 0.41138924, 0.3819178
 0.55434233, 0.40755957
 0.60322524, 0.51812983
 0.60675288, 0.52650821
 0.49487652, 0.37575486
 0.26541246, 0.18784624
 0.2563414, 0.11967489
 0.22660849, 0.09107709
 0.1387536, 0.0707048
 0.14278518, 0.06383581
 0.12161938, 0.06991959
 0.1409374, 0.07507324
 0.36989752, 0.27465746
 0.68503277, 0.55177772
 0.67864946, 0.56203938
 0.53250467, 0.46512118
 0.50461954, 0.50252372
 0.480934, 0.42370492
 0.44985727, 0.41011286
 0.47320677, 0.4573352
 0.56290944, 0.5302757
 0.53317653, 0.4715974
 0.48009412, 0.39472288
 0.43373094, 0.41236195
 0.50747521, 0.3829498
 0.47975809, 0.50576067
 0.56862088, 0.53525412
 0.55165468, 0.50649595
 0.42549977, 0.33278999
 0.26994798, 0.18048596
 0.34789184, 0.13095118
 0.2447506, 0.10248721
 0.17974137, 0.08630651
 0.17235007, 0.07348689
 0.15924743, 0.06435992
 0.14144135, 0.06548479
 0.1705023, 0.1024591
 0.31614314, 0.19193557
 0.52595335, 0.4665522
 0.66151525, 0.56598169
 0.98286578, 0.58579123
 0.86813375, 0.77523053
 0.80127664, 0.68792558
 0.68335291, 0.63839483
 0.73038805, 0.56215256
 0.68688054, 0.53182101
 0.5943222, 0.45900565
 0.53519232, 0.45053735
 0.53552835, 0.4280014
 0.51066691, 0.46622151
 0.49874018, 0.46870506
 0.51402652, 0.4338581
 0.40634976, 0.53460371
 0.2775072, 0.22922575
 0.33764487, 0.28771618
 0.24559048, 0.10522506
 0.15420796, 0.08883257
 0.14664874, 0.07538697
 0.11473213, 0.06048965
 0.10784478, 0.08307406
 0.11909964, 0.08066259
 0.19536374, 0.12342286
 0.37493699, 0.36722454
 0.59650601, 0.57087314
 0.93247103, 0.78655612
 1., 0.93402493
 0.90744166, 0.89405644
 0.7616328, 0.80663371
 0.71745343, 0.73108542
 0.59449022, 0.54437244
 0.47690242, 0.48689413
 0.45304887, 0.44258261
 0.49554848, 0.4308356
 0.56425337, 0.52574515
 0.58306734, 0.56354463
 0.60557707, 0.52785015
 0.43793044, 0.39521128
 0.29564931, 0.24496202
 0.29581723, 0.10973485
 0.25197379, 0.0897496
 0.15017638, 0.08774105
 0.17016636, 0.07852934
 0.11574003, 0.07578801
 0.1906602, 0.09773889
 0.34066856, 0.14731331
 0.66773053, 0.50377786
 0.68620868, 0.54048175
 0.52813706, 0.58334434
 0.57483626, 0.5624674
 0.55518231, 0.58074272
 0.53804809, 0.54432881
 0.5699647, 0.44943437
 0.58945074, 0.52219296
 0.5392239, 0.50215453
 0.43289096, 0.42938122
 0.44733753, 0.42628521
 0.53351256, 0.45568994
 0.57802787, 0.52795386
 0.74029898, 0.53801668
 0.6133042, 0.53230083
 0.43826647, 0.37487102
 0.27448351, 0.17512596
 0.25701326, 0.10959756
 0.23181588, 0.08404349
 0.12346716, 0.06555952
 0.12195531, 0.05727327
 0.1175878, 0.0889921
 0.13791372, 0.09213172
 0.34285237, 0.27564529
 0.70115909, 0.52421349
 0.71039816, 0.55633605
 0.4957165, 0.53570473
 0.50865112, 0.48391819
 0.46531163, 0.52584076
 0.48160596, 0.44829947
 0.49269281, 0.43897361
 0.55484628, 0.48417675
 0.51671428, 0.46700016
 0.42465989, 0.39959949
 0.41256515, 0.43119168
 0.49773229, 0.37235153
 0.53905599, 0.41640484
 0.75054595, 0.44484186
 0.69057619, 0.36826688
 0.51621033, 0.37460378
 0.3453721, 0.09481265
