tar,out,
0.67864946,0.57005996,0.0117916795
0.51150679,0.48974434,0.0004736042
0.65261211,0.4844881,0.0282656827
0.66252314,0.48290849,0.0322614225
0.47975809,0.47511035,2.16014871076001E-05
0.48278177,0.48885149,3.68415008784E-05
0.54409546,0.5124687,0.0010002519
0.50932308,0.49630398,0.000169497
0.41038134,0.42763942,0.0002978413
0.39845461,0.41812995,0.000387119
0.48210991,0.42718416,0.003016838
0.57282047,0.52613187,0.0021798254
0.67579369,0.53775626,0.0190543321
0.65630776,0.51531887,0.0198778671
0.43759451,0.38421717,0.0028491404
0.29380143,0.22178419,0.0051864829
0.2733076,0.20478073,0.0046959319
0.23064007,0.17482199,0.0031156581
0.13539398,0.14535785,9.92787053769003E-05
0.13270623,0.13606162,1.12586420520999E-05
0.13119438,0.13571285,2.04165711409E-05
0.1557198,0.14463767,0.0001228136
0.33915672,0.29586881,0.0018738432
0.67596171,0.56537604,0.0122291904
0.65714763,0.56434643,0.0086120627
0.51066691,0.47357526,0.0013757905
0.50277176,0.47900128,0.0005650357
0.51285071,0.46431679,0.0023555414
0.44784148,0.44979528,3.81733444000002E-06
0.47841426,0.44888639,0.0008718951
0.57080468,0.51295549,0.0033465288
0.55249456,0.50751722,0.0020229611
0.46228794,0.40920883,0.0028173919
0.44045018,0.39812005,0.0017918399
0.50243573,0.45516047,0.0022349502
0.58189153,0.49396461,0.0077311433
0.68016131,0.55207837,0.0164052395
0.56744497,0.52878189,0.0014948338
0.4194524,0.37635288,0.0018575686
0.29430538,0.21388495,0.0064674456
0.27179576,0.19671753,0.0056367406
0.22257691,0.16064189,0.0038359467
0.15622375,0.13098814,0.000636836
0.16697466,0.09369391,0.0053700683
0.14681676,0.10528961,0.0017245042
0.15605583,0.11072636,0.0020547609
0.35461118,0.28733554,0.0045260117
0.65093235,0.56192863,0.0079216622
0.62943052,0.55879474,0.0049894134
0.48748532,0.48685506,3.97227667599992E-07
0.53048888,0.4752264,0.0030539417
0.48765333,0.47267029,0.0002244915
0.49538046,0.47131866,0.0005789702
0.46413571,0.46983764,0.000032512
0.5116748,0.51745868,3.34532678544009E-05
0.51604231,0.51282644,1.03418198569001E-05
0.4194524,0.47039387,0.0025950334
0.38585593,0.41572538,0.000892184
0.41138924,0.4809823,0.004843194
0.55434233,0.50725341,0.0022173664
0.60322524,0.5540868,0.0024145863
0.60675288,0.49513111,0.0124594195
0.49487652,0.38632393,0.0117836648
0.26541246,0.21032059,0.0030351141
0.2563414,0.20348078,0.0027942451
0.22660849,0.17722403,0.0024388249
0.1387536,0.14330611,2.07253473001001E-05
0.14278518,0.14181416,9.42879840400033E-07
0.12161938,0.12618436,0.000020839
0.1409374,0.13952678,1.9898487844E-06
0.36989752,0.28713503,0.0068496298
0.68503277,0.55750704,0.0162628118
0.67864946,0.55980349,0.0141243646
0.53250467,0.47487342,0.003321361
0.50461954,0.48010179,0.0006011201
0.480934,0.46959075,0.0001286693
0.44985727,0.48946777,0.0015689917
0.47320677,0.48525807,0.0001452338
0.56290944,0.48936313,0.0054090597
0.53317653,0.48624215,0.002202836
0.48009412,0.42266583,0.0032980085
0.43373094,0.39330488,0.0016342663
0.50747521,0.41542947,0.0084724183
0.47975809,0.50629342,0.0007041237
0.56862088,0.54509187,0.0005536143
0.55165468,0.52167135,0.0008990001
0.42549977,0.38666701,0.0015079832
0.26994798,0.21680607,0.0028240626
0.34789184,0.19289206,0.0240249318
0.2447506,0.16148347,0.0069334149
0.17974137,0.15533459,0.0005956909
0.17235007,0.11098737,0.003765381
0.15924743,0.11475497,0.001979579
0.14144135,0.11264068,0.0008294786
0.1705023,0.17985955,8.75581275625002E-05
0.31614314,0.3091726,4.85884278916003E-05
0.52595335,0.45014328,0.0057471667
0.66151525,0.63511515,0.0006969653
0.98286578,0.66314197,0.1022233147
0.86813375,0.66929317,0.0395375763
0.80127664,0.63203758,0.0286418594
0.68335291,0.54833257,0.0182304922
0.73038805,0.56011105,0.0289942567
0.68688054,0.53698719,0.0224680164
0.5943222,0.54914248,0.0020412071
0.53519232,0.49704486,0.0014552287
0.53552835,0.5346607,7.52816522499996E-07
0.51066691,0.454777,0.003123682
0.49874018,0.50169957,0.000008758
0.51402652,0.48022881,0.0011422852
0.40634976,0.36462969,0.0017405642
0.2775072,0.29237771,0.0002211321
0.33764487,0.25744793,0.0064315492
0.24559048,0.26546758,0.0003950991
0.15420796,0.19143292,0.0013856976
0.14664874,0.22356972,0.0059168372
0.11473213,0.17116524,0.0031846959
0.10784478,0.19347464,0.0073324729
0.11909964,0.16747648,0.0023403186
0.19536374,0.2059429,0.0001119186
0.37493699,0.28749159,0.007646698
0.59650601,0.57418889,0.0004980538
0.93247103,0.63328588,0.089511754
1,0.69200981,0.0948579571
0.90744166,0.67855,0.052391392
0.7616328,0.63692409,0.0155522623
0.71745343,0.58110559,0.0185907335
0.59449022,0.48139408,0.0127907369
0.47690242,0.47209468,2.31143639076E-05
0.45304887,0.47055691,0.0003065315
0.49554848,0.47218487,0.0005458583
0.56425337,0.51329958,0.0025962887
0.58306734,0.59358782,0.0001106805
0.60557707,0.59354031,0.0001448836
0.43793044,0.44769239,9.52956678024993E-05
0.29564931,0.2487447,0.0022000424
0.29581723,0.19440584,0.01028427
0.25197379,0.18007296,0.0051697294
0.15017638,0.1484746,2.89605516840005E-06
0.17016636,0.15694794,0.0001747266
0.11574003,0.13985707,0.0005816316
0.1906602,0.16746481,0.0005380261
0.34066856,0.17498702,0.0274503727
0.66773053,0.42549476,0.0586781683
0.68620868,0.52365839,0.0264225968
0.52813706,0.56553644,0.0013987136
0.57483626,0.57294869,3.56292050489981E-06
0.55518231,0.59162116,0.0013277898
0.53804809,0.60188669,0.0040753668
0.5699647,0.57265258,7.22469889439987E-06
0.58945074,0.54712403,0.0017915504
0.5392239,0.48359424,0.0030946591
0.43289096,0.4589729,0.0006802676
0.44733753,0.41659495,0.0009451062
0.53351256,0.42145115,0.0125577596
0.57802787,0.51426387,0.0040658477
0.74029898,0.54764825,0.0371143038
0.6133042,0.52652943,0.0075298607
0.43826647,0.38379544,0.0029670931
0.27448351,0.21681745,0.0033253745
0.25701326,0.19213927,0.0042086346
0.23181588,0.17861664,0.0028301591
0.12346716,0.15822652,0.0012082131
0.12195531,0.14913523,0.0007387481
0.1175878,0.13894331,0.0004560578
0.13791372,0.18762445,0.0024711567
0.34285237,0.29637206,0.0021604192
0.70115909,0.58345908,0.0138532924
0.71039816,0.5709604,0.0194428889
0.4957165,0.47520339,0.0004207877
0.50865112,0.47841638,0.0009141395
0.46531163,0.45514596,0.0001033408
0.48160596,0.47457069,0.000049495
0.49269281,0.48481014,6.21364863289006E-05
0.55484628,0.52686656,0.0007828647
0.51671428,0.487167,0.0008730418
0.42465989,0.46269977,0.0014470325
0.41256515,0.4098393,7.43025822250016E-06
0.49773229,0.47756889,0.0004065627
0.53905599,0.49207836,0.0022068977
0.75054595,0.54427081,0.0425494334
0.69057619,0.49227393,0.0393237863
0.51621033,0.40297464,0.0128223215
0.3453721,0.2063075,0.019338963
,,
,,0.0074131068
