Exprimiento4AguaSector19SinSuavizar_06-12-2017_14-36-40_24x24_8000_epocas:200_dropout0.4_tipoSerieAImagenGRAMIAN_ANGULAR_FIELD_paso:1,0.00733379,0.00217924,,,
Exprimiento4AguaSector19SinSuavizar_06-12-2017_14-36-40_24x24_8000_epocas:205_dropout0.4_tipoSerieAImagenGRAMIAN_ANGULAR_FIELD_paso:1,0.01000589,0.00154593,,,
Exprimiento4AguaSector19SinSuavizar_06-12-2017_14-36-40_24x24_8000_epocas:210_dropout0.4_tipoSerieAImagenGRAMIAN_ANGULAR_FIELD_paso:1,0.00854428,0.00192325,,paso1,0.00733379
Exprimiento4AguaSector19SinSuavizar_06-12-2017_14-36-40_24x24_8000_epocas:215_dropout0.4_tipoSerieAImagenGRAMIAN_ANGULAR_FIELD_paso:1,0.00815653,0.00176108,,paso2,0.00765879
Exprimiento4AguaSector19SinSuavizar_06-12-2017_14-36-40_24x24_8000_epocas:220_dropout0.4_tipoSerieAImagenGRAMIAN_ANGULAR_FIELD_paso:1,0.00865043,0.00263804,,paso3,0.00710254
Exprimiento4AguaSector19SinSuavizar_06-12-2017_14-36-40_24x24_8000_epocas:225_dropout0.4_tipoSerieAImagenGRAMIAN_ANGULAR_FIELD_paso:1,0.00823708,0.00145144,,paso4,0.00795376
Exprimiento4AguaSector19SinSuavizar_06-12-2017_14-36-40_24x24_8000_epocas:230_dropout0.4_tipoSerieAImagenGRAMIAN_ANGULAR_FIELD_paso:1,0.0094857,0.00124529,,paso5,0.00720005
Exprimiento4AguaSector19SinSuavizar_06-12-2017_14-36-40_24x24_8000_epocas:235_dropout0.4_tipoSerieAImagenGRAMIAN_ANGULAR_FIELD_paso:1,0.00834311,0.00121886,,paso6,0.00787084
Exprimiento4AguaSector19SinSuavizar_06-12-2017_14-36-40_24x24_8000_epocas:240_dropout0.4_tipoSerieAImagenGRAMIAN_ANGULAR_FIELD_paso:1,0.00760725,0.00212944,,paso7,0.00748591
Exprimiento4AguaSector19SinSuavizar_06-12-2017_14-36-40_24x24_8000_epocas:245_dropout0.4_tipoSerieAImagenGRAMIAN_ANGULAR_FIELD_paso:1,0.01397516,0.00204892,,paso8,0.00795036
Exprimiento4AguaSector19SinSuavizar_06-12-2017_14-36-40_24x24_8000_epocas:250_dropout0.4_tipoSerieAImagenGRAMIAN_ANGULAR_FIELD_paso:1,0.00770947,0.00088059,,,
Exprimiento4AguaSector19SinSuavizar_06-12-2017_14-36-40_24x24_8000_epocas:255_dropout0.4_tipoSerieAImagenGRAMIAN_ANGULAR_FIELD_paso:1,0.00907854,0.00280858,,,
Exprimiento4AguaSector19SinSuavizar_06-12-2017_14-36-40_24x24_8000_epocas:260_dropout0.4_tipoSerieAImagenGRAMIAN_ANGULAR_FIELD_paso:1,0.00930548,0.00164988,,,
Exprimiento4AguaSector19SinSuavizar_06-12-2017_14-36-40_24x24_8000_epocas:265_dropout0.4_tipoSerieAImagenGRAMIAN_ANGULAR_FIELD_paso:1,0.00839303,0.00125572,,,
Exprimiento4AguaSector19SinSuavizar_06-12-2017_14-36-40_24x24_8000_epocas:270_dropout0.4_tipoSerieAImagenGRAMIAN_ANGULAR_FIELD_paso:1,0.01246847,0.00155792,,,
Exprimiento4AguaSector19SinSuavizar_06-12-2017_14-36-40_24x24_8000_epocas:275_dropout0.4_tipoSerieAImagenGRAMIAN_ANGULAR_FIELD_paso:1,0.00775039,0.00186238,,,
Exprimiento4AguaSector19SinSuavizar_06-12-2017_14-36-40_24x24_8000_epocas:280_dropout0.4_tipoSerieAImagenGRAMIAN_ANGULAR_FIELD_paso:1,0.00856587,0.0015531,,,
Exprimiento4AguaSector19SinSuavizar_06-12-2017_14-36-40_24x24_8000_epocas:285_dropout0.4_tipoSerieAImagenGRAMIAN_ANGULAR_FIELD_paso:1,0.00764938,0.00151324,,,
Exprimiento4AguaSector19SinSuavizar_06-12-2017_14-36-40_24x24_8000_epocas:290_dropout0.4_tipoSerieAImagenGRAMIAN_ANGULAR_FIELD_paso:1,0.00900332,0.0013031,,,
Exprimiento4AguaSector19SinSuavizar_06-12-2017_14-36-40_24x24_8000_epocas:295_dropout0.4_tipoSerieAImagenGRAMIAN_ANGULAR_FIELD_paso:1,0.00947122,0.00091218,,,
Exprimiento4AguaSector19SinSuavizar_06-12-2017_14-36-40_24x24_8000_epocas:300_dropout0.4_tipoSerieAImagenGRAMIAN_ANGULAR_FIELD_paso:1,0.00804008,0.00097145,,,
Exprimiento4AguaSector19SinSuavizar_06-12-2017_14-36-40_24x24_8000_epocas:305_dropout0.4_tipoSerieAImagenGRAMIAN_ANGULAR_FIELD_paso:1,0.01019245,0.00100131,,,
Exprimiento4AguaSector19SinSuavizar_06-12-2017_14-36-40_24x24_8000_epocas:310_dropout0.4_tipoSerieAImagenGRAMIAN_ANGULAR_FIELD_paso:1,0.00968568,0.00155442,,,
Exprimiento4AguaSector19SinSuavizar_06-12-2017_14-36-40_24x24_8000_epocas:315_dropout0.4_tipoSerieAImagenGRAMIAN_ANGULAR_FIELD_paso:1,0.00784096,0.00130309,,,
Exprimiento4AguaSector19SinSuavizar_06-12-2017_14-36-40_24x24_8000_epocas:320_dropout0.4_tipoSerieAImagenGRAMIAN_ANGULAR_FIELD_paso:1,0.01000907,0.00108503,,,
Exprimiento4AguaSector19SinSuavizar_06-12-2017_14-36-40_24x24_8000_epocas:325_dropout0.4_tipoSerieAImagenGRAMIAN_ANGULAR_FIELD_paso:1,0.00833867,0.00094932,,,
Exprimiento4AguaSector19SinSuavizar_06-12-2017_14-36-40_24x24_8000_epocas:330_dropout0.4_tipoSerieAImagenGRAMIAN_ANGULAR_FIELD_paso:1,0.00899634,0.00079921,,,
Exprimiento4AguaSector19SinSuavizar_06-12-2017_14-36-40_24x24_8000_epocas:335_dropout0.4_tipoSerieAImagenGRAMIAN_ANGULAR_FIELD_paso:1,0.00797825,0.00128305,,,
Exprimiento4AguaSector19SinSuavizar_06-12-2017_14-36-40_24x24_8000_epocas:340_dropout0.4_tipoSerieAImagenGRAMIAN_ANGULAR_FIELD_paso:1,0.0091067,0.00180816,,,
Exprimiento4AguaSector19SinSuavizar_06-12-2017_14-36-40_24x24_8000_epocas:345_dropout0.4_tipoSerieAImagenGRAMIAN_ANGULAR_FIELD_paso:1,0.00962496,0.00088067,,,
Exprimiento4AguaSector19SinSuavizar_06-12-2017_14-36-40_24x24_8000_epocas:350_dropout0.4_tipoSerieAImagenGRAMIAN_ANGULAR_FIELD_paso:1,0.00847141,0.00199357,,,
Exprimiento4AguaSector19SinSuavizar_06-12-2017_14-36-40_24x24_8000_epocas:355_dropout0.4_tipoSerieAImagenGRAMIAN_ANGULAR_FIELD_paso:1,0.00830653,0.00076572,,,
Exprimiento4AguaSector19SinSuavizar_06-12-2017_14-36-40_24x24_8000_epocas:360_dropout0.4_tipoSerieAImagenGRAMIAN_ANGULAR_FIELD_paso:1,0.00816941,0.00128367,,,
Exprimiento4AguaSector19SinSuavizar_06-12-2017_14-36-40_24x24_8000_epocas:365_dropout0.4_tipoSerieAImagenGRAMIAN_ANGULAR_FIELD_paso:1,0.00840048,0.00152364,,,
Exprimiento4AguaSector19SinSuavizar_06-12-2017_14-36-40_24x24_8000_epocas:370_dropout0.4_tipoSerieAImagenGRAMIAN_ANGULAR_FIELD_paso:1,0.00805996,0.00072257,,,
Exprimiento4AguaSector19SinSuavizar_06-12-2017_14-36-40_24x24_8000_epocas:375_dropout0.4_tipoSerieAImagenGRAMIAN_ANGULAR_FIELD_paso:1,0.0097184,0.00117323,,,
Exprimiento4AguaSector19SinSuavizar_06-12-2017_14-36-40_24x24_8000_epocas:380_dropout0.4_tipoSerieAImagenGRAMIAN_ANGULAR_FIELD_paso:1,0.00973281,0.00076355,,,
Exprimiento4AguaSector19SinSuavizar_06-12-2017_14-36-40_24x24_8000_epocas:385_dropout0.4_tipoSerieAImagenGRAMIAN_ANGULAR_FIELD_paso:1,0.00981957,0.00087751,,,
Exprimiento4AguaSector19SinSuavizar_06-12-2017_14-36-40_24x24_8000_epocas:390_dropout0.4_tipoSerieAImagenGRAMIAN_ANGULAR_FIELD_paso:1,0.00969984,0.00088952,,,
Exprimiento4AguaSector19SinSuavizar_06-12-2017_14-36-40_24x24_8000_epocas:395_dropout0.4_tipoSerieAImagenGRAMIAN_ANGULAR_FIELD_paso:1,0.00863084,0.00080067,,,
Exprimiento4AguaSector19SinSuavizar_06-12-2017_14-36-40_24x24_8000_epocas:400_dropout0.4_tipoSerieAImagenGRAMIAN_ANGULAR_FIELD_paso:1,0.01204042,0.00132364,,,
Exprimiento4AguaSector19SinSuavizar_06-12-2017_14-36-40_24x24_8000_epocas:405_dropout0.4_tipoSerieAImagenGRAMIAN_ANGULAR_FIELD_paso:1,0.00915358,0.00165851,,,
Exprimiento4AguaSector19SinSuavizar_06-12-2017_14-36-40_24x24_8000_epocas:410_dropout0.4_tipoSerieAImagenGRAMIAN_ANGULAR_FIELD_paso:1,0.01003213,0.00154657,,,
Exprimiento4AguaSector19SinSuavizar_06-12-2017_14-36-40_24x24_8000_epocas:415_dropout0.4_tipoSerieAImagenGRAMIAN_ANGULAR_FIELD_paso:1,0.00916868,0.00082887,,,
Exprimiento4AguaSector19SinSuavizar_06-12-2017_14-36-40_24x24_8000_epocas:420_dropout0.4_tipoSerieAImagenGRAMIAN_ANGULAR_FIELD_paso:1,0.00868156,0.00073904,,,
Exprimiento4AguaSector19SinSuavizar_06-12-2017_14-36-40_24x24_8000_epocas:425_dropout0.4_tipoSerieAImagenGRAMIAN_ANGULAR_FIELD_paso:1,0.00927615,0.00100532,,,
Exprimiento4AguaSector19SinSuavizar_06-12-2017_14-36-40_24x24_8000_epocas:430_dropout0.4_tipoSerieAImagenGRAMIAN_ANGULAR_FIELD_paso:1,0.00879441,0.00125441,,,
Exprimiento4AguaSector19SinSuavizar_06-12-2017_14-36-40_24x24_8000_epocas:435_dropout0.4_tipoSerieAImagenGRAMIAN_ANGULAR_FIELD_paso:1,0.00801769,0.00106306,,,
Exprimiento4AguaSector19SinSuavizar_06-12-2017_14-36-40_24x24_8000_epocas:440_dropout0.4_tipoSerieAImagenGRAMIAN_ANGULAR_FIELD_paso:1,0.00977914,0.0014926,,,
Exprimiento4AguaSector19SinSuavizar_06-12-2017_14-36-40_24x24_8000_epocas:445_dropout0.4_tipoSerieAImagenGRAMIAN_ANGULAR_FIELD_paso:1,0.00920158,0.00111672,,,
Exprimiento4AguaSector19SinSuavizar_06-12-2017_14-36-40_24x24_8000_epocas:450_dropout0.4_tipoSerieAImagenGRAMIAN_ANGULAR_FIELD_paso:1,0.00976349,0.00073731,,,
Exprimiento4AguaSector19SinSuavizar_06-12-2017_14-36-40_24x24_8000_epocas:455_dropout0.4_tipoSerieAImagenGRAMIAN_ANGULAR_FIELD_paso:1,0.00836013,0.00158676,,,
Exprimiento4AguaSector19SinSuavizar_06-12-2017_14-36-40_24x24_8000_epocas:460_dropout0.4_tipoSerieAImagenGRAMIAN_ANGULAR_FIELD_paso:1,0.010213,0.00159349,,,
Exprimiento4AguaSector19SinSuavizar_06-12-2017_14-36-40_24x24_8000_epocas:465_dropout0.4_tipoSerieAImagenGRAMIAN_ANGULAR_FIELD_paso:1,0.01025229,0.00153463,,,
Exprimiento4AguaSector19SinSuavizar_06-12-2017_14-36-40_24x24_8000_epocas:470_dropout0.4_tipoSerieAImagenGRAMIAN_ANGULAR_FIELD_paso:1,0.00952607,0.00097819,,,
Exprimiento4AguaSector19SinSuavizar_06-12-2017_14-36-40_24x24_8000_epocas:475_dropout0.4_tipoSerieAImagenGRAMIAN_ANGULAR_FIELD_paso:1,0.01091187,0.00091183,,,
Exprimiento4AguaSector19SinSuavizar_06-12-2017_14-36-40_24x24_8000_epocas:480_dropout0.4_tipoSerieAImagenGRAMIAN_ANGULAR_FIELD_paso:1,0.00805884,0.00136949,,,
Exprimiento4AguaSector19SinSuavizar_06-12-2017_14-36-40_24x24_8000_epocas:485_dropout0.4_tipoSerieAImagenGRAMIAN_ANGULAR_FIELD_paso:1,0.00812786,0.00122594,,,
Exprimiento4AguaSector19SinSuavizar_06-12-2017_14-36-40_24x24_8000_epocas:490_dropout0.4_tipoSerieAImagenGRAMIAN_ANGULAR_FIELD_paso:1,0.00853456,0.00127877,,,
Exprimiento4AguaSector19SinSuavizar_06-12-2017_14-36-40_24x24_8000_epocas:495_dropout0.4_tipoSerieAImagenGRAMIAN_ANGULAR_FIELD_paso:1,0.00915289,0.00094645,,,
Exprimiento4AguaSector19SinSuavizar_06-12-2017_14-36-40_24x24_8000_epocas:500_dropout0.4_tipoSerieAImagenGRAMIAN_ANGULAR_FIELD_paso:1,0.00740363,0.00091876,,,
Exprimiento4AguaSector19SinSuavizar_06-12-2017_14-36-40_24x24_8000_epocas:505_dropout0.4_tipoSerieAImagenGRAMIAN_ANGULAR_FIELD_paso:1,0.00868619,0.00078577,,,
Exprimiento4AguaSector19SinSuavizar_06-12-2017_14-36-40_24x24_8000_epocas:510_dropout0.4_tipoSerieAImagenGRAMIAN_ANGULAR_FIELD_paso:1,0.00839749,0.00121707,,,
Exprimiento4AguaSector19SinSuavizar_06-12-2017_14-36-40_24x24_8000_epocas:515_dropout0.4_tipoSerieAImagenGRAMIAN_ANGULAR_FIELD_paso:1,0.00885718,0.00133396,,,
Exprimiento4AguaSector19SinSuavizar_06-12-2017_14-36-40_24x24_8000_epocas:520_dropout0.4_tipoSerieAImagenGRAMIAN_ANGULAR_FIELD_paso:1,0.00997976,0.00061055,,,
Exprimiento4AguaSector19SinSuavizar_06-12-2017_14-36-40_24x24_8000_epocas:525_dropout0.4_tipoSerieAImagenGRAMIAN_ANGULAR_FIELD_paso:1,0.01251064,0.00154968,,,
Exprimiento4AguaSector19SinSuavizar_06-12-2017_14-36-40_24x24_8000_epocas:530_dropout0.4_tipoSerieAImagenGRAMIAN_ANGULAR_FIELD_paso:1,0.00976308,0.00087039,,,
Exprimiento4AguaSector19SinSuavizar_06-12-2017_14-36-40_24x24_8000_epocas:535_dropout0.4_tipoSerieAImagenGRAMIAN_ANGULAR_FIELD_paso:1,0.0086681,0.00090429,,,
Exprimiento4AguaSector19SinSuavizar_06-12-2017_14-36-40_24x24_8000_epocas:540_dropout0.4_tipoSerieAImagenGRAMIAN_ANGULAR_FIELD_paso:1,0.00876124,0.00087219,,,
Exprimiento4AguaSector19SinSuavizar_06-12-2017_14-36-40_24x24_8000_epocas:545_dropout0.4_tipoSerieAImagenGRAMIAN_ANGULAR_FIELD_paso:1,0.00889682,0.00065995,,,
Exprimiento4AguaSector19SinSuavizar_06-12-2017_14-36-40_24x24_8000_epocas:550_dropout0.4_tipoSerieAImagenGRAMIAN_ANGULAR_FIELD_paso:1,0.01098066,0.00081574,,,
Exprimiento4AguaSector19SinSuavizar_06-12-2017_14-36-40_24x24_8000_epocas:555_dropout0.4_tipoSerieAImagenGRAMIAN_ANGULAR_FIELD_paso:1,0.01279618,0.00085228,,,
Exprimiento4AguaSector19SinSuavizar_06-12-2017_14-36-40_24x24_8000_epocas:560_dropout0.4_tipoSerieAImagenGRAMIAN_ANGULAR_FIELD_paso:1,0.00828694,0.00053879,,,
Exprimiento4AguaSector19SinSuavizar_06-12-2017_14-36-40_24x24_8000_epocas:565_dropout0.4_tipoSerieAImagenGRAMIAN_ANGULAR_FIELD_paso:1,0.00829854,0.00199754,,,
Exprimiento4AguaSector19SinSuavizar_06-12-2017_14-36-40_24x24_8000_epocas:570_dropout0.4_tipoSerieAImagenGRAMIAN_ANGULAR_FIELD_paso:1,0.01263874,0.0008321,,,
Exprimiento4AguaSector19SinSuavizar_06-12-2017_14-36-40_24x24_8000_epocas:575_dropout0.4_tipoSerieAImagenGRAMIAN_ANGULAR_FIELD_paso:1,0.01101331,0.00098733,,,
Exprimiento4AguaSector19SinSuavizar_06-12-2017_14-36-40_24x24_8000_epocas:580_dropout0.4_tipoSerieAImagenGRAMIAN_ANGULAR_FIELD_paso:1,0.00934306,0.00073447,,,
Exprimiento4AguaSector19SinSuavizar_06-12-2017_14-36-40_24x24_8000_epocas:585_dropout0.4_tipoSerieAImagenGRAMIAN_ANGULAR_FIELD_paso:1,0.00982267,0.00086687,,,
Exprimiento4AguaSector19SinSuavizar_06-12-2017_14-36-40_24x24_8000_epocas:590_dropout0.4_tipoSerieAImagenGRAMIAN_ANGULAR_FIELD_paso:1,0.01036994,0.00066531,,,
Exprimiento4AguaSector19SinSuavizar_06-12-2017_14-36-40_24x24_8000_epocas:595_dropout0.4_tipoSerieAImagenGRAMIAN_ANGULAR_FIELD_paso:1,0.00939389,0.00150062,,,
Exprimiento4AguaSector19SinSuavizar_06-12-2017_14-36-40_24x24_8000_epocas:200_dropout0.4_tipoSerieAImagenGRAMIAN_ANGULAR_FIELD_paso:2,0.00991565,0.00203763,,,
Exprimiento4AguaSector19SinSuavizar_06-12-2017_14-36-40_24x24_8000_epocas:205_dropout0.4_tipoSerieAImagenGRAMIAN_ANGULAR_FIELD_paso:2,0.01051925,0.0014877,,,
Exprimiento4AguaSector19SinSuavizar_06-12-2017_14-36-40_24x24_8000_epocas:210_dropout0.4_tipoSerieAImagenGRAMIAN_ANGULAR_FIELD_paso:2,0.00905305,0.00163481,,,
Exprimiento4AguaSector19SinSuavizar_06-12-2017_14-36-40_24x24_8000_epocas:215_dropout0.4_tipoSerieAImagenGRAMIAN_ANGULAR_FIELD_paso:2,0.01039765,0.00227856,,,
Exprimiento4AguaSector19SinSuavizar_06-12-2017_14-36-40_24x24_8000_epocas:220_dropout0.4_tipoSerieAImagenGRAMIAN_ANGULAR_FIELD_paso:2,0.00817764,0.00152488,,,
Exprimiento4AguaSector19SinSuavizar_06-12-2017_14-36-40_24x24_8000_epocas:225_dropout0.4_tipoSerieAImagenGRAMIAN_ANGULAR_FIELD_paso:2,0.0079886,0.00195535,,,
Exprimiento4AguaSector19SinSuavizar_06-12-2017_14-36-40_24x24_8000_epocas:230_dropout0.4_tipoSerieAImagenGRAMIAN_ANGULAR_FIELD_paso:2,0.0099799,0.0015722,,,
Exprimiento4AguaSector19SinSuavizar_06-12-2017_14-36-40_24x24_8000_epocas:235_dropout0.4_tipoSerieAImagenGRAMIAN_ANGULAR_FIELD_paso:2,0.00968705,0.00132048,,,
Exprimiento4AguaSector19SinSuavizar_06-12-2017_14-36-40_24x24_8000_epocas:240_dropout0.4_tipoSerieAImagenGRAMIAN_ANGULAR_FIELD_paso:2,0.00963273,0.00150523,,,
Exprimiento4AguaSector19SinSuavizar_06-12-2017_14-36-40_24x24_8000_epocas:245_dropout0.4_tipoSerieAImagenGRAMIAN_ANGULAR_FIELD_paso:2,0.01003335,0.0023455,,,
Exprimiento4AguaSector19SinSuavizar_06-12-2017_14-36-40_24x24_8000_epocas:250_dropout0.4_tipoSerieAImagenGRAMIAN_ANGULAR_FIELD_paso:2,0.00890102,0.00106455,,,
Exprimiento4AguaSector19SinSuavizar_06-12-2017_14-36-40_24x24_8000_epocas:255_dropout0.4_tipoSerieAImagenGRAMIAN_ANGULAR_FIELD_paso:2,0.0079592,0.00136552,,,
Exprimiento4AguaSector19SinSuavizar_06-12-2017_14-36-40_24x24_8000_epocas:260_dropout0.4_tipoSerieAImagenGRAMIAN_ANGULAR_FIELD_paso:2,0.00854757,0.0011039,,,
Exprimiento4AguaSector19SinSuavizar_06-12-2017_14-36-40_24x24_8000_epocas:265_dropout0.4_tipoSerieAImagenGRAMIAN_ANGULAR_FIELD_paso:2,0.00884043,0.00140031,,,
Exprimiento4AguaSector19SinSuavizar_06-12-2017_14-36-40_24x24_8000_epocas:270_dropout0.4_tipoSerieAImagenGRAMIAN_ANGULAR_FIELD_paso:2,0.00984438,0.00131892,,,
Exprimiento4AguaSector19SinSuavizar_06-12-2017_14-36-40_24x24_8000_epocas:275_dropout0.4_tipoSerieAImagenGRAMIAN_ANGULAR_FIELD_paso:2,0.01056699,0.00090883,,,
Exprimiento4AguaSector19SinSuavizar_06-12-2017_14-36-40_24x24_8000_epocas:280_dropout0.4_tipoSerieAImagenGRAMIAN_ANGULAR_FIELD_paso:2,0.0083663,0.00135724,,,
Exprimiento4AguaSector19SinSuavizar_06-12-2017_14-36-40_24x24_8000_epocas:285_dropout0.4_tipoSerieAImagenGRAMIAN_ANGULAR_FIELD_paso:2,0.00810113,0.00114331,,,
Exprimiento4AguaSector19SinSuavizar_06-12-2017_14-36-40_24x24_8000_epocas:290_dropout0.4_tipoSerieAImagenGRAMIAN_ANGULAR_FIELD_paso:2,0.00858365,0.00114801,,,
Exprimiento4AguaSector19SinSuavizar_06-12-2017_14-36-40_24x24_8000_epocas:295_dropout0.4_tipoSerieAImagenGRAMIAN_ANGULAR_FIELD_paso:2,0.00883112,0.00163677,,,
Exprimiento4AguaSector19SinSuavizar_06-12-2017_14-36-40_24x24_8000_epocas:300_dropout0.4_tipoSerieAImagenGRAMIAN_ANGULAR_FIELD_paso:2,0.00899504,0.00165805,,,
Exprimiento4AguaSector19SinSuavizar_06-12-2017_14-36-40_24x24_8000_epocas:305_dropout0.4_tipoSerieAImagenGRAMIAN_ANGULAR_FIELD_paso:2,0.01047675,0.00146514,,,
Exprimiento4AguaSector19SinSuavizar_06-12-2017_14-36-40_24x24_8000_epocas:310_dropout0.4_tipoSerieAImagenGRAMIAN_ANGULAR_FIELD_paso:2,0.00860794,0.00167222,,,
Exprimiento4AguaSector19SinSuavizar_06-12-2017_14-36-40_24x24_8000_epocas:315_dropout0.4_tipoSerieAImagenGRAMIAN_ANGULAR_FIELD_paso:2,0.01013488,0.00130565,,,
Exprimiento4AguaSector19SinSuavizar_06-12-2017_14-36-40_24x24_8000_epocas:320_dropout0.4_tipoSerieAImagenGRAMIAN_ANGULAR_FIELD_paso:2,0.01105648,0.00115697,,,
Exprimiento4AguaSector19SinSuavizar_06-12-2017_14-36-40_24x24_8000_epocas:325_dropout0.4_tipoSerieAImagenGRAMIAN_ANGULAR_FIELD_paso:2,0.00882178,0.00120249,,,
Exprimiento4AguaSector19SinSuavizar_06-12-2017_14-36-40_24x24_8000_epocas:330_dropout0.4_tipoSerieAImagenGRAMIAN_ANGULAR_FIELD_paso:2,0.00937721,0.00105947,,,
Exprimiento4AguaSector19SinSuavizar_06-12-2017_14-36-40_24x24_8000_epocas:335_dropout0.4_tipoSerieAImagenGRAMIAN_ANGULAR_FIELD_paso:2,0.01197828,0.00216893,,,
Exprimiento4AguaSector19SinSuavizar_06-12-2017_14-36-40_24x24_8000_epocas:340_dropout0.4_tipoSerieAImagenGRAMIAN_ANGULAR_FIELD_paso:2,0.00966186,0.00109239,,,
Exprimiento4AguaSector19SinSuavizar_06-12-2017_14-36-40_24x24_8000_epocas:345_dropout0.4_tipoSerieAImagenGRAMIAN_ANGULAR_FIELD_paso:2,0.00860104,0.00096311,,,
Exprimiento4AguaSector19SinSuavizar_06-12-2017_14-36-40_24x24_8000_epocas:350_dropout0.4_tipoSerieAImagenGRAMIAN_ANGULAR_FIELD_paso:2,0.00832277,0.00124868,,,
Exprimiento4AguaSector19SinSuavizar_06-12-2017_14-36-40_24x24_8000_epocas:355_dropout0.4_tipoSerieAImagenGRAMIAN_ANGULAR_FIELD_paso:2,0.00943371,0.00213811,,,
Exprimiento4AguaSector19SinSuavizar_06-12-2017_14-36-40_24x24_8000_epocas:360_dropout0.4_tipoSerieAImagenGRAMIAN_ANGULAR_FIELD_paso:2,0.00812743,0.00091279,,,
Exprimiento4AguaSector19SinSuavizar_06-12-2017_14-36-40_24x24_8000_epocas:365_dropout0.4_tipoSerieAImagenGRAMIAN_ANGULAR_FIELD_paso:2,0.01001218,0.00098268,,,
Exprimiento4AguaSector19SinSuavizar_06-12-2017_14-36-40_24x24_8000_epocas:370_dropout0.4_tipoSerieAImagenGRAMIAN_ANGULAR_FIELD_paso:2,0.00973675,0.00180373,,,
Exprimiento4AguaSector19SinSuavizar_06-12-2017_14-36-40_24x24_8000_epocas:375_dropout0.4_tipoSerieAImagenGRAMIAN_ANGULAR_FIELD_paso:2,0.01138305,0.00128951,,,
Exprimiento4AguaSector19SinSuavizar_06-12-2017_14-36-40_24x24_8000_epocas:380_dropout0.4_tipoSerieAImagenGRAMIAN_ANGULAR_FIELD_paso:2,0.0083275,0.00166107,,,
Exprimiento4AguaSector19SinSuavizar_06-12-2017_14-36-40_24x24_8000_epocas:385_dropout0.4_tipoSerieAImagenGRAMIAN_ANGULAR_FIELD_paso:2,0.00911507,0.00122949,,,
Exprimiento4AguaSector19SinSuavizar_06-12-2017_14-36-40_24x24_8000_epocas:390_dropout0.4_tipoSerieAImagenGRAMIAN_ANGULAR_FIELD_paso:2,0.00851991,0.00126511,,,
Exprimiento4AguaSector19SinSuavizar_06-12-2017_14-36-40_24x24_8000_epocas:395_dropout0.4_tipoSerieAImagenGRAMIAN_ANGULAR_FIELD_paso:2,0.01135044,0.00069779,,,
Exprimiento4AguaSector19SinSuavizar_06-12-2017_14-36-40_24x24_8000_epocas:400_dropout0.4_tipoSerieAImagenGRAMIAN_ANGULAR_FIELD_paso:2,0.00840519,0.00136077,,,
Exprimiento4AguaSector19SinSuavizar_06-12-2017_14-36-40_24x24_8000_epocas:405_dropout0.4_tipoSerieAImagenGRAMIAN_ANGULAR_FIELD_paso:2,0.00847219,0.00099564,,,
Exprimiento4AguaSector19SinSuavizar_06-12-2017_14-36-40_24x24_8000_epocas:410_dropout0.4_tipoSerieAImagenGRAMIAN_ANGULAR_FIELD_paso:2,0.00988316,0.00087361,,,
Exprimiento4AguaSector19SinSuavizar_06-12-2017_14-36-40_24x24_8000_epocas:415_dropout0.4_tipoSerieAImagenGRAMIAN_ANGULAR_FIELD_paso:2,0.01058235,0.00095338,,,
Exprimiento4AguaSector19SinSuavizar_06-12-2017_14-36-40_24x24_8000_epocas:420_dropout0.4_tipoSerieAImagenGRAMIAN_ANGULAR_FIELD_paso:2,0.01039601,0.00128856,,,
Exprimiento4AguaSector19SinSuavizar_06-12-2017_14-36-40_24x24_8000_epocas:425_dropout0.4_tipoSerieAImagenGRAMIAN_ANGULAR_FIELD_paso:2,0.0093871,0.00121489,,,
Exprimiento4AguaSector19SinSuavizar_06-12-2017_14-36-40_24x24_8000_epocas:430_dropout0.4_tipoSerieAImagenGRAMIAN_ANGULAR_FIELD_paso:2,0.01023735,0.0011857,,,
Exprimiento4AguaSector19SinSuavizar_06-12-2017_14-36-40_24x24_8000_epocas:435_dropout0.4_tipoSerieAImagenGRAMIAN_ANGULAR_FIELD_paso:2,0.00885074,0.00102245,,,
Exprimiento4AguaSector19SinSuavizar_06-12-2017_14-36-40_24x24_8000_epocas:440_dropout0.4_tipoSerieAImagenGRAMIAN_ANGULAR_FIELD_paso:2,0.00987911,0.00154348,,,
Exprimiento4AguaSector19SinSuavizar_06-12-2017_14-36-40_24x24_8000_epocas:445_dropout0.4_tipoSerieAImagenGRAMIAN_ANGULAR_FIELD_paso:2,0.01092543,0.00093739,,,
Exprimiento4AguaSector19SinSuavizar_06-12-2017_14-36-40_24x24_8000_epocas:450_dropout0.4_tipoSerieAImagenGRAMIAN_ANGULAR_FIELD_paso:2,0.00765879,0.00124646,,,
Exprimiento4AguaSector19SinSuavizar_06-12-2017_14-36-40_24x24_8000_epocas:455_dropout0.4_tipoSerieAImagenGRAMIAN_ANGULAR_FIELD_paso:2,0.00938378,0.00092063,,,
Exprimiento4AguaSector19SinSuavizar_06-12-2017_14-36-40_24x24_8000_epocas:460_dropout0.4_tipoSerieAImagenGRAMIAN_ANGULAR_FIELD_paso:2,0.00994669,0.0010731,,,
Exprimiento4AguaSector19SinSuavizar_06-12-2017_14-36-40_24x24_8000_epocas:465_dropout0.4_tipoSerieAImagenGRAMIAN_ANGULAR_FIELD_paso:2,0.00917531,0.00108917,,,
Exprimiento4AguaSector19SinSuavizar_06-12-2017_14-36-40_24x24_8000_epocas:470_dropout0.4_tipoSerieAImagenGRAMIAN_ANGULAR_FIELD_paso:2,0.00977616,0.0011161,,,
Exprimiento4AguaSector19SinSuavizar_06-12-2017_14-36-40_24x24_8000_epocas:475_dropout0.4_tipoSerieAImagenGRAMIAN_ANGULAR_FIELD_paso:2,0.00917184,0.00073803,,,
Exprimiento4AguaSector19SinSuavizar_06-12-2017_14-36-40_24x24_8000_epocas:480_dropout0.4_tipoSerieAImagenGRAMIAN_ANGULAR_FIELD_paso:2,0.01018981,0.00151275,,,
Exprimiento4AguaSector19SinSuavizar_06-12-2017_14-36-40_24x24_8000_epocas:485_dropout0.4_tipoSerieAImagenGRAMIAN_ANGULAR_FIELD_paso:2,0.00788943,0.00119424,,,
Exprimiento4AguaSector19SinSuavizar_06-12-2017_14-36-40_24x24_8000_epocas:490_dropout0.4_tipoSerieAImagenGRAMIAN_ANGULAR_FIELD_paso:2,0.01026519,0.00195335,,,
Exprimiento4AguaSector19SinSuavizar_06-12-2017_14-36-40_24x24_8000_epocas:495_dropout0.4_tipoSerieAImagenGRAMIAN_ANGULAR_FIELD_paso:2,0.01036182,0.00091153,,,
Exprimiento4AguaSector19SinSuavizar_06-12-2017_14-36-40_24x24_8000_epocas:500_dropout0.4_tipoSerieAImagenGRAMIAN_ANGULAR_FIELD_paso:2,0.00910302,0.00090752,,,
Exprimiento4AguaSector19SinSuavizar_06-12-2017_14-36-40_24x24_8000_epocas:505_dropout0.4_tipoSerieAImagenGRAMIAN_ANGULAR_FIELD_paso:2,0.01059135,0.00134981,,,
Exprimiento4AguaSector19SinSuavizar_06-12-2017_14-36-40_24x24_8000_epocas:510_dropout0.4_tipoSerieAImagenGRAMIAN_ANGULAR_FIELD_paso:2,0.0107362,0.00062666,,,
Exprimiento4AguaSector19SinSuavizar_06-12-2017_14-36-40_24x24_8000_epocas:515_dropout0.4_tipoSerieAImagenGRAMIAN_ANGULAR_FIELD_paso:2,0.00987585,0.0009345,,,
Exprimiento4AguaSector19SinSuavizar_06-12-2017_14-36-40_24x24_8000_epocas:520_dropout0.4_tipoSerieAImagenGRAMIAN_ANGULAR_FIELD_paso:2,0.00900045,0.00080502,,,
Exprimiento4AguaSector19SinSuavizar_06-12-2017_14-36-40_24x24_8000_epocas:525_dropout0.4_tipoSerieAImagenGRAMIAN_ANGULAR_FIELD_paso:2,0.00946593,0.00109695,,,
Exprimiento4AguaSector19SinSuavizar_06-12-2017_14-36-40_24x24_8000_epocas:530_dropout0.4_tipoSerieAImagenGRAMIAN_ANGULAR_FIELD_paso:2,0.00932968,0.00092352,,,
Exprimiento4AguaSector19SinSuavizar_06-12-2017_14-36-40_24x24_8000_epocas:535_dropout0.4_tipoSerieAImagenGRAMIAN_ANGULAR_FIELD_paso:2,0.00931631,0.00080548,,,
Exprimiento4AguaSector19SinSuavizar_06-12-2017_14-36-40_24x24_8000_epocas:540_dropout0.4_tipoSerieAImagenGRAMIAN_ANGULAR_FIELD_paso:2,0.00851619,0.00169211,,,
Exprimiento4AguaSector19SinSuavizar_06-12-2017_14-36-40_24x24_8000_epocas:545_dropout0.4_tipoSerieAImagenGRAMIAN_ANGULAR_FIELD_paso:2,0.00961286,0.00160094,,,
Exprimiento4AguaSector19SinSuavizar_06-12-2017_14-36-40_24x24_8000_epocas:550_dropout0.4_tipoSerieAImagenGRAMIAN_ANGULAR_FIELD_paso:2,0.00843466,0.00068828,,,
Exprimiento4AguaSector19SinSuavizar_06-12-2017_14-36-40_24x24_8000_epocas:555_dropout0.4_tipoSerieAImagenGRAMIAN_ANGULAR_FIELD_paso:2,0.0093725,0.00078536,,,
Exprimiento4AguaSector19SinSuavizar_06-12-2017_14-36-40_24x24_8000_epocas:560_dropout0.4_tipoSerieAImagenGRAMIAN_ANGULAR_FIELD_paso:2,0.01032521,0.00126733,,,
Exprimiento4AguaSector19SinSuavizar_06-12-2017_14-36-40_24x24_8000_epocas:565_dropout0.4_tipoSerieAImagenGRAMIAN_ANGULAR_FIELD_paso:2,0.01039251,0.00140168,,,
Exprimiento4AguaSector19SinSuavizar_06-12-2017_14-36-40_24x24_8000_epocas:570_dropout0.4_tipoSerieAImagenGRAMIAN_ANGULAR_FIELD_paso:2,0.00937999,0.00182087,,,
Exprimiento4AguaSector19SinSuavizar_06-12-2017_14-36-40_24x24_8000_epocas:575_dropout0.4_tipoSerieAImagenGRAMIAN_ANGULAR_FIELD_paso:2,0.01051435,0.00109548,,,
Exprimiento4AguaSector19SinSuavizar_06-12-2017_14-36-40_24x24_8000_epocas:580_dropout0.4_tipoSerieAImagenGRAMIAN_ANGULAR_FIELD_paso:2,0.01135943,0.00116946,,,
Exprimiento4AguaSector19SinSuavizar_06-12-2017_14-36-40_24x24_8000_epocas:585_dropout0.4_tipoSerieAImagenGRAMIAN_ANGULAR_FIELD_paso:2,0.01057178,0.00087631,,,
Exprimiento4AguaSector19SinSuavizar_06-12-2017_14-36-40_24x24_8000_epocas:590_dropout0.4_tipoSerieAImagenGRAMIAN_ANGULAR_FIELD_paso:2,0.00836185,0.0011221,,,
Exprimiento4AguaSector19SinSuavizar_06-12-2017_14-36-40_24x24_8000_epocas:595_dropout0.4_tipoSerieAImagenGRAMIAN_ANGULAR_FIELD_paso:2,0.0113618,0.00060635,,,
Exprimiento4AguaSector19SinSuavizar_06-12-2017_14-36-40_24x24_8000_epocas:200_dropout0.4_tipoSerieAImagenGRAMIAN_ANGULAR_FIELD_paso:3,0.01141553,0.00186711,,,
Exprimiento4AguaSector19SinSuavizar_06-12-2017_14-36-40_24x24_8000_epocas:205_dropout0.4_tipoSerieAImagenGRAMIAN_ANGULAR_FIELD_paso:3,0.00980007,0.00138646,,,
Exprimiento4AguaSector19SinSuavizar_06-12-2017_14-36-40_24x24_8000_epocas:210_dropout0.4_tipoSerieAImagenGRAMIAN_ANGULAR_FIELD_paso:3,0.01092524,0.00289163,,,
Exprimiento4AguaSector19SinSuavizar_06-12-2017_14-36-40_24x24_8000_epocas:215_dropout0.4_tipoSerieAImagenGRAMIAN_ANGULAR_FIELD_paso:3,0.00964383,0.00141476,,,
Exprimiento4AguaSector19SinSuavizar_06-12-2017_14-36-40_24x24_8000_epocas:220_dropout0.4_tipoSerieAImagenGRAMIAN_ANGULAR_FIELD_paso:3,0.00915258,0.00168207,,,
Exprimiento4AguaSector19SinSuavizar_06-12-2017_14-36-40_24x24_8000_epocas:225_dropout0.4_tipoSerieAImagenGRAMIAN_ANGULAR_FIELD_paso:3,0.00917356,0.00110387,,,
Exprimiento4AguaSector19SinSuavizar_06-12-2017_14-36-40_24x24_8000_epocas:230_dropout0.4_tipoSerieAImagenGRAMIAN_ANGULAR_FIELD_paso:3,0.00860037,0.00185161,,,
Exprimiento4AguaSector19SinSuavizar_06-12-2017_14-36-40_24x24_8000_epocas:235_dropout0.4_tipoSerieAImagenGRAMIAN_ANGULAR_FIELD_paso:3,0.00852548,0.00115845,,,
Exprimiento4AguaSector19SinSuavizar_06-12-2017_14-36-40_24x24_8000_epocas:240_dropout0.4_tipoSerieAImagenGRAMIAN_ANGULAR_FIELD_paso:3,0.00820093,0.00220664,,,
Exprimiento4AguaSector19SinSuavizar_06-12-2017_14-36-40_24x24_8000_epocas:245_dropout0.4_tipoSerieAImagenGRAMIAN_ANGULAR_FIELD_paso:3,0.01033884,0.00241535,,,
Exprimiento4AguaSector19SinSuavizar_06-12-2017_14-36-40_24x24_8000_epocas:250_dropout0.4_tipoSerieAImagenGRAMIAN_ANGULAR_FIELD_paso:3,0.00970767,0.00118274,,,
Exprimiento4AguaSector19SinSuavizar_06-12-2017_14-36-40_24x24_8000_epocas:255_dropout0.4_tipoSerieAImagenGRAMIAN_ANGULAR_FIELD_paso:3,0.00991982,0.00157456,,,
Exprimiento4AguaSector19SinSuavizar_06-12-2017_14-36-40_24x24_8000_epocas:260_dropout0.4_tipoSerieAImagenGRAMIAN_ANGULAR_FIELD_paso:3,0.00767211,0.00148242,,,
Exprimiento4AguaSector19SinSuavizar_06-12-2017_14-36-40_24x24_8000_epocas:265_dropout0.4_tipoSerieAImagenGRAMIAN_ANGULAR_FIELD_paso:3,0.00937166,0.00087029,,,
Exprimiento4AguaSector19SinSuavizar_06-12-2017_14-36-40_24x24_8000_epocas:270_dropout0.4_tipoSerieAImagenGRAMIAN_ANGULAR_FIELD_paso:3,0.00938651,0.00112163,,,
Exprimiento4AguaSector19SinSuavizar_06-12-2017_14-36-40_24x24_8000_epocas:275_dropout0.4_tipoSerieAImagenGRAMIAN_ANGULAR_FIELD_paso:3,0.00935411,0.00122651,,,
Exprimiento4AguaSector19SinSuavizar_06-12-2017_14-36-40_24x24_8000_epocas:280_dropout0.4_tipoSerieAImagenGRAMIAN_ANGULAR_FIELD_paso:3,0.00883307,0.00130949,,,
Exprimiento4AguaSector19SinSuavizar_06-12-2017_14-36-40_24x24_8000_epocas:285_dropout0.4_tipoSerieAImagenGRAMIAN_ANGULAR_FIELD_paso:3,0.00934053,0.00139787,,,
Exprimiento4AguaSector19SinSuavizar_06-12-2017_14-36-40_24x24_8000_epocas:290_dropout0.4_tipoSerieAImagenGRAMIAN_ANGULAR_FIELD_paso:3,0.00955051,0.00134932,,,
Exprimiento4AguaSector19SinSuavizar_06-12-2017_14-36-40_24x24_8000_epocas:295_dropout0.4_tipoSerieAImagenGRAMIAN_ANGULAR_FIELD_paso:3,0.00855306,0.00100241,,,
Exprimiento4AguaSector19SinSuavizar_06-12-2017_14-36-40_24x24_8000_epocas:300_dropout0.4_tipoSerieAImagenGRAMIAN_ANGULAR_FIELD_paso:3,0.01061876,0.0016469,,,
Exprimiento4AguaSector19SinSuavizar_06-12-2017_14-36-40_24x24_8000_epocas:305_dropout0.4_tipoSerieAImagenGRAMIAN_ANGULAR_FIELD_paso:3,0.01004412,0.00098095,,,
Exprimiento4AguaSector19SinSuavizar_06-12-2017_14-36-40_24x24_8000_epocas:310_dropout0.4_tipoSerieAImagenGRAMIAN_ANGULAR_FIELD_paso:3,0.00862481,0.00101695,,,
Exprimiento4AguaSector19SinSuavizar_06-12-2017_14-36-40_24x24_8000_epocas:315_dropout0.4_tipoSerieAImagenGRAMIAN_ANGULAR_FIELD_paso:3,0.00954215,0.00135567,,,
Exprimiento4AguaSector19SinSuavizar_06-12-2017_14-36-40_24x24_8000_epocas:320_dropout0.4_tipoSerieAImagenGRAMIAN_ANGULAR_FIELD_paso:3,0.00869217,0.00198149,,,
Exprimiento4AguaSector19SinSuavizar_06-12-2017_14-36-40_24x24_8000_epocas:325_dropout0.4_tipoSerieAImagenGRAMIAN_ANGULAR_FIELD_paso:3,0.00991816,0.00088668,,,
Exprimiento4AguaSector19SinSuavizar_06-12-2017_14-36-40_24x24_8000_epocas:330_dropout0.4_tipoSerieAImagenGRAMIAN_ANGULAR_FIELD_paso:3,0.00905973,0.00192557,,,
Exprimiento4AguaSector19SinSuavizar_06-12-2017_14-36-40_24x24_8000_epocas:335_dropout0.4_tipoSerieAImagenGRAMIAN_ANGULAR_FIELD_paso:3,0.0099628,0.00067191,,,
Exprimiento4AguaSector19SinSuavizar_06-12-2017_14-36-40_24x24_8000_epocas:340_dropout0.4_tipoSerieAImagenGRAMIAN_ANGULAR_FIELD_paso:3,0.0094344,0.00090587,,,
Exprimiento4AguaSector19SinSuavizar_06-12-2017_14-36-40_24x24_8000_epocas:345_dropout0.4_tipoSerieAImagenGRAMIAN_ANGULAR_FIELD_paso:3,0.00815642,0.00169792,,,
Exprimiento4AguaSector19SinSuavizar_06-12-2017_14-36-40_24x24_8000_epocas:350_dropout0.4_tipoSerieAImagenGRAMIAN_ANGULAR_FIELD_paso:3,0.00952537,0.00060294,,,
Exprimiento4AguaSector19SinSuavizar_06-12-2017_14-36-40_24x24_8000_epocas:355_dropout0.4_tipoSerieAImagenGRAMIAN_ANGULAR_FIELD_paso:3,0.00759824,0.00200285,,,
Exprimiento4AguaSector19SinSuavizar_06-12-2017_14-36-40_24x24_8000_epocas:360_dropout0.4_tipoSerieAImagenGRAMIAN_ANGULAR_FIELD_paso:3,0.00951391,0.00109563,,,
Exprimiento4AguaSector19SinSuavizar_06-12-2017_14-36-40_24x24_8000_epocas:365_dropout0.4_tipoSerieAImagenGRAMIAN_ANGULAR_FIELD_paso:3,0.01041826,0.00100597,,,
Exprimiento4AguaSector19SinSuavizar_06-12-2017_14-36-40_24x24_8000_epocas:370_dropout0.4_tipoSerieAImagenGRAMIAN_ANGULAR_FIELD_paso:3,0.00926546,0.00094573,,,
Exprimiento4AguaSector19SinSuavizar_06-12-2017_14-36-40_24x24_8000_epocas:375_dropout0.4_tipoSerieAImagenGRAMIAN_ANGULAR_FIELD_paso:3,0.00888707,0.00093579,,,
Exprimiento4AguaSector19SinSuavizar_06-12-2017_14-36-40_24x24_8000_epocas:380_dropout0.4_tipoSerieAImagenGRAMIAN_ANGULAR_FIELD_paso:3,0.00882966,0.00139088,,,
Exprimiento4AguaSector19SinSuavizar_06-12-2017_14-36-40_24x24_8000_epocas:385_dropout0.4_tipoSerieAImagenGRAMIAN_ANGULAR_FIELD_paso:3,0.00963979,0.00171471,,,
Exprimiento4AguaSector19SinSuavizar_06-12-2017_14-36-40_24x24_8000_epocas:390_dropout0.4_tipoSerieAImagenGRAMIAN_ANGULAR_FIELD_paso:3,0.01195923,0.00083636,,,
Exprimiento4AguaSector19SinSuavizar_06-12-2017_14-36-40_24x24_8000_epocas:395_dropout0.4_tipoSerieAImagenGRAMIAN_ANGULAR_FIELD_paso:3,0.00948869,0.001921,,,
Exprimiento4AguaSector19SinSuavizar_06-12-2017_14-36-40_24x24_8000_epocas:400_dropout0.4_tipoSerieAImagenGRAMIAN_ANGULAR_FIELD_paso:3,0.00833676,0.00130812,,,
Exprimiento4AguaSector19SinSuavizar_06-12-2017_14-36-40_24x24_8000_epocas:405_dropout0.4_tipoSerieAImagenGRAMIAN_ANGULAR_FIELD_paso:3,0.010981,0.00093745,,,
Exprimiento4AguaSector19SinSuavizar_06-12-2017_14-36-40_24x24_8000_epocas:410_dropout0.4_tipoSerieAImagenGRAMIAN_ANGULAR_FIELD_paso:3,0.00892335,0.00146123,,,
Exprimiento4AguaSector19SinSuavizar_06-12-2017_14-36-40_24x24_8000_epocas:415_dropout0.4_tipoSerieAImagenGRAMIAN_ANGULAR_FIELD_paso:3,0.01006998,0.00099107,,,
Exprimiento4AguaSector19SinSuavizar_06-12-2017_14-36-40_24x24_8000_epocas:420_dropout0.4_tipoSerieAImagenGRAMIAN_ANGULAR_FIELD_paso:3,0.01134225,0.00148715,,,
Exprimiento4AguaSector19SinSuavizar_06-12-2017_14-36-40_24x24_8000_epocas:425_dropout0.4_tipoSerieAImagenGRAMIAN_ANGULAR_FIELD_paso:3,0.01001206,0.00058656,,,
Exprimiento4AguaSector19SinSuavizar_06-12-2017_14-36-40_24x24_8000_epocas:430_dropout0.4_tipoSerieAImagenGRAMIAN_ANGULAR_FIELD_paso:3,0.01162124,0.00116144,,,
Exprimiento4AguaSector19SinSuavizar_06-12-2017_14-36-40_24x24_8000_epocas:435_dropout0.4_tipoSerieAImagenGRAMIAN_ANGULAR_FIELD_paso:3,0.01422798,0.0025548,,,
Exprimiento4AguaSector19SinSuavizar_06-12-2017_14-36-40_24x24_8000_epocas:440_dropout0.4_tipoSerieAImagenGRAMIAN_ANGULAR_FIELD_paso:3,0.00837592,0.00143373,,,
Exprimiento4AguaSector19SinSuavizar_06-12-2017_14-36-40_24x24_8000_epocas:445_dropout0.4_tipoSerieAImagenGRAMIAN_ANGULAR_FIELD_paso:3,0.00944833,0.00089919,,,
Exprimiento4AguaSector19SinSuavizar_06-12-2017_14-36-40_24x24_8000_epocas:450_dropout0.4_tipoSerieAImagenGRAMIAN_ANGULAR_FIELD_paso:3,0.01179768,0.00110234,,,
Exprimiento4AguaSector19SinSuavizar_06-12-2017_14-36-40_24x24_8000_epocas:455_dropout0.4_tipoSerieAImagenGRAMIAN_ANGULAR_FIELD_paso:3,0.01129284,0.00057124,,,
Exprimiento4AguaSector19SinSuavizar_06-12-2017_14-36-40_24x24_8000_epocas:460_dropout0.4_tipoSerieAImagenGRAMIAN_ANGULAR_FIELD_paso:3,0.00775039,0.00103234,,,
Exprimiento4AguaSector19SinSuavizar_06-12-2017_14-36-40_24x24_8000_epocas:465_dropout0.4_tipoSerieAImagenGRAMIAN_ANGULAR_FIELD_paso:3,0.01131435,0.00077515,,,
Exprimiento4AguaSector19SinSuavizar_06-12-2017_14-36-40_24x24_8000_epocas:470_dropout0.4_tipoSerieAImagenGRAMIAN_ANGULAR_FIELD_paso:3,0.00911037,0.00100701,,,
Exprimiento4AguaSector19SinSuavizar_06-12-2017_14-36-40_24x24_8000_epocas:475_dropout0.4_tipoSerieAImagenGRAMIAN_ANGULAR_FIELD_paso:3,0.00958009,0.00174543,,,
Exprimiento4AguaSector19SinSuavizar_06-12-2017_14-36-40_24x24_8000_epocas:480_dropout0.4_tipoSerieAImagenGRAMIAN_ANGULAR_FIELD_paso:3,0.00944414,0.00073385,,,
Exprimiento4AguaSector19SinSuavizar_06-12-2017_14-36-40_24x24_8000_epocas:485_dropout0.4_tipoSerieAImagenGRAMIAN_ANGULAR_FIELD_paso:3,0.0111568,0.00138143,,,
Exprimiento4AguaSector19SinSuavizar_06-12-2017_14-36-40_24x24_8000_epocas:490_dropout0.4_tipoSerieAImagenGRAMIAN_ANGULAR_FIELD_paso:3,0.00788475,0.00123827,,,
Exprimiento4AguaSector19SinSuavizar_06-12-2017_14-36-40_24x24_8000_epocas:495_dropout0.4_tipoSerieAImagenGRAMIAN_ANGULAR_FIELD_paso:3,0.00843397,0.00065463,,,
Exprimiento4AguaSector19SinSuavizar_06-12-2017_14-36-40_24x24_8000_epocas:500_dropout0.4_tipoSerieAImagenGRAMIAN_ANGULAR_FIELD_paso:3,0.01004273,0.00150753,,,
Exprimiento4AguaSector19SinSuavizar_06-12-2017_14-36-40_24x24_8000_epocas:505_dropout0.4_tipoSerieAImagenGRAMIAN_ANGULAR_FIELD_paso:3,0.01021315,0.0011097,,,
Exprimiento4AguaSector19SinSuavizar_06-12-2017_14-36-40_24x24_8000_epocas:510_dropout0.4_tipoSerieAImagenGRAMIAN_ANGULAR_FIELD_paso:3,0.00738943,0.00101009,,,
Exprimiento4AguaSector19SinSuavizar_06-12-2017_14-36-40_24x24_8000_epocas:515_dropout0.4_tipoSerieAImagenGRAMIAN_ANGULAR_FIELD_paso:3,0.01037472,0.00078505,,,
Exprimiento4AguaSector19SinSuavizar_06-12-2017_14-36-40_24x24_8000_epocas:520_dropout0.4_tipoSerieAImagenGRAMIAN_ANGULAR_FIELD_paso:3,0.00710254,0.0014858,,,
Exprimiento4AguaSector19SinSuavizar_06-12-2017_14-36-40_24x24_8000_epocas:525_dropout0.4_tipoSerieAImagenGRAMIAN_ANGULAR_FIELD_paso:3,0.00964703,0.00171996,,,
Exprimiento4AguaSector19SinSuavizar_06-12-2017_14-36-40_24x24_8000_epocas:530_dropout0.4_tipoSerieAImagenGRAMIAN_ANGULAR_FIELD_paso:3,0.00921796,0.00102776,,,
Exprimiento4AguaSector19SinSuavizar_06-12-2017_14-36-40_24x24_8000_epocas:535_dropout0.4_tipoSerieAImagenGRAMIAN_ANGULAR_FIELD_paso:3,0.00779879,0.00092443,,,
Exprimiento4AguaSector19SinSuavizar_06-12-2017_14-36-40_24x24_8000_epocas:540_dropout0.4_tipoSerieAImagenGRAMIAN_ANGULAR_FIELD_paso:3,0.00799455,0.00113408,,,
Exprimiento4AguaSector19SinSuavizar_06-12-2017_14-36-40_24x24_8000_epocas:545_dropout0.4_tipoSerieAImagenGRAMIAN_ANGULAR_FIELD_paso:3,0.00888378,0.00109475,,,
Exprimiento4AguaSector19SinSuavizar_06-12-2017_14-36-40_24x24_8000_epocas:550_dropout0.4_tipoSerieAImagenGRAMIAN_ANGULAR_FIELD_paso:3,0.00970183,0.00100111,,,
Exprimiento4AguaSector19SinSuavizar_06-12-2017_14-36-40_24x24_8000_epocas:555_dropout0.4_tipoSerieAImagenGRAMIAN_ANGULAR_FIELD_paso:3,0.00910489,0.00101075,,,
Exprimiento4AguaSector19SinSuavizar_06-12-2017_14-36-40_24x24_8000_epocas:560_dropout0.4_tipoSerieAImagenGRAMIAN_ANGULAR_FIELD_paso:3,0.00861897,0.00055343,,,
Exprimiento4AguaSector19SinSuavizar_06-12-2017_14-36-40_24x24_8000_epocas:565_dropout0.4_tipoSerieAImagenGRAMIAN_ANGULAR_FIELD_paso:3,0.00998971,0.00090724,,,
Exprimiento4AguaSector19SinSuavizar_06-12-2017_14-36-40_24x24_8000_epocas:570_dropout0.4_tipoSerieAImagenGRAMIAN_ANGULAR_FIELD_paso:3,0.00846178,0.00137451,,,
Exprimiento4AguaSector19SinSuavizar_06-12-2017_14-36-40_24x24_8000_epocas:575_dropout0.4_tipoSerieAImagenGRAMIAN_ANGULAR_FIELD_paso:3,0.00847376,0.00096446,,,
Exprimiento4AguaSector19SinSuavizar_06-12-2017_14-36-40_24x24_8000_epocas:580_dropout0.4_tipoSerieAImagenGRAMIAN_ANGULAR_FIELD_paso:3,0.00867154,0.00142026,,,
Exprimiento4AguaSector19SinSuavizar_06-12-2017_14-36-40_24x24_8000_epocas:585_dropout0.4_tipoSerieAImagenGRAMIAN_ANGULAR_FIELD_paso:3,0.01016896,0.00163161,,,
Exprimiento4AguaSector19SinSuavizar_06-12-2017_14-36-40_24x24_8000_epocas:590_dropout0.4_tipoSerieAImagenGRAMIAN_ANGULAR_FIELD_paso:3,0.00854719,0.00059423,,,
Exprimiento4AguaSector19SinSuavizar_06-12-2017_14-36-40_24x24_8000_epocas:595_dropout0.4_tipoSerieAImagenGRAMIAN_ANGULAR_FIELD_paso:3,0.00885503,0.00105356,,,
Exprimiento4AguaSector19SinSuavizar_06-12-2017_14-36-40_24x24_8000_epocas:200_dropout0.4_tipoSerieAImagenGRAMIAN_ANGULAR_FIELD_paso:4,0.0101463,0.00242709,,,
Exprimiento4AguaSector19SinSuavizar_06-12-2017_14-36-40_24x24_8000_epocas:205_dropout0.4_tipoSerieAImagenGRAMIAN_ANGULAR_FIELD_paso:4,0.00948963,0.00181256,,,
Exprimiento4AguaSector19SinSuavizar_06-12-2017_14-36-40_24x24_8000_epocas:210_dropout0.4_tipoSerieAImagenGRAMIAN_ANGULAR_FIELD_paso:4,0.00914289,0.0010752,,,
Exprimiento4AguaSector19SinSuavizar_06-12-2017_14-36-40_24x24_8000_epocas:215_dropout0.4_tipoSerieAImagenGRAMIAN_ANGULAR_FIELD_paso:4,0.00998024,0.00183048,,,
Exprimiento4AguaSector19SinSuavizar_06-12-2017_14-36-40_24x24_8000_epocas:220_dropout0.4_tipoSerieAImagenGRAMIAN_ANGULAR_FIELD_paso:4,0.01313028,0.00219894,,,
Exprimiento4AguaSector19SinSuavizar_06-12-2017_14-36-40_24x24_8000_epocas:225_dropout0.4_tipoSerieAImagenGRAMIAN_ANGULAR_FIELD_paso:4,0.0083054,0.00194474,,,
Exprimiento4AguaSector19SinSuavizar_06-12-2017_14-36-40_24x24_8000_epocas:230_dropout0.4_tipoSerieAImagenGRAMIAN_ANGULAR_FIELD_paso:4,0.00903226,0.00195604,,,
Exprimiento4AguaSector19SinSuavizar_06-12-2017_14-36-40_24x24_8000_epocas:235_dropout0.4_tipoSerieAImagenGRAMIAN_ANGULAR_FIELD_paso:4,0.00812428,0.00187488,,,
Exprimiento4AguaSector19SinSuavizar_06-12-2017_14-36-40_24x24_8000_epocas:240_dropout0.4_tipoSerieAImagenGRAMIAN_ANGULAR_FIELD_paso:4,0.00943201,0.00136387,,,
Exprimiento4AguaSector19SinSuavizar_06-12-2017_14-36-40_24x24_8000_epocas:245_dropout0.4_tipoSerieAImagenGRAMIAN_ANGULAR_FIELD_paso:4,0.00795376,0.00201008,,,
Exprimiento4AguaSector19SinSuavizar_06-12-2017_14-36-40_24x24_8000_epocas:250_dropout0.4_tipoSerieAImagenGRAMIAN_ANGULAR_FIELD_paso:4,0.00904666,0.00179849,,,
Exprimiento4AguaSector19SinSuavizar_06-12-2017_14-36-40_24x24_8000_epocas:255_dropout0.4_tipoSerieAImagenGRAMIAN_ANGULAR_FIELD_paso:4,0.00858484,0.00225589,,,
Exprimiento4AguaSector19SinSuavizar_06-12-2017_14-36-40_24x24_8000_epocas:260_dropout0.4_tipoSerieAImagenGRAMIAN_ANGULAR_FIELD_paso:4,0.01022771,0.00136303,,,
Exprimiento4AguaSector19SinSuavizar_06-12-2017_14-36-40_24x24_8000_epocas:265_dropout0.4_tipoSerieAImagenGRAMIAN_ANGULAR_FIELD_paso:4,0.01090796,0.00139447,,,
Exprimiento4AguaSector19SinSuavizar_06-12-2017_14-36-40_24x24_8000_epocas:270_dropout0.4_tipoSerieAImagenGRAMIAN_ANGULAR_FIELD_paso:4,0.00989578,0.00108588,,,
Exprimiento4AguaSector19SinSuavizar_06-12-2017_14-36-40_24x24_8000_epocas:275_dropout0.4_tipoSerieAImagenGRAMIAN_ANGULAR_FIELD_paso:4,0.00912894,0.00150274,,,
Exprimiento4AguaSector19SinSuavizar_06-12-2017_14-36-40_24x24_8000_epocas:280_dropout0.4_tipoSerieAImagenGRAMIAN_ANGULAR_FIELD_paso:4,0.00924354,0.00123589,,,
Exprimiento4AguaSector19SinSuavizar_06-12-2017_14-36-40_24x24_8000_epocas:285_dropout0.4_tipoSerieAImagenGRAMIAN_ANGULAR_FIELD_paso:4,0.01020338,0.00143102,,,
Exprimiento4AguaSector19SinSuavizar_06-12-2017_14-36-40_24x24_8000_epocas:290_dropout0.4_tipoSerieAImagenGRAMIAN_ANGULAR_FIELD_paso:4,0.00850712,0.00116525,,,
Exprimiento4AguaSector19SinSuavizar_06-12-2017_14-36-40_24x24_8000_epocas:295_dropout0.4_tipoSerieAImagenGRAMIAN_ANGULAR_FIELD_paso:4,0.00981298,0.00070382,,,
Exprimiento4AguaSector19SinSuavizar_06-12-2017_14-36-40_24x24_8000_epocas:300_dropout0.4_tipoSerieAImagenGRAMIAN_ANGULAR_FIELD_paso:4,0.01061473,0.0011976,,,
Exprimiento4AguaSector19SinSuavizar_06-12-2017_14-36-40_24x24_8000_epocas:305_dropout0.4_tipoSerieAImagenGRAMIAN_ANGULAR_FIELD_paso:4,0.00893441,0.00149826,,,
Exprimiento4AguaSector19SinSuavizar_06-12-2017_14-36-40_24x24_8000_epocas:310_dropout0.4_tipoSerieAImagenGRAMIAN_ANGULAR_FIELD_paso:4,0.00964832,0.00122331,,,
Exprimiento4AguaSector19SinSuavizar_06-12-2017_14-36-40_24x24_8000_epocas:315_dropout0.4_tipoSerieAImagenGRAMIAN_ANGULAR_FIELD_paso:4,0.00893757,0.00104854,,,
Exprimiento4AguaSector19SinSuavizar_06-12-2017_14-36-40_24x24_8000_epocas:320_dropout0.4_tipoSerieAImagenGRAMIAN_ANGULAR_FIELD_paso:4,0.00869862,0.00119335,,,
Exprimiento4AguaSector19SinSuavizar_06-12-2017_14-36-40_24x24_8000_epocas:325_dropout0.4_tipoSerieAImagenGRAMIAN_ANGULAR_FIELD_paso:4,0.00965719,0.00102918,,,
Exprimiento4AguaSector19SinSuavizar_06-12-2017_14-36-40_24x24_8000_epocas:330_dropout0.4_tipoSerieAImagenGRAMIAN_ANGULAR_FIELD_paso:4,0.00927205,0.00113612,,,
Exprimiento4AguaSector19SinSuavizar_06-12-2017_14-36-40_24x24_8000_epocas:335_dropout0.4_tipoSerieAImagenGRAMIAN_ANGULAR_FIELD_paso:4,0.0084104,0.00110082,,,
Exprimiento4AguaSector19SinSuavizar_06-12-2017_14-36-40_24x24_8000_epocas:340_dropout0.4_tipoSerieAImagenGRAMIAN_ANGULAR_FIELD_paso:4,0.00895024,0.00096831,,,
Exprimiento4AguaSector19SinSuavizar_06-12-2017_14-36-40_24x24_8000_epocas:345_dropout0.4_tipoSerieAImagenGRAMIAN_ANGULAR_FIELD_paso:4,0.00868932,0.00113359,,,
Exprimiento4AguaSector19SinSuavizar_06-12-2017_14-36-40_24x24_8000_epocas:350_dropout0.4_tipoSerieAImagenGRAMIAN_ANGULAR_FIELD_paso:4,0.01068886,0.00093901,,,
Exprimiento4AguaSector19SinSuavizar_06-12-2017_14-36-40_24x24_8000_epocas:355_dropout0.4_tipoSerieAImagenGRAMIAN_ANGULAR_FIELD_paso:4,0.01031193,0.00134043,,,
Exprimiento4AguaSector19SinSuavizar_06-12-2017_14-36-40_24x24_8000_epocas:360_dropout0.4_tipoSerieAImagenGRAMIAN_ANGULAR_FIELD_paso:4,0.00910669,0.00124394,,,
Exprimiento4AguaSector19SinSuavizar_06-12-2017_14-36-40_24x24_8000_epocas:365_dropout0.4_tipoSerieAImagenGRAMIAN_ANGULAR_FIELD_paso:4,0.00966468,0.00188227,,,
Exprimiento4AguaSector19SinSuavizar_06-12-2017_14-36-40_24x24_8000_epocas:370_dropout0.4_tipoSerieAImagenGRAMIAN_ANGULAR_FIELD_paso:4,0.00891089,0.00130911,,,
Exprimiento4AguaSector19SinSuavizar_06-12-2017_14-36-40_24x24_8000_epocas:375_dropout0.4_tipoSerieAImagenGRAMIAN_ANGULAR_FIELD_paso:4,0.00837166,0.00107957,,,
Exprimiento4AguaSector19SinSuavizar_06-12-2017_14-36-40_24x24_8000_epocas:380_dropout0.4_tipoSerieAImagenGRAMIAN_ANGULAR_FIELD_paso:4,0.00901681,0.00132985,,,
Exprimiento4AguaSector19SinSuavizar_06-12-2017_14-36-40_24x24_8000_epocas:385_dropout0.4_tipoSerieAImagenGRAMIAN_ANGULAR_FIELD_paso:4,0.00833252,0.00104273,,,
Exprimiento4AguaSector19SinSuavizar_06-12-2017_14-36-40_24x24_8000_epocas:390_dropout0.4_tipoSerieAImagenGRAMIAN_ANGULAR_FIELD_paso:4,0.0092492,0.00141787,,,
Exprimiento4AguaSector19SinSuavizar_06-12-2017_14-36-40_24x24_8000_epocas:395_dropout0.4_tipoSerieAImagenGRAMIAN_ANGULAR_FIELD_paso:4,0.00876107,0.001313,,,
Exprimiento4AguaSector19SinSuavizar_06-12-2017_14-36-40_24x24_8000_epocas:400_dropout0.4_tipoSerieAImagenGRAMIAN_ANGULAR_FIELD_paso:4,0.01027178,0.00113676,,,
Exprimiento4AguaSector19SinSuavizar_06-12-2017_14-36-40_24x24_8000_epocas:405_dropout0.4_tipoSerieAImagenGRAMIAN_ANGULAR_FIELD_paso:4,0.00865306,0.00096996,,,
Exprimiento4AguaSector19SinSuavizar_06-12-2017_14-36-40_24x24_8000_epocas:410_dropout0.4_tipoSerieAImagenGRAMIAN_ANGULAR_FIELD_paso:4,0.01059449,0.00087982,,,
Exprimiento4AguaSector19SinSuavizar_06-12-2017_14-36-40_24x24_8000_epocas:415_dropout0.4_tipoSerieAImagenGRAMIAN_ANGULAR_FIELD_paso:4,0.0087212,0.00086297,,,
Exprimiento4AguaSector19SinSuavizar_06-12-2017_14-36-40_24x24_8000_epocas:420_dropout0.4_tipoSerieAImagenGRAMIAN_ANGULAR_FIELD_paso:4,0.01032873,0.00142364,,,
Exprimiento4AguaSector19SinSuavizar_06-12-2017_14-36-40_24x24_8000_epocas:425_dropout0.4_tipoSerieAImagenGRAMIAN_ANGULAR_FIELD_paso:4,0.01075059,0.0019796,,,
Exprimiento4AguaSector19SinSuavizar_06-12-2017_14-36-40_24x24_8000_epocas:430_dropout0.4_tipoSerieAImagenGRAMIAN_ANGULAR_FIELD_paso:4,0.00795978,0.00109023,,,
Exprimiento4AguaSector19SinSuavizar_06-12-2017_14-36-40_24x24_8000_epocas:435_dropout0.4_tipoSerieAImagenGRAMIAN_ANGULAR_FIELD_paso:4,0.00994977,0.00084241,,,
Exprimiento4AguaSector19SinSuavizar_06-12-2017_14-36-40_24x24_8000_epocas:440_dropout0.4_tipoSerieAImagenGRAMIAN_ANGULAR_FIELD_paso:4,0.0093663,0.00048679,,,
Exprimiento4AguaSector19SinSuavizar_06-12-2017_14-36-40_24x24_8000_epocas:445_dropout0.4_tipoSerieAImagenGRAMIAN_ANGULAR_FIELD_paso:4,0.00916024,0.00090375,,,
Exprimiento4AguaSector19SinSuavizar_06-12-2017_14-36-40_24x24_8000_epocas:450_dropout0.4_tipoSerieAImagenGRAMIAN_ANGULAR_FIELD_paso:4,0.00858326,0.00086588,,,
Exprimiento4AguaSector19SinSuavizar_06-12-2017_14-36-40_24x24_8000_epocas:455_dropout0.4_tipoSerieAImagenGRAMIAN_ANGULAR_FIELD_paso:4,0.00848174,0.00103373,,,
Exprimiento4AguaSector19SinSuavizar_06-12-2017_14-36-40_24x24_8000_epocas:460_dropout0.4_tipoSerieAImagenGRAMIAN_ANGULAR_FIELD_paso:4,0.00849241,0.00106784,,,
Exprimiento4AguaSector19SinSuavizar_06-12-2017_14-36-40_24x24_8000_epocas:465_dropout0.4_tipoSerieAImagenGRAMIAN_ANGULAR_FIELD_paso:4,0.01160889,0.00119977,,,
Exprimiento4AguaSector19SinSuavizar_06-12-2017_14-36-40_24x24_8000_epocas:470_dropout0.4_tipoSerieAImagenGRAMIAN_ANGULAR_FIELD_paso:4,0.00848131,0.00092066,,,
Exprimiento4AguaSector19SinSuavizar_06-12-2017_14-36-40_24x24_8000_epocas:475_dropout0.4_tipoSerieAImagenGRAMIAN_ANGULAR_FIELD_paso:4,0.01075157,0.00056015,,,
Exprimiento4AguaSector19SinSuavizar_06-12-2017_14-36-40_24x24_8000_epocas:480_dropout0.4_tipoSerieAImagenGRAMIAN_ANGULAR_FIELD_paso:4,0.00889242,0.00080074,,,
Exprimiento4AguaSector19SinSuavizar_06-12-2017_14-36-40_24x24_8000_epocas:485_dropout0.4_tipoSerieAImagenGRAMIAN_ANGULAR_FIELD_paso:4,0.00930857,0.00128205,,,
Exprimiento4AguaSector19SinSuavizar_06-12-2017_14-36-40_24x24_8000_epocas:490_dropout0.4_tipoSerieAImagenGRAMIAN_ANGULAR_FIELD_paso:4,0.00949163,0.00108937,,,
Exprimiento4AguaSector19SinSuavizar_06-12-2017_14-36-40_24x24_8000_epocas:495_dropout0.4_tipoSerieAImagenGRAMIAN_ANGULAR_FIELD_paso:4,0.00818865,0.00153733,,,
Exprimiento4AguaSector19SinSuavizar_06-12-2017_14-36-40_24x24_8000_epocas:500_dropout0.4_tipoSerieAImagenGRAMIAN_ANGULAR_FIELD_paso:4,0.0089134,0.0017218,,,
Exprimiento4AguaSector19SinSuavizar_06-12-2017_14-36-40_24x24_8000_epocas:505_dropout0.4_tipoSerieAImagenGRAMIAN_ANGULAR_FIELD_paso:4,0.00933775,0.00112865,,,
Exprimiento4AguaSector19SinSuavizar_06-12-2017_14-36-40_24x24_8000_epocas:510_dropout0.4_tipoSerieAImagenGRAMIAN_ANGULAR_FIELD_paso:4,0.0097156,0.00056077,,,
Exprimiento4AguaSector19SinSuavizar_06-12-2017_14-36-40_24x24_8000_epocas:515_dropout0.4_tipoSerieAImagenGRAMIAN_ANGULAR_FIELD_paso:4,0.00952394,0.00084085,,,
Exprimiento4AguaSector19SinSuavizar_06-12-2017_14-36-40_24x24_8000_epocas:520_dropout0.4_tipoSerieAImagenGRAMIAN_ANGULAR_FIELD_paso:4,0.00992867,0.00126868,,,
Exprimiento4AguaSector19SinSuavizar_06-12-2017_14-36-40_24x24_8000_epocas:525_dropout0.4_tipoSerieAImagenGRAMIAN_ANGULAR_FIELD_paso:4,0.00963829,0.00175017,,,
Exprimiento4AguaSector19SinSuavizar_06-12-2017_14-36-40_24x24_8000_epocas:530_dropout0.4_tipoSerieAImagenGRAMIAN_ANGULAR_FIELD_paso:4,0.00841806,0.00177695,,,
Exprimiento4AguaSector19SinSuavizar_06-12-2017_14-36-40_24x24_8000_epocas:535_dropout0.4_tipoSerieAImagenGRAMIAN_ANGULAR_FIELD_paso:4,0.0094496,0.000696,,,
Exprimiento4AguaSector19SinSuavizar_06-12-2017_14-36-40_24x24_8000_epocas:540_dropout0.4_tipoSerieAImagenGRAMIAN_ANGULAR_FIELD_paso:4,0.00989637,0.00101772,,,
Exprimiento4AguaSector19SinSuavizar_06-12-2017_14-36-40_24x24_8000_epocas:545_dropout0.4_tipoSerieAImagenGRAMIAN_ANGULAR_FIELD_paso:4,0.00896674,0.00114682,,,
Exprimiento4AguaSector19SinSuavizar_06-12-2017_14-36-40_24x24_8000_epocas:550_dropout0.4_tipoSerieAImagenGRAMIAN_ANGULAR_FIELD_paso:4,0.01022524,0.00217502,,,
Exprimiento4AguaSector19SinSuavizar_06-12-2017_14-36-40_24x24_8000_epocas:555_dropout0.4_tipoSerieAImagenGRAMIAN_ANGULAR_FIELD_paso:4,0.01072341,0.00163633,,,
Exprimiento4AguaSector19SinSuavizar_06-12-2017_14-36-40_24x24_8000_epocas:560_dropout0.4_tipoSerieAImagenGRAMIAN_ANGULAR_FIELD_paso:4,0.01022367,0.00066453,,,
Exprimiento4AguaSector19SinSuavizar_06-12-2017_14-36-40_24x24_8000_epocas:565_dropout0.4_tipoSerieAImagenGRAMIAN_ANGULAR_FIELD_paso:4,0.00930354,0.00064301,,,
Exprimiento4AguaSector19SinSuavizar_06-12-2017_14-36-40_24x24_8000_epocas:570_dropout0.4_tipoSerieAImagenGRAMIAN_ANGULAR_FIELD_paso:4,0.00939611,0.0005283,,,
Exprimiento4AguaSector19SinSuavizar_06-12-2017_14-36-40_24x24_8000_epocas:575_dropout0.4_tipoSerieAImagenGRAMIAN_ANGULAR_FIELD_paso:4,0.00953871,0.00069558,,,
Exprimiento4AguaSector19SinSuavizar_06-12-2017_14-36-40_24x24_8000_epocas:580_dropout0.4_tipoSerieAImagenGRAMIAN_ANGULAR_FIELD_paso:4,0.0107537,0.00108242,,,
Exprimiento4AguaSector19SinSuavizar_06-12-2017_14-36-40_24x24_8000_epocas:585_dropout0.4_tipoSerieAImagenGRAMIAN_ANGULAR_FIELD_paso:4,0.00960333,0.00080982,,,
Exprimiento4AguaSector19SinSuavizar_06-12-2017_14-36-40_24x24_8000_epocas:590_dropout0.4_tipoSerieAImagenGRAMIAN_ANGULAR_FIELD_paso:4,0.01119993,0.00047661,,,
Exprimiento4AguaSector19SinSuavizar_06-12-2017_14-36-40_24x24_8000_epocas:595_dropout0.4_tipoSerieAImagenGRAMIAN_ANGULAR_FIELD_paso:4,0.01047708,0.00141544,,,
Exprimiento4AguaSector19SinSuavizar_06-12-2017_14-36-40_24x24_8000_epocas:200_dropout0.4_tipoSerieAImagenGRAMIAN_ANGULAR_FIELD_paso:5,0.01207827,0.00172031,,,
Exprimiento4AguaSector19SinSuavizar_06-12-2017_14-36-40_24x24_8000_epocas:205_dropout0.4_tipoSerieAImagenGRAMIAN_ANGULAR_FIELD_paso:5,0.00866321,0.00148734,,,
Exprimiento4AguaSector19SinSuavizar_06-12-2017_14-36-40_24x24_8000_epocas:210_dropout0.4_tipoSerieAImagenGRAMIAN_ANGULAR_FIELD_paso:5,0.00855872,0.00191338,,,
Exprimiento4AguaSector19SinSuavizar_06-12-2017_14-36-40_24x24_8000_epocas:215_dropout0.4_tipoSerieAImagenGRAMIAN_ANGULAR_FIELD_paso:5,0.01059997,0.00201081,,,
Exprimiento4AguaSector19SinSuavizar_06-12-2017_14-36-40_24x24_8000_epocas:220_dropout0.4_tipoSerieAImagenGRAMIAN_ANGULAR_FIELD_paso:5,0.00886847,0.0015229,,,
Exprimiento4AguaSector19SinSuavizar_06-12-2017_14-36-40_24x24_8000_epocas:225_dropout0.4_tipoSerieAImagenGRAMIAN_ANGULAR_FIELD_paso:5,0.01017888,0.00167604,,,
Exprimiento4AguaSector19SinSuavizar_06-12-2017_14-36-40_24x24_8000_epocas:230_dropout0.4_tipoSerieAImagenGRAMIAN_ANGULAR_FIELD_paso:5,0.01153624,0.00110781,,,
Exprimiento4AguaSector19SinSuavizar_06-12-2017_14-36-40_24x24_8000_epocas:235_dropout0.4_tipoSerieAImagenGRAMIAN_ANGULAR_FIELD_paso:5,0.01076544,0.00093268,,,
Exprimiento4AguaSector19SinSuavizar_06-12-2017_14-36-40_24x24_8000_epocas:240_dropout0.4_tipoSerieAImagenGRAMIAN_ANGULAR_FIELD_paso:5,0.00848427,0.00203718,,,
Exprimiento4AguaSector19SinSuavizar_06-12-2017_14-36-40_24x24_8000_epocas:245_dropout0.4_tipoSerieAImagenGRAMIAN_ANGULAR_FIELD_paso:5,0.00918822,0.00146732,,,
Exprimiento4AguaSector19SinSuavizar_06-12-2017_14-36-40_24x24_8000_epocas:250_dropout0.4_tipoSerieAImagenGRAMIAN_ANGULAR_FIELD_paso:5,0.00908811,0.00175154,,,
Exprimiento4AguaSector19SinSuavizar_06-12-2017_14-36-40_24x24_8000_epocas:255_dropout0.4_tipoSerieAImagenGRAMIAN_ANGULAR_FIELD_paso:5,0.01048833,0.00178775,,,
Exprimiento4AguaSector19SinSuavizar_06-12-2017_14-36-40_24x24_8000_epocas:260_dropout0.4_tipoSerieAImagenGRAMIAN_ANGULAR_FIELD_paso:5,0.00953355,0.0015528,,,
Exprimiento4AguaSector19SinSuavizar_06-12-2017_14-36-40_24x24_8000_epocas:265_dropout0.4_tipoSerieAImagenGRAMIAN_ANGULAR_FIELD_paso:5,0.00865859,0.00142694,,,
Exprimiento4AguaSector19SinSuavizar_06-12-2017_14-36-40_24x24_8000_epocas:270_dropout0.4_tipoSerieAImagenGRAMIAN_ANGULAR_FIELD_paso:5,0.00988852,0.00145198,,,
Exprimiento4AguaSector19SinSuavizar_06-12-2017_14-36-40_24x24_8000_epocas:275_dropout0.4_tipoSerieAImagenGRAMIAN_ANGULAR_FIELD_paso:5,0.0086415,0.00190148,,,
Exprimiento4AguaSector19SinSuavizar_06-12-2017_14-36-40_24x24_8000_epocas:280_dropout0.4_tipoSerieAImagenGRAMIAN_ANGULAR_FIELD_paso:5,0.00907608,0.00182143,,,
Exprimiento4AguaSector19SinSuavizar_06-12-2017_14-36-40_24x24_8000_epocas:285_dropout0.4_tipoSerieAImagenGRAMIAN_ANGULAR_FIELD_paso:5,0.00976269,0.0009615,,,
Exprimiento4AguaSector19SinSuavizar_06-12-2017_14-36-40_24x24_8000_epocas:290_dropout0.4_tipoSerieAImagenGRAMIAN_ANGULAR_FIELD_paso:5,0.01139119,0.00110198,,,
Exprimiento4AguaSector19SinSuavizar_06-12-2017_14-36-40_24x24_8000_epocas:295_dropout0.4_tipoSerieAImagenGRAMIAN_ANGULAR_FIELD_paso:5,0.0085587,0.00121895,,,
Exprimiento4AguaSector19SinSuavizar_06-12-2017_14-36-40_24x24_8000_epocas:300_dropout0.4_tipoSerieAImagenGRAMIAN_ANGULAR_FIELD_paso:5,0.00899231,0.00090918,,,
Exprimiento4AguaSector19SinSuavizar_06-12-2017_14-36-40_24x24_8000_epocas:305_dropout0.4_tipoSerieAImagenGRAMIAN_ANGULAR_FIELD_paso:5,0.00850129,0.00213865,,,
Exprimiento4AguaSector19SinSuavizar_06-12-2017_14-36-40_24x24_8000_epocas:310_dropout0.4_tipoSerieAImagenGRAMIAN_ANGULAR_FIELD_paso:5,0.00948733,0.00108872,,,
Exprimiento4AguaSector19SinSuavizar_06-12-2017_14-36-40_24x24_8000_epocas:315_dropout0.4_tipoSerieAImagenGRAMIAN_ANGULAR_FIELD_paso:5,0.01037947,0.00153697,,,
Exprimiento4AguaSector19SinSuavizar_06-12-2017_14-36-40_24x24_8000_epocas:320_dropout0.4_tipoSerieAImagenGRAMIAN_ANGULAR_FIELD_paso:5,0.0108938,0.00106332,,,
Exprimiento4AguaSector19SinSuavizar_06-12-2017_14-36-40_24x24_8000_epocas:325_dropout0.4_tipoSerieAImagenGRAMIAN_ANGULAR_FIELD_paso:5,0.00940703,0.00132935,,,
Exprimiento4AguaSector19SinSuavizar_06-12-2017_14-36-40_24x24_8000_epocas:330_dropout0.4_tipoSerieAImagenGRAMIAN_ANGULAR_FIELD_paso:5,0.00985092,0.00082367,,,
Exprimiento4AguaSector19SinSuavizar_06-12-2017_14-36-40_24x24_8000_epocas:335_dropout0.4_tipoSerieAImagenGRAMIAN_ANGULAR_FIELD_paso:5,0.00882604,0.00121102,,,
Exprimiento4AguaSector19SinSuavizar_06-12-2017_14-36-40_24x24_8000_epocas:340_dropout0.4_tipoSerieAImagenGRAMIAN_ANGULAR_FIELD_paso:5,0.00908143,0.0013761,,,
Exprimiento4AguaSector19SinSuavizar_06-12-2017_14-36-40_24x24_8000_epocas:345_dropout0.4_tipoSerieAImagenGRAMIAN_ANGULAR_FIELD_paso:5,0.00961516,0.00141847,,,
Exprimiento4AguaSector19SinSuavizar_06-12-2017_14-36-40_24x24_8000_epocas:350_dropout0.4_tipoSerieAImagenGRAMIAN_ANGULAR_FIELD_paso:5,0.00996255,0.00105498,,,
Exprimiento4AguaSector19SinSuavizar_06-12-2017_14-36-40_24x24_8000_epocas:355_dropout0.4_tipoSerieAImagenGRAMIAN_ANGULAR_FIELD_paso:5,0.00774571,0.00176943,,,
Exprimiento4AguaSector19SinSuavizar_06-12-2017_14-36-40_24x24_8000_epocas:360_dropout0.4_tipoSerieAImagenGRAMIAN_ANGULAR_FIELD_paso:5,0.00841627,0.00087893,,,
Exprimiento4AguaSector19SinSuavizar_06-12-2017_14-36-40_24x24_8000_epocas:365_dropout0.4_tipoSerieAImagenGRAMIAN_ANGULAR_FIELD_paso:5,0.01029798,0.00077457,,,
Exprimiento4AguaSector19SinSuavizar_06-12-2017_14-36-40_24x24_8000_epocas:370_dropout0.4_tipoSerieAImagenGRAMIAN_ANGULAR_FIELD_paso:5,0.01027099,0.00165919,,,
Exprimiento4AguaSector19SinSuavizar_06-12-2017_14-36-40_24x24_8000_epocas:375_dropout0.4_tipoSerieAImagenGRAMIAN_ANGULAR_FIELD_paso:5,0.00947555,0.00142978,,,
Exprimiento4AguaSector19SinSuavizar_06-12-2017_14-36-40_24x24_8000_epocas:380_dropout0.4_tipoSerieAImagenGRAMIAN_ANGULAR_FIELD_paso:5,0.00910473,0.00146295,,,
Exprimiento4AguaSector19SinSuavizar_06-12-2017_14-36-40_24x24_8000_epocas:385_dropout0.4_tipoSerieAImagenGRAMIAN_ANGULAR_FIELD_paso:5,0.00905707,0.00126719,,,
Exprimiento4AguaSector19SinSuavizar_06-12-2017_14-36-40_24x24_8000_epocas:390_dropout0.4_tipoSerieAImagenGRAMIAN_ANGULAR_FIELD_paso:5,0.01114165,0.00084107,,,
Exprimiento4AguaSector19SinSuavizar_06-12-2017_14-36-40_24x24_8000_epocas:395_dropout0.4_tipoSerieAImagenGRAMIAN_ANGULAR_FIELD_paso:5,0.0094721,0.00102565,,,
Exprimiento4AguaSector19SinSuavizar_06-12-2017_14-36-40_24x24_8000_epocas:400_dropout0.4_tipoSerieAImagenGRAMIAN_ANGULAR_FIELD_paso:5,0.00912234,0.00072688,,,
Exprimiento4AguaSector19SinSuavizar_06-12-2017_14-36-40_24x24_8000_epocas:405_dropout0.4_tipoSerieAImagenGRAMIAN_ANGULAR_FIELD_paso:5,0.0099754,0.00055634,,,
Exprimiento4AguaSector19SinSuavizar_06-12-2017_14-36-40_24x24_8000_epocas:410_dropout0.4_tipoSerieAImagenGRAMIAN_ANGULAR_FIELD_paso:5,0.00951143,0.00151968,,,
Exprimiento4AguaSector19SinSuavizar_06-12-2017_14-36-40_24x24_8000_epocas:415_dropout0.4_tipoSerieAImagenGRAMIAN_ANGULAR_FIELD_paso:5,0.01196903,0.00104922,,,
Exprimiento4AguaSector19SinSuavizar_06-12-2017_14-36-40_24x24_8000_epocas:420_dropout0.4_tipoSerieAImagenGRAMIAN_ANGULAR_FIELD_paso:5,0.00806609,0.00076552,,,
Exprimiento4AguaSector19SinSuavizar_06-12-2017_14-36-40_24x24_8000_epocas:425_dropout0.4_tipoSerieAImagenGRAMIAN_ANGULAR_FIELD_paso:5,0.00773601,0.00185633,,,
Exprimiento4AguaSector19SinSuavizar_06-12-2017_14-36-40_24x24_8000_epocas:430_dropout0.4_tipoSerieAImagenGRAMIAN_ANGULAR_FIELD_paso:5,0.00987112,0.00074503,,,
Exprimiento4AguaSector19SinSuavizar_06-12-2017_14-36-40_24x24_8000_epocas:435_dropout0.4_tipoSerieAImagenGRAMIAN_ANGULAR_FIELD_paso:5,0.00785717,0.00185412,,,
Exprimiento4AguaSector19SinSuavizar_06-12-2017_14-36-40_24x24_8000_epocas:440_dropout0.4_tipoSerieAImagenGRAMIAN_ANGULAR_FIELD_paso:5,0.00940149,0.00097661,,,
Exprimiento4AguaSector19SinSuavizar_06-12-2017_14-36-40_24x24_8000_epocas:445_dropout0.4_tipoSerieAImagenGRAMIAN_ANGULAR_FIELD_paso:5,0.00913608,0.00097179,,,
Exprimiento4AguaSector19SinSuavizar_06-12-2017_14-36-40_24x24_8000_epocas:450_dropout0.4_tipoSerieAImagenGRAMIAN_ANGULAR_FIELD_paso:5,0.00960265,0.00121843,,,
Exprimiento4AguaSector19SinSuavizar_06-12-2017_14-36-40_24x24_8000_epocas:455_dropout0.4_tipoSerieAImagenGRAMIAN_ANGULAR_FIELD_paso:5,0.01052609,0.00137307,,,
Exprimiento4AguaSector19SinSuavizar_06-12-2017_14-36-40_24x24_8000_epocas:460_dropout0.4_tipoSerieAImagenGRAMIAN_ANGULAR_FIELD_paso:5,0.00914797,0.00147874,,,
Exprimiento4AguaSector19SinSuavizar_06-12-2017_14-36-40_24x24_8000_epocas:465_dropout0.4_tipoSerieAImagenGRAMIAN_ANGULAR_FIELD_paso:5,0.01003249,0.00050924,,,
Exprimiento4AguaSector19SinSuavizar_06-12-2017_14-36-40_24x24_8000_epocas:470_dropout0.4_tipoSerieAImagenGRAMIAN_ANGULAR_FIELD_paso:5,0.00971554,0.00084109,,,
Exprimiento4AguaSector19SinSuavizar_06-12-2017_14-36-40_24x24_8000_epocas:475_dropout0.4_tipoSerieAImagenGRAMIAN_ANGULAR_FIELD_paso:5,0.00800048,0.00094987,,,
Exprimiento4AguaSector19SinSuavizar_06-12-2017_14-36-40_24x24_8000_epocas:480_dropout0.4_tipoSerieAImagenGRAMIAN_ANGULAR_FIELD_paso:5,0.00926326,0.00075053,,,
Exprimiento4AguaSector19SinSuavizar_06-12-2017_14-36-40_24x24_8000_epocas:485_dropout0.4_tipoSerieAImagenGRAMIAN_ANGULAR_FIELD_paso:5,0.00720005,0.00151803,,,
Exprimiento4AguaSector19SinSuavizar_06-12-2017_14-36-40_24x24_8000_epocas:490_dropout0.4_tipoSerieAImagenGRAMIAN_ANGULAR_FIELD_paso:5,0.0087101,0.00085181,,,
Exprimiento4AguaSector19SinSuavizar_06-12-2017_14-36-40_24x24_8000_epocas:495_dropout0.4_tipoSerieAImagenGRAMIAN_ANGULAR_FIELD_paso:5,0.00806991,0.00147336,,,
Exprimiento4AguaSector19SinSuavizar_06-12-2017_14-36-40_24x24_8000_epocas:500_dropout0.4_tipoSerieAImagenGRAMIAN_ANGULAR_FIELD_paso:5,0.00889455,0.00154929,,,
Exprimiento4AguaSector19SinSuavizar_06-12-2017_14-36-40_24x24_8000_epocas:505_dropout0.4_tipoSerieAImagenGRAMIAN_ANGULAR_FIELD_paso:5,0.00964674,0.00141298,,,
Exprimiento4AguaSector19SinSuavizar_06-12-2017_14-36-40_24x24_8000_epocas:510_dropout0.4_tipoSerieAImagenGRAMIAN_ANGULAR_FIELD_paso:5,0.00868088,0.00134218,,,
Exprimiento4AguaSector19SinSuavizar_06-12-2017_14-36-40_24x24_8000_epocas:515_dropout0.4_tipoSerieAImagenGRAMIAN_ANGULAR_FIELD_paso:5,0.00866337,0.00128396,,,
Exprimiento4AguaSector19SinSuavizar_06-12-2017_14-36-40_24x24_8000_epocas:520_dropout0.4_tipoSerieAImagenGRAMIAN_ANGULAR_FIELD_paso:5,0.011411,0.00079001,,,
Exprimiento4AguaSector19SinSuavizar_06-12-2017_14-36-40_24x24_8000_epocas:525_dropout0.4_tipoSerieAImagenGRAMIAN_ANGULAR_FIELD_paso:5,0.0086855,0.000978,,,
Exprimiento4AguaSector19SinSuavizar_06-12-2017_14-36-40_24x24_8000_epocas:530_dropout0.4_tipoSerieAImagenGRAMIAN_ANGULAR_FIELD_paso:5,0.00906318,0.00068384,,,
Exprimiento4AguaSector19SinSuavizar_06-12-2017_14-36-40_24x24_8000_epocas:535_dropout0.4_tipoSerieAImagenGRAMIAN_ANGULAR_FIELD_paso:5,0.00928799,0.00144863,,,
Exprimiento4AguaSector19SinSuavizar_06-12-2017_14-36-40_24x24_8000_epocas:540_dropout0.4_tipoSerieAImagenGRAMIAN_ANGULAR_FIELD_paso:5,0.00964799,0.00067981,,,
Exprimiento4AguaSector19SinSuavizar_06-12-2017_14-36-40_24x24_8000_epocas:545_dropout0.4_tipoSerieAImagenGRAMIAN_ANGULAR_FIELD_paso:5,0.01021468,0.00090763,,,
Exprimiento4AguaSector19SinSuavizar_06-12-2017_14-36-40_24x24_8000_epocas:550_dropout0.4_tipoSerieAImagenGRAMIAN_ANGULAR_FIELD_paso:5,0.00984339,0.00188381,,,
Exprimiento4AguaSector19SinSuavizar_06-12-2017_14-36-40_24x24_8000_epocas:555_dropout0.4_tipoSerieAImagenGRAMIAN_ANGULAR_FIELD_paso:5,0.00878261,0.00095127,,,
Exprimiento4AguaSector19SinSuavizar_06-12-2017_14-36-40_24x24_8000_epocas:560_dropout0.4_tipoSerieAImagenGRAMIAN_ANGULAR_FIELD_paso:5,0.01000926,0.00114431,,,
Exprimiento4AguaSector19SinSuavizar_06-12-2017_14-36-40_24x24_8000_epocas:565_dropout0.4_tipoSerieAImagenGRAMIAN_ANGULAR_FIELD_paso:5,0.00899015,0.00090002,,,
Exprimiento4AguaSector19SinSuavizar_06-12-2017_14-36-40_24x24_8000_epocas:570_dropout0.4_tipoSerieAImagenGRAMIAN_ANGULAR_FIELD_paso:5,0.00935935,0.00131127,,,
Exprimiento4AguaSector19SinSuavizar_06-12-2017_14-36-40_24x24_8000_epocas:575_dropout0.4_tipoSerieAImagenGRAMIAN_ANGULAR_FIELD_paso:5,0.00961526,0.00096662,,,
Exprimiento4AguaSector19SinSuavizar_06-12-2017_14-36-40_24x24_8000_epocas:580_dropout0.4_tipoSerieAImagenGRAMIAN_ANGULAR_FIELD_paso:5,0.01171337,0.00087073,,,
Exprimiento4AguaSector19SinSuavizar_06-12-2017_14-36-40_24x24_8000_epocas:585_dropout0.4_tipoSerieAImagenGRAMIAN_ANGULAR_FIELD_paso:5,0.00894752,0.00097934,,,
Exprimiento4AguaSector19SinSuavizar_06-12-2017_14-36-40_24x24_8000_epocas:590_dropout0.4_tipoSerieAImagenGRAMIAN_ANGULAR_FIELD_paso:5,0.00890481,0.0010007,,,
Exprimiento4AguaSector19SinSuavizar_06-12-2017_14-36-40_24x24_8000_epocas:595_dropout0.4_tipoSerieAImagenGRAMIAN_ANGULAR_FIELD_paso:5,0.01089684,0.00088059,,,
Exprimiento4AguaSector19SinSuavizar_06-12-2017_14-36-40_24x24_8000_epocas:200_dropout0.4_tipoSerieAImagenGRAMIAN_ANGULAR_FIELD_paso:6,0.00895317,0.00132875,,,
Exprimiento4AguaSector19SinSuavizar_06-12-2017_14-36-40_24x24_8000_epocas:205_dropout0.4_tipoSerieAImagenGRAMIAN_ANGULAR_FIELD_paso:6,0.01053699,0.00142354,,,
Exprimiento4AguaSector19SinSuavizar_06-12-2017_14-36-40_24x24_8000_epocas:210_dropout0.4_tipoSerieAImagenGRAMIAN_ANGULAR_FIELD_paso:6,0.0100678,0.00182865,,,
Exprimiento4AguaSector19SinSuavizar_06-12-2017_14-36-40_24x24_8000_epocas:215_dropout0.4_tipoSerieAImagenGRAMIAN_ANGULAR_FIELD_paso:6,0.01035632,0.00185966,,,
Exprimiento4AguaSector19SinSuavizar_06-12-2017_14-36-40_24x24_8000_epocas:220_dropout0.4_tipoSerieAImagenGRAMIAN_ANGULAR_FIELD_paso:6,0.00831865,0.00210502,,,
Exprimiento4AguaSector19SinSuavizar_06-12-2017_14-36-40_24x24_8000_epocas:225_dropout0.4_tipoSerieAImagenGRAMIAN_ANGULAR_FIELD_paso:6,0.0078771,0.00203119,,,
Exprimiento4AguaSector19SinSuavizar_06-12-2017_14-36-40_24x24_8000_epocas:230_dropout0.4_tipoSerieAImagenGRAMIAN_ANGULAR_FIELD_paso:6,0.01068088,0.00111319,,,
Exprimiento4AguaSector19SinSuavizar_06-12-2017_14-36-40_24x24_8000_epocas:235_dropout0.4_tipoSerieAImagenGRAMIAN_ANGULAR_FIELD_paso:6,0.00968944,0.00152613,,,
Exprimiento4AguaSector19SinSuavizar_06-12-2017_14-36-40_24x24_8000_epocas:240_dropout0.4_tipoSerieAImagenGRAMIAN_ANGULAR_FIELD_paso:6,0.01124743,0.00255314,,,
Exprimiento4AguaSector19SinSuavizar_06-12-2017_14-36-40_24x24_8000_epocas:245_dropout0.4_tipoSerieAImagenGRAMIAN_ANGULAR_FIELD_paso:6,0.01061832,0.00098127,,,
Exprimiento4AguaSector19SinSuavizar_06-12-2017_14-36-40_24x24_8000_epocas:250_dropout0.4_tipoSerieAImagenGRAMIAN_ANGULAR_FIELD_paso:6,0.01133024,0.00170752,,,
Exprimiento4AguaSector19SinSuavizar_06-12-2017_14-36-40_24x24_8000_epocas:255_dropout0.4_tipoSerieAImagenGRAMIAN_ANGULAR_FIELD_paso:6,0.01012963,0.00290977,,,
Exprimiento4AguaSector19SinSuavizar_06-12-2017_14-36-40_24x24_8000_epocas:260_dropout0.4_tipoSerieAImagenGRAMIAN_ANGULAR_FIELD_paso:6,0.00910055,0.00143295,,,
Exprimiento4AguaSector19SinSuavizar_06-12-2017_14-36-40_24x24_8000_epocas:265_dropout0.4_tipoSerieAImagenGRAMIAN_ANGULAR_FIELD_paso:6,0.00926362,0.00134775,,,
Exprimiento4AguaSector19SinSuavizar_06-12-2017_14-36-40_24x24_8000_epocas:270_dropout0.4_tipoSerieAImagenGRAMIAN_ANGULAR_FIELD_paso:6,0.00816893,0.0015453,,,
Exprimiento4AguaSector19SinSuavizar_06-12-2017_14-36-40_24x24_8000_epocas:275_dropout0.4_tipoSerieAImagenGRAMIAN_ANGULAR_FIELD_paso:6,0.00867373,0.00179464,,,
Exprimiento4AguaSector19SinSuavizar_06-12-2017_14-36-40_24x24_8000_epocas:280_dropout0.4_tipoSerieAImagenGRAMIAN_ANGULAR_FIELD_paso:6,0.00967014,0.00124572,,,
Exprimiento4AguaSector19SinSuavizar_06-12-2017_14-36-40_24x24_8000_epocas:285_dropout0.4_tipoSerieAImagenGRAMIAN_ANGULAR_FIELD_paso:6,0.00838879,0.0016996,,,
Exprimiento4AguaSector19SinSuavizar_06-12-2017_14-36-40_24x24_8000_epocas:290_dropout0.4_tipoSerieAImagenGRAMIAN_ANGULAR_FIELD_paso:6,0.01078535,0.00138601,,,
Exprimiento4AguaSector19SinSuavizar_06-12-2017_14-36-40_24x24_8000_epocas:295_dropout0.4_tipoSerieAImagenGRAMIAN_ANGULAR_FIELD_paso:6,0.01037569,0.00120011,,,
Exprimiento4AguaSector19SinSuavizar_06-12-2017_14-36-40_24x24_8000_epocas:300_dropout0.4_tipoSerieAImagenGRAMIAN_ANGULAR_FIELD_paso:6,0.00856089,0.0013128,,,
Exprimiento4AguaSector19SinSuavizar_06-12-2017_14-36-40_24x24_8000_epocas:305_dropout0.4_tipoSerieAImagenGRAMIAN_ANGULAR_FIELD_paso:6,0.01172958,0.00177067,,,
Exprimiento4AguaSector19SinSuavizar_06-12-2017_14-36-40_24x24_8000_epocas:310_dropout0.4_tipoSerieAImagenGRAMIAN_ANGULAR_FIELD_paso:6,0.00920934,0.00066659,,,
Exprimiento4AguaSector19SinSuavizar_06-12-2017_14-36-40_24x24_8000_epocas:315_dropout0.4_tipoSerieAImagenGRAMIAN_ANGULAR_FIELD_paso:6,0.01047767,0.0012748,,,
Exprimiento4AguaSector19SinSuavizar_06-12-2017_14-36-40_24x24_8000_epocas:320_dropout0.4_tipoSerieAImagenGRAMIAN_ANGULAR_FIELD_paso:6,0.00941816,0.00176374,,,
Exprimiento4AguaSector19SinSuavizar_06-12-2017_14-36-40_24x24_8000_epocas:325_dropout0.4_tipoSerieAImagenGRAMIAN_ANGULAR_FIELD_paso:6,0.00994326,0.00099929,,,
Exprimiento4AguaSector19SinSuavizar_06-12-2017_14-36-40_24x24_8000_epocas:330_dropout0.4_tipoSerieAImagenGRAMIAN_ANGULAR_FIELD_paso:6,0.00898258,0.00161485,,,
Exprimiento4AguaSector19SinSuavizar_06-12-2017_14-36-40_24x24_8000_epocas:335_dropout0.4_tipoSerieAImagenGRAMIAN_ANGULAR_FIELD_paso:6,0.00824014,0.00141859,,,
Exprimiento4AguaSector19SinSuavizar_06-12-2017_14-36-40_24x24_8000_epocas:340_dropout0.4_tipoSerieAImagenGRAMIAN_ANGULAR_FIELD_paso:6,0.01141835,0.00108433,,,
Exprimiento4AguaSector19SinSuavizar_06-12-2017_14-36-40_24x24_8000_epocas:345_dropout0.4_tipoSerieAImagenGRAMIAN_ANGULAR_FIELD_paso:6,0.00970686,0.00159052,,,
Exprimiento4AguaSector19SinSuavizar_06-12-2017_14-36-40_24x24_8000_epocas:350_dropout0.4_tipoSerieAImagenGRAMIAN_ANGULAR_FIELD_paso:6,0.00951752,0.00179356,,,
Exprimiento4AguaSector19SinSuavizar_06-12-2017_14-36-40_24x24_8000_epocas:355_dropout0.4_tipoSerieAImagenGRAMIAN_ANGULAR_FIELD_paso:6,0.0091605,0.00119892,,,
Exprimiento4AguaSector19SinSuavizar_06-12-2017_14-36-40_24x24_8000_epocas:360_dropout0.4_tipoSerieAImagenGRAMIAN_ANGULAR_FIELD_paso:6,0.01002751,0.00090546,,,
Exprimiento4AguaSector19SinSuavizar_06-12-2017_14-36-40_24x24_8000_epocas:365_dropout0.4_tipoSerieAImagenGRAMIAN_ANGULAR_FIELD_paso:6,0.01066497,0.00095311,,,
Exprimiento4AguaSector19SinSuavizar_06-12-2017_14-36-40_24x24_8000_epocas:370_dropout0.4_tipoSerieAImagenGRAMIAN_ANGULAR_FIELD_paso:6,0.01078455,0.00082863,,,
Exprimiento4AguaSector19SinSuavizar_06-12-2017_14-36-40_24x24_8000_epocas:375_dropout0.4_tipoSerieAImagenGRAMIAN_ANGULAR_FIELD_paso:6,0.00992701,0.00076823,,,
Exprimiento4AguaSector19SinSuavizar_06-12-2017_14-36-40_24x24_8000_epocas:380_dropout0.4_tipoSerieAImagenGRAMIAN_ANGULAR_FIELD_paso:6,0.00813638,0.00088829,,,
Exprimiento4AguaSector19SinSuavizar_06-12-2017_14-36-40_24x24_8000_epocas:385_dropout0.4_tipoSerieAImagenGRAMIAN_ANGULAR_FIELD_paso:6,0.01009691,0.00138719,,,
Exprimiento4AguaSector19SinSuavizar_06-12-2017_14-36-40_24x24_8000_epocas:390_dropout0.4_tipoSerieAImagenGRAMIAN_ANGULAR_FIELD_paso:6,0.00919208,0.00105795,,,
Exprimiento4AguaSector19SinSuavizar_06-12-2017_14-36-40_24x24_8000_epocas:395_dropout0.4_tipoSerieAImagenGRAMIAN_ANGULAR_FIELD_paso:6,0.01144471,0.00141584,,,
Exprimiento4AguaSector19SinSuavizar_06-12-2017_14-36-40_24x24_8000_epocas:400_dropout0.4_tipoSerieAImagenGRAMIAN_ANGULAR_FIELD_paso:6,0.01107607,0.00155773,,,
Exprimiento4AguaSector19SinSuavizar_06-12-2017_14-36-40_24x24_8000_epocas:405_dropout0.4_tipoSerieAImagenGRAMIAN_ANGULAR_FIELD_paso:6,0.01185262,0.00074793,,,
Exprimiento4AguaSector19SinSuavizar_06-12-2017_14-36-40_24x24_8000_epocas:410_dropout0.4_tipoSerieAImagenGRAMIAN_ANGULAR_FIELD_paso:6,0.00904949,0.00135314,,,
Exprimiento4AguaSector19SinSuavizar_06-12-2017_14-36-40_24x24_8000_epocas:415_dropout0.4_tipoSerieAImagenGRAMIAN_ANGULAR_FIELD_paso:6,0.0106038,0.00121498,,,
Exprimiento4AguaSector19SinSuavizar_06-12-2017_14-36-40_24x24_8000_epocas:420_dropout0.4_tipoSerieAImagenGRAMIAN_ANGULAR_FIELD_paso:6,0.01064285,0.00083431,,,
Exprimiento4AguaSector19SinSuavizar_06-12-2017_14-36-40_24x24_8000_epocas:425_dropout0.4_tipoSerieAImagenGRAMIAN_ANGULAR_FIELD_paso:6,0.01052181,0.00062686,,,
Exprimiento4AguaSector19SinSuavizar_06-12-2017_14-36-40_24x24_8000_epocas:430_dropout0.4_tipoSerieAImagenGRAMIAN_ANGULAR_FIELD_paso:6,0.00937512,0.00132613,,,
Exprimiento4AguaSector19SinSuavizar_06-12-2017_14-36-40_24x24_8000_epocas:435_dropout0.4_tipoSerieAImagenGRAMIAN_ANGULAR_FIELD_paso:6,0.00790565,0.00142129,,,
Exprimiento4AguaSector19SinSuavizar_06-12-2017_14-36-40_24x24_8000_epocas:440_dropout0.4_tipoSerieAImagenGRAMIAN_ANGULAR_FIELD_paso:6,0.00787084,0.00113163,,,
Exprimiento4AguaSector19SinSuavizar_06-12-2017_14-36-40_24x24_8000_epocas:445_dropout0.4_tipoSerieAImagenGRAMIAN_ANGULAR_FIELD_paso:6,0.00868719,0.00155974,,,
Exprimiento4AguaSector19SinSuavizar_06-12-2017_14-36-40_24x24_8000_epocas:450_dropout0.4_tipoSerieAImagenGRAMIAN_ANGULAR_FIELD_paso:6,0.01034869,0.00079036,,,
Exprimiento4AguaSector19SinSuavizar_06-12-2017_14-36-40_24x24_8000_epocas:455_dropout0.4_tipoSerieAImagenGRAMIAN_ANGULAR_FIELD_paso:6,0.00887031,0.00141035,,,
Exprimiento4AguaSector19SinSuavizar_06-12-2017_14-36-40_24x24_8000_epocas:460_dropout0.4_tipoSerieAImagenGRAMIAN_ANGULAR_FIELD_paso:6,0.00894783,0.00094382,,,
Exprimiento4AguaSector19SinSuavizar_06-12-2017_14-36-40_24x24_8000_epocas:465_dropout0.4_tipoSerieAImagenGRAMIAN_ANGULAR_FIELD_paso:6,0.01078685,0.00097258,,,
Exprimiento4AguaSector19SinSuavizar_06-12-2017_14-36-40_24x24_8000_epocas:470_dropout0.4_tipoSerieAImagenGRAMIAN_ANGULAR_FIELD_paso:6,0.00946609,0.0012769,,,
Exprimiento4AguaSector19SinSuavizar_06-12-2017_14-36-40_24x24_8000_epocas:475_dropout0.4_tipoSerieAImagenGRAMIAN_ANGULAR_FIELD_paso:6,0.01100439,0.0007167,,,
Exprimiento4AguaSector19SinSuavizar_06-12-2017_14-36-40_24x24_8000_epocas:480_dropout0.4_tipoSerieAImagenGRAMIAN_ANGULAR_FIELD_paso:6,0.00952805,0.00063096,,,
Exprimiento4AguaSector19SinSuavizar_06-12-2017_14-36-40_24x24_8000_epocas:485_dropout0.4_tipoSerieAImagenGRAMIAN_ANGULAR_FIELD_paso:6,0.01097155,0.00080448,,,
Exprimiento4AguaSector19SinSuavizar_06-12-2017_14-36-40_24x24_8000_epocas:490_dropout0.4_tipoSerieAImagenGRAMIAN_ANGULAR_FIELD_paso:6,0.00951102,0.00067585,,,
Exprimiento4AguaSector19SinSuavizar_06-12-2017_14-36-40_24x24_8000_epocas:495_dropout0.4_tipoSerieAImagenGRAMIAN_ANGULAR_FIELD_paso:6,0.01088531,0.00069372,,,
Exprimiento4AguaSector19SinSuavizar_06-12-2017_14-36-40_24x24_8000_epocas:500_dropout0.4_tipoSerieAImagenGRAMIAN_ANGULAR_FIELD_paso:6,0.00988518,0.00091911,,,
Exprimiento4AguaSector19SinSuavizar_06-12-2017_14-36-40_24x24_8000_epocas:505_dropout0.4_tipoSerieAImagenGRAMIAN_ANGULAR_FIELD_paso:6,0.01004122,0.0008785,,,
Exprimiento4AguaSector19SinSuavizar_06-12-2017_14-36-40_24x24_8000_epocas:510_dropout0.4_tipoSerieAImagenGRAMIAN_ANGULAR_FIELD_paso:6,0.00804521,0.00081018,,,
Exprimiento4AguaSector19SinSuavizar_06-12-2017_14-36-40_24x24_8000_epocas:515_dropout0.4_tipoSerieAImagenGRAMIAN_ANGULAR_FIELD_paso:6,0.00830718,0.00087967,,,
Exprimiento4AguaSector19SinSuavizar_06-12-2017_14-36-40_24x24_8000_epocas:520_dropout0.4_tipoSerieAImagenGRAMIAN_ANGULAR_FIELD_paso:6,0.00918433,0.00117642,,,
Exprimiento4AguaSector19SinSuavizar_06-12-2017_14-36-40_24x24_8000_epocas:525_dropout0.4_tipoSerieAImagenGRAMIAN_ANGULAR_FIELD_paso:6,0.01037592,0.00074798,,,
Exprimiento4AguaSector19SinSuavizar_06-12-2017_14-36-40_24x24_8000_epocas:530_dropout0.4_tipoSerieAImagenGRAMIAN_ANGULAR_FIELD_paso:6,0.01085509,0.00047424,,,
Exprimiento4AguaSector19SinSuavizar_06-12-2017_14-36-40_24x24_8000_epocas:535_dropout0.4_tipoSerieAImagenGRAMIAN_ANGULAR_FIELD_paso:6,0.00817987,0.00104262,,,
Exprimiento4AguaSector19SinSuavizar_06-12-2017_14-36-40_24x24_8000_epocas:540_dropout0.4_tipoSerieAImagenGRAMIAN_ANGULAR_FIELD_paso:6,0.00895579,0.001196,,,
Exprimiento4AguaSector19SinSuavizar_06-12-2017_14-36-40_24x24_8000_epocas:545_dropout0.4_tipoSerieAImagenGRAMIAN_ANGULAR_FIELD_paso:6,0.00916866,0.00106104,,,
Exprimiento4AguaSector19SinSuavizar_06-12-2017_14-36-40_24x24_8000_epocas:550_dropout0.4_tipoSerieAImagenGRAMIAN_ANGULAR_FIELD_paso:6,0.01118567,0.00085371,,,
Exprimiento4AguaSector19SinSuavizar_06-12-2017_14-36-40_24x24_8000_epocas:555_dropout0.4_tipoSerieAImagenGRAMIAN_ANGULAR_FIELD_paso:6,0.00876129,0.00061473,,,
Exprimiento4AguaSector19SinSuavizar_06-12-2017_14-36-40_24x24_8000_epocas:560_dropout0.4_tipoSerieAImagenGRAMIAN_ANGULAR_FIELD_paso:6,0.00980828,0.00060666,,,
Exprimiento4AguaSector19SinSuavizar_06-12-2017_14-36-40_24x24_8000_epocas:565_dropout0.4_tipoSerieAImagenGRAMIAN_ANGULAR_FIELD_paso:6,0.0090461,0.00087472,,,
Exprimiento4AguaSector19SinSuavizar_06-12-2017_14-36-40_24x24_8000_epocas:570_dropout0.4_tipoSerieAImagenGRAMIAN_ANGULAR_FIELD_paso:6,0.00940916,0.00058706,,,
Exprimiento4AguaSector19SinSuavizar_06-12-2017_14-36-40_24x24_8000_epocas:575_dropout0.4_tipoSerieAImagenGRAMIAN_ANGULAR_FIELD_paso:6,0.00976427,0.00103653,,,
Exprimiento4AguaSector19SinSuavizar_06-12-2017_14-36-40_24x24_8000_epocas:580_dropout0.4_tipoSerieAImagenGRAMIAN_ANGULAR_FIELD_paso:6,0.01074264,0.00071096,,,
Exprimiento4AguaSector19SinSuavizar_06-12-2017_14-36-40_24x24_8000_epocas:585_dropout0.4_tipoSerieAImagenGRAMIAN_ANGULAR_FIELD_paso:6,0.00881392,0.00064767,,,
Exprimiento4AguaSector19SinSuavizar_06-12-2017_14-36-40_24x24_8000_epocas:590_dropout0.4_tipoSerieAImagenGRAMIAN_ANGULAR_FIELD_paso:6,0.00826021,0.00126269,,,
Exprimiento4AguaSector19SinSuavizar_06-12-2017_14-36-40_24x24_8000_epocas:595_dropout0.4_tipoSerieAImagenGRAMIAN_ANGULAR_FIELD_paso:6,0.00809564,0.00075807,,,
Exprimiento4AguaSector19SinSuavizar_06-12-2017_14-36-40_24x24_8000_epocas:200_dropout0.4_tipoSerieAImagenGRAMIAN_ANGULAR_FIELD_paso:7,0.0097983,0.00138981,,,
Exprimiento4AguaSector19SinSuavizar_06-12-2017_14-36-40_24x24_8000_epocas:205_dropout0.4_tipoSerieAImagenGRAMIAN_ANGULAR_FIELD_paso:7,0.01026412,0.00115592,,,
Exprimiento4AguaSector19SinSuavizar_06-12-2017_14-36-40_24x24_8000_epocas:210_dropout0.4_tipoSerieAImagenGRAMIAN_ANGULAR_FIELD_paso:7,0.00937527,0.00145223,,,
Exprimiento4AguaSector19SinSuavizar_06-12-2017_14-36-40_24x24_8000_epocas:215_dropout0.4_tipoSerieAImagenGRAMIAN_ANGULAR_FIELD_paso:7,0.0113,0.00122673,,,
Exprimiento4AguaSector19SinSuavizar_06-12-2017_14-36-40_24x24_8000_epocas:220_dropout0.4_tipoSerieAImagenGRAMIAN_ANGULAR_FIELD_paso:7,0.01133725,0.00201986,,,
Exprimiento4AguaSector19SinSuavizar_06-12-2017_14-36-40_24x24_8000_epocas:225_dropout0.4_tipoSerieAImagenGRAMIAN_ANGULAR_FIELD_paso:7,0.00985272,0.00146065,,,
Exprimiento4AguaSector19SinSuavizar_06-12-2017_14-36-40_24x24_8000_epocas:230_dropout0.4_tipoSerieAImagenGRAMIAN_ANGULAR_FIELD_paso:7,0.00974283,0.00210154,,,
Exprimiento4AguaSector19SinSuavizar_06-12-2017_14-36-40_24x24_8000_epocas:235_dropout0.4_tipoSerieAImagenGRAMIAN_ANGULAR_FIELD_paso:7,0.01111553,0.00128831,,,
Exprimiento4AguaSector19SinSuavizar_06-12-2017_14-36-40_24x24_8000_epocas:240_dropout0.4_tipoSerieAImagenGRAMIAN_ANGULAR_FIELD_paso:7,0.00930657,0.00117977,,,
Exprimiento4AguaSector19SinSuavizar_06-12-2017_14-36-40_24x24_8000_epocas:245_dropout0.4_tipoSerieAImagenGRAMIAN_ANGULAR_FIELD_paso:7,0.00820398,0.00172302,,,
Exprimiento4AguaSector19SinSuavizar_06-12-2017_14-36-40_24x24_8000_epocas:250_dropout0.4_tipoSerieAImagenGRAMIAN_ANGULAR_FIELD_paso:7,0.01113563,0.00095914,,,
Exprimiento4AguaSector19SinSuavizar_06-12-2017_14-36-40_24x24_8000_epocas:255_dropout0.4_tipoSerieAImagenGRAMIAN_ANGULAR_FIELD_paso:7,0.00810206,0.00190235,,,
Exprimiento4AguaSector19SinSuavizar_06-12-2017_14-36-40_24x24_8000_epocas:260_dropout0.4_tipoSerieAImagenGRAMIAN_ANGULAR_FIELD_paso:7,0.00790093,0.00170846,,,
Exprimiento4AguaSector19SinSuavizar_06-12-2017_14-36-40_24x24_8000_epocas:265_dropout0.4_tipoSerieAImagenGRAMIAN_ANGULAR_FIELD_paso:7,0.01149794,0.00131321,,,
Exprimiento4AguaSector19SinSuavizar_06-12-2017_14-36-40_24x24_8000_epocas:270_dropout0.4_tipoSerieAImagenGRAMIAN_ANGULAR_FIELD_paso:7,0.00799423,0.00161205,,,
Exprimiento4AguaSector19SinSuavizar_06-12-2017_14-36-40_24x24_8000_epocas:275_dropout0.4_tipoSerieAImagenGRAMIAN_ANGULAR_FIELD_paso:7,0.0093834,0.00168891,,,
Exprimiento4AguaSector19SinSuavizar_06-12-2017_14-36-40_24x24_8000_epocas:280_dropout0.4_tipoSerieAImagenGRAMIAN_ANGULAR_FIELD_paso:7,0.0096784,0.00120661,,,
Exprimiento4AguaSector19SinSuavizar_06-12-2017_14-36-40_24x24_8000_epocas:285_dropout0.4_tipoSerieAImagenGRAMIAN_ANGULAR_FIELD_paso:7,0.00840998,0.00164516,,,
Exprimiento4AguaSector19SinSuavizar_06-12-2017_14-36-40_24x24_8000_epocas:290_dropout0.4_tipoSerieAImagenGRAMIAN_ANGULAR_FIELD_paso:7,0.00748591,0.00168872,,,
Exprimiento4AguaSector19SinSuavizar_06-12-2017_14-36-40_24x24_8000_epocas:295_dropout0.4_tipoSerieAImagenGRAMIAN_ANGULAR_FIELD_paso:7,0.00975281,0.00146276,,,
Exprimiento4AguaSector19SinSuavizar_06-12-2017_14-36-40_24x24_8000_epocas:300_dropout0.4_tipoSerieAImagenGRAMIAN_ANGULAR_FIELD_paso:7,0.00923896,0.00109386,,,
Exprimiento4AguaSector19SinSuavizar_06-12-2017_14-36-40_24x24_8000_epocas:305_dropout0.4_tipoSerieAImagenGRAMIAN_ANGULAR_FIELD_paso:7,0.01027811,0.00098996,,,
Exprimiento4AguaSector19SinSuavizar_06-12-2017_14-36-40_24x24_8000_epocas:310_dropout0.4_tipoSerieAImagenGRAMIAN_ANGULAR_FIELD_paso:7,0.0094737,0.00093608,,,
Exprimiento4AguaSector19SinSuavizar_06-12-2017_14-36-40_24x24_8000_epocas:315_dropout0.4_tipoSerieAImagenGRAMIAN_ANGULAR_FIELD_paso:7,0.0084012,0.0013936,,,
Exprimiento4AguaSector19SinSuavizar_06-12-2017_14-36-40_24x24_8000_epocas:320_dropout0.4_tipoSerieAImagenGRAMIAN_ANGULAR_FIELD_paso:7,0.008029,0.00145767,,,
Exprimiento4AguaSector19SinSuavizar_06-12-2017_14-36-40_24x24_8000_epocas:325_dropout0.4_tipoSerieAImagenGRAMIAN_ANGULAR_FIELD_paso:7,0.01157647,0.00139911,,,
Exprimiento4AguaSector19SinSuavizar_06-12-2017_14-36-40_24x24_8000_epocas:330_dropout0.4_tipoSerieAImagenGRAMIAN_ANGULAR_FIELD_paso:7,0.01051445,0.00143466,,,
Exprimiento4AguaSector19SinSuavizar_06-12-2017_14-36-40_24x24_8000_epocas:335_dropout0.4_tipoSerieAImagenGRAMIAN_ANGULAR_FIELD_paso:7,0.00885016,0.00116375,,,
Exprimiento4AguaSector19SinSuavizar_06-12-2017_14-36-40_24x24_8000_epocas:340_dropout0.4_tipoSerieAImagenGRAMIAN_ANGULAR_FIELD_paso:7,0.00872775,0.00114865,,,
Exprimiento4AguaSector19SinSuavizar_06-12-2017_14-36-40_24x24_8000_epocas:345_dropout0.4_tipoSerieAImagenGRAMIAN_ANGULAR_FIELD_paso:7,0.00965523,0.00107716,,,
Exprimiento4AguaSector19SinSuavizar_06-12-2017_14-36-40_24x24_8000_epocas:350_dropout0.4_tipoSerieAImagenGRAMIAN_ANGULAR_FIELD_paso:7,0.00909559,0.00097842,,,
Exprimiento4AguaSector19SinSuavizar_06-12-2017_14-36-40_24x24_8000_epocas:355_dropout0.4_tipoSerieAImagenGRAMIAN_ANGULAR_FIELD_paso:7,0.01016482,0.0013852,,,
Exprimiento4AguaSector19SinSuavizar_06-12-2017_14-36-40_24x24_8000_epocas:360_dropout0.4_tipoSerieAImagenGRAMIAN_ANGULAR_FIELD_paso:7,0.00920731,0.00133003,,,
Exprimiento4AguaSector19SinSuavizar_06-12-2017_14-36-40_24x24_8000_epocas:365_dropout0.4_tipoSerieAImagenGRAMIAN_ANGULAR_FIELD_paso:7,0.00900809,0.00105075,,,
Exprimiento4AguaSector19SinSuavizar_06-12-2017_14-36-40_24x24_8000_epocas:370_dropout0.4_tipoSerieAImagenGRAMIAN_ANGULAR_FIELD_paso:7,0.00912294,0.00151157,,,
Exprimiento4AguaSector19SinSuavizar_06-12-2017_14-36-40_24x24_8000_epocas:375_dropout0.4_tipoSerieAImagenGRAMIAN_ANGULAR_FIELD_paso:7,0.00900013,0.00103783,,,
Exprimiento4AguaSector19SinSuavizar_06-12-2017_14-36-40_24x24_8000_epocas:380_dropout0.4_tipoSerieAImagenGRAMIAN_ANGULAR_FIELD_paso:7,0.01053877,0.00112047,,,
Exprimiento4AguaSector19SinSuavizar_06-12-2017_14-36-40_24x24_8000_epocas:385_dropout0.4_tipoSerieAImagenGRAMIAN_ANGULAR_FIELD_paso:7,0.00962593,0.00082669,,,
Exprimiento4AguaSector19SinSuavizar_06-12-2017_14-36-40_24x24_8000_epocas:390_dropout0.4_tipoSerieAImagenGRAMIAN_ANGULAR_FIELD_paso:7,0.01065544,0.0008721,,,
Exprimiento4AguaSector19SinSuavizar_06-12-2017_14-36-40_24x24_8000_epocas:395_dropout0.4_tipoSerieAImagenGRAMIAN_ANGULAR_FIELD_paso:7,0.00832367,0.0006317,,,
Exprimiento4AguaSector19SinSuavizar_06-12-2017_14-36-40_24x24_8000_epocas:400_dropout0.4_tipoSerieAImagenGRAMIAN_ANGULAR_FIELD_paso:7,0.00832988,0.00120991,,,
Exprimiento4AguaSector19SinSuavizar_06-12-2017_14-36-40_24x24_8000_epocas:405_dropout0.4_tipoSerieAImagenGRAMIAN_ANGULAR_FIELD_paso:7,0.009539,0.00079894,,,
Exprimiento4AguaSector19SinSuavizar_06-12-2017_14-36-40_24x24_8000_epocas:410_dropout0.4_tipoSerieAImagenGRAMIAN_ANGULAR_FIELD_paso:7,0.01092107,0.00059104,,,
Exprimiento4AguaSector19SinSuavizar_06-12-2017_14-36-40_24x24_8000_epocas:415_dropout0.4_tipoSerieAImagenGRAMIAN_ANGULAR_FIELD_paso:7,0.01077176,0.00129067,,,
Exprimiento4AguaSector19SinSuavizar_06-12-2017_14-36-40_24x24_8000_epocas:420_dropout0.4_tipoSerieAImagenGRAMIAN_ANGULAR_FIELD_paso:7,0.01029179,0.00109387,,,
Exprimiento4AguaSector19SinSuavizar_06-12-2017_14-36-40_24x24_8000_epocas:425_dropout0.4_tipoSerieAImagenGRAMIAN_ANGULAR_FIELD_paso:7,0.00961295,0.00127883,,,
Exprimiento4AguaSector19SinSuavizar_06-12-2017_14-36-40_24x24_8000_epocas:430_dropout0.4_tipoSerieAImagenGRAMIAN_ANGULAR_FIELD_paso:7,0.00994703,0.00140107,,,
Exprimiento4AguaSector19SinSuavizar_06-12-2017_14-36-40_24x24_8000_epocas:435_dropout0.4_tipoSerieAImagenGRAMIAN_ANGULAR_FIELD_paso:7,0.01022427,0.00239581,,,
Exprimiento4AguaSector19SinSuavizar_06-12-2017_14-36-40_24x24_8000_epocas:440_dropout0.4_tipoSerieAImagenGRAMIAN_ANGULAR_FIELD_paso:7,0.00870264,0.00086669,,,
Exprimiento4AguaSector19SinSuavizar_06-12-2017_14-36-40_24x24_8000_epocas:445_dropout0.4_tipoSerieAImagenGRAMIAN_ANGULAR_FIELD_paso:7,0.00912069,0.00117142,,,
Exprimiento4AguaSector19SinSuavizar_06-12-2017_14-36-40_24x24_8000_epocas:450_dropout0.4_tipoSerieAImagenGRAMIAN_ANGULAR_FIELD_paso:7,0.00975317,0.00089625,,,
Exprimiento4AguaSector19SinSuavizar_06-12-2017_14-36-40_24x24_8000_epocas:455_dropout0.4_tipoSerieAImagenGRAMIAN_ANGULAR_FIELD_paso:7,0.00782723,0.00196559,,,
Exprimiento4AguaSector19SinSuavizar_06-12-2017_14-36-40_24x24_8000_epocas:460_dropout0.4_tipoSerieAImagenGRAMIAN_ANGULAR_FIELD_paso:7,0.01140788,0.00086,,,
Exprimiento4AguaSector19SinSuavizar_06-12-2017_14-36-40_24x24_8000_epocas:465_dropout0.4_tipoSerieAImagenGRAMIAN_ANGULAR_FIELD_paso:7,0.00986019,0.00191739,,,
Exprimiento4AguaSector19SinSuavizar_06-12-2017_14-36-40_24x24_8000_epocas:470_dropout0.4_tipoSerieAImagenGRAMIAN_ANGULAR_FIELD_paso:7,0.01079324,0.00121015,,,
Exprimiento4AguaSector19SinSuavizar_06-12-2017_14-36-40_24x24_8000_epocas:475_dropout0.4_tipoSerieAImagenGRAMIAN_ANGULAR_FIELD_paso:7,0.0093482,0.00106836,,,
Exprimiento4AguaSector19SinSuavizar_06-12-2017_14-36-40_24x24_8000_epocas:480_dropout0.4_tipoSerieAImagenGRAMIAN_ANGULAR_FIELD_paso:7,0.00845699,0.00140837,,,
Exprimiento4AguaSector19SinSuavizar_06-12-2017_14-36-40_24x24_8000_epocas:485_dropout0.4_tipoSerieAImagenGRAMIAN_ANGULAR_FIELD_paso:7,0.00870614,0.00098034,,,
Exprimiento4AguaSector19SinSuavizar_06-12-2017_14-36-40_24x24_8000_epocas:490_dropout0.4_tipoSerieAImagenGRAMIAN_ANGULAR_FIELD_paso:7,0.00894234,0.0009427,,,
Exprimiento4AguaSector19SinSuavizar_06-12-2017_14-36-40_24x24_8000_epocas:495_dropout0.4_tipoSerieAImagenGRAMIAN_ANGULAR_FIELD_paso:7,0.00946485,0.00115229,,,
Exprimiento4AguaSector19SinSuavizar_06-12-2017_14-36-40_24x24_8000_epocas:500_dropout0.4_tipoSerieAImagenGRAMIAN_ANGULAR_FIELD_paso:7,0.01030026,0.00082491,,,
Exprimiento4AguaSector19SinSuavizar_06-12-2017_14-36-40_24x24_8000_epocas:505_dropout0.4_tipoSerieAImagenGRAMIAN_ANGULAR_FIELD_paso:7,0.00918205,0.00069449,,,
Exprimiento4AguaSector19SinSuavizar_06-12-2017_14-36-40_24x24_8000_epocas:510_dropout0.4_tipoSerieAImagenGRAMIAN_ANGULAR_FIELD_paso:7,0.00970467,0.00173917,,,
Exprimiento4AguaSector19SinSuavizar_06-12-2017_14-36-40_24x24_8000_epocas:515_dropout0.4_tipoSerieAImagenGRAMIAN_ANGULAR_FIELD_paso:7,0.00945376,0.000668,,,
Exprimiento4AguaSector19SinSuavizar_06-12-2017_14-36-40_24x24_8000_epocas:520_dropout0.4_tipoSerieAImagenGRAMIAN_ANGULAR_FIELD_paso:7,0.01065822,0.00108032,,,
Exprimiento4AguaSector19SinSuavizar_06-12-2017_14-36-40_24x24_8000_epocas:525_dropout0.4_tipoSerieAImagenGRAMIAN_ANGULAR_FIELD_paso:7,0.00993991,0.00071193,,,
Exprimiento4AguaSector19SinSuavizar_06-12-2017_14-36-40_24x24_8000_epocas:530_dropout0.4_tipoSerieAImagenGRAMIAN_ANGULAR_FIELD_paso:7,0.00953625,0.00062262,,,
Exprimiento4AguaSector19SinSuavizar_06-12-2017_14-36-40_24x24_8000_epocas:535_dropout0.4_tipoSerieAImagenGRAMIAN_ANGULAR_FIELD_paso:7,0.00899776,0.00092561,,,
Exprimiento4AguaSector19SinSuavizar_06-12-2017_14-36-40_24x24_8000_epocas:540_dropout0.4_tipoSerieAImagenGRAMIAN_ANGULAR_FIELD_paso:7,0.01024716,0.00090418,,,
Exprimiento4AguaSector19SinSuavizar_06-12-2017_14-36-40_24x24_8000_epocas:545_dropout0.4_tipoSerieAImagenGRAMIAN_ANGULAR_FIELD_paso:7,0.00811842,0.00143934,,,
Exprimiento4AguaSector19SinSuavizar_06-12-2017_14-36-40_24x24_8000_epocas:550_dropout0.4_tipoSerieAImagenGRAMIAN_ANGULAR_FIELD_paso:7,0.01036264,0.00144944,,,
Exprimiento4AguaSector19SinSuavizar_06-12-2017_14-36-40_24x24_8000_epocas:555_dropout0.4_tipoSerieAImagenGRAMIAN_ANGULAR_FIELD_paso:7,0.01089253,0.00107384,,,
Exprimiento4AguaSector19SinSuavizar_06-12-2017_14-36-40_24x24_8000_epocas:560_dropout0.4_tipoSerieAImagenGRAMIAN_ANGULAR_FIELD_paso:7,0.00921573,0.001554,,,
Exprimiento4AguaSector19SinSuavizar_06-12-2017_14-36-40_24x24_8000_epocas:565_dropout0.4_tipoSerieAImagenGRAMIAN_ANGULAR_FIELD_paso:7,0.01058323,0.00130631,,,
Exprimiento4AguaSector19SinSuavizar_06-12-2017_14-36-40_24x24_8000_epocas:570_dropout0.4_tipoSerieAImagenGRAMIAN_ANGULAR_FIELD_paso:7,0.00876426,0.00185798,,,
Exprimiento4AguaSector19SinSuavizar_06-12-2017_14-36-40_24x24_8000_epocas:575_dropout0.4_tipoSerieAImagenGRAMIAN_ANGULAR_FIELD_paso:7,0.00920487,0.00126144,,,
Exprimiento4AguaSector19SinSuavizar_06-12-2017_14-36-40_24x24_8000_epocas:580_dropout0.4_tipoSerieAImagenGRAMIAN_ANGULAR_FIELD_paso:7,0.01083122,0.00091795,,,
Exprimiento4AguaSector19SinSuavizar_06-12-2017_14-36-40_24x24_8000_epocas:585_dropout0.4_tipoSerieAImagenGRAMIAN_ANGULAR_FIELD_paso:7,0.00907385,0.00054836,,,
Exprimiento4AguaSector19SinSuavizar_06-12-2017_14-36-40_24x24_8000_epocas:590_dropout0.4_tipoSerieAImagenGRAMIAN_ANGULAR_FIELD_paso:7,0.00924475,0.00072729,,,
Exprimiento4AguaSector19SinSuavizar_06-12-2017_14-36-40_24x24_8000_epocas:595_dropout0.4_tipoSerieAImagenGRAMIAN_ANGULAR_FIELD_paso:7,0.00838713,0.00099251,,,
Exprimiento4AguaSector19SinSuavizar_06-12-2017_14-36-40_24x24_8000_epocas:200_dropout0.4_tipoSerieAImagenGRAMIAN_ANGULAR_FIELD_paso:8,0.01133759,0.00183855,,,
Exprimiento4AguaSector19SinSuavizar_06-12-2017_14-36-40_24x24_8000_epocas:205_dropout0.4_tipoSerieAImagenGRAMIAN_ANGULAR_FIELD_paso:8,0.00929,0.00214136,,,
Exprimiento4AguaSector19SinSuavizar_06-12-2017_14-36-40_24x24_8000_epocas:210_dropout0.4_tipoSerieAImagenGRAMIAN_ANGULAR_FIELD_paso:8,0.00962166,0.00163688,,,
Exprimiento4AguaSector19SinSuavizar_06-12-2017_14-36-40_24x24_8000_epocas:215_dropout0.4_tipoSerieAImagenGRAMIAN_ANGULAR_FIELD_paso:8,0.00795036,0.00193547,,,
Exprimiento4AguaSector19SinSuavizar_06-12-2017_14-36-40_24x24_8000_epocas:220_dropout0.4_tipoSerieAImagenGRAMIAN_ANGULAR_FIELD_paso:8,0.00933679,0.00261648,,,
Exprimiento4AguaSector19SinSuavizar_06-12-2017_14-36-40_24x24_8000_epocas:225_dropout0.4_tipoSerieAImagenGRAMIAN_ANGULAR_FIELD_paso:8,0.01063845,0.001347,,,
Exprimiento4AguaSector19SinSuavizar_06-12-2017_14-36-40_24x24_8000_epocas:230_dropout0.4_tipoSerieAImagenGRAMIAN_ANGULAR_FIELD_paso:8,0.01026233,0.00264447,,,
Exprimiento4AguaSector19SinSuavizar_06-12-2017_14-36-40_24x24_8000_epocas:235_dropout0.4_tipoSerieAImagenGRAMIAN_ANGULAR_FIELD_paso:8,0.0086552,0.00181888,,,
Exprimiento4AguaSector19SinSuavizar_06-12-2017_14-36-40_24x24_8000_epocas:240_dropout0.4_tipoSerieAImagenGRAMIAN_ANGULAR_FIELD_paso:8,0.00932837,0.0014004,,,
Exprimiento4AguaSector19SinSuavizar_06-12-2017_14-36-40_24x24_8000_epocas:245_dropout0.4_tipoSerieAImagenGRAMIAN_ANGULAR_FIELD_paso:8,0.00926183,0.00191336,,,
Exprimiento4AguaSector19SinSuavizar_06-12-2017_14-36-40_24x24_8000_epocas:250_dropout0.4_tipoSerieAImagenGRAMIAN_ANGULAR_FIELD_paso:8,0.00943132,0.00127332,,,
Exprimiento4AguaSector19SinSuavizar_06-12-2017_14-36-40_24x24_8000_epocas:255_dropout0.4_tipoSerieAImagenGRAMIAN_ANGULAR_FIELD_paso:8,0.01081294,0.00104855,,,
Exprimiento4AguaSector19SinSuavizar_06-12-2017_14-36-40_24x24_8000_epocas:260_dropout0.4_tipoSerieAImagenGRAMIAN_ANGULAR_FIELD_paso:8,0.00966857,0.00101611,,,
Exprimiento4AguaSector19SinSuavizar_06-12-2017_14-36-40_24x24_8000_epocas:265_dropout0.4_tipoSerieAImagenGRAMIAN_ANGULAR_FIELD_paso:8,0.00821551,0.00280116,,,
Exprimiento4AguaSector19SinSuavizar_06-12-2017_14-36-40_24x24_8000_epocas:270_dropout0.4_tipoSerieAImagenGRAMIAN_ANGULAR_FIELD_paso:8,0.00839703,0.00255544,,,
Exprimiento4AguaSector19SinSuavizar_06-12-2017_14-36-40_24x24_8000_epocas:275_dropout0.4_tipoSerieAImagenGRAMIAN_ANGULAR_FIELD_paso:8,0.00807158,0.00265755,,,
Exprimiento4AguaSector19SinSuavizar_06-12-2017_14-36-40_24x24_8000_epocas:280_dropout0.4_tipoSerieAImagenGRAMIAN_ANGULAR_FIELD_paso:8,0.0100112,0.00118867,,,
Exprimiento4AguaSector19SinSuavizar_06-12-2017_14-36-40_24x24_8000_epocas:285_dropout0.4_tipoSerieAImagenGRAMIAN_ANGULAR_FIELD_paso:8,0.01142761,0.00168562,,,
Exprimiento4AguaSector19SinSuavizar_06-12-2017_14-36-40_24x24_8000_epocas:290_dropout0.4_tipoSerieAImagenGRAMIAN_ANGULAR_FIELD_paso:8,0.00817372,0.00173446,,,
Exprimiento4AguaSector19SinSuavizar_06-12-2017_14-36-40_24x24_8000_epocas:295_dropout0.4_tipoSerieAImagenGRAMIAN_ANGULAR_FIELD_paso:8,0.00891508,0.00131535,,,
Exprimiento4AguaSector19SinSuavizar_06-12-2017_14-36-40_24x24_8000_epocas:300_dropout0.4_tipoSerieAImagenGRAMIAN_ANGULAR_FIELD_paso:8,0.00858247,0.00138693,,,
Exprimiento4AguaSector19SinSuavizar_06-12-2017_14-36-40_24x24_8000_epocas:305_dropout0.4_tipoSerieAImagenGRAMIAN_ANGULAR_FIELD_paso:8,0.00893543,0.00140953,,,
Exprimiento4AguaSector19SinSuavizar_06-12-2017_14-36-40_24x24_8000_epocas:310_dropout0.4_tipoSerieAImagenGRAMIAN_ANGULAR_FIELD_paso:8,0.00891418,0.00176835,,,
Exprimiento4AguaSector19SinSuavizar_06-12-2017_14-36-40_24x24_8000_epocas:315_dropout0.4_tipoSerieAImagenGRAMIAN_ANGULAR_FIELD_paso:8,0.0092554,0.00130032,,,
Exprimiento4AguaSector19SinSuavizar_06-12-2017_14-36-40_24x24_8000_epocas:320_dropout0.4_tipoSerieAImagenGRAMIAN_ANGULAR_FIELD_paso:8,0.00926626,0.00147955,,,
Exprimiento4AguaSector19SinSuavizar_06-12-2017_14-36-40_24x24_8000_epocas:325_dropout0.4_tipoSerieAImagenGRAMIAN_ANGULAR_FIELD_paso:8,0.01018266,0.001194,,,
Exprimiento4AguaSector19SinSuavizar_06-12-2017_14-36-40_24x24_8000_epocas:330_dropout0.4_tipoSerieAImagenGRAMIAN_ANGULAR_FIELD_paso:8,0.00977364,0.00121278,,,
Exprimiento4AguaSector19SinSuavizar_06-12-2017_14-36-40_24x24_8000_epocas:335_dropout0.4_tipoSerieAImagenGRAMIAN_ANGULAR_FIELD_paso:8,0.00955737,0.00159459,,,
Exprimiento4AguaSector19SinSuavizar_06-12-2017_14-36-40_24x24_8000_epocas:340_dropout0.4_tipoSerieAImagenGRAMIAN_ANGULAR_FIELD_paso:8,0.00913049,0.00086101,,,
Exprimiento4AguaSector19SinSuavizar_06-12-2017_14-36-40_24x24_8000_epocas:345_dropout0.4_tipoSerieAImagenGRAMIAN_ANGULAR_FIELD_paso:8,0.00868661,0.00128678,,,
Exprimiento4AguaSector19SinSuavizar_06-12-2017_14-36-40_24x24_8000_epocas:350_dropout0.4_tipoSerieAImagenGRAMIAN_ANGULAR_FIELD_paso:8,0.00975254,0.00215928,,,
Exprimiento4AguaSector19SinSuavizar_06-12-2017_14-36-40_24x24_8000_epocas:355_dropout0.4_tipoSerieAImagenGRAMIAN_ANGULAR_FIELD_paso:8,0.00976728,0.0017052,,,
Exprimiento4AguaSector19SinSuavizar_06-12-2017_14-36-40_24x24_8000_epocas:360_dropout0.4_tipoSerieAImagenGRAMIAN_ANGULAR_FIELD_paso:8,0.01068641,0.00123515,,,
Exprimiento4AguaSector19SinSuavizar_06-12-2017_14-36-40_24x24_8000_epocas:365_dropout0.4_tipoSerieAImagenGRAMIAN_ANGULAR_FIELD_paso:8,0.00944619,0.00121722,,,
Exprimiento4AguaSector19SinSuavizar_06-12-2017_14-36-40_24x24_8000_epocas:370_dropout0.4_tipoSerieAImagenGRAMIAN_ANGULAR_FIELD_paso:8,0.00979565,0.00073919,,,
Exprimiento4AguaSector19SinSuavizar_06-12-2017_14-36-40_24x24_8000_epocas:375_dropout0.4_tipoSerieAImagenGRAMIAN_ANGULAR_FIELD_paso:8,0.01083113,0.00153775,,,
Exprimiento4AguaSector19SinSuavizar_06-12-2017_14-36-40_24x24_8000_epocas:380_dropout0.4_tipoSerieAImagenGRAMIAN_ANGULAR_FIELD_paso:8,0.01036707,0.00134563,,,
Exprimiento4AguaSector19SinSuavizar_06-12-2017_14-36-40_24x24_8000_epocas:385_dropout0.4_tipoSerieAImagenGRAMIAN_ANGULAR_FIELD_paso:8,0.00978845,0.00091844,,,
Exprimiento4AguaSector19SinSuavizar_06-12-2017_14-36-40_24x24_8000_epocas:390_dropout0.4_tipoSerieAImagenGRAMIAN_ANGULAR_FIELD_paso:8,0.00961315,0.00235295,,,
Exprimiento4AguaSector19SinSuavizar_06-12-2017_14-36-40_24x24_8000_epocas:395_dropout0.4_tipoSerieAImagenGRAMIAN_ANGULAR_FIELD_paso:8,0.01033519,0.00116876,,,
Exprimiento4AguaSector19SinSuavizar_06-12-2017_14-36-40_24x24_8000_epocas:400_dropout0.4_tipoSerieAImagenGRAMIAN_ANGULAR_FIELD_paso:8,0.00888918,0.00107087,,,
Exprimiento4AguaSector19SinSuavizar_06-12-2017_14-36-40_24x24_8000_epocas:405_dropout0.4_tipoSerieAImagenGRAMIAN_ANGULAR_FIELD_paso:8,0.00982715,0.00115346,,,
Exprimiento4AguaSector19SinSuavizar_06-12-2017_14-36-40_24x24_8000_epocas:410_dropout0.4_tipoSerieAImagenGRAMIAN_ANGULAR_FIELD_paso:8,0.00891954,0.00168653,,,
Exprimiento4AguaSector19SinSuavizar_06-12-2017_14-36-40_24x24_8000_epocas:415_dropout0.4_tipoSerieAImagenGRAMIAN_ANGULAR_FIELD_paso:8,0.00998045,0.00087384,,,
Exprimiento4AguaSector19SinSuavizar_06-12-2017_14-36-40_24x24_8000_epocas:420_dropout0.4_tipoSerieAImagenGRAMIAN_ANGULAR_FIELD_paso:8,0.01005574,0.00118334,,,
