tar,out,
0.48278177,0.45683801,0.0006730787
0.54409546,0.46116662,0.0068771925
0.50932308,0.45937181,0.0024951294
0.41038134,0.4055984,2.28765150436001E-05
0.39845461,0.41394213,0.0002398633
0.48210991,0.42600334,0.0031479472
0.57282047,0.48108521,0.0084153579
0.67579369,0.5229733,0.0233540716
0.65630776,0.50904346,0.0216867741
0.43759451,0.39581969,0.0017451356
0.29380143,0.22598121,0.0045995822
0.2733076,0.23189941,0.0017146382
0.23064007,0.14655015,0.0070711146
0.13539398,0.12117361,0.0002022189
0.13270623,0.13243718,7.23879024999962E-08
0.13119438,0.13881788,5.81177522500001E-05
0.1557198,0.13359582,0.0004894705
0.33915672,0.25082716,0.0078021112
0.67596171,0.5422892,0.0178683399
0.65714763,0.54133511,0.0134125398
0.51066691,0.45992845,0.0025743913
0.50277176,0.47056377,0.0010373546
0.51285071,0.45248199,0.0036443824
0.44784148,0.42533526,0.0005065299
0.47841426,0.45314822,0.0006383728
0.57080468,0.44839716,0.014983601
0.55249456,0.45656908,0.0092016977
0.46228794,0.39842364,0.0040786488
0.44045018,0.40017015,0.0016224808
0.50243573,0.41772759,0.007175469
0.58189153,0.48614714,0.0091669882
0.68016131,0.54176944,0.0191523097
0.56744497,0.51531023,0.0027180311
0.4194524,0.38456345,0.0012172388
0.29430538,0.20958701,0.0071772022
0.27179576,0.22142196,0.0025375197
0.22257691,0.14490891,0.0060323182
0.15622375,0.1222083,0.0011570508
0.16697466,0.11349201,0.0028603939
0.14681676,0.11800809,0.0008299395
0.15605583,0.11741637,0.0014930079
0.35461118,0.23603117,0.0140612188
0.65093235,0.53028876,0.0145548758
0.62943052,0.53804946,0.0083504981
0.48748532,0.4902575,0.000007685
0.53048888,0.45586213,0.0055691518
0.48765333,0.45909232,0.0008157313
0.49538046,0.4657383,0.0008786576
0.46413571,0.45458043,9.13033758784E-05
0.5116748,0.46050176,0.00261868
0.51604231,0.45489585,0.0037388896
0.4194524,0.4265559,5.04597122499998E-05
0.38585593,0.40179047,0.0002539096
0.41138924,0.44279748,0.0009864775
0.55434233,0.48030078,0.0054821511
0.60322524,0.52966732,0.0054107676
0.60675288,0.45925575,0.0217554034
0.49487652,0.36998227,0.0155985737
0.26541246,0.21366619,0.0026776765
0.2563414,0.23629251,0.000401958
0.22660849,0.15157832,0.0056295264
0.1387536,0.1383172,1.90444960000003E-07
0.14278518,0.12259832,0.0004075093
0.12161938,0.11842084,1.02306581316E-05
0.1409374,0.12614056,0.0002189465
0.36989752,0.25245366,0.0137930603
0.68503277,0.3729254,0.0974110104
0.67864946,0.54092205,0.0189688395
0.53250467,0.50966609,0.0005216007
0.50461954,0.47763419,0.0007282091
0.480934,0.45538804,0.0006525961
0.44985727,0.46037444,0.0001106109
0.47320677,0.45396814,0.0003701249
0.56290944,0.45547253,0.0115426896
0.53317653,0.45459628,0.0061748557
0.48009412,0.40829962,0.0051544502
0.43373094,0.38411,0.0024622377
0.50747521,0.40512371,0.0104758296
0.47975809,0.47542435,1.87813023876003E-05
0.56862088,0.5544188,0.0002016991
0.55165468,0.51459247,0.0013736074
0.42549977,0.37465262,0.0025854327
0.26994798,0.21108706,0.0034646079
0.34789184,0.2122858,0.0183889981
0.2447506,0.16869557,0.0057843676
0.17974137,0.13172187,0.0023058724
0.17235007,0.12992033,0.0018002828
0.15924743,0.12599894,0.0011054621
0.14144135,0.1251494,0.0002654276
0.1705023,0.21299794,0.0018058794
0.31614314,0.31611153,0.000000001
0.52595335,0.50604397,0.0003963834
0.66151525,0.54306364,0.0140307839
0.98286578,0.58924371,0.154938334
0.86813375,0.58353209,0.0809981049
0.80127664,0.56498289,0.0558347363
0.68335291,0.50752217,0.0309164491
0.73038805,0.50564563,0.0505091553
0.68688054,0.50787103,0.0320444047
0.5943222,0.45527536,0.0193340237
0.53519232,0.475169,0.0036027989
0.53552835,0.44833389,0.0076028739
0.51066691,0.47163707,0.0015233284
0.49874018,0.49774289,9.94587344100079E-07
0.51402652,0.42037782,0.008770079
0.40634976,0.42266455,0.0002661724
0.2775072,0.3064808,0.0008394695
0.33764487,0.18186958,0.024265941
0.24559048,0.15618569,0.0079932165
0.15420796,0.13656861,0.0003111467
0.14664874,0.12941854,0.0002968798
0.11473213,0.12725602,0.0001568478
0.10784478,0.14394045,0.0013028974
0.11909964,0.19374405,0.0055717879
0.19536374,0.3026104,0.0115018461
0.37493699,0.3481667,0.0007166484
0.59650601,0.52465838,0.0051620819
0.93247103,0.65615356,0.0763513442
1,0.67500561,0.1056213535
0.90744166,0.66011083,0.0611725395
0.7616328,0.61899412,0.020345793
0.71745343,0.57862902,0.0192722168
0.59449022,0.46653527,0.0163724692
0.47690242,0.44553071,0.0009841842
0.45304887,0.42728049,0.0006640094
0.49554848,0.45077902,0.0020043045
0.56425337,0.50292706,0.0037609163
0.58306734,0.54385924,0.0015372751
0.60557707,0.50666332,0.0097839299
0.43793044,0.40003049,0.0014364062
0.29564931,0.23023888,0.0042785244
0.29581723,0.19000557,0.0111961074
0.25197379,0.14443512,0.0115645655
0.15017638,0.12469454,0.0006493242
0.17016636,0.11913103,0.0026046049
0.11574003,0.10934809,4.08568969636E-05
0.1906602,0.12747833,0.0039919487
0.34066856,0.20557594,0.018250016
0.66773053,0.55319935,0.0131173912
0.68620868,0.58705008,0.009832428
0.52813706,0.5102669,0.0003193426
0.57483626,0.50007004,0.0055899877
0.55518231,0.56446368,8.61438290769012E-05
0.53804809,0.55225503,0.0002018371
0.5699647,0.53868049,0.0009787018
0.58945074,0.53331411,0.0031513212
0.5392239,0.46129847,0.0060723726
0.43289096,0.43000591,8.3235135025E-06
0.44733753,0.40966305,0.0014193664
0.53351256,0.43291134,0.0101206055
0.57802787,0.4757885,0.0104528888
0.74029898,0.54087096,0.0397715352
0.6133042,0.49814773,0.0132610126
0.43826647,0.40868089,0.0008753065
0.27448351,0.22965977,0.0020091677
0.25701326,0.17793776,0.0062529347
0.23181588,0.16820481,0.0040463682
0.12346716,0.15562159,0.0010339074
0.12195531,0.15401754,0.0010279866
0.1175878,0.13556059,0.0003230212
0.13791372,0.15553117,0.0003103745
0.34285237,0.21092585,0.0174046067
0.70115909,0.5229305,0.0317654303
0.71039816,0.5368017,0.0301357309
0.4957165,0.50420952,7.21313887203993E-05
0.50865112,0.4585253,0.0025125978
0.46531163,0.47206229,4.55714104355995E-05
0.48160596,0.45472813,0.0007224177
0.49269281,0.45638824,0.0013180218
0.55484628,0.45539051,0.0098914502
0.51671428,0.43537855,0.006615501
0.42465989,0.42413008,2.80698636099962E-07
0.41256515,0.4316141,0.0003628625
0.49773229,0.45277867,0.002020828
0.53905599,0.46901977,0.0049050721
0.75054595,0.51896447,0.0536299819
0.69057619,0.44654021,0.0595535595
0.51621033,0.39483583,0.0147317693
0.3453721,0.23012276,0.0132824104
,,
,,0.0101045821
