tar,out
 0.54409546, 0.46604198
 0.50932308, 0.46295309
 0.41038134, 0.40984541
 0.39845461, 0.38817173
 0.48210991, 0.42184538
 0.57282047, 0.48534656
 0.67579369, 0.49489573
 0.65630776, 0.49487114
 0.43759451, 0.37077427
 0.29380143, 0.20112607
 0.2733076, 0.17551264
 0.23064007, 0.14419384
 0.13539398, 0.13284563
 0.13270623, 0.11585063
 0.13119438, 0.09980011
 0.1557198, 0.1345177
 0.33915672, 0.26316348
 0.67596171, 0.53339934
 0.65714763, 0.53921926
 0.51066691, 0.44121331
 0.50277176, 0.47782475
 0.51285071, 0.41561288
 0.44784148, 0.43779212
 0.47841426, 0.41404396
 0.57080468, 0.46609211
 0.55249456, 0.47129995
 0.46228794, 0.39692339
 0.44045018, 0.3710784
 0.50243573, 0.43071616
 0.58189153, 0.496566
 0.68016131, 0.53201628
 0.56744497, 0.50274456
 0.4194524, 0.36981091
 0.29430538, 0.21535181
 0.27179576, 0.16806591
 0.22257691, 0.14917213
 0.15622375, 0.10471372
 0.16697466, 0.09108871
 0.14681676, 0.07657479
 0.15605583, 0.08532333
 0.35461118, 0.26551345
 0.65093235, 0.41671851
 0.62943052, 0.56077397
 0.48748532, 0.50435096
 0.53048888, 0.50697362
 0.48765333, 0.49159902
 0.49538046, 0.49584013
 0.46413571, 0.45620483
 0.5116748, 0.48360527
 0.51604231, 0.44600618
 0.4194524, 0.40223327
 0.38585593, 0.38672143
 0.41138924, 0.41847926
 0.55434233, 0.47837403
 0.60322524, 0.49317595
 0.60675288, 0.49383497
 0.49487652, 0.35672015
 0.26541246, 0.23489556
 0.2563414, 0.18903932
 0.22660849, 0.17451888
 0.1387536, 0.10625969
 0.14278518, 0.11103217
 0.12161938, 0.09407084
 0.1409374, 0.11825258
 0.36989752, 0.25493741
 0.68503277, 0.51833963
 0.67864946, 0.53650463
 0.53250467, 0.50850892
 0.50461954, 0.51900184
 0.480934, 0.4877457
 0.44985727, 0.47413358
 0.47320677, 0.45605448
 0.56290944, 0.46886382
 0.53317653, 0.45532137
 0.48009412, 0.39589304
 0.43373094, 0.37745157
 0.50747521, 0.40166679
 0.47975809, 0.49913523
 0.56862088, 0.52932465
 0.55165468, 0.52299035
 0.42549977, 0.36269933
 0.26994798, 0.1763013
 0.34789184, 0.16508919
 0.2447506, 0.14399223
 0.17974137, 0.12522167
 0.17235007, 0.10019566
 0.15924743, 0.09070824
 0.14144135, 0.0976675
 0.1705023, 0.15315038
 0.31614314, 0.18752587
 0.52595335, 0.49278069
 0.66151525, 0.56351125
 0.98286578, 0.56978977
 0.86813375, 0.57718098
 0.80127664, 0.56084245
 0.68335291, 0.50383091
 0.73038805, 0.52254677
 0.68688054, 0.50258023
 0.5943222, 0.482627
 0.53519232, 0.3965053
 0.53552835, 0.41682017
 0.51066691, 0.44267654
 0.49874018, 0.48745543
 0.51402652, 0.41820633
 0.40634976, 0.38664263
 0.2775072, 0.29522729
 0.33764487, 0.23809361
 0.24559048, 0.14483136
 0.15420796, 0.09968165
 0.14664874, 0.11306952
 0.11473213, 0.09076962
 0.10784478, 0.1535885
 0.11909964, 0.18453541
 0.19536374, 0.25030395
 0.37493699, 0.405038
 0.59650601, 0.55761898
 0.93247103, 0.68525207
 1., 0.73882258
 0.90744166, 0.65422195
 0.7616328, 0.62791228
 0.71745343, 0.53024858
 0.59449022, 0.49772888
 0.47690242, 0.47651333
 0.45304887, 0.45327109
 0.49554848, 0.49497166
 0.56425337, 0.52410185
 0.58306734, 0.5903998
 0.60557707, 0.5100683
 0.43793044, 0.34739402
 0.29564931, 0.19103648
 0.29581723, 0.18144992
 0.25197379, 0.1555032
 0.15017638, 0.12234798
 0.17016636, 0.09223996
 0.11574003, 0.08017762
 0.1906602, 0.10423535
 0.34066856, 0.19962761
 0.66773053, 0.43605494
 0.68620868, 0.55694091
 0.52813706, 0.50285268
 0.57483626, 0.5319435
 0.55518231, 0.5776211
 0.53804809, 0.55768776
 0.5699647, 0.55883634
 0.58945074, 0.53519535
 0.5392239, 0.47589993
 0.43289096, 0.39640111
 0.44733753, 0.37953189
 0.53351256, 0.41923875
 0.57802787, 0.48959437
 0.74029898, 0.54989415
 0.6133042, 0.53231043
 0.43826647, 0.37463489
 0.27448351, 0.21755335
 0.25701326, 0.15101771
 0.23181588, 0.11990984
 0.12346716, 0.12365654
 0.12195531, 0.13230805
 0.1175878, 0.11561047
 0.13791372, 0.14115863
 0.34285237, 0.25753182
 0.70115909, 0.51169467
 0.71039816, 0.54112172
 0.4957165, 0.50781858
 0.50865112, 0.51534098
 0.46531163, 0.44506359
 0.48160596, 0.47346669
 0.49269281, 0.44388801
 0.55484628, 0.45106736
 0.51671428, 0.48898
 0.42465989, 0.41981637
 0.41256515, 0.39291179
 0.49773229, 0.42757052
 0.53905599, 0.51584911
 0.75054595, 0.5251987
 0.69057619, 0.48382688
 0.51621033, 0.35361981
 0.3453721, 0.2495859
