tar,out,
0.11809175,0.07669958,0.0017133117
0.14261716,0.11167768,0.0009572514
0.3537712,0.28542182,0.0046716377
0.66756262,0.57768369,0.0080782221
0.67864946,0.5773558,0.0102604056
0.51150679,0.50271374,7.73177283024994E-05
0.65261211,0.50677085,0.0212696731
0.66252314,0.47065356,0.0368139357
0.47975809,0.46795833,0.0001392343
0.48278177,0.46178842,0.0004407207
0.54409546,0.48445243,0.003557291
0.50932308,0.467253,0.0017698916
0.41038134,0.40912443,1.5798227481E-06
0.39845461,0.37313879,0.0006408907
0.48210991,0.41438043,0.0045872825
0.57282047,0.51231319,0.0036611309
0.67579369,0.53735864,0.0191642631
0.65630776,0.48770571,0.0284266513
0.43759451,0.37404731,0.0040382466
0.29380143,0.23200017,0.0038193957
0.2733076,0.21366727,0.003556969
0.23064007,0.17341751,0.0032744214
0.13539398,0.13906242,1.34574520336E-05
0.13270623,0.12264968,0.0001011342
0.13119438,0.12190604,8.62732599555999E-05
0.1557198,0.15174358,1.58103254883998E-05
0.33915672,0.30873156,0.0009256904
0.67596171,0.55980027,0.0134934801
0.65714763,0.57132137,0.0073661469
0.51066691,0.44095618,0.0048595859
0.50277176,0.47167933,0.0009667392
0.51285071,0.45440471,0.0034159349
0.44784148,0.45986462,0.0001445559
0.47841426,0.41219911,0.0043844461
0.57080468,0.47787797,0.0086353734
0.55249456,0.45810995,0.0089084546
0.46228794,0.37879348,0.0069713249
0.44045018,0.37342075,0.0044929445
0.50243573,0.39555722,0.0114230159
0.58189153,0.51724821,0.0041787588
0.68016131,0.55625039,0.0153539161
0.56744497,0.53372169,0.0011372596
0.4194524,0.36862344,0.0025835832
0.29430538,0.22556488,0.0047252563
0.27179576,0.19067743,0.0065801835
0.22257691,0.12833501,0.0088815357
0.15622375,0.11649649,0.0015782552
0.16697466,0.08292595,0.0070641857
0.14681676,0.09680848,0.0025008281
0.15605583,0.1281825,0.0007769225
0.35461118,0.28036511,0.0055124789
0.65093235,0.5732066,0.0060412922
0.62943052,0.54754835,0.0067046898
0.48748532,0.45852226,0.0008388588
0.53048888,0.46977365,0.0036863392
0.48765333,0.43200994,0.0030961869
0.49538046,0.46398991,0.0009853666
0.46413571,0.42161372,0.0018081196
0.5116748,0.50055468,0.0001236571
0.51604231,0.45398936,0.0038505686
0.4194524,0.39435726,0.0006297661
0.38585593,0.38603458,3.19158225000009E-08
0.41138924,0.43961549,0.0007967212
0.55434233,0.51776105,0.00133819
0.60322524,0.55184168,0.0026402702
0.60675288,0.51979369,0.0075619007
0.49487652,0.37741041,0.013798287
0.26541246,0.1924541,0.0053229223
0.2563414,0.19894397,0.003294465
0.22660849,0.14403221,0.006818842
0.1387536,0.12733437,0.0001303988
0.14278518,0.09497128,0.002286169
0.12161938,0.1040982,0.0003069917
0.1409374,0.12716022,0.0001898107
0.36989752,0.28086779,0.0079262928
0.68503277,0.58633888,0.0097404839
0.67864946,0.58412278,0.0089352932
0.53250467,0.47733533,0.0030436561
0.50461954,0.48814547,0.000271395
0.480934,0.45949292,0.0004597199
0.44985727,0.46112254,0.0001269063
0.47320677,0.45207876,0.0004463928
0.56290944,0.47254992,0.0081648429
0.53317653,0.46600586,0.0045118989
0.48009412,0.41723147,0.0039517128
0.43373094,0.39132929,0.0017978999
0.50747521,0.40738598,0.010017854
0.47975809,0.50022763,0.0004190021
0.56862088,0.5364309,0.0010361948
0.55165468,0.50106281,0.0025595373
0.42549977,0.36375079,0.0038129365
0.26994798,0.19146287,0.0061599125
0.34789184,0.17666891,0.0293172918
0.2447506,0.12017041,0.0155202237
0.17974137,0.12804303,0.0026727184
0.17235007,0.09410426,0.0061224068
0.15924743,0.10922644,0.0025020994
0.14144135,0.10308717,0.0014710431
0.1705023,0.15489356,0.0002436328
0.31614314,0.27294132,0.0018663973
0.52595335,0.46842498,0.0033095134
0.66151525,0.64883971,0.0001606693
0.98286578,0.7672922,0.0464719684
0.86813375,0.66307068,0.0420508627
0.80127664,0.70273423,0.0097106066
0.68335291,0.64863241,0.0012055131
0.73038805,0.59429014,0.0185226411
0.68688054,0.5624305,0.0154878125
0.5943222,0.48648721,0.0116283851
0.53519232,0.45991111,0.0056672606
0.53552835,0.46721208,0.0046671127
0.51066691,0.51675904,0.000037114
0.49874018,0.55045044,0.002673951
0.51402652,0.49961555,0.0002076761
0.40634976,0.38551426,0.0004341181
0.2775072,0.34172672,0.0041241467
0.33764487,0.3103345,0.0007458563
0.24559048,0.22004166,0.0006527422
0.15420796,0.17886302,0.000607872
0.14664874,0.11046714,0.0013091082
0.11473213,0.12412454,8.82173656081001E-05
0.10784478,0.12688388,0.0003624873
0.11909964,0.22399442,0.0110029149
0.19536374,0.22781342,0.0010529817
0.37493699,0.47768962,0.010558103
0.59650601,0.56729424,0.0008533275
0.93247103,0.81765056,0.0131837403
1,0.81917793,0.032696621
0.90744166,0.75980175,0.021797543
0.7616328,0.69635928,0.0042606324
0.71745343,0.62715924,0.0081530407
0.59449022,0.58500695,8.99324098928987E-05
0.47690242,0.48738071,0.0001097946
0.45304887,0.46745479,0.0002075305
0.49554848,0.45217273,0.0018814557
0.56425337,0.52107072,0.0018647413
0.58306734,0.58056325,6.27046672810035E-06
0.60557707,0.56563503,0.0015953666
0.43793044,0.37485605,0.0039783787
0.29564931,0.27214614,0.000552399
0.29581723,0.16907758,0.0160629389
0.25197379,0.14670013,0.0110825435
0.15017638,0.1076771,0.0018061888
0.17016636,0.09750099,0.005280256
0.11574003,0.09325491,0.0005055806
0.1906602,0.12451279,0.0043754798
0.34066856,0.20479383,0.0184619423
0.66773053,0.48902893,0.0319342618
0.68620868,0.52852255,0.0248649156
0.52813706,0.51842737,9.42780798960999E-05
0.57483626,0.63166344,0.0032293284
0.55518231,0.66592664,0.0122643066
0.53804809,0.65753841,0.0142779366
0.5699647,0.57426202,0.000018467
0.58945074,0.57209325,0.0003012825
0.5392239,0.51341188,0.0006662604
0.43289096,0.41604885,0.0002836567
0.44733753,0.40290666,0.0019741022
0.53351256,0.43035132,0.0106422414
0.57802787,0.4944813,0.0069800294
0.74029898,0.48140609,0.0670255285
0.6133042,0.48776758,0.015759443
0.43826647,0.37250137,0.0043250484
0.27448351,0.19667757,0.0060537643
0.25701326,0.17794406,0.0062519384
0.23181588,0.14535527,0.0074754371
0.12346716,0.14660659,0.0005354332
0.12195531,0.10760471,0.0002059397
0.1175878,0.14024296,0.0005132563
0.13791372,0.1562985,0.0003380001
0.34285237,0.3538506,0.0001209611
0.70115909,0.5787183,0.0149917471
0.71039816,0.54889566,0.0260830575
0.4957165,0.45981693,0.0012887791
0.50865112,0.46832883,0.0016258871
0.46531163,0.45762408,5.90984250025007E-05
0.48160596,0.47004268,0.0001337094
0.49269281,0.437437,0.0030532045
0.55484628,0.49904907,0.0031133286
0.51671428,0.46587905,0.0025842206
0.42465989,0.41637599,0.000068623
0.41256515,0.40522975,5.38080931599999E-05
0.49773229,0.45035493,0.0022446142
0.53905599,0.51944882,0.0003844411
0.75054595,0.5429458,0.0430978223
0.69057619,0.53158897,0.0252769361
0.51621033,0.37920713,0.0187698768
0.3453721,0.19335239,0.0231099922
,,
,,0.0065264104
