tar,out
 0.19578947, 0.24036057
 0.41052632, 0.41443938
 0.08421053, 0.09736675
 0.41263158, 0.45481715
 0.11789474, 0.14140841
 0.10105263, 0.1008749
 0.17894737, 0.13117282
 0.25263158, 0.34958452
 0.26105263, 0.12118156
 0.74526316, 0.4422878
 0.04421053, 0.10681358
 0.05684211, 0.12417643
 0.40631579, 0.4337005
 0.06736842, 0.15985681
 0.06736842, 0.13361834
 0.19368421, 0.23184548
 0.14315789, 0.14190967
 0.04842105, 0.08691186
 0.05473684, 0.09374306
 0.08421053, 0.17109483
 0.08, 0.11721046
 0.08210526, 0.08517712
 0.20842105, 0.13998508
 0.16421053, 0.1460405
 0.39578947, 0.35577628
 0.06105263, 0.1292221
 0.66947368, 0.52419388
 0.17263158, 0.13826251
 0.27789474, 0.26055795
 0.12631579, 0.24279739
 0.14526316, 0.16305751
 0.42105263, 0.45931023
 0.13684211, 0.2285926
 0.29473684, 0.34841675
 0.04421053, 0.19297192
 0.20421053, 0.25542477
 0.12842105, 0.11976048
 0.05473684, 0.1189335
 0.13052632, 0.11157292
 0.51578947, 0.5500893
 0.10105263, 0.11589563
 0.10105263, 0.11364776
 0.29473684, 0.25358036
 0.33263158, 0.3777971
 0.15157895, 0.23634923
 0.08842105, 0.11325717
 0.05473684, 0.11648363
 0.45052632, 0.3860153
 0.55368421, 0.4224979
 0.07157895, 0.13966632
 0.03157895, 0.10979667
 0.06736842, 0.10705909
 0.09473684, 0.24752295
 0.60421053, 0.50306898
 0.19789474, 0.21265757
 0.05684211, 0.12035173
 0.23578947, 0.20661354
 0.64421053, 0.31083867
 0.53473684, 0.18878292
 0.17263158, 0.13690245
 0.19368421, 0.19188675
 0.71789474, 0.42194083
 0.53473684, 0.35524604
 0.09052632, 0.22849342
 0.32, 0.24886264
 0.05894737, 0.0745557
 0.18736842, 0.19193013
 0.04210526, 0.13438748
 0.38526316, 0.29625255
 0.06105263, 0.08784029
 0.06947368, 0.09413682
 0.11578947, 0.19509262
 0.54736842, 0.50884533
 0.21894737, 0.26464018
 0.23578947, 0.13396639
 0.41894737, 0.26114729
 0.07368421, 0.09516852
 0.06947368, 0.14262848
 0.42105263, 0.42581332
 0.11157895, 0.23620483
 0.17473684, 0.15053377
 0.47789474, 0.39924103
 0.26526316, 0.25358036
 0.40421053, 0.34336406
 0.09473684, 0.13014068
 0.18526316, 0.15496036
 0.38315789, 0.2425977
 0.09684211, 0.08590913
 0.02315789, 0.11987975
 0.12421053, 0.19014522
 0.08631579, 0.10707864
 0.16, 0.09529778
 0.35578947, 0.23976536
 0.49894737, 0.40510076
 0.14736842, 0.13664657
 0.09052632, 0.09997545
 0.12421053, 0.11184245
 0.17052632, 0.12951604
 0.07789474, 0.13662465
 0.52210526, 0.25631976
 0.24, 0.378901
 0.08631579, 0.25358036
 0.29894737, 0.25340918
 0.56210526, 0.48325753
 0.05263158, 0.10780288
 0.12842105, 0.18493855
 0.12631579, 0.17569782
 0.07368421, 0.20804861
 0.34947368, 0.24750888
 0.08421053, 0.13497508
 0.03368421, 0.09309426
 0.39157895, 0.46409106
 0.32, 0.34805369
 0.07368421, 0.10947707
 0.11157895, 0.10319245
 0.11157895, 0.17358577
 0.16421053, 0.11123325
 0.14947368, 0.19903232
 0.14947368, 0.17991552
 0.62105263, 0.38669214
 0.05473684, 0.12517303
 0.06526316, 0.14036877
 0.27368421, 0.14668812
 0.10526316, 0.10130902
 0.07157895, 0.10248025
 0.02315789, 0.16580211
 0.11789474, 0.14651138
 0.28631579, 0.24686109
 0.03578947, 0.10459423
 0.08842105, 0.19354531
 0.16, 0.18344381
 0.19157895, 0.20959586
 0.19368421, 0.1769143
 0.11789474, 0.14006692
 0.16210526, 0.24973485
 0.38736842, 0.26067558
 0.12631579, 0.24370709
 0.62105263, 0.49428022
 0.21263158, 0.2622309
 0.12, 0.13601434
 0.02947368, 0.23880515
 0.11578947, 0.2355195
 0.06315789, 0.11957181
 0.03578947, 0.08038086
 0.13473684, 0.23487718
 0.10526316, 0.11716671
 0.11368421, 0.15659973
 0.51578947, 0.33739007
 0.05263158, 0.11194673
 0.09473684, 0.09425391
 0.13894737, 0.36220023
 0.06315789, 0.26438174
 0.11789474, 0.150951
 0.24631579, 0.38620025
 0.06947368, 0.10910857
 0.04631579, 0.09030089
 0.53473684, 0.4057281
 0.48, 0.32076284
 0.16842105, 0.25404209
 0.10526316, 0.14061914
 0.08631579, 0.11226669
 0.09894737, 0.17095703
 0.02526316, 0.13730399
 0.33684211, 0.26156661
 0.29684211, 0.26912227
 0.24631579, 0.16968575
 0.35789474, 0.34651315
 0.25052632, 0.31136599
 0.34736842, 0.34387311
 0.03578947, 0.09389317
 0.17052632, 0.23977979
 0.13684211, 0.17041492
 0.29684211, 0.19403547
 0.11368421, 0.11201644
 0.12210526, 0.13563871
 0.16421053, 0.19319957
 0.22736842, 0.25675413
 0.10105263, 0.11615486
 0.11789474, 0.18818454
 0.52631579, 0.37352484
 0.14105263, 0.16410372
 0.41263158, 0.15481707
 0.15789474, 0.25358036
 0.06736842, 0.10476589
 0.31157895, 0.19904174
 0.13473684, 0.16140868
 0.09684211, 0.10599399
 0.50526316, 0.25598824
 0.50736842, 0.34330878
 0.05894737, 0.41179079
 0.17894737, 0.16174585
 0.32421053, 0.2658768
 0.28842105, 0.39687994
 0.54105263, 0.20134586
 0.09894737, 0.10276374
 0.13052632, 0.12917382
 0.34947368, 0.31466168
 0.11157895, 0.17961434
 0.12631579, 0.11352369
 0.26526316, 0.25358036
 0.12210526, 0.17426023
 0.11157895, 0.11502182
 0.35578947, 0.28504741
 0.24631579, 0.25248191
 0.22315789, 0.29125354
 0.06315789, 0.12642272
 0.31157895, 0.28240934
 0.46315789, 0.26005131
 0.03157895, 0.10949449
 0.13894737, 0.16208571
 0.08421053, 0.0994136
 0.37684211, 0.14550525
 0.44631579, 0.31606901
 0.03789474, 0.14612822
 0.51789474, 0.43377808
 0.17684211, 0.17454089
 0.38736842, 0.52142215
 0.24421053, 0.2752611
 0.42947368, 0.33343303
 0.11157895, 0.13018107
 0.06736842, 0.14012173
 0.08210526, 0.11568522
 0.03789474, 0.10261849
 0.68421053, 0.44795433
 0.10736842, 0.21098737
 0.50526316, 0.46761823
 0.14947368, 0.179626
 0.06105263, 0.12383914
 0.06526316, 0.11196822
 0.29473684, 0.51428246
 0.29473684, 0.3937676
 0.05473684, 0.11633745
 0.55578947, 0.30097207
 0.11578947, 0.17126547
 0.06315789, 0.12034389
 0.05473684, 0.11978215
 0.01684211, 0.10767344
 0.06526316, 0.164112
 0.66315789, 0.16015391
 0.05473684, 0.1540478
 0.08421053, 0.12677212
 0.06736842, 0.12311636
 0.33473684, 0.35712305
 0.13684211, 0.15464622
 0.07578947, 0.0998749
 0.04631579, 0.10541172
 0.09684211, 0.11228326
 0.17263158, 0.24280496
 0.17263158, 0.05413485
 0.18947368, 0.20794833
 0.06105263, 0.1123057
 0.13684211, 0.10248223
 0.08, 0.13112007
 0.36, 0.22105464
 0.28, 0.12998936
 0.44842105, 0.17144243
 0.08210526, 0.11190777
 0.20842105, 0.2741136
 0.51368421, 0.36505306
 0.18315789, 0.14860611
 0.28842105, 0.349841
 0.17052632, 0.16750583
 0.15789474, 0.25265384
 0.05684211, 0.10602272
 0.60631579, 0.45246312
 0.06315789, 0.12279052
 0.22736842, 0.24839006
 0.25263158, 0.25358036
 0.28421053, 0.25501278
 0.14947368, 0.38281053
 0.67368421, 0.18565437
 0.44421053, 0.34983224
 0.06315789, 0.12257922
 0.29473684, 0.41071802
 0.32, 0.20117176
 0.28421053, 0.32751423
 0.03157895, 0.10534871
 0.03789474, 0.12748551
 0.52842105, 0.44134125
 0.14526316, 0.12514818
 0.11578947, 0.17778528
 0.17684211, 0.19196087
 0.14315789, 0.13177074
 0.13684211, 0.23919773
 0.13263158, 0.21151859
 0.09052632, 0.11193325
 0.18315789, 0.27311906
 0.08421053, 0.15200402
 0.19578947, 0.14797151
 0.09894737, 0.13848519
 0.14105263, 0.09225272
 0.17684211, 0.28025946
 0.68842105, 0.60981786
 0.47789474, 0.47481626
 0.28210526, 0.1417186
 0.56421053, 0.25358036
 0.24631579, 0.33126226
 0.12842105, 0.31144243
 0.38526316, 0.36117318
 0.41263158, 0.34658921
 0.36210526, 0.39903802
 0.04631579, 0.13144973
 0.10105263, 0.19324856
 0.16210526, 0.2108064
 0.63578947, 0.37804866
 0.36421053, 0.40389299
 0.10315789, 0.12127045
 0.09894737, 0.20867783
 0.28631579, 0.12809569
 0.58736842, 0.36004364
 0.17684211, 0.18395846
 0.11789474, 0.13695028
 0.29894737, 0.13927653
 0.03789474, 0.09536538
 0.08421053, 0.18963087
 0.08210526, 0.15243214
 0.13894737, 0.1398682
 0.33473684, 0.27698565
 0.19368421, 0.12527274
 0.07789474, 0.15012349
 0.06105263, 0.09365179
 0.15578947, 0.13107166
 0.36, 0.29113474
 0.28421053, 0.48601419
 0.05052632, 0.1409798
 0.17052632, 0.17068395
 0.65473684, 0.30457067
 0.59578947, 0.25358036
 0.15789474, 0.11489281
 0.45263158, 0.30031887
 0.04210526, 0.14628536
 0.50105263, 0.47065216
 0.20631579, 0.41708472
 0.02947368, 0.11880736
 0.34947368, 0.31840709
 0.08421053, 0.1669538
 0.16421053, 0.25469914
 0.12210526, 0.26179451
 0.36210526, 0.22309807
 0.08, 0.14782147
 0.28842105, 0.27068001
 0.42526316, 0.20543721
 0.35157895, 0.33265591
 0.06947368, 0.19463721
 0.16210526, 0.13280056
 0.60210526, 0.55199087
 0.04421053, 0.12287825
 0.51578947, 0.42966574
 0.58105263, 0.50834596
 0.25473684, 0.21884401
 0.45052632, 0.35097539
 0.16, 0.26021659
 0.03578947, 0.14834243
 0.53263158, 0.25358036
 0.05263158, 0.14769684
 0.52210526, 0.4433437
 0.26105263, 0.1772507
 0.53263158, 0.46117285
 0.22736842, 0.33946928
 0.06315789, 0.13009846
 0.22315789, 0.26923355
 0.34105263, 0.24840838
 0.42736842, 0.28888953
 0.21684211, 0.24858598
 0.14105263, 0.10726786
 0.07578947, 0.1324527
 0.52210526, 0.43676618
 0.09894737, 0.13911988
 0.08421053, 0.10957283
 0.75789474, 0.60528231
 0.45052632, 0.23933952
 0.02526316, 0.09402749
 0.21052632, 0.22099194
 0.16421053, 0.11433476
 0.60210526, 0.39428785
 0.19368421, 0.2039492
 0.18736842, 0.1810016
 0.14736842, 0.22619021
 0.30526316, 0.31778878
 0.14315789, 0.19100867
 0.06526316, 0.16403994
 0.27157895, 0.43549138
 0.36, 0.19917269
 0.08842105, 0.12079737
 0.14736842, 0.14122975
 0.08842105, 0.13065073
 0.12631579, 0.11949572
 0.52421053, 0.4339084
 0.49052632, 0.40961918
 0.36421053, 0.30996528
 0.52421053, 0.44801676
 0.08210526, 0.13368569
 0.10736842, 0.24277246
 0.39157895, 0.38500327
 0.23157895, 0.13793123
 0.05473684, 0.13251986
 0.17894737, 0.23908585
 0.15368421, 0.16283973
 0.09052632, 0.0926262
 0.36, 0.36190003
 0.40210526, 0.27061456
 0.12421053, 0.10145092
 0.29263158, 0.140793
 0.28210526, 0.25358036
 0.15789474, 0.14462084
 0.04631579, 0.09880482
 0.43157895, 0.17351583
 0.14947368, 0.12033916
 0.27789474, 0.21281478
 0.06105263, 0.11286511
 0.06105263, 0.09642398
 0.12631579, 0.25036666
 0.40210526, 0.37020558
 0.11157895, 0.11908977
 0.02526316, 0.09001082
 0.15368421, 0.1701842
 0.47578947, 0.22099599
 0.21263158, 0.1694068
 0.17263158, 0.22544186
 0.58105263, 0.31085283
 0.24, 0.26358795
 0.06315789, 0.10979447
 0.32631579, 0.25346822
 0.14105263, 0.22765398
 0.18105263, 0.2298141
 0.28842105, 0.28764808
 0.24842105, 0.35561234
 0.14315789, 0.13416138
 0.61052632, 0.34942767
 0.04421053, 0.09909335
 0.38736842, 0.21221152
 0.21894737, 0.17856912
 0.16210526, 0.09448779
 0.26526316, 0.25349981
 0.66947368, 0.42626345
 0.11368421, 0.15798706
 0.19578947, 0.23853427
 0.16421053, 0.22293103
 0.09684211, 0.07277282
 0.13263158, 0.34244323
 0.07578947, 0.08827841
 0.15368421, 0.21756171
 0.30526316, 0.25358036
 0.29052632, 0.25358036
 0.47789474, 0.51969397
 0.39368421, 0.26199898
 0.47368421, 0.45561162
 0.74315789, 0.60693336
 0.13263158, 0.15944538
 0.15157895, 0.14040636
 0.05684211, 0.12097694
 0.41473684, 0.3667028
 0.11157895, 0.10771823
 0.05263158, 0.11515693
 0.51789474, 0.38091111
 0.53473684, 0.41547194
 0.06526316, 0.07331496
 0.20421053, 0.17983764
 0.35368421, 0.35541129
 0.11789474, 0.24676387
 0.09263158, 0.16975689
 0.09263158, 0.11672427
 0.18105263, 0.24929421
 0.07789474, 0.07233214
 0.08421053, 0.1288324
 0.06736842, 0.11613381
 0.02526316, 0.09769052
 0.04842105, 0.12497032
 0.54315789, 0.25415003
 0.47368421, 0.17828888
 0.04, 0.17092329
 0.02736842, 0.09238884
 0.19789474, 0.47796568
 0.13473684, 0.22320235
 0.11578947, 0.1149666
 0.26105263, 0.29116005
 0.09052632, 0.1414092
 0.69684211, 0.5654875
 0.14736842, 0.10782138
 0.24631579, 0.25358036
 0.19578947, 0.22721696
 0.19157895, 0.30270723
 0.26947368, 0.38354373
 0.31157895, 0.25358036
 0.14105263, 0.13496874
 0.18947368, 0.18536906
 0.13473684, 0.17513736
 0.11368421, 0.23897591
 0.45052632, 0.49953008
 0.13052632, 0.18726109
 0.15368421, 0.25358036
 0.49684211, 0.36875451
 0.04421053, 0.11391377
 0.09894737, 0.1336626
 0.10736842, 0.23828351
 0.10947368, 0.10518911
 0.32, 0.23176864
 0.08421053, 0.10804904
 0.11368421, 0.16595584
 0.21684211, 0.35842788
 0.28, 0.22324532
 0.56210526, 0.4777576
 0.37894737, 0.23593579
 0.37052632, 0.29536173
 0.27368421, 0.32272011
 0.09263158, 0.11162701
 0.05052632, 0.14387301
 0.31157895, 0.25358036
 0.15157895, 0.13224763
 0.60421053, 0.3730084
 0.46526316, 0.45914039
 0.06526316, 0.19752389
 0.09473684, 0.25625193
 0.16631579, 0.10833614
 0.20421053, 0.25358036
 0.05894737, 0.18776193
 0.03578947, 0.06902429
 0.04210526, 0.09758964
 0.05684211, 0.13277502
 0.08, 0.10316508
 0.13473684, 0.12043449
 0.06947368, 0.34022638
 0.17894737, 0.11009499
 0.64842105, 0.47605225
 0.38315789, 0.25669998
 0.16, 0.2263146
 0.05684211, 0.16111979
 0.20421053, 0.12378627
 0.06526316, 0.08646302
 0.05263158, 0.15228765
 0.56421053, 0.49615586
 0.53894737, 0.46221167
 0.12, 0.25358036
 0.13052632, 0.15129921
 0.34105263, 0.37437969
 0.07157895, 0.17420444
 0.48210526, 0.35472411
 0.12842105, 0.12219313
 0.10526316, 0.13177577
 0.06315789, 0.07599515
 0.05894737, 0.10532479
 0.17473684, 0.25358036
 0.10315789, 0.12335001
 0.38736842, 0.31121343
 0.13894737, 0.31393841
 0.71368421, 0.52450192
 0.07789474, 0.12184472
 0.32, 0.25757387
 0.41263158, 0.28711987
 0.19578947, 0.07925673
 0.02105263, 0.10356876
 0.38105263, 0.25313336
 0.42105263, 0.38485289
 0.21052632, 0.10987316
 0.17263158, 0.13344847
 0.09052632, 0.13336951
 0.59789474, 0.43523985
 0.44842105, 0.44919762
 0.48421053, 0.41898283
 0.17473684, 0.24932158
 0.32631579, 0.23043311
 0.09263158, 0.12257622
 0.20631579, 0.16009827
 0.18315789, 0.20406511
 0.52210526, 0.62847984
 0.44631579, 0.36438012
 0.12210526, 0.11804059
 0.14947368, 0.12536229
 0.07368421, 0.25097555
 0.52421053, 0.44039628
 0.14947368, 0.11313401
 0.08210526, 0.09889811
 0.01263158, 0.13261068
 0.03789474, 0.12411383
 0.19578947, 0.25191906
 0.28, 0.38167471
 0.08842105, 0.09380358
 0.04, 0.1113174
 0.07368421, 0.12614396
 0.08631579, 0.1657362
 0.32842105, 0.12370075
 0.36842105, 0.24514048
 0.06526316, 0.14172176
 0.36210526, 0.33692616
 0.18526316, 0.24281092
 0.06947368, 0.24687348
 0.20421053, 0.1774514
 0.15578947, 0.13447307
 0.07368421, 0.07317567
 0.20210526, 0.1389713
 0.08421053, 0.14361909
 0.09473684, 0.10545562
 0.13473684, 0.15006943
 0.19578947, 0.12852517
 0.11157895, 0.14116758
 0.38105263, 0.27557465
 0.55578947, 0.46807203
 0.08421053, 0.13284376
 0.05894737, 0.1412861
 0.06736842, 0.17438565
 0.15157895, 0.1921811
 0.19368421, 0.2479977
 0.15789474, 0.2749255
 0.02315789, 0.17031473
 0.25684211, 0.18409219
 0.14315789, 0.1739642
 0.17684211, 0.17634858
 0.16421053, 0.31719226
 0.17052632, 0.17252648
 0.04631579, 0.15196256
 0.05894737, 0.11666808
 0.28, 0.25358036
 0.34736842, 0.33486795
 0.00631579, 0.11261287
 0.21684211, 0.23567025
 0.01684211, 0.16000293
 0.11157895, 0.13162692
 0.25263158, 0.20271906
 0.40631579, 0.25932249
 0.12, 0.15405686
 0.06526316, 0.12745604
 0.18105263, 0.17897794
 0.10736842, 0.10287404
 0.03789474, 0.10515571
 0.37052632, 0.35172534
 0.23578947, 0.37787578
 0.45473684, 0.37487042
 0.09473684, 0.12968554
 0.59368421, 0.4389323
 0.10947368, 0.10721554
 0.41684211, 0.47280207
 0.16, 0.11583725
 0.20842105, 0.23404044
 0.07157895, 0.08029296
 0.08842105, 0.08391495
 0.18315789, 0.13369264
 0.32631579, 0.23881301
 0.35368421, 0.34733266
 0.02526316, 0.09026653
 0.16, 0.15948972
 0.16210526, 0.17144346
 0.22315789, 0.15317456
 0.09684211, 0.09795329
 0.10526316, 0.19188187
 0.57052632, 0.25741538
 0.37473684, 0.41632152
 0.59368421, 0.48874462
 0.30315789, 0.23149341
 0.26105263, 0.15682858
 0.21684211, 0.1703214
 0.46105263, 0.29822198
 0.06315789, 0.12222052
 0.38526316, 0.25354496
 0.56210526, 0.41225544
 0.67578947, 0.24487464
 0.06526316, 0.1002544
 0.28842105, 0.25358036
 0.53684211, 0.4387601
 0.60631579, 0.28504652
 0.18105263, 0.18234466
 0.17684211, 0.23564036
 0.08, 0.20766899
 0.71368421, 0.42949763
 0.06315789, 0.10706231
 0.52, 0.43655875
 0.18315789, 0.24507645
 0.04, 0.11373249
 0.08210526, 0.1312571
 0.22736842, 0.19536874
 0.03368421, 0.0962805
 0.57473684, 0.36053681
 0.31368421, 0.346771
 0.24842105, 0.25165874
 0.11157895, 0.13749757
 0.19578947, 0.33545405
 0.06736842, 0.1056343
 0.08421053, 0.11307313
 0.05894737, 0.24942768
 0.23368421, 0.22117883
 0.23578947, 0.25358036
 0.46105263, 0.35536039
 0.37684211, 0.17929646
 0.15789474, 0.12787223
 0.15157895, 0.15739116
 0.15789474, 0.14582391
 0.17473684, 0.1062258
 0.06526316, 0.09990555
 0.59578947, 0.58683717
 0.20631579, 0.21689737
 0.18105263, 0.15864803
 0.12842105, 0.20197146
 0.10947368, 0.1816964
 0.05263158, 0.10374728
 0.21684211, 0.3403618
 0.36842105, 0.23015113
 0.27578947, 0.20246841
 0.10947368, 0.24864927
 0.09263158, 0.11944932
 0.09684211, 0.22133711
 0.36421053, 0.34225744
 0.04, 0.10761786
 0.29894737, 0.22581977
 0.16210526, 0.21413796
 0.32421053, 0.4609431
 0.26315789, 0.2513299
 0.13263158, 0.1508702
 0.24210526, 0.3368237
 0.38947368, 0.26260373
 0.24, 0.39084858
 0.11368421, 0.14208768
 0.04421053, 0.13534579
 0.53263158, 0.42660376
 0.11368421, 0.18567614
 0.53684211, 0.34152198
 0.63789474, 0.3581129
 0.34947368, 0.4208529
 0.51157895, 0.27479756
 0.49473684, 0.30018246
 0.12631579, 0.12010241
 0.26736842, 0.20673022
 0.06526316, 0.12898619
 0.03157895, 0.17657404
 0.37894737, 0.25280458
 0.05894737, 0.09295575
 0.49263158, 0.39914247
 0.09263158, 0.08559734
 0.06947368, 0.13414222
 0.34105263, 0.34767783
 0.16631579, 0.34355301
 0.18947368, 0.22522707
 0.22736842, 0.2551344
 0.21052632, 0.25186184
 0.50947368, 0.45545843
 0.23157895, 0.22436088
 0.05263158, 0.11921383
 0.08631579, 0.22313145
 0.12421053, 0.16589165
 0.05473684, 0.10355887
 0.18526316, 0.23512481
 0.14105263, 0.23518558
 0.13052632, 0.11050883
 0.09473684, 0.1512228
 0.20421053, 0.23332047
 0.34105263, 0.36611578
 0.66315789, 0.32324928
 0.06947368, 0.10793677
 0.09263158, 0.18113008
 0.12, 0.09306733
 0.13052632, 0.17371513
 0.66315789, 0.54032111
 0.76, 0.76356614
 0.06315789, 0.11461395
 0.13263158, 0.13306844
 0.32631579, 0.16187258
 0.62105263, 0.64261425
 0.09684211, 0.14978266
 0.10315789, 0.11917526
 0.10736842, 0.2105023
 0.04842105, 0.11559546
 0.06105263, 0.25358036
 0.10526316, 0.11838599
 0.14526316, 0.19494307
 0.14526316, 0.09393886
 0.07157895, 0.13171868
 0.35368421, 0.32220381
 0.19368421, 0.37605396
 0.15368421, 0.19381163
 0.01263158, 0.11463277
 0.26947368, 0.14710781
 0.14105263, 0.27226406
 0.12210526, 0.14054571
 0.10526316, 0.24618295
 0.17684211, 0.21697205
 0.2, 0.15533225
 0.32631579, 0.21054867
 0.2, 0.24079487
 0.05263158, 0.10960016
 0.33052632, 0.38361448
 0.26105263, 0.13397101
 0.10947368, 0.13384762
 0.28842105, 0.21473455
 0.18947368, 0.13274187
 0.35157895, 0.34382683
 0.22526316, 0.2418732
 0.11789474, 0.13552305
 0.08210526, 0.15516916
 0.37473684, 0.32968885
 0.22947368, 0.38851386
 0.04842105, 0.13224888
 0.08210526, 0.22364254
 0.11789474, 0.09168921
 0.64631579, 0.5321548
 0.09052632, 0.15513578
 0.27578947, 0.17299855
 0.39578947, 0.14798222
 0.24631579, 0.22717115
 0.35368421, 0.25164145
 0.10736842, 0.12272105
 0.18315789, 0.18760268
 0.12421053, 0.1219022
 0.04421053, 0.12179291
 0.40421053, 0.274234
 0.47789474, 0.42486995
 0.06947368, 0.18135442
 0.17052632, 0.20557852
 0.04421053, 0.11409353
 0.01684211, 0.11121294
 0.15368421, 0.17136636
 0.51789474, 0.25560215
 0.16421053, 0.23959795
 0.21473684, 0.13722648
 0.18315789, 0.33189517
 0.03789474, 0.11527959
 0.10736842, 0.12800384
 0.24, 0.23018804
 0.17473684, 0.16160595
 0.57473684, 0.4235017
 0.10947368, 0.15065154
 0.21473684, 0.20186657
 0.14736842, 0.15012577
 0.08421053, 0.08656122
 0.22526316, 0.25824082
 0.07578947, 0.12638894
 0.26736842, 0.25358036
 0.43578947, 0.35015753
 0.24210526, 0.21528473
 0.01052632, 0.16647016
 0.21473684, 0.17404012
 0.11578947, 0.10444379
 0.38947368, 0.25242886
 0.17894737, 0.15212235
 0.13473684, 0.10380171
 0.14105263, 0.14244282
 0.39368421, 0.34405267
 0.08842105, 0.15467417
 0.13052632, 0.14573319
 0.68, 0.40354207
 0.14315789, 0.24772124
 0.10315789, 0.0863947
 0.06736842, 0.15214396
 0.68210526, 0.46059132
 0.39789474, 0.26117653
 0.09052632, 0.08933048
 0.05052632, 0.07127744
 0.08, 0.11902168
 0.08, 0.09849188
 0.12210526, 0.22827664
 0.13473684, 0.11720012
 0.40631579, 0.27154005
 0.13684211, 0.20974961
 0.12210526, 0.12698144
 0.28421053, 0.25002748
 0.09684211, 0.14339684
 0.16421053, 0.25606939
 0.14315789, 0.22774437
 0.43578947, 0.36362255
 0.33052632, 0.37789905
 0.18947368, 0.25322598
 0.06315789, 0.09102257
 0.37473684, 0.25840551
 0.53052632, 0.26369366
 0.25263158, 0.19347404
 0.01894737, 0.10696918
 0.21473684, 0.14052054
 0.06736842, 0.14146061
 0.31368421, 0.23757392
 0.24631579, 0.25240013
 0.25894737, 0.22625297
 0.13263158, 0.27961558
 0.21052632, 0.25021744
 0.05684211, 0.10962988
 0.32, 0.37019891
 0.25052632, 0.21505445
 0.14315789, 0.16634564
 0.41263158, 0.2850225
 0.06105263, 0.25358036
 0.02105263, 0.17579332
 0.11368421, 0.11090991
 0.62947368, 0.25358036
 0.54736842, 0.22655854
 0.02315789, 0.22486755
 0.07789474, 0.10984735
 0.04210526, 0.09931585
 0.04210526, 0.16373762
 0.07578947, 0.16518813
 0.05684211, 0.12083203
 0.20210526, 0.13190338
 0.11157895, 0.09044373
 0.06105263, 0.09868219
 0.31157895, 0.24831484
 0.08, 0.12931821
 0.59578947, 0.4816907
 0.29052632, 0.30653301
 0.23157895, 0.31014478
 0.07157895, 0.12952437
 0.4, 0.37999076
 0.07157895, 0.07319316
 0.06736842, 0.13103303
 0.10526316, 0.17535369
 0.54105263, 0.24312074
 0.26315789, 0.34054136
 0.36631579, 0.43016961
 0.07368421, 0.1803644
 0.04631579, 0.09478287
 0.11368421, 0.24838187
 0.46947368, 0.32178718
 0.68421053, 0.24909066
 0.14315789, 0.21420678
 0.43789474, 0.33218199
 0.66105263, 0.4877297
 0.14526316, 0.12711886
 0.31789474, 0.25901771
 0.58526316, 0.47454947
 0.10105263, 0.1134989
 0.12842105, 0.13506445
 0.10947368, 0.19129169
 0.18736842, 0.22428516
 0.52842105, 0.3455025
 0.19789474, 0.3311533
 0.02736842, 0.12527865
 0.08631579, 0.1267208
 0.34315789, 0.261958
 0.44842105, 0.30090255
 0.17473684, 0.22899875
 0.03789474, 0.10503042
 0.11157895, 0.09259214
 0.18105263, 0.16236043
 0.41052632, 0.37099683
 0.04842105, 0.10545616
 0.05473684, 0.13840723
 0.15368421, 0.21232849
 0.28631579, 0.43754858
 0.14947368, 0.15736
 0.14736842, 0.25358036
 0.44, 0.34839302
 0.09894737, 0.18874981
 0.07157895, 0.11734459
 0.19157895, 0.30880734
 0.34736842, 0.24293832
 0.11368421, 0.17194924
 0.20210526, 0.25014675
 0.11789474, 0.09557229
 0.13684211, 0.13651121
 0.09473684, 0.13617703
 0.17894737, 0.25317624
 0.47789474, 0.35603529
 0.10947368, 0.14836045
 0.34736842, 0.40977496
 0.03789474, 0.118294
 0.09263158, 0.12844096
 0.12, 0.12149578
 0.25473684, 0.17034847
 0.59157895, 0.37010723
 0.08842105, 0.10754958
 0.08842105, 0.15032104
 0.05263158, 0.10651651
 0.10947368, 0.13749644
 0.45052632, 0.27283233
 0.16842105, 0.30956334
 0.03578947, 0.11683692
 0.11157895, 0.10196696
 0.05684211, 0.13490759
 0.39157895, 0.38861653
 0.12210526, 0.16356614
 0.10315789, 0.11438404
 0.05263158, 0.11998451
 0.11368421, 0.18405373
 0.14315789, 0.31035915
 0.10736842, 0.12880164
 0.36421053, 0.3440029
 0.25894737, 0.24744624
 0.63789474, 0.44873637
 0.22947368, 0.30298662
 0.10947368, 0.16306554
 0.71789474, 0.51446486
 0.15157895, 0.13845068
 0.06736842, 0.09440193
 0.24631579, 0.24198344
 0.68842105, 0.49376732
 0.08631579, 0.11177325
 0.27789474, 0.30679753
 0.04210526, 0.10847372
 0.31789474, 0.32733762
 0.12421053, 0.14582603
 0.18947368, 0.14335257
 0.13684211, 0.13886449
 0.08421053, 0.17904614
 0.07789474, 0.1351876
 0.2, 0.25358036
 0.76631579, 0.41421002
 0.58315789, 0.35733682
 0.03789474, 0.07574496
 0.17052632, 0.22134167
 0.08421053, 0.22318655
 0.54315789, 0.25358036
 0.07368421, 0.1004234
 0.12210526, 0.0763927
 0.37894737, 0.46006864
 0.03789474, 0.18637118
 0.57894737, 0.40402615
 0.33473684, 0.25119615
 0.09894737, 0.1350407
 0.33894737, 0.41119555
 0.30526316, 0.16186756
 0.28, 0.36053333
 0.37473684, 0.25358036
 0.06315789, 0.10967767
 0.69894737, 0.39274499
 0.58736842, 0.56287634
 0.12842105, 0.22587469
 0.09473684, 0.33047757
 0.09263158, 0.14079997
 0.14315789, 0.1247597
 0.09684211, 0.11736643
 0.10105263, 0.21027923
 0.19368421, 0.25358036
 0.49684211, 0.26945555
 0.17263158, 0.22605948
 0.24421053, 0.20764451
 0.49052632, 0.46517384
 0.10947368, 0.15480793
 0.07578947, 0.09446308
 0.36631579, 0.37604046
 0.35157895, 0.30071735
 0.04210526, 0.07108849
 0.32, 0.25358036
 0.45684211, 0.21126375
 0.62736842, 0.50798464
 0.46526316, 0.32420081
 0.20631579, 0.20802735
 0.38947368, 0.24863461
 0.19368421, 0.10372147
 0.11368421, 0.21613747
 0.20421053, 0.22576028
 0.07578947, 0.15702507
 0.14947368, 0.12056774
 0.16421053, 0.21706426
 0.08421053, 0.25358036
 0.06947368, 0.11261629
 0.20631579, 0.25926033
 0.06526316, 0.09872913
 0.46315789, 0.15921552
 0.08, 0.14185695
 0.03157895, 0.10778339
 0.05473684, 0.1747838
 0.54947368, 0.49137935
 0.21052632, 0.22277996
 0.10315789, 0.12836036
 0.29684211, 0.3832694
 0.20210526, 0.22710358
 0.12631579, 0.14490096
 0.49894737, 0.4024635
 0.14736842, 0.12617999
 0.41473684, 0.24773873
 0.49684211, 0.31679404
 0.06736842, 0.09500979
 0.10947368, 0.23183239
 0.58947368, 0.51646292
 0.07578947, 0.1162712
 0.13052632, 0.1555679
 0.07368421, 0.19258115
 0.12210526, 0.11127099
 0.56421053, 0.25347665
 0.10105263, 0.13964316
 0.12421053, 0.09023777
 0.55157895, 0.48113078
 0.14526316, 0.18683518
 0.74736842, 0.4028587
 0.39157895, 0.4396717
