tar,out
 0.19578947, 0.19213107
 0.41052632, 0.41623324
 0.08421053, 0.11566166
 0.41263158, 0.42955181
 0.11789474, 0.1063187
 0.10105263, 0.0979438
 0.17894737, 0.11210346
 0.25263158, 0.302463
 0.26105263, 0.11698217
 0.74526316, 0.53266251
 0.04421053, 0.14923753
 0.05684211, 0.11532829
 0.40631579, 0.46053517
 0.06736842, 0.20197621
 0.06736842, 0.13963325
 0.19368421, 0.26149708
 0.14315789, 0.20095889
 0.04842105, 0.09106637
 0.05473684, 0.12998375
 0.08421053, 0.13157035
 0.08, 0.11351516
 0.08210526, 0.09433366
 0.20842105, 0.12255708
 0.16421053, 0.09768911
 0.39578947, 0.47481453
 0.06105263, 0.10622782
 0.66947368, 0.48968938
 0.17263158, 0.15272643
 0.27789474, 0.21160698
 0.12631579, 0.14457755
 0.14526316, 0.14594838
 0.42105263, 0.37703604
 0.13684211, 0.22984354
 0.29473684, 0.2870816
 0.04421053, 0.12673947
 0.20421053, 0.16993828
 0.12842105, 0.18120603
 0.05473684, 0.13295969
 0.13052632, 0.12423282
 0.51578947, 0.47849879
 0.10105263, 0.09473637
 0.10105263, 0.1740714
 0.29473684, 0.22173028
 0.33263158, 0.41518939
 0.15157895, 0.17619483
 0.08842105, 0.11942394
 0.05473684, 0.13655205
 0.45052632, 0.35567161
 0.55368421, 0.4866668
 0.07157895, 0.14251858
 0.03157895, 0.11958567
 0.06736842, 0.10790537
 0.09473684, 0.22504251
 0.60421053, 0.51295841
 0.19789474, 0.18747056
 0.05684211, 0.15678924
 0.23578947, 0.20473863
 0.64421053, 0.17174304
 0.53473684, 0.23393635
 0.17263158, 0.11791123
 0.19368421, 0.29822117
 0.71789474, 0.44688478
 0.53473684, 0.35646346
 0.09052632, 0.20910169
 0.32, 0.3016991
 0.05894737, 0.09346304
 0.18736842, 0.19974607
 0.04210526, 0.14295033
 0.38526316, 0.27425075
 0.06105263, 0.10516892
 0.06947368, 0.12480879
 0.11578947, 0.13164297
 0.54736842, 0.50514662
 0.21894737, 0.22873063
 0.23578947, 0.1552617
 0.41894737, 0.29699218
 0.07368421, 0.09971736
 0.06947368, 0.12102713
 0.42105263, 0.38548365
 0.11157895, 0.25722414
 0.17473684, 0.11809379
 0.47789474, 0.39328331
 0.26526316, 0.23382547
 0.40421053, 0.34810498
 0.09473684, 0.14500193
 0.18526316, 0.1952426
 0.38315789, 0.17314126
 0.09684211, 0.15956712
 0.02315789, 0.1561102
 0.12421053, 0.2116216
 0.08631579, 0.11852081
 0.16, 0.13114128
 0.35578947, 0.22446649
 0.49894737, 0.43311501
 0.14736842, 0.13920933
 0.09052632, 0.11427823
 0.12421053, 0.12269928
 0.17052632, 0.09764268
 0.07789474, 0.13904288
 0.52210526, 0.22915898
 0.24, 0.31650907
 0.08631579, 0.21170442
 0.29894737, 0.30299976
 0.56210526, 0.48797032
 0.05263158, 0.11223661
 0.12842105, 0.15412167
 0.12631579, 0.15405527
 0.07368421, 0.13976711
 0.34947368, 0.17625457
 0.08421053, 0.11555655
 0.03368421, 0.08125511
 0.39157895, 0.32789496
 0.32, 0.32289064
 0.07368421, 0.11865614
 0.11157895, 0.14031926
 0.11157895, 0.11672758
 0.16421053, 0.20380642
 0.14947368, 0.19512875
 0.14947368, 0.14122228
 0.62105263, 0.49492255
 0.05473684, 0.09503388
 0.06526316, 0.10886296
 0.27368421, 0.12165572
 0.10526316, 0.12455089
 0.07157895, 0.08493632
 0.02315789, 0.13726403
 0.11789474, 0.19261889
 0.28631579, 0.30052412
 0.03578947, 0.11652681
 0.08842105, 0.1434668
 0.16, 0.16883866
 0.19157895, 0.18816131
 0.19368421, 0.13662952
 0.11789474, 0.17981103
 0.16210526, 0.2274175
 0.38736842, 0.22050957
 0.12631579, 0.17738876
 0.62105263, 0.45751512
 0.21263158, 0.27602634
 0.12, 0.12028258
 0.02947368, 0.15826137
 0.11578947, 0.15823613
 0.06315789, 0.08301961
 0.03578947, 0.0961052
 0.13473684, 0.19223478
 0.10526316, 0.12256779
 0.11368421, 0.14625178
 0.51578947, 0.34544551
 0.05263158, 0.14159992
 0.09473684, 0.1032673
 0.13894737, 0.29446393
 0.06315789, 0.1226899
 0.11789474, 0.14752568
 0.24631579, 0.39695176
 0.06947368, 0.12451027
 0.04631579, 0.10281904
 0.53473684, 0.40508127
 0.48, 0.39326665
 0.16842105, 0.23516232
 0.10526316, 0.12406315
 0.08631579, 0.12111636
 0.09894737, 0.22197051
 0.02526316, 0.1224258
 0.33684211, 0.31696928
 0.29684211, 0.33738071
 0.24631579, 0.17388903
 0.35789474, 0.3333807
 0.25052632, 0.34015933
 0.34736842, 0.38078314
 0.03578947, 0.11789782
 0.17052632, 0.12958574
 0.13684211, 0.13146006
 0.29684211, 0.20249529
 0.11368421, 0.12543383
 0.12210526, 0.11867943
 0.16421053, 0.1381477
 0.22736842, 0.17620936
 0.10105263, 0.11568186
 0.11789474, 0.1779964
 0.52631579, 0.41903356
 0.14105263, 0.12698847
 0.41263158, 0.12618968
 0.15789474, 0.21584636
 0.06736842, 0.11054279
 0.31157895, 0.22882819
 0.13473684, 0.14322668
 0.09684211, 0.09685062
 0.50526316, 0.35751879
 0.50736842, 0.40680307
 0.05894737, 0.38270324
 0.17894737, 0.22193076
 0.32421053, 0.36739856
 0.28842105, 0.36268204
 0.54105263, 0.17763181
 0.09894737, 0.10500766
 0.13052632, 0.12972662
 0.34947368, 0.23412523
 0.11157895, 0.1659075
 0.12631579, 0.10185961
 0.26526316, 0.22051327
 0.12210526, 0.18536103
 0.11157895, 0.11876883
 0.35578947, 0.315014
 0.24631579, 0.22069201
 0.22315789, 0.24757473
 0.06315789, 0.11300069
 0.31157895, 0.16259331
 0.46315789, 0.37248996
 0.03157895, 0.12751742
 0.13894737, 0.21584636
 0.08421053, 0.11583945
 0.37684211, 0.16991508
 0.44631579, 0.29833421
 0.03789474, 0.11691057
 0.51789474, 0.40639004
 0.17684211, 0.15154454
 0.38736842, 0.45716655
 0.24421053, 0.22030002
 0.42947368, 0.34587389
 0.11157895, 0.14701235
 0.06736842, 0.1203846
 0.08210526, 0.12287296
 0.03789474, 0.10437644
 0.68421053, 0.45149744
 0.10736842, 0.11522745
 0.50526316, 0.54098064
 0.14947368, 0.12584254
 0.06105263, 0.11051404
 0.06526316, 0.14189813
 0.29473684, 0.30477524
 0.29473684, 0.3732475
 0.05473684, 0.13438341
 0.55578947, 0.23574841
 0.11578947, 0.12911683
 0.06315789, 0.16702694
 0.05473684, 0.12895457
 0.01684211, 0.13356689
 0.06526316, 0.15525196
 0.66315789, 0.11986008
 0.05473684, 0.13105074
 0.08421053, 0.11695054
 0.06736842, 0.15989617
 0.33473684, 0.35880953
 0.13684211, 0.1283955
 0.07578947, 0.09469097
 0.04631579, 0.10714777
 0.09684211, 0.12515184
 0.17263158, 0.22677562
 0.17263158, 0.21389301
 0.18947368, 0.13010481
 0.06105263, 0.13389409
 0.13684211, 0.11453788
 0.08, 0.21584636
 0.36, 0.26861179
 0.28, 0.13573156
 0.44842105, 0.1792272
 0.08210526, 0.12130876
 0.20842105, 0.25371993
 0.51368421, 0.31320864
 0.18315789, 0.136462
 0.28842105, 0.38932663
 0.17052632, 0.15061355
 0.15789474, 0.21584636
 0.05684211, 0.09563057
 0.60631579, 0.47060335
 0.06315789, 0.15305695
 0.22736842, 0.17782819
 0.25263158, 0.21632254
 0.28421053, 0.2482942
 0.14947368, 0.40233129
 0.67368421, 0.13911754
 0.44421053, 0.40129724
 0.06315789, 0.1385656
 0.29473684, 0.37146589
 0.32, 0.17552924
 0.28421053, 0.29668063
 0.03157895, 0.10569714
 0.03789474, 0.13682774
 0.52842105, 0.44933772
 0.14526316, 0.09360474
 0.11578947, 0.12802744
 0.17684211, 0.17107815
 0.14315789, 0.1298603
 0.13684211, 0.22736843
 0.13263158, 0.31615952
 0.09052632, 0.11255278
 0.18315789, 0.23225078
 0.08421053, 0.16931602
 0.19578947, 0.12821242
 0.09894737, 0.15079188
 0.14105263, 0.14589323
 0.17684211, 0.29746589
 0.68842105, 0.57557923
 0.47789474, 0.43189672
 0.28210526, 0.14608487
 0.56421053, 0.21584636
 0.24631579, 0.25523603
 0.12842105, 0.36163172
 0.38526316, 0.42098698
 0.41263158, 0.39901581
 0.36210526, 0.46962067
 0.04631579, 0.11194184
 0.10105263, 0.21170691
 0.16210526, 0.16923934
 0.63578947, 0.42453176
 0.36421053, 0.41528061
 0.10315789, 0.11935946
 0.09894737, 0.26853281
 0.28631579, 0.13106887
 0.58736842, 0.33580583
 0.17684211, 0.11451402
 0.11789474, 0.12635857
 0.29894737, 0.21584636
 0.03789474, 0.10846688
 0.08421053, 0.12277848
 0.08210526, 0.15358029
 0.13894737, 0.13877565
 0.33473684, 0.25229257
 0.19368421, 0.11159794
 0.07789474, 0.14973021
 0.06105263, 0.11995265
 0.15578947, 0.10708509
 0.36, 0.37050998
 0.28421053, 0.3971321
 0.05052632, 0.13456431
 0.17052632, 0.21000372
 0.65473684, 0.33761248
 0.59578947, 0.23974431
 0.15789474, 0.15403393
 0.45263158, 0.34893945
 0.04210526, 0.12073205
 0.50105263, 0.46325999
 0.20631579, 0.48044765
 0.02947368, 0.11453401
 0.34947368, 0.3059448
 0.08421053, 0.14439636
 0.16421053, 0.20190367
 0.12210526, 0.44775003
 0.36210526, 0.23217541
 0.08, 0.13787456
 0.28842105, 0.22368319
 0.42526316, 0.22423103
 0.35157895, 0.32227123
 0.06947368, 0.14576878
 0.16210526, 0.13817972
 0.60210526, 0.57765192
 0.04421053, 0.13567445
 0.51578947, 0.41081762
 0.58105263, 0.38686612
 0.25473684, 0.12077774
 0.45052632, 0.36705986
 0.16, 0.28075847
 0.03578947, 0.11578957
 0.53263158, 0.34138149
 0.05263158, 0.14723916
 0.52210526, 0.50986409
 0.26105263, 0.14048758
 0.53263158, 0.39804927
 0.22736842, 0.29508129
 0.06315789, 0.13431418
 0.22315789, 0.29703712
 0.34105263, 0.22312964
 0.42736842, 0.28377128
 0.21684211, 0.18810907
 0.14105263, 0.11018866
 0.07578947, 0.12349989
 0.52210526, 0.47237915
 0.09894737, 0.13323164
 0.08421053, 0.10735624
 0.75789474, 0.69943047
 0.45052632, 0.21859917
 0.02526316, 0.11929343
 0.21052632, 0.14409129
 0.16421053, 0.14590092
 0.60210526, 0.31500989
 0.19368421, 0.17843379
 0.18736842, 0.21832371
 0.14736842, 0.21566868
 0.30526316, 0.33667696
 0.14315789, 0.19128335
 0.06526316, 0.1450296
 0.27157895, 0.61442852
 0.36, 0.21893558
 0.08842105, 0.10105414
 0.14736842, 0.11735412
 0.08842105, 0.13328108
 0.12631579, 0.11619712
 0.52421053, 0.48284873
 0.49052632, 0.40066546
 0.36421053, 0.22065011
 0.52421053, 0.57548213
 0.08210526, 0.1268497
 0.10736842, 0.21394205
 0.39157895, 0.41906923
 0.23157895, 0.13253108
 0.05473684, 0.12745497
 0.17894737, 0.17584877
 0.15368421, 0.1582036
 0.09052632, 0.12680751
 0.36, 0.33437786
 0.40210526, 0.3156383
 0.12421053, 0.12363613
 0.29263158, 0.19103326
 0.28210526, 0.21584636
 0.15789474, 0.19954005
 0.04631579, 0.1058591
 0.43157895, 0.16851974
 0.14947368, 0.13921291
 0.27789474, 0.1945461
 0.06105263, 0.11454728
 0.06105263, 0.10997517
 0.12631579, 0.21545346
 0.40210526, 0.30903435
 0.11157895, 0.12847883
 0.02526316, 0.0905202
 0.15368421, 0.13558899
 0.47578947, 0.24099101
 0.21263158, 0.14954057
 0.17263158, 0.2116224
 0.58105263, 0.23940735
 0.24, 0.23229882
 0.06315789, 0.09060989
 0.32631579, 0.24385318
 0.14105263, 0.20861506
 0.18105263, 0.20901418
 0.28842105, 0.26745301
 0.24842105, 0.34886074
 0.14315789, 0.14099982
 0.61052632, 0.46907118
 0.04421053, 0.12859157
 0.38736842, 0.22244383
 0.21894737, 0.22574596
 0.16210526, 0.09913206
 0.26526316, 0.23177101
 0.66947368, 0.50015694
 0.11368421, 0.13400254
 0.19578947, 0.2001126
 0.16421053, 0.1215489
 0.09684211, 0.12361799
 0.13263158, 0.34199631
 0.07578947, 0.10697447
 0.15368421, 0.23112074
 0.30526316, 0.29918829
 0.29052632, 0.25206855
 0.47789474, 0.56899977
 0.39368421, 0.21584636
 0.47368421, 0.47329351
 0.74315789, 0.59368664
 0.13263158, 0.12584031
 0.15157895, 0.12109756
 0.05684211, 0.13982943
 0.41473684, 0.42855433
 0.11157895, 0.11217335
 0.05263158, 0.13637505
 0.51789474, 0.32153851
 0.53473684, 0.29004061
 0.06526316, 0.1067283
 0.20421053, 0.19765782
 0.35368421, 0.38602656
 0.11789474, 0.15093231
 0.09263158, 0.17955738
 0.09263158, 0.11905763
 0.18105263, 0.16390765
 0.07789474, 0.11400218
 0.08421053, 0.14912814
 0.06736842, 0.12658964
 0.02526316, 0.11438778
 0.04842105, 0.12249649
 0.54315789, 0.30585501
 0.47368421, 0.18235709
 0.04, 0.18057376
 0.02736842, 0.09430058
 0.19789474, 0.34668225
 0.13473684, 0.13726997
 0.11578947, 0.12329824
 0.26105263, 0.32800609
 0.09052632, 0.15437752
 0.69684211, 0.49849266
 0.14736842, 0.12205447
 0.24631579, 0.21584636
 0.19578947, 0.15203303
 0.19157895, 0.36474305
 0.26947368, 0.27241373
 0.31157895, 0.23398709
 0.14105263, 0.16527477
 0.18947368, 0.17930695
 0.13473684, 0.12781113
 0.11368421, 0.27550554
 0.45052632, 0.51941812
 0.13052632, 0.14701378
 0.15368421, 0.21584636
 0.49684211, 0.37302864
 0.04421053, 0.12545809
 0.09894737, 0.12328842
 0.10736842, 0.15425953
 0.10947368, 0.11463049
 0.32, 0.19072554
 0.08421053, 0.11719264
 0.11368421, 0.15784644
 0.21684211, 0.34655851
 0.28, 0.16041821
 0.56210526, 0.39835948
 0.37894737, 0.32447258
 0.37052632, 0.34938008
 0.27368421, 0.21900468
 0.09263158, 0.11049382
 0.05052632, 0.1355536
 0.31157895, 0.23384534
 0.15157895, 0.21505468
 0.60421053, 0.52244323
 0.46526316, 0.4177205
 0.06526316, 0.15064408
 0.09473684, 0.2558071
 0.16631579, 0.15143529
 0.20421053, 0.21584636
 0.05894737, 0.18444693
 0.03578947, 0.08345619
 0.04210526, 0.12593421
 0.05684211, 0.11168757
 0.08, 0.09426236
 0.13473684, 0.12958482
 0.06947368, 0.20139496
 0.17894737, 0.11740451
 0.64842105, 0.52138931
 0.38315789, 0.22937649
 0.16, 0.19610843
 0.05684211, 0.10474427
 0.20421053, 0.13229395
 0.06526316, 0.09938684
 0.05263158, 0.13386147
 0.56421053, 0.42733848
 0.53894737, 0.46277714
 0.12, 0.21732183
 0.13052632, 0.12784548
 0.34105263, 0.34783852
 0.07157895, 0.12998757
 0.48210526, 0.38927966
 0.12842105, 0.11620814
 0.10526316, 0.14077508
 0.06315789, 0.09733205
 0.05894737, 0.11682588
 0.17473684, 0.21584636
 0.10315789, 0.13022181
 0.38736842, 0.30590183
 0.13894737, 0.31888869
 0.71368421, 0.55914509
 0.07789474, 0.11628722
 0.32, 0.26694959
 0.41263158, 0.26539934
 0.19578947, 0.2141266
 0.02105263, 0.11566117
 0.38105263, 0.21620663
 0.42105263, 0.32410273
 0.21052632, 0.11610252
 0.17263158, 0.1358472
 0.09052632, 0.12928393
 0.59789474, 0.50414038
 0.44842105, 0.57393456
 0.48421053, 0.34302661
 0.17473684, 0.21810003
 0.32631579, 0.28977123
 0.09263158, 0.1404193
 0.20631579, 0.19853432
 0.18315789, 0.29607901
 0.52210526, 0.52828544
 0.44631579, 0.44000664
 0.12210526, 0.13192056
 0.14947368, 0.15114647
 0.07368421, 0.19642515
 0.52421053, 0.5543794
 0.14947368, 0.11700606
 0.08210526, 0.10567684
 0.01263158, 0.1155514
 0.03789474, 0.11387846
 0.19578947, 0.19921055
 0.28, 0.28298551
 0.08842105, 0.10137831
 0.04, 0.11178806
 0.07368421, 0.11421208
 0.08631579, 0.12033424
 0.32842105, 0.14973503
 0.36842105, 0.21949042
 0.06526316, 0.18364964
 0.36210526, 0.22941744
 0.18526316, 0.27594158
 0.06947368, 0.30786106
 0.20421053, 0.10848177
 0.15578947, 0.16089672
 0.07368421, 0.08999015
 0.20210526, 0.11121493
 0.08421053, 0.14923783
 0.09473684, 0.11630817
 0.13473684, 0.13144295
 0.19578947, 0.15231414
 0.11157895, 0.16726623
 0.38105263, 0.33383271
 0.55578947, 0.4506427
 0.08421053, 0.12430198
 0.05894737, 0.12626888
 0.06736842, 0.10487386
 0.15157895, 0.13682291
 0.19368421, 0.18966112
 0.15789474, 0.22075664
 0.02315789, 0.12551767
 0.25684211, 0.16320002
 0.14315789, 0.10956721
 0.17684211, 0.21584636
 0.16421053, 0.23809691
 0.17052632, 0.15367499
 0.04631579, 0.21240109
 0.05894737, 0.12868765
 0.28, 0.21974783
 0.34736842, 0.38310871
 0.00631579, 0.11024387
 0.21684211, 0.17635533
 0.01684211, 0.11797701
 0.11157895, 0.11142527
 0.25263158, 0.22556232
 0.40631579, 0.22639038
 0.12, 0.12219167
 0.06526316, 0.14866599
 0.18105263, 0.29429376
 0.10736842, 0.10677901
 0.03789474, 0.11570221
 0.37052632, 0.40145096
 0.23578947, 0.35536531
 0.45473684, 0.28325179
 0.09473684, 0.11908577
 0.59368421, 0.41695192
 0.10947368, 0.13023099
 0.41684211, 0.41936773
 0.16, 0.13157833
 0.20842105, 0.15813652
 0.07157895, 0.08715473
 0.08842105, 0.10353317
 0.18315789, 0.14440525
 0.32631579, 0.25610366
 0.35368421, 0.36736876
 0.02526316, 0.11511886
 0.16, 0.15588757
 0.16210526, 0.15875942
 0.22315789, 0.13102421
 0.09684211, 0.13224593
 0.10526316, 0.12290356
 0.57052632, 0.26160187
 0.37473684, 0.39253032
 0.59368421, 0.41966948
 0.30315789, 0.21449794
 0.26105263, 0.13751793
 0.21684211, 0.14085868
 0.46105263, 0.26277977
 0.06315789, 0.11871837
 0.38526316, 0.42679125
 0.56210526, 0.39565763
 0.67578947, 0.31838706
 0.06526316, 0.11700636
 0.28842105, 0.311272
 0.53684211, 0.44162342
 0.60631579, 0.31096196
 0.18105263, 0.16124436
 0.17684211, 0.24534062
 0.08, 0.09827742
 0.71368421, 0.42771822
 0.06315789, 0.13951385
 0.52, 0.42614809
 0.18315789, 0.15668203
 0.04, 0.10364318
 0.08210526, 0.18203974
 0.22736842, 0.13140701
 0.03368421, 0.09370799
 0.57473684, 0.37945604
 0.31368421, 0.28917187
 0.24842105, 0.21584636
 0.11157895, 0.12489311
 0.19578947, 0.20269601
 0.06736842, 0.12792802
 0.08421053, 0.10782238
 0.05894737, 0.21584636
 0.23368421, 0.22783986
 0.23578947, 0.20367594
 0.46105263, 0.50908554
 0.37684211, 0.118948
 0.15789474, 0.20371164
 0.15157895, 0.16962086
 0.15789474, 0.13194887
 0.17473684, 0.1069807
 0.06526316, 0.12045392
 0.59578947, 0.54265428
 0.20631579, 0.22547394
 0.18105263, 0.1487405
 0.12842105, 0.14806864
 0.10947368, 0.21584636
 0.05263158, 0.10628504
 0.21684211, 0.36604321
 0.36842105, 0.34836796
 0.27578947, 0.1901812
 0.10947368, 0.23413453
 0.09263158, 0.10513653
 0.09684211, 0.12781057
 0.36421053, 0.22081058
 0.04, 0.12505841
 0.29894737, 0.21842571
 0.16210526, 0.16538058
 0.32421053, 0.43733752
 0.26315789, 0.2254502
 0.13263158, 0.12520887
 0.24210526, 0.27451652
 0.38947368, 0.30218428
 0.24, 0.32611442
 0.11368421, 0.12071055
 0.04421053, 0.12099335
 0.53263158, 0.43302101
 0.11368421, 0.12717056
 0.53684211, 0.38494503
 0.63789474, 0.32301575
 0.34947368, 0.4192853
 0.51157895, 0.22994779
 0.49473684, 0.38420174
 0.12631579, 0.11956964
 0.26736842, 0.17840357
 0.06526316, 0.14748803
 0.03157895, 0.15876645
 0.37894737, 0.26388484
 0.05894737, 0.11901325
 0.49263158, 0.443932
 0.09263158, 0.12592885
 0.06947368, 0.12944828
 0.34105263, 0.28679883
 0.16631579, 0.29315785
 0.18947368, 0.15666813
 0.22736842, 0.20877142
 0.21052632, 0.14877203
 0.50947368, 0.47035253
 0.23157895, 0.16298407
 0.05263158, 0.14232099
 0.08631579, 0.21584636
 0.12421053, 0.13519172
 0.05473684, 0.11007596
 0.18526316, 0.17041919
 0.14105263, 0.18036041
 0.13052632, 0.11345647
 0.09473684, 0.13829274
 0.20421053, 0.19750753
 0.34105263, 0.32488194
 0.66315789, 0.43705851
 0.06947368, 0.11404685
 0.09263158, 0.13393176
 0.12, 0.12717772
 0.13052632, 0.17766759
 0.66315789, 0.51133823
 0.76, 0.64471424
 0.06315789, 0.10702735
 0.13263158, 0.14591771
 0.32631579, 0.18337627
 0.62105263, 0.62440026
 0.09684211, 0.13120857
 0.10315789, 0.15802905
 0.10736842, 0.25048324
 0.04842105, 0.09005502
 0.06105263, 0.22397128
 0.10526316, 0.14692169
 0.14526316, 0.15683317
 0.14526316, 0.10077165
 0.07157895, 0.13591264
 0.35368421, 0.2634508
 0.19368421, 0.34011877
 0.15368421, 0.16924301
 0.01263158, 0.10083005
 0.26947368, 0.17788883
 0.14105263, 0.19213656
 0.12210526, 0.12747422
 0.10526316, 0.19564573
 0.17684211, 0.21429206
 0.2, 0.15069571
 0.32631579, 0.20646006
 0.2, 0.20287353
 0.05263158, 0.12448315
 0.33052632, 0.32592317
 0.26105263, 0.15039057
 0.10947368, 0.11654803
 0.28842105, 0.28689343
 0.18947368, 0.12847108
 0.35157895, 0.27229407
 0.22526316, 0.21584636
 0.11789474, 0.12258197
 0.08210526, 0.1114514
 0.37473684, 0.23762104
 0.22947368, 0.36148
 0.04842105, 0.12594606
 0.08210526, 0.14759651
 0.11789474, 0.11317864
 0.64631579, 0.48012474
 0.09052632, 0.12025511
 0.27578947, 0.17544416
 0.39578947, 0.12101988
 0.24631579, 0.18992725
 0.35368421, 0.22887488
 0.10736842, 0.09457858
 0.18315789, 0.19618583
 0.12421053, 0.11351179
 0.04421053, 0.11078306
 0.40421053, 0.42185652
 0.47789474, 0.38158867
 0.06947368, 0.12548482
 0.17052632, 0.1981682
 0.04421053, 0.10352193
 0.01684211, 0.11115603
 0.15368421, 0.13620262
 0.51789474, 0.28907737
 0.16421053, 0.16577774
 0.21473684, 0.13437355
 0.18315789, 0.2445834
 0.03789474, 0.16993664
 0.10736842, 0.21337101
 0.24, 0.12944239
 0.17473684, 0.2072776
 0.57473684, 0.46080175
 0.10947368, 0.12366433
 0.21473684, 0.13730015
 0.14736842, 0.12419134
 0.08421053, 0.1054482
 0.22526316, 0.25317696
 0.07578947, 0.12345306
 0.26736842, 0.21584636
 0.43578947, 0.34790647
 0.24210526, 0.18025643
 0.01052632, 0.11628927
 0.21473684, 0.17815219
 0.11578947, 0.13670181
 0.38947368, 0.30703217
 0.17894737, 0.12620509
 0.13473684, 0.13428199
 0.14105263, 0.16184352
 0.39368421, 0.34279048
 0.08842105, 0.14095765
 0.13052632, 0.17262052
 0.68, 0.40617055
 0.14315789, 0.26387393
 0.10315789, 0.13215348
 0.06736842, 0.11997268
 0.68210526, 0.3995789
 0.39789474, 0.21584636
 0.09052632, 0.10192783
 0.05052632, 0.11043394
 0.08, 0.09421152
 0.08, 0.11365955
 0.12210526, 0.15065755
 0.13473684, 0.1518178
 0.40631579, 0.26646829
 0.13684211, 0.15685689
 0.12210526, 0.11149721
 0.28421053, 0.18663163
 0.09684211, 0.14210241
 0.16421053, 0.18823507
 0.14315789, 0.11903763
 0.43578947, 0.28591996
 0.33052632, 0.39847612
 0.18947368, 0.22197025
 0.06315789, 0.09672318
 0.37473684, 0.22725841
 0.53052632, 0.34475839
 0.25263158, 0.18115535
 0.01894737, 0.09192191
 0.21473684, 0.12820673
 0.06736842, 0.14348322
 0.31368421, 0.22767168
 0.24631579, 0.22436546
 0.25894737, 0.22095685
 0.13263158, 0.43700379
 0.21052632, 0.22822289
 0.05684211, 0.1284157
 0.32, 0.34499606
 0.25052632, 0.15715063
 0.14315789, 0.18878908
 0.41263158, 0.25327882
 0.06105263, 0.22391358
 0.02105263, 0.21757585
 0.11368421, 0.1121762
 0.62947368, 0.23821038
 0.54736842, 0.23950313
 0.02315789, 0.20918465
 0.07789474, 0.12034735
 0.04210526, 0.10171492
 0.04210526, 0.16495827
 0.07578947, 0.13849148
 0.05684211, 0.10988645
 0.20210526, 0.12922594
 0.11157895, 0.1161603
 0.06105263, 0.11145023
 0.31157895, 0.19567169
 0.08, 0.12227876
 0.59578947, 0.43052876
 0.29052632, 0.3054263
 0.23157895, 0.21647063
 0.07157895, 0.1345782
 0.4, 0.37991494
 0.07157895, 0.1121412
 0.06736842, 0.13332544
 0.10526316, 0.18246165
 0.54105263, 0.21334058
 0.26315789, 0.34612396
 0.36631579, 0.38504636
 0.07368421, 0.14635006
 0.04631579, 0.0815855
 0.11368421, 0.18784887
 0.46947368, 0.36971706
 0.68421053, 0.29425865
 0.14315789, 0.21457981
 0.43789474, 0.35855123
 0.66105263, 0.49125531
 0.14526316, 0.1197883
 0.31789474, 0.2009978
 0.58526316, 0.43418077
 0.10105263, 0.1225674
 0.12842105, 0.1369535
 0.10947368, 0.20248885
 0.18736842, 0.21584636
 0.52842105, 0.30934697
 0.19789474, 0.28621346
 0.02736842, 0.1060421
 0.08631579, 0.17090774
 0.34315789, 0.38287404
 0.44842105, 0.2784228
 0.17473684, 0.20196687
 0.03789474, 0.10217927
 0.11157895, 0.10477097
 0.18105263, 0.17435125
 0.41052632, 0.38789588
 0.04842105, 0.14174271
 0.05473684, 0.13405336
 0.15368421, 0.19209336
 0.28631579, 0.40342194
 0.14947368, 0.18244544
 0.14736842, 0.34348777
 0.44, 0.40781289
 0.09894737, 0.14470084
 0.07157895, 0.11968692
 0.19157895, 0.29325816
 0.34736842, 0.18910146
 0.11368421, 0.13243423
 0.20210526, 0.21584636
 0.11789474, 0.11750656
 0.13684211, 0.16123874
 0.09473684, 0.12270221
 0.17894737, 0.1408031
 0.47789474, 0.4057329
 0.10947368, 0.12216855
 0.34736842, 0.33645645
 0.03789474, 0.13340126
 0.09263158, 0.11744703
 0.12, 0.11852006
 0.25473684, 0.18676572
 0.59157895, 0.37897956
 0.08842105, 0.11498542
 0.08842105, 0.09599375
 0.05263158, 0.11565565
 0.10947368, 0.12647869
 0.45052632, 0.3456797
 0.16842105, 0.22214429
 0.03578947, 0.13323082
 0.11157895, 0.11097999
 0.05684211, 0.11826669
 0.39157895, 0.35194021
 0.12210526, 0.16235103
 0.10315789, 0.13271305
 0.05263158, 0.10034622
 0.11368421, 0.12922814
 0.14315789, 0.2674675
 0.10736842, 0.11502789
 0.36421053, 0.35623652
 0.25894737, 0.16142301
 0.63789474, 0.51939017
 0.22947368, 0.33757675
 0.10947368, 0.17128858
 0.71789474, 0.51804751
 0.15157895, 0.12900846
 0.06736842, 0.11410097
 0.24631579, 0.22083621
 0.68842105, 0.4350279
 0.08631579, 0.10987718
 0.27789474, 0.36519435
 0.04210526, 0.11858317
 0.31789474, 0.38395983
 0.12421053, 0.16598278
 0.18947368, 0.22821793
 0.13684211, 0.18117949
 0.08421053, 0.14245835
 0.07789474, 0.13061735
 0.2, 0.26705068
 0.76631579, 0.29292825
 0.58315789, 0.43712932
 0.03789474, 0.11656016
 0.17052632, 0.21584636
 0.08421053, 0.23770188
 0.54315789, 0.26284635
 0.07368421, 0.12177192
 0.12210526, 0.11482134
 0.37894737, 0.34030586
 0.03789474, 0.19374034
 0.57894737, 0.44106492
 0.33473684, 0.22285718
 0.09894737, 0.13410425
 0.33894737, 0.36297035
 0.30526316, 0.1698561
 0.28, 0.31564721
 0.37473684, 0.24768552
 0.06315789, 0.12229922
 0.69894737, 0.34723628
 0.58736842, 0.4963108
 0.12842105, 0.22007534
 0.09473684, 0.30339211
 0.09263158, 0.10966921
 0.14315789, 0.09948201
 0.09684211, 0.10044256
 0.10105263, 0.14164574
 0.19368421, 0.18673703
 0.49684211, 0.3283869
 0.17263158, 0.17848004
 0.24421053, 0.20339099
 0.49052632, 0.5161134
 0.10947368, 0.20007089
 0.07578947, 0.08551952
 0.36631579, 0.45460466
 0.35157895, 0.23502646
 0.04210526, 0.09556691
 0.32, 0.44182411
 0.45684211, 0.23952234
 0.62736842, 0.40780196
 0.46526316, 0.21584636
 0.20631579, 0.1977338
 0.38947368, 0.24239217
 0.19368421, 0.12118047
 0.11368421, 0.15140639
 0.20421053, 0.19070995
 0.07578947, 0.12982029
 0.14947368, 0.16422263
 0.16421053, 0.13077831
 0.08421053, 0.21670263
 0.06947368, 0.10332987
 0.20631579, 0.32279143
 0.06526316, 0.12134788
 0.46315789, 0.17321479
 0.08, 0.1230814
 0.03157895, 0.10770581
 0.05473684, 0.10348922
 0.54947368, 0.39991444
 0.21052632, 0.22000608
 0.10315789, 0.09974962
 0.29684211, 0.46661836
 0.20210526, 0.33031717
 0.12631579, 0.11970854
 0.49894737, 0.35873932
 0.14736842, 0.17369545
 0.41473684, 0.21584636
 0.49684211, 0.15583743
 0.06736842, 0.10151248
 0.10947368, 0.14652705
 0.58947368, 0.53777647
 0.07578947, 0.11184658
 0.13052632, 0.13603736
 0.07368421, 0.13967422
 0.12210526, 0.1107272
 0.56421053, 0.30881205
 0.10105263, 0.13260023
 0.12421053, 0.13014919
 0.55157895, 0.41063011
 0.14526316, 0.13992846
 0.74736842, 0.32226604
 0.39157895, 0.45914483
