tar,out
 0.19578947, 0.24339049
 0.41052632, 0.38594341
 0.08421053, 0.08338501
 0.41263158, 0.44839603
 0.11789474, 0.08057304
 0.10105263, 0.04970352
 0.17894737, 0.13345438
 0.25263158, 0.22106917
 0.26105263, 0.07018997
 0.74526316, 0.3891812
 0.04421053, 0.14110917
 0.05684211, 0.11144577
 0.40631579, 0.41180336
 0.06736842, 0.17423092
 0.06736842, 0.11338514
 0.19368421, 0.27602398
 0.14315789, 0.14347155
 0.04842105, 0.07737462
 0.05473684, 0.10170168
 0.08421053, 0.10975785
 0.08, 0.08145718
 0.08210526, 0.09220614
 0.20842105, 0.10683197
 0.16421053, 0.13866818
 0.39578947, 0.43849
 0.06105263, 0.07951322
 0.66947368, 0.52392495
 0.17263158, 0.13599749
 0.27789474, 0.22581863
 0.12631579, 0.20564105
 0.14526316, 0.06361003
 0.42105263, 0.43031603
 0.13684211, 0.19156817
 0.29473684, 0.33317965
 0.04421053, 0.13921873
 0.20421053, 0.2049645
 0.12842105, 0.13918453
 0.05473684, 0.14695871
 0.13052632, 0.10045309
 0.51578947, 0.51318043
 0.10105263, 0.10929526
 0.10105263, 0.08019461
 0.29473684, 0.21009369
 0.33263158, 0.4971835
 0.15157895, 0.15479231
 0.08842105, 0.12882851
 0.05473684, 0.08626884
 0.45052632, 0.31634298
 0.55368421, 0.49740988
 0.07157895, 0.13038138
 0.03157895, 0.17234647
 0.06736842, 0.06320362
 0.09473684, 0.1772982
 0.60421053, 0.53931779
 0.19789474, 0.24049175
 0.05684211, 0.08660762
 0.23578947, 0.18734676
 0.64421053, 0.17786425
 0.53473684, 0.23971654
 0.17263158, 0.04033539
 0.19368421, 0.24635166
 0.71789474, 0.46137559
 0.53473684, 0.45833075
 0.09052632, 0.18459576
 0.32, 0.12004035
 0.05894737, 0.04568674
 0.18736842, 0.13776708
 0.04210526, 0.12661551
 0.38526316, 0.27252489
 0.06105263, 0.09957684
 0.06947368, 0.10724595
 0.11578947, 0.11125942
 0.54736842, 0.46669674
 0.21894737, 0.22871497
 0.23578947, 0.17779258
 0.41894737, 0.24828553
 0.07368421, 0.13564873
 0.06947368, 0.07774116
 0.42105263, 0.25462982
 0.11157895, 0.27737543
 0.17473684, 0.21551217
 0.47789474, 0.33420628
 0.26526316, 0.23010044
 0.40421053, 0.4100498
 0.09473684, 0.19096658
 0.18526316, 0.19151007
 0.38315789, 0.32605249
 0.09684211, 0.06652173
 0.02315789, 0.06837066
 0.12421053, 0.21110228
 0.08631579, 0.07840888
 0.16, 0.11831641
 0.35578947, 0.21902861
 0.49894737, 0.47651219
 0.14736842, 0.16658905
 0.09052632, 0.12426718
 0.12421053, 0.10813934
 0.17052632, 0.08982575
 0.07789474, 0.13518555
 0.52210526, 0.36375308
 0.24, 0.40654546
 0.08631579, 0.22578977
 0.29894737, 0.21468292
 0.56210526, 0.47942579
 0.05263158, 0.10826343
 0.12842105, 0.14763419
 0.12631579, 0.20328178
 0.07368421, 0.12648511
 0.34947368, 0.22153686
 0.08421053, 0.06204437
 0.03368421, 0.05310383
 0.39157895, 0.41149959
 0.32, 0.39352891
 0.07368421, 0.04405837
 0.11157895, 0.13186626
 0.11157895, 0.17481565
 0.16421053, 0.06385569
 0.14947368, 0.16310506
 0.14947368, 0.15112647
 0.62105263, 0.40563136
 0.05473684, 0.09654047
 0.06526316, 0.0559627
 0.27368421, 0.15114497
 0.10526316, 0.05992658
 0.07157895, 0.0682207
 0.02315789, 0.14203817
 0.11789474, 0.10300025
 0.28631579, 0.35719556
 0.03578947, 0.0768445
 0.08842105, 0.13288537
 0.16, 0.18230623
 0.19157895, 0.20759198
 0.19368421, 0.13000584
 0.11789474, 0.13307489
 0.16210526, 0.24448788
 0.38736842, 0.26083544
 0.12631579, 0.22611779
 0.62105263, 0.48024756
 0.21263158, 0.23850037
 0.12, 0.14245877
 0.02947368, 0.13307121
 0.11578947, 0.15336335
 0.06315789, 0.11920273
 0.03578947, 0.07044014
 0.13473684, 0.1412565
 0.10526316, 0.09387768
 0.11368421, 0.16751076
 0.51578947, 0.27218914
 0.05263158, 0.07429485
 0.09473684, 0.04251748
 0.13894737, 0.39492598
 0.06315789, 0.10280283
 0.11789474, 0.17091718
 0.24631579, 0.42022324
 0.06947368, 0.09396914
 0.04631579, 0.06096952
 0.53473684, 0.41919085
 0.48, 0.35760814
 0.16842105, 0.19854203
 0.10526316, 0.09989592
 0.08631579, 0.13555121
 0.09894737, 0.24625762
 0.02526316, 0.04838182
 0.33684211, 0.24948294
 0.29684211, 0.25145775
 0.24631579, 0.16655475
 0.35789474, 0.22729248
 0.25052632, 0.27481812
 0.34736842, 0.30186564
 0.03578947, 0.15119354
 0.17052632, 0.09843956
 0.13684211, 0.09416346
 0.29684211, 0.08555938
 0.11368421, 0.09851246
 0.12210526, 0.10057729
 0.16421053, 0.16167033
 0.22736842, 0.21556818
 0.10105263, 0.09652402
 0.11789474, 0.14346126
 0.52631579, 0.39720657
 0.14105263, 0.14185813
 0.41263158, 0.11655847
 0.15789474, 0.29017079
 0.06736842, 0.08020757
 0.31157895, 0.25835502
 0.13473684, 0.09764094
 0.09684211, 0.05616854
 0.50526316, 0.4302932
 0.50736842, 0.35807359
 0.05894737, 0.37057006
 0.17894737, 0.20306797
 0.32421053, 0.34736466
 0.28842105, 0.35703439
 0.54105263, 0.15722492
 0.09894737, 0.10244899
 0.13052632, 0.09235883
 0.34947368, 0.29451385
 0.11157895, 0.16844521
 0.12631579, 0.0638645
 0.26526316, 0.2334964
 0.12210526, 0.20784736
 0.11157895, 0.08914858
 0.35578947, 0.26751351
 0.24631579, 0.20704481
 0.22315789, 0.28406197
 0.06315789, 0.06841795
 0.31157895, 0.25548941
 0.46315789, 0.28961816
 0.03157895, 0.08460428
 0.13894737, 0.08065821
 0.08421053, 0.08660026
 0.37684211, 0.25319818
 0.44631579, 0.38961759
 0.03789474, 0.08793829
 0.51789474, 0.41673326
 0.17684211, 0.09536555
 0.38736842, 0.43205965
 0.24421053, 0.24414404
 0.42947368, 0.30998832
 0.11157895, 0.09656487
 0.06736842, 0.1118808
 0.08210526, 0.07966359
 0.03789474, 0.06300525
 0.68421053, 0.51024652
 0.10736842, 0.16202962
 0.50526316, 0.43669069
 0.14947368, 0.11970802
 0.06105263, 0.04293011
 0.06526316, 0.20414199
 0.29473684, 0.30906522
 0.29473684, 0.39935178
 0.05473684, 0.10189191
 0.55578947, 0.27114016
 0.11578947, 0.13715731
 0.06315789, 0.13434313
 0.05473684, 0.06618783
 0.01684211, 0.09645948
 0.06526316, 0.08303653
 0.66315789, 0.09884903
 0.05473684, 0.14377075
 0.08421053, 0.09963673
 0.06736842, 0.15056852
 0.33473684, 0.43864483
 0.13684211, 0.08024581
 0.07578947, 0.07445647
 0.04631579, 0.06254677
 0.09684211, 0.12307537
 0.17263158, 0.20937768
 0.17263158, 0.08347698
 0.18947368, 0.11806841
 0.06105263, 0.08072324
 0.13684211, 0.09630776
 0.08, 0.15422112
 0.36, 0.19461684
 0.28, 0.08008099
 0.44842105, 0.13345198
 0.08210526, 0.12686776
 0.20842105, 0.18492526
 0.51368421, 0.39747229
 0.18315789, 0.15499163
 0.28842105, 0.35824996
 0.17052632, 0.09033121
 0.15789474, 0.24988346
 0.05684211, 0.06710017
 0.60631579, 0.56349605
 0.06315789, 0.09859598
 0.22736842, 0.18941465
 0.25263158, 0.20908017
 0.28421053, 0.28906417
 0.14947368, 0.45309693
 0.67368421, 0.2475014
 0.44421053, 0.41872722
 0.06315789, 0.15332538
 0.29473684, 0.46650922
 0.32, 0.21110426
 0.28421053, 0.24003701
 0.03157895, 0.08366418
 0.03789474, 0.0845973
 0.52842105, 0.5110715
 0.14526316, 0.06130485
 0.11578947, 0.15273803
 0.17684211, 0.16818315
 0.14315789, 0.16789183
 0.13684211, 0.18090436
 0.13263158, 0.20346218
 0.09052632, 0.07091554
 0.18315789, 0.26049912
 0.08421053, 0.10197105
 0.19578947, 0.14901677
 0.09894737, 0.08295755
 0.14105263, 0.12810004
 0.17684211, 0.31471175
 0.68842105, 0.49263954
 0.47789474, 0.46040723
 0.28210526, 0.17203116
 0.56421053, 0.20838253
 0.24631579, 0.23357153
 0.12842105, 0.39434052
 0.38526316, 0.44529837
 0.41263158, 0.38072845
 0.36210526, 0.47901505
 0.04631579, 0.07072465
 0.10105263, 0.1937882
 0.16210526, 0.21276392
 0.63578947, 0.35393199
 0.36421053, 0.45433122
 0.10315789, 0.11976549
 0.09894737, 0.12538677
 0.28631579, 0.14524522
 0.58736842, 0.60091239
 0.17684211, 0.0669339
 0.11789474, 0.11024038
 0.29894737, 0.15939598
 0.03789474, 0.07018015
 0.08421053, 0.26684791
 0.08210526, 0.16775334
 0.13894737, 0.11567982
 0.33473684, 0.27496648
 0.19368421, 0.12110861
 0.07789474, 0.10783802
 0.06105263, 0.06860833
 0.15578947, 0.08567961
 0.36, 0.22534232
 0.28421053, 0.41813153
 0.05052632, 0.11695574
 0.17052632, 0.18108997
 0.65473684, 0.49048609
 0.59578947, 0.27860096
 0.15789474, 0.06757076
 0.45263158, 0.33976007
 0.04210526, 0.13568954
 0.50105263, 0.51825446
 0.20631579, 0.23541701
 0.02947368, 0.10492221
 0.34947368, 0.27796289
 0.08421053, 0.09143832
 0.16421053, 0.23595077
 0.12210526, 0.39312524
 0.36210526, 0.25349969
 0.08, 0.08568926
 0.28842105, 0.20424959
 0.42526316, 0.17844483
 0.35157895, 0.34936965
 0.06947368, 0.04470299
 0.16210526, 0.10448623
 0.60210526, 0.53074789
 0.04421053, 0.07285616
 0.51578947, 0.45254344
 0.58105263, 0.45413247
 0.25473684, 0.20251979
 0.45052632, 0.30846882
 0.16, 0.29630417
 0.03578947, 0.07744713
 0.53263158, 0.31654704
 0.05263158, 0.14051661
 0.52210526, 0.54008168
 0.26105263, 0.21519665
 0.53263158, 0.41276401
 0.22736842, 0.32575366
 0.06315789, 0.1039694
 0.22315789, 0.25464711
 0.34105263, 0.18885785
 0.42736842, 0.36200732
 0.21684211, 0.21845543
 0.14105263, 0.13206607
 0.07578947, 0.09915318
 0.52210526, 0.50198019
 0.09894737, 0.14191523
 0.08421053, 0.05859408
 0.75789474, 0.67295808
 0.45052632, 0.19544618
 0.02526316, 0.08155853
 0.21052632, 0.24417335
 0.16421053, 0.18559167
 0.60210526, 0.37329048
 0.19368421, 0.10707895
 0.18736842, 0.14418553
 0.14736842, 0.18560024
 0.30526316, 0.26485562
 0.14315789, 0.20017853
 0.06526316, 0.18543269
 0.27157895, 0.52068245
 0.36, 0.16277258
 0.08842105, 0.09566341
 0.14736842, 0.13337684
 0.08842105, 0.10272664
 0.12631579, 0.06110975
 0.52421053, 0.41451502
 0.49052632, 0.29071575
 0.36421053, 0.25394723
 0.52421053, 0.55380088
 0.08210526, 0.1812937
 0.10736842, 0.19278929
 0.39157895, 0.45788687
 0.23157895, 0.13082565
 0.05473684, 0.09866354
 0.17894737, 0.22834821
 0.15368421, 0.20479222
 0.09052632, 0.04534222
 0.36, 0.31372786
 0.40210526, 0.35134786
 0.12421053, 0.08764254
 0.29263158, 0.18712118
 0.28210526, 0.21857966
 0.15789474, 0.15976641
 0.04631579, 0.06443994
 0.43157895, 0.13431622
 0.14947368, 0.14392129
 0.27789474, 0.1693058
 0.06105263, 0.07479841
 0.06105263, 0.10758267
 0.12631579, 0.20640679
 0.40210526, 0.29135266
 0.11157895, 0.0935028
 0.02526316, 0.06817192
 0.15368421, 0.16743349
 0.47578947, 0.21984418
 0.21263158, 0.13492234
 0.17263158, 0.1526439
 0.58105263, 0.27111703
 0.24, 0.19676995
 0.06315789, 0.04455979
 0.32631579, 0.26548246
 0.14105263, 0.27387503
 0.18105263, 0.21397202
 0.28842105, 0.29568034
 0.24842105, 0.3913216
 0.14315789, 0.09460035
 0.61052632, 0.28971866
 0.04421053, 0.06969498
 0.38736842, 0.22638573
 0.21894737, 0.25617981
 0.16210526, 0.09689723
 0.26526316, 0.20010142
 0.66947368, 0.47543067
 0.11368421, 0.14458859
 0.19578947, 0.10827313
 0.16421053, 0.13253805
 0.09684211, 0.04480602
 0.13263158, 0.4269163
 0.07578947, 0.09225842
 0.15368421, 0.2419125
 0.30526316, 0.23398243
 0.29052632, 0.3190363
 0.47789474, 0.4748376
 0.39368421, 0.21331514
 0.47368421, 0.48571879
 0.74315789, 0.68194675
 0.13263158, 0.20194702
 0.15157895, 0.07895647
 0.05684211, 0.07043494
 0.41473684, 0.44988906
 0.11157895, 0.07072541
 0.05263158, 0.07168566
 0.51789474, 0.40348977
 0.53473684, 0.33006194
 0.06526316, 0.06641378
 0.20421053, 0.10349001
 0.35368421, 0.32602268
 0.11789474, 0.1747849
 0.09263158, 0.13288929
 0.09263158, 0.06858946
 0.18105263, 0.18137372
 0.07789474, 0.12911279
 0.08421053, 0.16236353
 0.06736842, 0.10968794
 0.02526316, 0.0653867
 0.04842105, 0.14359064
 0.54315789, 0.40631562
 0.47368421, 0.14510289
 0.04, 0.20634028
 0.02736842, 0.09373599
 0.19789474, 0.36270189
 0.13473684, 0.15400207
 0.11578947, 0.10494567
 0.26105263, 0.33091694
 0.09052632, 0.15332738
 0.69684211, 0.5596565
 0.14736842, 0.13230765
 0.24631579, 0.24466386
 0.19578947, 0.15417878
 0.19157895, 0.41487277
 0.26947368, 0.31275767
 0.31157895, 0.25453547
 0.14105263, 0.13193841
 0.18947368, 0.1882512
 0.13473684, 0.1653982
 0.11368421, 0.25807005
 0.45052632, 0.60800838
 0.13052632, 0.1602024
 0.15368421, 0.20767689
 0.49684211, 0.37005836
 0.04421053, 0.09296289
 0.09894737, 0.12653872
 0.10736842, 0.17739773
 0.10947368, 0.08769737
 0.32, 0.15375406
 0.08421053, 0.07526381
 0.11368421, 0.25820452
 0.21684211, 0.2982882
 0.28, 0.16082494
 0.56210526, 0.53166473
 0.37894737, 0.2857759
 0.37052632, 0.35501269
 0.27368421, 0.29289895
 0.09263158, 0.08917428
 0.05052632, 0.12610972
 0.31157895, 0.35645646
 0.15157895, 0.13653356
 0.60421053, 0.4776606
 0.46526316, 0.55824757
 0.06526316, 0.15330432
 0.09473684, 0.25308481
 0.16631579, 0.09921148
 0.20421053, 0.22266358
 0.05894737, 0.1399924
 0.03578947, 0.07518092
 0.04210526, 0.1486164
 0.05684211, 0.10414085
 0.08, 0.05810931
 0.13473684, 0.13214339
 0.06947368, 0.3288604
 0.17894737, 0.11589197
 0.64842105, 0.50998545
 0.38315789, 0.25609785
 0.16, 0.16543321
 0.05684211, 0.16269211
 0.20421053, 0.08502264
 0.06526316, 0.03643681
 0.05263158, 0.12856579
 0.56421053, 0.52750003
 0.53894737, 0.47894508
 0.12, 0.21331514
 0.13052632, 0.14256626
 0.34105263, 0.30915949
 0.07157895, 0.19166656
 0.48210526, 0.36246425
 0.12842105, 0.09981957
 0.10526316, 0.09087452
 0.06315789, 0.04155965
 0.05894737, 0.09840788
 0.17473684, 0.28635782
 0.10315789, 0.08224504
 0.38736842, 0.30477929
 0.13894737, 0.27877259
 0.71368421, 0.67192441
 0.07789474, 0.10696691
 0.32, 0.29840136
 0.41263158, 0.2257133
 0.19578947, 0.22820242
 0.02105263, 0.10490857
 0.38105263, 0.21004719
 0.42105263, 0.38943845
 0.21052632, 0.14859284
 0.17263158, 0.185276
 0.09052632, 0.15618633
 0.59789474, 0.48778743
 0.44842105, 0.47006649
 0.48421053, 0.40842497
 0.17473684, 0.21097633
 0.32631579, 0.22704296
 0.09263158, 0.06724797
 0.20631579, 0.17658143
 0.18315789, 0.12372089
 0.52210526, 0.51992446
 0.44631579, 0.36760011
 0.12210526, 0.10465087
 0.14947368, 0.12602925
 0.07368421, 0.27413911
 0.52421053, 0.48986626
 0.14947368, 0.11661425
 0.08210526, 0.06359075
 0.01263158, 0.04873978
 0.03789474, 0.07837819
 0.19578947, 0.20780839
 0.28, 0.35010535
 0.08842105, 0.04236723
 0.04, 0.11057681
 0.07368421, 0.16294867
 0.08631579, 0.08951482
 0.32842105, 0.2212472
 0.36842105, 0.23419529
 0.06526316, 0.10345116
 0.36210526, 0.38820851
 0.18526316, 0.23165905
 0.06947368, 0.23669386
 0.20421053, 0.15915003
 0.15578947, 0.14181457
 0.07368421, 0.04301815
 0.20210526, 0.12238272
 0.08421053, 0.12478657
 0.09473684, 0.14904946
 0.13473684, 0.11794531
 0.19578947, 0.15006943
 0.11157895, 0.0784847
 0.38105263, 0.39372182
 0.55578947, 0.56789279
 0.08421053, 0.12303367
 0.05894737, 0.0798468
 0.06736842, 0.07764737
 0.15157895, 0.15065634
 0.19368421, 0.20836668
 0.15789474, 0.15682226
 0.02315789, 0.12787862
 0.25684211, 0.21321197
 0.14315789, 0.09792711
 0.17684211, 0.1286566
 0.16421053, 0.24277171
 0.17052632, 0.14884612
 0.04631579, 0.11321189
 0.05894737, 0.11421313
 0.28, 0.2189068
 0.34736842, 0.4642036
 0.00631579, 0.0584383
 0.21684211, 0.20662561
 0.01684211, 0.12326278
 0.11157895, 0.07676084
 0.25263158, 0.30049026
 0.40631579, 0.25357783
 0.12, 0.11082487
 0.06526316, 0.14099014
 0.18105263, 0.2739785
 0.10736842, 0.05637786
 0.03789474, 0.06955822
 0.37052632, 0.22475368
 0.23578947, 0.26753795
 0.45473684, 0.25796774
 0.09473684, 0.1356644
 0.59368421, 0.48190355
 0.10947368, 0.19267942
 0.41684211, 0.29119885
 0.16, 0.10883792
 0.20842105, 0.15757047
 0.07157895, 0.04476595
 0.08842105, 0.07417758
 0.18315789, 0.09007929
 0.32631579, 0.18792176
 0.35368421, 0.37053043
 0.02526316, 0.14377254
 0.16, 0.14684194
 0.16210526, 0.07010204
 0.22315789, 0.18331081
 0.09684211, 0.11413296
 0.10526316, 0.10209614
 0.57052632, 0.30358341
 0.37473684, 0.40639997
 0.59368421, 0.45669389
 0.30315789, 0.17484148
 0.26105263, 0.16323413
 0.21684211, 0.09798892
 0.46105263, 0.39587414
 0.06315789, 0.07178603
 0.38526316, 0.27326038
 0.56210526, 0.47032994
 0.67578947, 0.25255609
 0.06526316, 0.14336282
 0.28842105, 0.31697881
 0.53684211, 0.48547101
 0.60631579, 0.266063
 0.18105263, 0.22916888
 0.17684211, 0.13723925
 0.08, 0.06977607
 0.71368421, 0.49142832
 0.06315789, 0.0749177
 0.52, 0.40228897
 0.18315789, 0.18983029
 0.04, 0.1448748
 0.08210526, 0.10835612
 0.22736842, 0.14795125
 0.03368421, 0.10218129
 0.57473684, 0.44164824
 0.31368421, 0.21315965
 0.24842105, 0.25141165
 0.11157895, 0.11090356
 0.19578947, 0.30554956
 0.06736842, 0.05373578
 0.08421053, 0.06469961
 0.05894737, 0.19884038
 0.23368421, 0.26497149
 0.23578947, 0.19776163
 0.46105263, 0.46219206
 0.37684211, 0.20363067
 0.15789474, 0.10478241
 0.15157895, 0.14954084
 0.15789474, 0.15955037
 0.17473684, 0.20549212
 0.06526316, 0.17368062
 0.59578947, 0.66472208
 0.20631579, 0.1392642
 0.18105263, 0.18872155
 0.12842105, 0.25269258
 0.10947368, 0.15469444
 0.05263158, 0.09878093
 0.21684211, 0.24719322
 0.36842105, 0.22021635
 0.27578947, 0.22668211
 0.10947368, 0.16318527
 0.09263158, 0.07365359
 0.09684211, 0.22776644
 0.36421053, 0.26325193
 0.04, 0.08443959
 0.29894737, 0.16441341
 0.16210526, 0.23474304
 0.32421053, 0.44973892
 0.26315789, 0.2598035
 0.13263158, 0.10766739
 0.24210526, 0.32398561
 0.38947368, 0.24814278
 0.24, 0.31925189
 0.11368421, 0.08288495
 0.04421053, 0.10630424
 0.53263158, 0.43969083
 0.11368421, 0.16032454
 0.53684211, 0.45204014
 0.63789474, 0.34392583
 0.34947368, 0.47028148
 0.51157895, 0.2625671
 0.49473684, 0.38945317
 0.12631579, 0.1021803
 0.26736842, 0.19994155
 0.06526316, 0.09959687
 0.03157895, 0.15182632
 0.37894737, 0.19832984
 0.05894737, 0.09766633
 0.49263158, 0.43614528
 0.09263158, 0.09122892
 0.06947368, 0.17019229
 0.34105263, 0.28218159
 0.16631579, 0.36404032
 0.18947368, 0.26139456
 0.22736842, 0.22295262
 0.21052632, 0.20591195
 0.50947368, 0.51977271
 0.23157895, 0.20359983
 0.05263158, 0.13199812
 0.08631579, 0.2133591
 0.12421053, 0.13271819
 0.05473684, 0.05179743
 0.18526316, 0.21743919
 0.14105263, 0.15643272
 0.13052632, 0.07564272
 0.09473684, 0.0933676
 0.20421053, 0.20488428
 0.34105263, 0.35472003
 0.66315789, 0.45676625
 0.06947368, 0.08716743
 0.09263158, 0.19015916
 0.12, 0.09346539
 0.13052632, 0.14454575
 0.66315789, 0.63872874
 0.76, 0.78471094
 0.06315789, 0.09666139
 0.13263158, 0.14554554
 0.32631579, 0.19676928
 0.62105263, 0.67072582
 0.09684211, 0.10776488
 0.10315789, 0.17688772
 0.10736842, 0.24233161
 0.04842105, 0.08317828
 0.06105263, 0.21014132
 0.10526316, 0.1409539
 0.14526316, 0.16247964
 0.14526316, 0.05458018
 0.07157895, 0.11657196
 0.35368421, 0.26206052
 0.19368421, 0.34192395
 0.15368421, 0.16164477
 0.01263158, 0.06807698
 0.26947368, 0.14446145
 0.14105263, 0.18982771
 0.12210526, 0.1323968
 0.10526316, 0.20930931
 0.17684211, 0.18674871
 0.2, 0.17650017
 0.32631579, 0.22970775
 0.2, 0.21267603
 0.05263158, 0.06647009
 0.33052632, 0.39535636
 0.26105263, 0.05342463
 0.10947368, 0.05925786
 0.28842105, 0.21230093
 0.18947368, 0.11790577
 0.35157895, 0.28221601
 0.22526316, 0.15918374
 0.11789474, 0.0980947
 0.08210526, 0.0786963
 0.37473684, 0.28809121
 0.22947368, 0.36923492
 0.04842105, 0.12726888
 0.08210526, 0.16743322
 0.11789474, 0.16802767
 0.64631579, 0.53088588
 0.09052632, 0.08551319
 0.27578947, 0.11636396
 0.39578947, 0.06153537
 0.24631579, 0.21331514
 0.35368421, 0.18269782
 0.10736842, 0.07025072
 0.18315789, 0.17351997
 0.12421053, 0.08669941
 0.04421053, 0.07900256
 0.40421053, 0.47324181
 0.47789474, 0.49084091
 0.06947368, 0.10056873
 0.17052632, 0.19981869
 0.04421053, 0.09468096
 0.01684211, 0.08726808
 0.15368421, 0.15156958
 0.51789474, 0.29489464
 0.16421053, 0.24035589
 0.21473684, 0.15401483
 0.18315789, 0.21869762
 0.03789474, 0.16093823
 0.10736842, 0.0899005
 0.24, 0.16900906
 0.17473684, 0.14014277
 0.57473684, 0.43995374
 0.10947368, 0.13969044
 0.21473684, 0.19251637
 0.14736842, 0.10566037
 0.08421053, 0.03056353
 0.22526316, 0.26326191
 0.07578947, 0.09137643
 0.26736842, 0.19785278
 0.43578947, 0.46513528
 0.24210526, 0.20379373
 0.01052632, 0.07193162
 0.21473684, 0.21178204
 0.11578947, 0.10224268
 0.38947368, 0.34126532
 0.17894737, 0.07256304
 0.13473684, 0.0715062
 0.14105263, 0.12956411
 0.39368421, 0.31179547
 0.08842105, 0.21466272
 0.13052632, 0.14261019
 0.68, 0.36944634
 0.14315789, 0.28702042
 0.10315789, 0.01941833
 0.06736842, 0.14532137
 0.68210526, 0.55267602
 0.39789474, 0.25786909
 0.09052632, 0.08010043
 0.05052632, 0.09395789
 0.08, 0.03348163
 0.08, 0.0836591
 0.12210526, 0.19775854
 0.13473684, 0.12677997
 0.40631579, 0.32158911
 0.13684211, 0.19206463
 0.12210526, 0.10647845
 0.28421053, 0.25765255
 0.09684211, 0.11947707
 0.16421053, 0.19547495
 0.14315789, 0.17309074
 0.43578947, 0.25576735
 0.33052632, 0.40964788
 0.18947368, 0.23798585
 0.06315789, 0.05815932
 0.37473684, 0.34424877
 0.53052632, 0.27689001
 0.25263158, 0.17877588
 0.01894737, 0.11443175
 0.21473684, 0.11146261
 0.06736842, 0.14591376
 0.31368421, 0.15979299
 0.24631579, 0.2470867
 0.25894737, 0.25890297
 0.13263158, 0.35840777
 0.21052632, 0.20407756
 0.05684211, 0.11634686
 0.32, 0.36117357
 0.25052632, 0.11748545
 0.14315789, 0.17073114
 0.41263158, 0.31756508
 0.06105263, 0.23056772
 0.02105263, 0.19684494
 0.11368421, 0.06513707
 0.62947368, 0.30686963
 0.54736842, 0.22228637
 0.02315789, 0.22152127
 0.07789474, 0.09252214
 0.04210526, 0.1109544
 0.04210526, 0.21476859
 0.07578947, 0.10658245
 0.05684211, 0.05098493
 0.20210526, 0.1497563
 0.11157895, 0.06886004
 0.06105263, 0.12620574
 0.31157895, 0.20110735
 0.08, 0.11741009
 0.59578947, 0.53503472
 0.29052632, 0.28153408
 0.23157895, 0.30231917
 0.07157895, 0.15775141
 0.4, 0.325546
 0.07157895, 0.06302233
 0.06736842, 0.16379465
 0.10526316, 0.18582153
 0.54105263, 0.25089344
 0.26315789, 0.35149699
 0.36631579, 0.41775173
 0.07368421, 0.10867196
 0.04631579, 0.05681618
 0.11368421, 0.22109933
 0.46947368, 0.36772865
 0.68421053, 0.20999928
 0.14315789, 0.23567653
 0.43789474, 0.32391763
 0.66105263, 0.57366979
 0.14526316, 0.13680266
 0.31789474, 0.23303856
 0.58526316, 0.51677436
 0.10105263, 0.09868051
 0.12842105, 0.10866529
 0.10947368, 0.11928267
 0.18736842, 0.19681802
 0.52842105, 0.38219935
 0.19789474, 0.38708428
 0.02736842, 0.07843255
 0.08631579, 0.15346855
 0.34315789, 0.3901552
 0.44842105, 0.3072519
 0.17473684, 0.22043461
 0.03789474, 0.10285471
 0.11157895, 0.07225282
 0.18105263, 0.14359865
 0.41052632, 0.42176247
 0.04842105, 0.08146124
 0.05473684, 0.08854932
 0.15368421, 0.27109462
 0.28631579, 0.31017473
 0.14947368, 0.15794781
 0.14736842, 0.24504712
 0.44, 0.42049474
 0.09894737, 0.2761898
 0.07157895, 0.14056991
 0.19157895, 0.2983878
 0.34736842, 0.16100165
 0.11368421, 0.09176701
 0.20210526, 0.30109221
 0.11789474, 0.07415603
 0.13684211, 0.18681753
 0.09473684, 0.12931354
 0.17894737, 0.18815711
 0.47789474, 0.40971845
 0.10947368, 0.1067691
 0.34736842, 0.42475015
 0.03789474, 0.03342561
 0.09263158, 0.0181848
 0.12, 0.08481418
 0.25473684, 0.24910527
 0.59157895, 0.38450864
 0.08842105, 0.081799
 0.08842105, 0.0702689
 0.05263158, 0.05082306
 0.10947368, 0.08371495
 0.45052632, 0.39405012
 0.16842105, 0.26733947
 0.03578947, 0.07909618
 0.11157895, 0.1217718
 0.05684211, 0.10373771
 0.39157895, 0.40667117
 0.12210526, 0.11220299
 0.10315789, 0.11959441
 0.05263158, 0.03807828
 0.11368421, 0.09197997
 0.14315789, 0.24628299
 0.10736842, 0.02143066
 0.36421053, 0.34897923
 0.25894737, 0.24399383
 0.63789474, 0.48547685
 0.22947368, 0.34174985
 0.10947368, 0.10434771
 0.71789474, 0.58036965
 0.15157895, 0.13519418
 0.06736842, 0.06856525
 0.24631579, 0.23770648
 0.68842105, 0.51581788
 0.08631579, 0.06571758
 0.27789474, 0.44047272
 0.04210526, 0.07395852
 0.31789474, 0.34773481
 0.12421053, 0.17630075
 0.18947368, 0.13011202
 0.13684211, 0.12197766
 0.08421053, 0.12988314
 0.07789474, 0.08643915
 0.2, 0.25728729
 0.76631579, 0.37908769
 0.58315789, 0.41687599
 0.03789474, 0.13475801
 0.17052632, 0.14081216
 0.08421053, 0.11318128
 0.54315789, 0.26858473
 0.07368421, 0.11484495
 0.12210526, 0.14084733
 0.37894737, 0.31210536
 0.03789474, 0.20061482
 0.57894737, 0.46653616
 0.33473684, 0.24576214
 0.09894737, 0.08669844
 0.33894737, 0.32237366
 0.30526316, 0.18959835
 0.28, 0.3565461
 0.37473684, 0.25687879
 0.06315789, 0.07993682
 0.69894737, 0.23322169
 0.58736842, 0.58522052
 0.12842105, 0.0882756
 0.09473684, 0.33667904
 0.09263158, 0.08193909
 0.14315789, 0.10972293
 0.09684211, 0.10646611
 0.10105263, 0.09287903
 0.19368421, 0.22247404
 0.49684211, 0.33862904
 0.17263158, 0.17056116
 0.24421053, 0.13962048
 0.49052632, 0.49058926
 0.10947368, 0.14855528
 0.07578947, 0.10595553
 0.36631579, 0.42047489
 0.35157895, 0.27720863
 0.04210526, 0.05616012
 0.32, 0.32682171
 0.45684211, 0.35625988
 0.62736842, 0.44031775
 0.46526316, 0.21739569
 0.20631579, 0.25581124
 0.38947368, 0.26264662
 0.19368421, 0.1311931
 0.11368421, 0.16708815
 0.20421053, 0.17124592
 0.07578947, 0.10944256
 0.14947368, 0.10498012
 0.16421053, 0.18564427
 0.08421053, 0.21331514
 0.06947368, 0.10902993
 0.20631579, 0.27843812
 0.06526316, 0.15147477
 0.46315789, 0.17852956
 0.08, 0.13999674
 0.03157895, 0.04497977
 0.05473684, 0.0555471
 0.54947368, 0.52002418
 0.21052632, 0.13333765
 0.10315789, 0.07236807
 0.29684211, 0.42531538
 0.20210526, 0.27270481
 0.12631579, 0.13458303
 0.49894737, 0.38651651
 0.14736842, 0.0740317
 0.41473684, 0.26598978
 0.49684211, 0.21024923
 0.06736842, 0.05605859
 0.10947368, 0.18130091
 0.58947368, 0.41496462
 0.07578947, 0.07217205
 0.13052632, 0.14729793
 0.07368421, 0.13459685
 0.12210526, 0.1305183
 0.56421053, 0.26075372
 0.10105263, 0.11721426
 0.12421053, 0.06672533
 0.55157895, 0.48897457
 0.14526316, 0.16732906
 0.74736842, 0.56345868
 0.39157895, 0.40089816
