tar,out
 0.35578947, 0.42849946
 0.19157895, 0.30425844
 0.30947368, 0.29391217
 0.06947368, 0.14538199
 0.39368421, 0.36988765
 0.10105263, 0.14061208
 0.35578947, 0.24932337
 0.68, 0.41839167
 0.02315789, 0.12105274
 0.28421053, 0.20763475
 0.40631579, 0.52068579
 0.09684211, 0.21531138
 0.01052632, 0.10647744
 0.13684211, 0.18862234
 0.42947368, 0.40036139
 0.05473684, 0.11373928
 0.51368421, 0.47090262
 0.25473684, 0.33788091
 0.10947368, 0.12077391
 0.39578947, 0.3016302
 0.22736842, 0.22056383
 0.43157895, 0.50778997
 0.41684211, 0.31829515
 0.10526316, 0.10283193
 0.06526316, 0.11407694
 0.27157895, 0.37363172
 0.09894737, 0.22811928
 0.04631579, 0.10227771
 0.18526316, 0.24109058
 0.18315789, 0.18093215
 0.52210526, 0.51721084
 0.52631579, 0.45588356
 0.08, 0.21385644
 0.48, 0.45712727
 0.35789474, 0.41501781
 0.10526316, 0.09886533
 0.01684211, 0.08794801
 0.09052632, 0.19974169
 0.49473684, 0.49282557
 0.07578947, 0.17449439
 0.25052632, 0.21965827
 0.26105263, 0.26583096
 0.25684211, 0.31364584
 0.21473684, 0.12072139
 0.20631579, 0.27764028
 0.05894737, 0.10354429
 0.23578947, 0.31992033
 0.21263158, 0.25545532
 0.07789474, 0.08713423
 0.69684211, 0.4545103
 0.32210526, 0.40293404
 0.10526316, 0.19607854
 0.23157895, 0.30998552
 0.46947368, 0.40061715
 0.15578947, 0.23259437
 0.23578947, 0.09113321
 0.08631579, 0.10288075
 0.12210526, 0.17080453
 0.06105263, 0.13017267
 0.33684211, 0.34916842
 0.30526316, 0.17442088
 0.42947368, 0.26832426
 0.32210526, 0.24054736
 0.27368421, 0.16332087
 0.13263158, 0.22832461
 0.41894737, 0.41118824
 0.12210526, 0.24054736
 0.15368421, 0.12725984
 0.09052632, 0.30668733
 0.50736842, 0.33834863
 0.59157895, 0.58551741
 0.10105263, 0.12172496
 0.11368421, 0.12638232
 0.50736842, 0.3148661
 0.03368421, 0.09270307
 0.38315789, 0.41556844
 0.36631579, 0.37153402
 0.44631579, 0.27155924
 0.13263158, 0.10636993
 0.37473684, 0.22377482
 0.32421053, 0.26366803
 0.02105263, 0.2128778
 0.10736842, 0.16311741
 0.13263158, 0.28322351
 0.48842105, 0.24170519
 0.15368421, 0.09591997
 0.19368421, 0.26875666
 0.51157895, 0.40252057
 0.06105263, 0.0842853
 0.04, 0.0840233
 0.07157895, 0.10509945
 0.20421053, 0.17950295
 0.14315789, 0.15169716
 0.14315789, 0.10967872
 0.16631579, 0.24756959
 0.46105263, 0.43487528
 0.15789474, 0.14449891
 0.07789474, 0.08135283
 0.14105263, 0.18904853
 0.05473684, 0.14813495
 0.52, 0.52884853
 0.70526316, 0.56154066
 0.08210526, 0.16833508
 0.43368421, 0.47463766
 0.36631579, 0.37368754
 0.15368421, 0.36887783
 0.09894737, 0.18373996
 0.63157895, 0.51938617
 0.60631579, 0.41507626
 0.47368421, 0.35911238
 0.36, 0.30498409
 0.10736842, 0.14733432
 0.08421053, 0.05350977
 0.05473684, 0.0817183
 0.18736842, 0.12016682
 0.10736842, 0.17884339
 0.36, 0.29591116
 0.16, 0.42630103
 0.50526316, 0.28911933
 0.44842105, 0.4888047
 0.36421053, 0.26926848
 0.72421053, 0.48069611
 0.13052632, 0.23851763
 0.15157895, 0.22475055
 0.54105263, 0.32974997
 0.38526316, 0.37388813
 0.06315789, 0.181611
 0.08, 0.14491408
 0.36210526, 0.35821304
 0.12631579, 0.16579652
 0.04631579, 0.09774721
 0.01263158, 0.15843695
 0.31789474, 0.24339126
 0.02315789, 0.09192038
 0.39368421, 0.24452716
 0.44, 0.42388389
 0.09263158, 0.29630783
 0.37684211, 0.20923212
 0.11368421, 0.2094145
 0.03157895, 0.09966293
 0.03157895, 0.11523286
 0.03157895, 0.12649581
 0.06315789, 0.09526145
 0.08631579, 0.10461965
 0.22526316, 0.22210416
 0.07789474, 0.12630862
 0.05473684, 0.17198297
 0.58526316, 0.36352044
 0.06947368, 0.14799114
 0.18736842, 0.13416609
 0.13473684, 0.17942366
 0.13894737, 0.12808889
 0.42105263, 0.19065616
 0.54526316, 0.317729
 0.57894737, 0.23376492
 0.13473684, 0.09430319
 0.05473684, 0.09321506
 0.35789474, 0.42703316
 0.13894737, 0.2212519
 0.03578947, 0.09885108
 0.08421053, 0.24599066
 0.25894737, 0.18678391
 0.42736842, 0.37145132
 0.45684211, 0.39613044
 0.17052632, 0.16008216
 0.10105263, 0.19167477
 0.14947368, 0.40171343
 0.09684211, 0.1307756
 0.09263158, 0.12891224
 0.17473684, 0.3721171
 0.14736842, 0.25008249
 0.05263158, 0.12171938
 0.07157895, 0.11411232
 0.11157895, 0.10723384
 0.22105263, 0.17315367
 0.13052632, 0.22079729
 0.49894737, 0.4849996
 0.05894737, 0.07426262
 0.01052632, 0.13522337
 0.36421053, 0.28260404
 0.26105263, 0.24613373
 0.18315789, 0.11984795
 0.32, 0.23818761
 0.04210526, 0.08180866
 0.44631579, 0.23843646
 0.34736842, 0.3440572
 0.41473684, 0.20438185
 0.32842105, 0.242908
 0.44210526, 0.48080772
 0.42105263, 0.32053953
 0.06105263, 0.44935226
 0.15789474, 0.11526036
 0.12210526, 0.24015346
 0.08842105, 0.08271319
 0.35578947, 0.31603998
 0.08631579, 0.10598341
 0.29263158, 0.08386463
 0.06526316, 0.16447075
 0.15368421, 0.1421276
 0.39368421, 0.26709539
 0.21263158, 0.27745456
 0.50105263, 0.44794154
 0.16631579, 0.17165709
 0.52, 0.5714426
 0.4, 0.48580071
 0.10105263, 0.10711797
 0.13684211, 0.21855423
 0.15578947, 0.12525409
 0.07157895, 0.09106472
 0.32210526, 0.24350439
 0.20421053, 0.33864227
 0.56842105, 0.50157833
 0.09473684, 0.13814941
 0.15578947, 0.23034115
 0.19578947, 0.21400037
 0.69263158, 0.19221695
 0.52842105, 0.49744487
 0.35157895, 0.39708033
 0.08, 0.11327052
 0.08631579, 0.19455281
 0.73684211, 0.31663331
 0.09263158, 0.09480286
 0.53263158, 0.37332326
 0.05894737, 0.09457123
 0.26526316, 0.16921222
 0.07368421, 0.14253381
 0.06315789, 0.11505613
 0.15578947, 0.18217143
 0.22947368, 0.11268178
 0.13684211, 0.18319096
 0.18736842, 0.2032972
 0.41684211, 0.50432831
 0.45894737, 0.28189024
 0.07368421, 0.14820379
 0.06947368, 0.1258923
 0.06736842, 0.10757762
 0.03157895, 0.2134195
 0.14526316, 0.1524034
 0.16842105, 0.27240613
 0.56842105, 0.37859601
 0.26736842, 0.1762405
 0.04842105, 0.0915716
 0.05684211, 0.08037208
 0.23578947, 0.15033218
 0.07368421, 0.18558358
 0.06105263, 0.10526229
 0.32, 0.24313457
 0.12, 0.16720811
 0.06947368, 0.12983218
 0.06736842, 0.28104955
 0.11578947, 0.07634103
 0.16, 0.20863013
 0.24631579, 0.21960065
 0.40210526, 0.26472366
 0.06315789, 0.12281031
 0.09052632, 0.11168584
 0.43368421, 0.38589603
 0.15157895, 0.1514215
 0.03157895, 0.17221847
 0.16421053, 0.151098
 0.22947368, 0.12320231
 0.58315789, 0.54748547
 0.33052632, 0.38114738
 0.70736842, 0.71557277
 0.30526316, 0.45525807
 0.40210526, 0.42962915
 0.30947368, 0.28882545
 0.56842105, 0.43473813
 0.06736842, 0.14721549
 0.42315789, 0.43578196
 0.44210526, 0.39363843
 0.23789474, 0.12051475
 0.51578947, 0.3587887
 0.32421053, 0.26767254
 0.13684211, 0.11346929
 0.16421053, 0.29084691
 0.08842105, 0.10048866
 0.21052632, 0.15605567
 0.03368421, 0.08572814
 0.19368421, 0.24208961
 0.05052632, 0.07513674
 0.35157895, 0.22533709
 0.12842105, 0.25308403
 0.09052632, 0.10557222
 0.05052632, 0.16318405
 0.16421053, 0.10274528
 0.22947368, 0.2339085
 0.32842105, 0.34482628
 0.08421053, 0.17039308
 0.08, 0.11282939
 0.05473684, 0.11294362
 0.11157895, 0.13030696
 0.11157895, 0.27165547
 0.12, 0.1072004
 0.20210526, 0.24054736
 0.17894737, 0.19764593
 0.19578947, 0.33288699
 0.28842105, 0.1873081
 0.10105263, 0.20745596
 0.39789474, 0.39021933
 0.21684211, 0.23600164
 0.17684211, 0.25647378
 0.36210526, 0.48180741
 0.28842105, 0.24509318
 0.34315789, 0.27869353
 0.34736842, 0.17867133
 0.39157895, 0.21963862
 0.12842105, 0.14663559
 0.14315789, 0.23224913
 0.72, 0.68942147
 0.04, 0.07731923
 0.15368421, 0.14037624
 0.08421053, 0.12903629
 0.16210526, 0.2004655
 0.09052632, 0.0926232
 0.07578947, 0.10688013
 0.74526316, 0.69369137
 0.32842105, 0.40110919
 0.19789474, 0.13581491
 0.26526316, 0.23189683
 0.09684211, 0.11630729
 0.05894737, 0.12384424
 0.24210526, 0.28081495
 0.47157895, 0.42186517
 0.09052632, 0.09713715
 0.07157895, 0.10928056
 0.49473684, 0.49632478
 0.04210526, 0.07002169
 0.14736842, 0.16492434
 0.34105263, 0.37681061
 0.31578947, 0.23460989
 0.16842105, 0.14001925
 0.09263158, 0.16248474
 0.05473684, 0.09124562
 0.36842105, 0.25842056
 0.09894737, 0.09963027
 0.07157895, 0.23076306
 0.35789474, 0.2507596
 0.31157895, 0.36080348
 0.08842105, 0.20326537
 0.19578947, 0.24266337
 0.20210526, 0.19699076
 0.07368421, 0.10610798
 0.20421053, 0.26625893
 0.22105263, 0.34724742
 0.08210526, 0.06838247
 0.08210526, 0.09605825
 0.31368421, 0.2664296
 0.05684211, 0.08532141
 0.04842105, 0.15989046
 0.09263158, 0.25378925
 0.52631579, 0.42040786
 0.50736842, 0.33341259
 0.32210526, 0.21078354
 0.06947368, 0.16508633
 0.08842105, 0.09217829
 0.06105263, 0.104011
 0.36842105, 0.34183362
 0.08210526, 0.14571391
 0.17263158, 0.32237697
 0.27368421, 0.21896663
 0.42315789, 0.44628161
 0.03789474, 0.1446953
 0.11368421, 0.14062621
 0.09684211, 0.09923796
 0.61052632, 0.52541
 0.13263158, 0.16837697
 0.22947368, 0.35175526
 0.15789474, 0.14409935
 0.05473684, 0.11869246
 0.79157895, 0.38568851
 0.86315789, 0.55866796
 0.10736842, 0.24138196
 0.65894737, 0.74569356
 0.06315789, 0.16176914
 0.10315789, 0.14053565
 0.16210526, 0.15494469
 0.49052632, 0.29969212
 0.36842105, 0.3044734
 0.28, 0.13655622
 0.28842105, 0.22927344
 0.05684211, 0.08264162
 0.09894737, 0.08739275
 0.05684211, 0.09565085
 0.38526316, 0.22022831
 0.13052632, 0.09181014
 0.66736842, 0.55310369
 0.2, 0.27085394
 0.48842105, 0.26428235
 0.08210526, 0.20050573
 0.12631579, 0.11430795
 0.51578947, 0.33207685
 0.15368421, 0.41701925
 0.07368421, 0.15971993
 0.06315789, 0.11844243
 0.10736842, 0.1325701
 0.37684211, 0.24083853
 0.09052632, 0.14381471
 0.30736842, 0.49844468
 0.05894737, 0.12259394
 0.28, 0.12761205
 0.39789474, 0.23236021
 0.60842105, 0.34601349
 0.07368421, 0.09361309
 0.05263158, 0.1048069
 0.08631579, 0.06645125
 0.00842105, 0.10288325
 0.03578947, 0.23863457
 0.48421053, 0.42868203
 0.36, 0.24555847
 0.09473684, 0.12988058
 0.20210526, 0.19033673
 0.51789474, 0.46133181
 0.73894737, 0.58634222
 0.13894737, 0.23198073
 0.27789474, 0.17062503
 0.17263158, 0.19135132
 0.31368421, 0.10862121
 0.26315789, 0.22915794
 0.57263158, 0.44834772
 0.2, 0.26831746
 0.12210526, 0.12700844
 0.31789474, 0.15691091
 0.06526316, 0.1093826
 0.06947368, 0.09898016
 0.49263158, 0.41668689
 0.08631579, 0.09952442
 0.13473684, 0.12731114
 0.37894737, 0.30571389
 0.01263158, 0.12332151
 0.65684211, 0.44976765
 0.42315789, 0.172967
 0.29473684, 0.28981736
 0.07157895, 0.12753001
 0.45263158, 0.43677336
 0.06105263, 0.10259995
 0.33263158, 0.22622685
 0.03789474, 0.11397836
 0.31789474, 0.32656896
 0.17263158, 0.21761349
 0.19368421, 0.28802562
 0.13894737, 0.23418117
 0.05263158, 0.09537542
 0.25473684, 0.34704134
 0.45473684, 0.29137352
 0.52, 0.53801024
 0.55157895, 0.48704842
 0.05894737, 0.10504463
 0.39578947, 0.47918656
 0.16421053, 0.12661734
 0.22736842, 0.24054736
 0.65684211, 0.58851194
 0.30315789, 0.19088668
 0.26526316, 0.20237622
 0.23368421, 0.23770784
 0.51157895, 0.41607606
 0.09263158, 0.10828945
 0.05052632, 0.09588052
 0.46526316, 0.48813701
 0.38315789, 0.33024311
 0.28, 0.21938628
 0.10947368, 0.1167925
 0.08421053, 0.12384022
 0.08, 0.15588975
 0.11157895, 0.12292136
 0.10526316, 0.18259864
 0.15789474, 0.18169436
 0.29894737, 0.23641282
 0.16631579, 0.12105228
 0.20842105, 0.24054736
 0.05263158, 0.11027268
 0.64842105, 0.2413491
 0.26315789, 0.17524475
 0.11368421, 0.19322722
 0.38736842, 0.30684319
 0.08, 0.17481533
 0.07368421, 0.24054736
 0.08421053, 0.10975072
 0.01473684, 0.10954501
 0.34315789, 0.25748169
 0.29684211, 0.28958258
 0.06526316, 0.09513834
 0.22736842, 0.20395547
 0.14736842, 0.12214644
 0.11789474, 0.12386386
 0.03578947, 0.16828175
 0.06315789, 0.24054736
 0.03578947, 0.1829153
 0.46947368, 0.38109419
 0.53473684, 0.47360486
 0.01894737, 0.11914228
 0.27157895, 0.23873535
 0.21894737, 0.10598916
 0.27578947, 0.29456544
 0.10526316, 0.09041736
 0.05894737, 0.10422289
 0.18105263, 0.16798919
 0.23157895, 0.59330601
 0.08, 0.0803182
 0.12631579, 0.10719223
 0.03157895, 0.11605018
 0.26947368, 0.10748044
 0.05894737, 0.11032216
 0.12, 0.19248898
 0.30105263, 0.24050456
 0.03368421, 0.0890473
 0.60842105, 0.40361366
 0.14526316, 0.1462259
 0.25894737, 0.22579977
 0.09052632, 0.1075851
 0.40210526, 0.16639096
 0.05473684, 0.12190099
 0.13052632, 0.11430292
 0.15578947, 0.39535981
 0.20842105, 0.11318463
 0.04842105, 0.13809124
 0.07157895, 0.14129198
 0.07789474, 0.17190003
 0.14315789, 0.15056901
 0.28842105, 0.27101761
 0.08842105, 0.21704835
 0.19368421, 0.16533878
 0.05473684, 0.12555176
 0.16210526, 0.11921953
 0.53473684, 0.56620789
 0.18736842, 0.13526312
 0.05473684, 0.08673912
 0.36842105, 0.42199531
 0.17473684, 0.17867382
 0.54526316, 0.35141262
 0.33894737, 0.43206915
 0.21052632, 0.24054736
 0.04631579, 0.11052454
 0.09684211, 0.10452788
 0.18736842, 0.17721982
 0.36, 0.14109136
 0.02736842, 0.08755952
 0.43157895, 0.3996734
 0.16, 0.17962095
 0.41684211, 0.33700624
 0.06105263, 0.09697345
 0.17894737, 0.23324311
 0.47157895, 0.36215508
 0.10315789, 0.24857759
 0.21684211, 0.20842335
 0.34736842, 0.46089369
 0.08842105, 0.17172039
 0.27157895, 0.20822212
 0.12631579, 0.16835812
 0.06526316, 0.12900987
 0.46736842, 0.26513669
 0.07578947, 0.13822518
 0.06315789, 0.11245246
 0.19368421, 0.15846008
 0.19578947, 0.39900193
 0.03157895, 0.10491018
 0.14526316, 0.23755701
 0.06736842, 0.09836608
 0.48631579, 0.34247202
 0.04631579, 0.12299319
 0.21052632, 0.12339492
 0.06736842, 0.17944355
 0.52421053, 0.50880301
 0.39368421, 0.31345427
 0.14315789, 0.09331983
 0.43578947, 0.35035825
 0.29684211, 0.49195176
 0.09894737, 0.1526562
 0.16421053, 0.10154293
 0.24421053, 0.22663258
 0.04, 0.1964145
 0.20421053, 0.19048306
 0.41052632, 0.36003351
 0.08210526, 0.07114658
 0.52631579, 0.38787836
 0.10105263, 0.23519035
 0.09894737, 0.10797264
 0.18315789, 0.13384768
 0.28421053, 0.17666169
 0.14105263, 0.234487
 0.17684211, 0.12373602
 0.23578947, 0.14667675
 0.17894737, 0.19964722
 0.20210526, 0.14055791
 0.42947368, 0.42854053
 0.05894737, 0.09773655
 0.25263158, 0.26461902
 0.23368421, 0.18366781
 0.30105263, 0.12777679
 0.28, 0.21913494
 0.44210526, 0.39807054
 0.24631579, 0.23327425
 0.14105263, 0.16130087
 0.22947368, 0.20685503
 0.11789474, 0.10388982
 0.37052632, 0.34289938
 0.14526316, 0.39502814
 0.09684211, 0.20299304
 0.06526316, 0.13215601
 0.17052632, 0.14071877
 0.08842105, 0.15434976
 0.14736842, 0.12312102
 0.61263158, 0.4484151
 0.59157895, 0.48279524
 0.08210526, 0.13374743
 0.34315789, 0.24278758
 0.19368421, 0.28709048
 0.16, 0.19354738
 0.21052632, 0.34784463
 0.23578947, 0.16059661
 0.10947368, 0.12357775
 0.10947368, 0.12471944
 0.11789474, 0.19032985
 0.16842105, 0.1095897
 0.08, 0.0906873
 0.00631579, 0.16300616
 0.29052632, 0.25368837
 0.05473684, 0.11165512
 0.15368421, 0.14800093
 0.80210526, 0.49188176
 0.78105263, 0.64173001
 0.03157895, 0.13364631
 0.17684211, 0.14031272
 0.32421053, 0.31685871
 0.23368421, 0.38566819
 0.04210526, 0.11963323
 0.30526316, 0.32271647
 0.25894737, 0.25146016
 0.14315789, 0.1624549
 0.10947368, 0.34668532
 0.13052632, 0.20703065
 0.17052632, 0.10650027
 0.17894737, 0.1958985
 0.24210526, 0.2577104
 0.07578947, 0.11113834
 0.18105263, 0.17564808
 0.60421053, 0.5009225
 0.04631579, 0.09211794
 0.18736842, 0.129186
 0.55789474, 0.4841882
 0.83789474, 0.67118573
 0.08210526, 0.13267785
 0.61052632, 0.3802672
 0.08842105, 0.09267378
 0.16, 0.29253674
 0.50315789, 0.38216314
 0.15368421, 0.15353183
 0.33894737, 0.23300898
 0.25684211, 0.19495699
 0.34947368, 0.42259455
 0.18736842, 0.11585905
 0.19789474, 0.12607077
 0.14736842, 0.12340348
 0.07789474, 0.1000333
 0.15789474, 0.17201923
 0.10105263, 0.17931469
 0.24421053, 0.32595438
 0.57473684, 0.24406709
 0.17052632, 0.16543762
 0.26947368, 0.44412178
 0.53052632, 0.55653572
 0.10526316, 0.11947016
 0.18315789, 0.28440535
 0.39157895, 0.24280763
 0.17052632, 0.24322133
 0.05473684, 0.24613678
 0.13052632, 0.14651109
 0.56, 0.44173124
 0.14736842, 0.13441792
 0.10105263, 0.22359836
 0.43157895, 0.32741141
 0.48, 0.41225657
 0.15368421, 0.14014784
 0.02315789, 0.14502373
 0.52421053, 0.48692083
 0.12210526, 0.17564139
 0.20631579, 0.11978012
 0.37263158, 0.42862201
 0.40631579, 0.3033331
 0.52, 0.27147818
 0.66947368, 0.4179177
 0.19157895, 0.19950883
 0.23789474, 0.22689423
 0.41684211, 0.38383779
 0.12842105, 0.13765272
 0.08210526, 0.10929172
 0.49052632, 0.37532404
 0.09052632, 0.09877001
 0.05684211, 0.11600521
 0.25263158, 0.12604991
 0.05263158, 0.09980199
 0.30736842, 0.33763123
 0.2, 0.23829955
 0.02526316, 0.11367434
 0.09263158, 0.11569946
 0.46315789, 0.42862698
 0.07157895, 0.24148762
 0.09894737, 0.27595884
 0.13684211, 0.15361065
 0.09894737, 0.19445801
 0.29894737, 0.34554321
 0.12631579, 0.16693348
 0.28421053, 0.28834736
 0.14736842, 0.0818065
 0.17263158, 0.14428258
 0.05052632, 0.11281539
 0.51157895, 0.38346311
 0.13894737, 0.18247375
 0.13263158, 0.24319214
 0.13473684, 0.24054736
 0.44631579, 0.58292246
 0.19578947, 0.19329363
 0.48842105, 0.24894083
 0.05473684, 0.10576813
 0.08631579, 0.1159413
 0.41894737, 0.41868514
 0.15157895, 0.11939391
 0.21473684, 0.24569333
 0.05473684, 0.0855061
 0.13263158, 0.11882393
 0.29263158, 0.46679264
 0.30947368, 0.39456189
 0.09473684, 0.11017263
 0.08210526, 0.12533887
 0.10526316, 0.19410026
 0.04210526, 0.11919184
 0.18736842, 0.10913962
 0.02315789, 0.10358608
 0.09894737, 0.36174345
 0.06315789, 0.18111759
 0.17894737, 0.13443834
 0.42105263, 0.39413232
 0.08631579, 0.13618532
 0.06947368, 0.12161785
 0.10105263, 0.12302785
 0.68210526, 0.56842107
 0.65052632, 0.42920518
 0.17052632, 0.11984086
 0.08210526, 0.14034668
 0.47157895, 0.24316218
 0.38947368, 0.54092985
 0.57473684, 0.44133204
 0.12421053, 0.13990034
 0.06947368, 0.24054736
 0.27578947, 0.39028075
 0.24842105, 0.36811191
 0.33263158, 0.1024926
 0.05473684, 0.13058722
 0.09684211, 0.09819095
 0.49473684, 0.3522515
 0.04421053, 0.09216568
 0.15368421, 0.208217
 0.50526316, 0.37440753
 0.24842105, 0.19859134
 0.03789474, 0.11719199
 0.09052632, 0.15572101
 0.08421053, 0.14127716
 0.12, 0.10783997
 0.09894737, 0.20520188
 0.13052632, 0.16603185
 0.18526316, 0.18839306
 0.10947368, 0.08386996
 0.08631579, 0.08068956
 0.13684211, 0.10360746
 0.03578947, 0.06464115
 0.07368421, 0.11543112
 0.16421053, 0.14736137
 0.07789474, 0.13017526
 0.36631579, 0.44006544
 0.17684211, 0.21142851
 0.00842105, 0.09642468
 0.15789474, 0.09849989
 0.04421053, 0.10401067
 0.28210526, 0.40257314
 0.04210526, 0.10245037
 0.22105263, 0.37986457
 0.10105263, 0.08210951
 0.28421053, 0.33514056
 0.4, 0.41050372
 0.45052632, 0.34739691
 0.22947368, 0.09610403
 0.10947368, 0.13798681
 0.70105263, 0.56024855
 0.02947368, 0.12697691
 0.12421053, 0.19790657
 0.43789474, 0.33134079
 0.09684211, 0.09275895
 0.12421053, 0.1384418
 0.07578947, 0.11219592
 0.16210526, 0.24687496
 0.45684211, 0.4187229
 0.12, 0.20163572
 0.28210526, 0.38316917
 0.32210526, 0.4801228
 0.19789474, 0.21746966
 0.06105263, 0.1581095
 0.14736842, 0.1301201
 0.05473684, 0.13747141
 0.20421053, 0.13456184
 0.42736842, 0.4422487
 0.07578947, 0.13186722
 0.04421053, 0.20284475
 0.26105263, 0.27723712
 0.21894737, 0.11687531
 0.11578947, 0.24498717
 0.64631579, 0.53426313
 0.18947368, 0.18322401
 0.33052632, 0.43378127
 0.30315789, 0.48153889
 0.28, 0.38727158
 0.15368421, 0.18831459
 0.09684211, 0.15578449
 0.06526316, 0.09575886
 0.24, 0.21628892
 0.33684211, 0.32279325
 0.80421053, 0.5152818
 0.22105263, 0.22825141
 0.08210526, 0.12952477
 0.05894737, 0.11078417
 0.06526316, 0.08948964
 0.12, 0.22461547
 0.06736842, 0.07771626
 0.18947368, 0.27580777
 0.04210526, 0.09429511
 0.11368421, 0.21648285
 0.15368421, 0.25392702
 0.16842105, 0.10026352
 0.35157895, 0.42251468
 0.13263158, 0.16762052
 0.38315789, 0.15116736
 0.18315789, 0.32630312
 0.44631579, 0.16071862
 0.16, 0.23584004
 0.48, 0.112728
 0.33684211, 0.21244591
 0.57894737, 0.53628135
 0.05684211, 0.40835968
 0.24631579, 0.36910969
 0.13263158, 0.12507272
 0.07578947, 0.10164112
 0.17263158, 0.26269239
 0.01894737, 0.10805687
 0.09052632, 0.09277177
 0.09473684, 0.12775613
 0.20631579, 0.24176291
 0.44842105, 0.48683292
 0.10526316, 0.11510098
 0.12, 0.11091702
 0.19157895, 0.2159486
 0.14526316, 0.08448081
 0.16210526, 0.11889432
 0.02736842, 0.19196913
 0.27157895, 0.30511147
 0.07368421, 0.10151753
 0.42736842, 0.38759139
 0.03368421, 0.06365365
 0.32210526, 0.4877097
 0.44210526, 0.10748194
 0.10526316, 0.14532633
 0.11578947, 0.12223795
 0.25684211, 0.13675578
 0.03157895, 0.08101892
 0.07789474, 0.25045174
 0.18105263, 0.17029271
 0.13473684, 0.18228367
 0.03578947, 0.10826847
 0.02105263, 0.21668273
 0.18736842, 0.30302429
 0.23157895, 0.28849903
 0.27368421, 0.15055832
 0.06947368, 0.14917511
 0.54315789, 0.2701298
 0.38947368, 0.33564728
 0.36421053, 0.37030947
 0.11789474, 0.19541019
 0.09684211, 0.12701987
 0.38526316, 0.26807088
 0.54947368, 0.25742736
 0.48210526, 0.49783528
 0.11368421, 0.22836448
 0.14947368, 0.16052569
 0.10736842, 0.10628736
 0.21894737, 0.11833832
 0.54105263, 0.47124243
 0.25052632, 0.22422759
 0.10947368, 0.11968499
 0.19368421, 0.18642774
 0.26105263, 0.32358217
 0.16421053, 0.21076408
 0.45894737, 0.49301419
 0.29052632, 0.26880383
 0.14526316, 0.23376663
 0.38315789, 0.12147503
 0.19578947, 0.31107539
 0.14105263, 0.24054736
 0.13473684, 0.1952408
 0.07578947, 0.12412542
 0.25052632, 0.18585573
 0.06736842, 0.10465509
 0.35789474, 0.27654245
 0.14526316, 0.10489753
 0.32, 0.1205353
 0.03368421, 0.1497574
 0.20842105, 0.18367215
 0.13473684, 0.36485434
 0.10105263, 0.12033478
 0.27578947, 0.20657842
 0.34105263, 0.31054252
 0.11578947, 0.1688745
 0.06736842, 0.24015893
 0.66105263, 0.45585781
 0.02736842, 0.11231694
 0.28210526, 0.34555534
 0.10736842, 0.11988074
 0.19368421, 0.29141766
 0.11157895, 0.12580417
 0.58105263, 0.52339417
 0.18105263, 0.21550249
 0.44421053, 0.2328203
 0.08842105, 0.10564786
 0.21894737, 0.31305936
 0.14947368, 0.10993943
 0.49894737, 0.41246903
 0.45894737, 0.18950747
 0.11578947, 0.11810933
 0.42526316, 0.3520824
 0.05894737, 0.14839822
 0.05263158, 0.11807247
 0.2, 0.22682858
 0.56631579, 0.59644264
 0.82315789, 0.41813105
 0.12, 0.09422502
 0.49894737, 0.14309691
 0.03368421, 0.09021829
 0.10526316, 0.18088029
 0.10947368, 0.12168086
 0.08210526, 0.10940371
 0.10526316, 0.0816434
 0.41263158, 0.42140624
 0.05263158, 0.10550988
 0.17894737, 0.24567625
 0.06526316, 0.15832238
 0.18947368, 0.23706445
 0.23578947, 0.24137451
 0.13052632, 0.09788832
 0.02736842, 0.11207309
 0.41052632, 0.21860084
 0.05473684, 0.09606995
 0.55578947, 0.29314879
 0.56, 0.44178706
 0.04631579, 0.08777428
 0.42736842, 0.37435061
 0.11789474, 0.22237524
 0.10315789, 0.09816264
 0.06947368, 0.0979505
 0.04210526, 0.12980783
 0.53263158, 0.39487517
 0.16, 0.18058464
 0.07578947, 0.12205931
 0.69473684, 0.62607145
 0.05684211, 0.24512488
 0.40842105, 0.27515438
 0.11789474, 0.11693723
 0.59368421, 0.42608282
 0.04842105, 0.10603179
 0.06947368, 0.19186699
 0.07368421, 0.08795513
 0.82315789, 0.60736996
 0.20631579, 0.11201373
 0.22526316, 0.16392598
 0.18105263, 0.17000194
 0.12421053, 0.21769881
 0.04210526, 0.14086625
 0.11368421, 0.15473258
 0.37473684, 0.22085069
 0.16210526, 0.15613267
 0.29263158, 0.13664302
 0.07789474, 0.15520406
 0.19157895, 0.12365409
 0.12421053, 0.13669813
 0.54105263, 0.35109442
 0.81684211, 0.55808592
 0.03578947, 0.11157238
 0.21473684, 0.17809093
 0.12421053, 0.11223459
 0.14105263, 0.06787592
 0.08421053, 0.16114646
 0.07789474, 0.10850158
 0.09473684, 0.09400722
 0.07789474, 0.11478341
 0.04842105, 0.08508192
 0., 0.08473733
 0.23789474, 0.25236318
 0.24210526, 0.20859392
 0.31789474, 0.29465169
 0.10315789, 0.10930099
 0.21263158, 0.09038596
 0.05684211, 0.08847517
 0.41894737, 0.31254166
 0.25894737, 0.19682594
 0.56210526, 0.48645967
 0.41894737, 0.29110029
 0.38315789, 0.32581484
 0.21684211, 0.27131131
 0.41263158, 0.59095168
 0.04842105, 0.08044688
 0.25684211, 0.2124971
 0.02947368, 0.10266775
 0.28, 0.24458386
 0.13473684, 0.26287627
 0.07368421, 0.21365729
 0.14947368, 0.11231358
 0.11789474, 0.13974488
 0.09473684, 0.11003903
 0.02315789, 0.06807974
 0.15368421, 0.12283953
 0.09473684, 0.11434224
 0.11578947, 0.12985423
 0.21684211, 0.16397278
 0.10736842, 0.10093588
 0.06105263, 0.10387158
 0.20210526, 0.17713508
 0.37894737, 0.31435013
 0.06947368, 0.24103825
 0.45263158, 0.52457184
 0.29684211, 0.24172674
 0.19157895, 0.18648294
 0.13052632, 0.07443795
 0.08210526, 0.10211575
 0.05684211, 0.07587671
 0.22526316, 0.21933755
 0.72, 0.57387495
 0.22736842, 0.28450805
 0.14947368, 0.15888757
 0.07368421, 0.15517056
 0.18105263, 0.19335333
 0.58526316, 0.13784002
 0.05052632, 0.07535265
 0.55368421, 0.4212296
 0.20631579, 0.14550947
 0.14105263, 0.23388244
 0.39368421, 0.24872641
 0.70315789, 0.4579249
 0.18315789, 0.19833729
 0.14105263, 0.15461142
 0.17263158, 0.13791087
 0.69473684, 0.35536575
 0.07578947, 0.13129354
 0.67578947, 0.4826383
 0.02947368, 0.11080994
 0.20842105, 0.23895051
 0.08210526, 0.06532067
 0.14736842, 0.11127844
 0.35368421, 0.30996573
 0.10947368, 0.0848491
 0.10315789, 0.18464491
 0.06105263, 0.08829486
 0.46526316, 0.430987
 0.60210526, 0.75105691
 0.09894737, 0.10785973
 0.35578947, 0.31640226
 0.19368421, 0.3184453
 0.25052632, 0.24427634
 0.08, 0.22578369
 0.12210526, 0.36134982
 0.09473684, 0.09792864
 0.12842105, 0.16573548
 0.13473684, 0.21670219
 0.38105263, 0.32614642
