tar,out
 0.14105263, 0.11565974
 0.24210526, 0.1374082
 0.18736842, 0.30798054
 0.14526316, 0.21541521
 0.08421053, 0.10166574
 0.05894737, 0.09724121
 0.07578947, 0.11077626
 0.35157895, 0.33454537
 0.62105263, 0.40206164
 0.12210526, 0.124222
 0.21052632, 0.23897652
 0.34526316, 0.21443388
 0.07368421, 0.11912073
 0.07157895, 0.13373658
 0.38315789, 0.38262451
 0.15368421, 0.15843745
 0.17684211, 0.23134562
 0.05894737, 0.1199896
 0.21684211, 0.34944504
 0.04421053, 0.04345119
 0.18315789, 0.13571787
 0.39368421, 0.38268104
 0.07368421, 0.05756976
 0.06105263, 0.03894423
 0.11789474, 0.09218055
 0.12631579, 0.12454906
 0.08210526, 0.04844554
 0.14105263, 0.10895957
 0.47368421, 0.57920295
 0.43368421, 0.48264676
 0.13052632, 0.17050754
 0.19368421, 0.18158714
 0.16, 0.3474161
 0.10526316, 0.13320908
 0.18526316, 0.22367889
 0.45684211, 0.51711637
 0.06947368, 0.08639328
 0.09894737, 0.1354946
 0.04421053, 0.08628158
 0.07368421, 0.15585995
 0.29473684, 0.11939697
 0.08421053, 0.09148768
 0.02736842, 0.13785788
 0.06315789, 0.10247515
 0.19578947, 0.24733308
 0.17052632, 0.26705906
 0.11368421, 0.1511877
 0.06526316, 0.09969272
 0.20842105, 0.2634567
 0.24421053, 0.23335285
 0.13894737, 0.1305106
 0.03157895, 0.10491361
 0.09473684, 0.06448494
 0.06736842, 0.07938643
 0.6, 0.63880438
 0.18526316, 0.250002
 0.06105263, 0.11982234
 0.06526316, 0.07685895
 0.08210526, 0.10386087
 0.27368421, 0.15564373
 0.32631579, 0.2998836
 0.12631579, 0.07339643
 0.16210526, 0.08916962
 0.91789474, 0.56558859
 0.32842105, 0.28435388
 0.60210526, 0.52520478
 0.26947368, 0.17475098
 0.28210526, 0.1137308
 0.05684211, 0.11849523
 0.34105263, 0.33845454
 0.48631579, 0.42432576
 0.15157895, 0.37494504
 0.30315789, 0.24508223
 0.04210526, 0.053279
 0.29263158, 0.28575966
 0.22315789, 0.21493682
 0.03789474, 0.10746223
 0.27368421, 0.22570723
 0.03368421, 0.09311296
 0.12631579, 0.10831317
 0.39578947, 0.17126457
 0.26736842, 0.14383626
 0.08631579, 0.09802668
 0.04842105, 0.11567311
 0.52631579, 0.56014365
 0.29894737, 0.33059192
 0.37684211, 0.4456574
 0.11157895, 0.0532873
 0.13894737, 0.23505178
 0.31368421, 0.22713184
 0.08210526, 0.07779674
 0.29684211, 0.10860693
 0.04842105, 0.05142614
 0.12, 0.23979387
 0.11578947, 0.12660369
 0.21263158, 0.21856293
 0.61473684, 0.38407665
 0.07368421, 0.12050615
 0.16210526, 0.20308694
 0.45894737, 0.31756061
 0.05684211, 0.13659531
 0.08842105, 0.06815518
 0.04421053, 0.03667136
 0.36421053, 0.36801729
 0.18947368, 0.27115309
 0.35789474, 0.47680551
 0.16421053, 0.16625458
 0.50105263, 0.50162494
 0.26526316, 0.27962315
 0.25052632, 0.19134846
 0.33052632, 0.17204486
 0.18105263, 0.13651432
 0.54736842, 0.44013962
 0.68631579, 0.43404454
 0.03578947, 0.13377255
 0.06105263, 0.05773793
 0.05684211, 0.16908965
 0.15789474, 0.13654812
 0.69263158, 0.62613368
 0.06947368, 0.10436071
 0.28210526, 0.22289912
 0.61263158, 0.52809781
 0.19578947, 0.14195247
 0.25263158, 0.35234794
 0.09473684, 0.07602431
 0.28421053, 0.31906337
 0.09263158, 0.08492245
 0.19789474, 0.2111433
 0.72842105, 0.71709049
 0.60842105, 0.40327185
 0.03789474, 0.09027158
 0.10736842, 0.12872481
 0.08210526, 0.1295014
 0.09684211, 0.14716244
 0.08, 0.07160282
 0.2, 0.13155672
 0.13684211, 0.11181647
 0.42526316, 0.43412572
 0.36842105, 0.39208049
 0.20631579, 0.33147687
 0.10736842, 0.09697053
 0.06315789, 0.06667952
 0.57684211, 0.57607001
 0.22736842, 0.43967563
 0.11368421, 0.1431568
 0.58526316, 0.50989056
 0.25684211, 0.1983586
 0.24210526, 0.40719706
 0.29684211, 0.07618263
 0.14315789, 0.11624528
 0.12, 0.2818329
 0.24421053, 0.21654092
 0.66736842, 0.34100074
 0.15578947, 0.15193348
 0.32421053, 0.37115055
 0.02947368, 0.09599568
 0.15578947, 0.29560754
 0.03157895, 0.06952433
 0.10105263, 0.09580681
 0.17263158, 0.1763792
 0.11368421, 0.08443433
 0.07157895, 0.21084392
 0.02315789, 0.10130924
 0.14947368, 0.426669
 0.03789474, 0.09463261
 0.04842105, 0.08575116
 0.26315789, 0.3876428
 0.21894737, 0.18528819
 0.4, 0.48049951
 0.04, 0.06272723
 0.28, 0.18610716
 0.15157895, 0.09536184
 0.74736842, 0.63210332
 0.43578947, 0.35150388
 0.07789474, 0.09265679
 0.06736842, 0.08865857
 0.06526316, 0.24415518
 0.04210526, 0.10176031
 0.09473684, 0.1532767
 0.17052632, 0.13773724
 0.13684211, 0.13088702
 0.08631579, 0.0983523
 0.30736842, 0.22724965
 0.19157895, 0.29541019
 0.07157895, 0.10096569
 0.22315789, 0.20708279
 0.49894737, 0.43722299
 0.32842105, 0.51834989
 0.08421053, 0.10207652
 0.25263158, 0.23329496
 0.42947368, 0.23253492
 0.31789474, 0.14084747
 0.16631579, 0.09211349
 0.34947368, 0.33825102
 0.69263158, 0.52180004
 0.20631579, 0.12879735
 0.33052632, 0.25050488
 0.45263158, 0.34430355
 0.51578947, 0.4509303
 0.03578947, 0.05460602
 0.46105263, 0.44328803
 0.15157895, 0.09728126
 0.22315789, 0.09187321
 0.16421053, 0.25498441
 0.10526316, 0.13679214
 0.04842105, 0.07172784
 0.10315789, 0.12195347
 0.33684211, 0.33317101
 0.03789474, 0.06031911
 0.22947368, 0.23464632
 0.40631579, 0.34213817
 0.07368421, 0.1286813
 0.09473684, 0.13533533
 0.02315789, 0.0696325
 0.34947368, 0.45056587
 0.56421053, 0.58477825
 0.07368421, 0.09618115
 0.20210526, 0.14571628
 0.08631579, 0.08268863
 0.03578947, 0.18773703
 0.24842105, 0.10559268
 0.21684211, 0.30079603
 0.14947368, 0.18007754
 0.41263158, 0.43613356
 0.02315789, 0.07009663
 0.12631579, 0.05383925
 0.08, 0.11073278
 0.49684211, 0.37919986
 0.10105263, 0.1891692
 0.27578947, 0.25577304
 0.19157895, 0.11500646
 0.09473684, 0.16788672
 0.30736842, 0.30727378
 0.04421053, 0.05743824
 0.55789474, 0.50533682
 0.09052632, 0.14560489
 0.11578947, 0.15347844
 0.60210526, 0.53920031
 0.2, 0.16554117
 0.50315789, 0.47621489
 0.06526316, 0.3210578
 0.14526316, 0.14590147
 0.40210526, 0.37725949
 0.06947368, 0.0695447
 0.18947368, 0.14270622
 0.40631579, 0.33636022
 0.32, 0.18570748
 0.34526316, 0.26814392
 0.04421053, 0.22842494
 0.02526316, 0.08285378
 0.10736842, 0.0680484
 0.19368421, 0.21717586
 0.19789474, 0.36930305
 0.45263158, 0.41312158
 0.18105263, 0.13059753
 0.12, 0.0954497
 0.08210526, 0.08172363
 0.17684211, 0.28632012
 0.14947368, 0.13941996
 0.09473684, 0.12698823
 0.16631579, 0.11728056
 0.49894737, 0.47443497
 0.08421053, 0.13015343
 0.27578947, 0.23834583
 0.16631579, 0.20381406
 0.43157895, 0.27650058
 0.05473684, 0.06500728
 0.10947368, 0.07285626
 0.29684211, 0.38717866
 0.06105263, 0.09714769
 0.10736842, 0.21472892
 0.08631579, 0.10418297
 0.52210526, 0.27435166
 0.01473684, 0.10743837
 0.09684211, 0.07365641
 0.15368421, 0.12946361
 0.05684211, 0.1005311
 0.16421053, 0.13675533
 0.16210526, 0.15630735
 0.02736842, 0.04813978
 0.22947368, 0.3657423
 0.32631579, 0.51823282
 0.49052632, 0.32147482
 0.20210526, 0.10176036
 0.46315789, 0.35519627
 0.57052632, 0.33443952
 0.16210526, 0.31118774
 0.05052632, 0.11565639
 0.28210526, 0.32637006
 0.02105263, 0.06796592
 0.11578947, 0.1063509
 0.30315789, 0.28333974
 0.11578947, 0.16202298
 0.31578947, 0.19358541
 0.61894737, 0.55625737
 0.26315789, 0.49386388
 0.09052632, 0.06031983
 0.12842105, 0.13138521
 0.02947368, 0.08164725
 0.20421053, 0.44022101
 0.12842105, 0.07825162
 0.29052632, 0.20885797
 0.01894737, 0.07036255
 0.15789474, 0.1322415
 0.24, 0.29109883
 0.08842105, 0.17584743
 0.35157895, 0.3682057
 0.13263158, 0.20495069
 0.15789474, 0.17432995
 0.38736842, 0.1721884
 0.52210526, 0.45640266
 0.02736842, 0.10087492
 0.30736842, 0.53590155
 0.44631579, 0.39901465
 0.18105263, 0.24714117
 0.11578947, 0.09634574
 0.12421053, 0.07717407
 0.05052632, 0.08474062
 0.02526316, 0.07043494
 0.28, 0.14717749
 0.08210526, 0.06146373
 0.41052632, 0.3259255
 0.40842105, 0.27981222
 0.40210526, 0.3026171
 0.15789474, 0.15347767
 0.19368421, 0.14172104
 0.14526316, 0.16401073
 0.08842105, 0.077114
 0.26105263, 0.30395356
 0.11157895, 0.23865499
 0.05473684, 0.16543901
 0.07368421, 0.11512791
 0.06526316, 0.12379915
 0.01052632,-0.00035368
 0.17473684, 0.30069107
 0.26947368, 0.28121564
 0.25684211, 0.3275938
 0.28631579, 0.20863771
 0.07368421, 0.25583297
 0.12, 0.13303131
 0.05263158, 0.14979075
 0.42526316, 0.4318881
 0.57894737, 0.49446964
 0.18947368, 0.26242486
 0.17894737, 0.10667211
 0.49052632, 0.6265285
 0.11789474, 0.24708265
 0.13684211, 0.21735866
 0.13473684, 0.34887046
 0.16631579, 0.48394221
 0.17052632, 0.13627693
 0.03789474, 0.10741651
 0.09684211, 0.13036513
 0.12842105, 0.08875455
 0.26526316, 0.15572765
 0.64631579, 0.36746001
 0.21263158, 0.27533406
 0.28631579, 0.08793572
 0.69684211, 0.11544631
 0.17894737, 0.32549843
 0.52, 0.43414652
 0.19578947, 0.1453087
 0.10526316, 0.0835381
 0.66736842, 0.42418087
 0.25473684, 0.23304017
 0.15368421, 0.13375817
 0.24, 0.24778056
 0.26526316, 0.27073529
 0.33684211, 0.24432476
 0.12210526, 0.1991308
 0.04842105, 0.05902709
 0.39789474, 0.28776741
 0.33684211, 0.44912457
 0.11157895, 0.16588496
 0.19789474, 0.15280125
 0.18315789, 0.15057182
 0.22315789, 0.19598198
 0.56421053, 0.45322537
 0.07789474, 0.1182826
 0.64631579, 0.49013412
 0.08631579, 0.09634764
 0.43157895, 0.54738969
 0.12421053, 0.14384636
 0.70315789, 0.58946574
 0.04631579, 0.06312262
 0.35789474, 0.36198992
 0.04631579, 0.13321394
 0.09894737, 0.12248926
 0.09894737, 0.09904334
 0.13894737, 0.31368268
 0.32210526, 0.3338052
 0.14526316, 0.09336643
 0.13684211, 0.31108731
 0.52421053, 0.60402328
 0.15157895, 0.16325849
 0.06105263, 0.39998728
 0.68, 0.5438838
 0.55157895, 0.56630588
 0.05473684, 0.11959417
 0.03789474, 0.09472789
 0.17684211, 0.26060003
 0.10105263, 0.17680186
 0.12210526, 0.18523206
 0.29052632, 0.34200561
 0.08210526, 0.16837408
 0.16421053, 0.13858065
 0.20631579, 0.11028893
 0.81894737, 0.50505131
 0.22736842, 0.40904796
 0.10526316, 0.06438483
 0.40842105, 0.34666398
 0.10105263, 0.07142751
 0.10315789, 0.08830087
 0.15157895, 0.07058938
 0.09473684, 0.14037493
 0.19578947, 0.15047738
 0.18105263, 0.28239587
 0.26315789, 0.40517914
 0.49052632, 0.4455449
 0.60631579, 0.44933626
 0.21473684, 0.16474964
 0.35157895, 0.33450541
 0.47789474, 0.4470576
 0.15578947, 0.22803132
 0.14315789, 0.27988485
 0.04842105, 0.11957221
 0.09263158, 0.13189474
 0.11578947, 0.40842116
 0.00631579, 0.06134117
 0.10526316, 0.09893748
 0.29684211, 0.25555769
 0.04842105, 0.09631465
 0.17473684, 0.24084264
 0.18736842, 0.09087513
 0.50526316, 0.17331098
 0.58315789, 0.40866941
 0.11578947, 0.13135278
 0.09052632, 0.43101773
 0.20631579, 0.39874154
 0.29263158, 0.17930403
 0.24842105, 0.14499347
 0.09684211, 0.29904538
 0.18736842, 0.23973151
 0.12421053, 0.1539613
 0.12210526, 0.12181643
 0.37263158, 0.33089608
 0.04, 0.10978
 0.36, 0.24570711
 0.23578947, 0.31588078
 0.04210526, 0.08750503
 0.04, 0.08913623
 0.20842105, 0.23678789
 0.15157895, 0.120141
 0.22526316, 0.19402215
 0.12842105, 0.247462
 0.46736842, 0.52325475
 0.04842105, 0.0466878
 0.03368421, 0.10060446
 0.19157895, 0.13107589
 0.28421053, 0.31871843
 0.25684211, 0.21660605
 0.41473684, 0.44658804
 0.45263158, 0.27355257
 0.03578947, 0.1286324
 0.15368421, 0.15855379
 0.11368421, 0.11977315
 0.13263158, 0.12127872
 0.24631579, 0.34859735
 0.29263158, 0.4062385
 0.34105263, 0.39321274
 0.38526316, 0.18380009
 0.17052632, 0.13013148
 0.15157895, 0.18591039
 0.38526316, 0.5308755
 0.01894737, 0.08088395
 0.09263158, 0.09452067
 0.09263158, 0.07246301
 0.18105263, 0.1658313
 0.50736842, 0.39762104
 0.18105263, 0.08906592
 0.16, 0.17948738
 0.46736842, 0.11649737
 0.07789474, 0.07683922
 0.14947368, 0.16781907
 0.38105263, 0.48769218
 0.12, 0.10610433
 0.29052632, 0.27613887
 0.09894737, 0.13007541
 0.31789474, 0.24194363
 0.01473684, 0.04582639
 0.19578947, 0.14393917
 0.18526316, 0.208316
 0.34947368, 0.15592237
 0.06315789, 0.06399123
 0.18947368, 0.11923777
 0.05894737, 0.04563709
 0.55157895, 0.48538157
 0.35157895, 0.40165991
 0.34315789, 0.11547428
 0.08842105, 0.08592811
 0.44421053, 0.35545993
 0.29263158, 0.45585239
 0.4, 0.40721458
 0.44631579, 0.38806278
 0.30105263, 0.34308347
 0.15157895, 0.06604469
 0.11789474, 0.18082404
 0.14736842, 0.22048454
 0.60631579, 0.48469192
 0.16631579, 0.24438912
 0.10736842, 0.07980445
 0.23157895, 0.35848504
 0.13894737, 0.14674369
 0.26947368, 0.26886228
 0.55578947, 0.35779279
 0.11368421, 0.13512486
 0.28, 0.18790704
 0.08, 0.11599796
 0.24, 0.25026771
 0.10526316, 0.22292404
 0.13263158, 0.1557276
 0.40842105, 0.41523588
 0.51789474, 0.43676072
 0.18105263, 0.21258517
 0.22526316, 0.30447665
 0.31578947, 0.30043164
 0.07368421, 0.08982417
 0.11578947, 0.22920081
 0.11368421, 0.12380034
 0.31789474, 0.3290568
 0.15368421, 0.24228878
 0.06736842, 0.10363738
 0.09263158, 0.18590327
 0.12631579, 0.22817017
 0.29894737, 0.45347583
 0.08421053, 0.06564306
 0.38315789, 0.30494428
 0.09052632, 0.08662115
 0.30947368, 0.46631992
 0.06315789, 0.10758667
 0.29684211, 0.27893203
 0.04842105, 0.14874886
 0.18315789, 0.03400727
 0.52210526, 0.22505821
 0.15789474, 0.15021999
 0.27789474, 0.26235533
 0.15157895, 0.14694497
 0.31578947, 0.23496656
 0.30315789, 0.14827651
 0.53052632, 0.47013032
 0.01052632, 0.12867926
 0.05263158, 0.14125165
 0.15368421, 0.15081897
 0.10315789, 0.14227174
 0.06947368, 0.12843052
 0.12842105, 0.18075266
 0.31368421, 0.27227539
 0.09052632, 0.10124108
 0.08421053, 0.1159361
 0.26736842, 0.38647246
 0.05473684, 0.08894308
 0.28631579, 0.34618479
 0.08, 0.09215362
 0.02105263, 0.18946859
 0.11578947, 0.09978026
 0.18526316, 0.32858455
 0.08, 0.10773857
 0.60210526, 0.38715297
 0.17263158, 0.1301983
 0.11157895, 0.33332109
 0.10105263, 0.18002418
 0.16842105, 0.18377329
 0.16, 0.2195299
 0.13894737, 0.09942247
 0.08842105, 0.08041179
 0.21263158, 0.39963657
 0.14526316, 0.08946833
 0.26105263, 0.37687278
 0.09263158, 0.26192531
 0.04421053, 0.05415879
 0.05894737, 0.10470119
 0.27578947, 0.21303205
 0.10736842, 0.2322358
 0.18947368, 0.10051094
 0.06315789, 0.13001078
 0.34736842, 0.54849654
 0.27789474, 0.30037561
 0.19578947, 0.42271
 0.10105263, 0.17111062
 0.33894737, 0.35576379
 0.50736842, 0.36804318
 0.22526316, 0.37156293
 0.13263158, 0.10994115
 0.04421053, 0.16832979
 0.02736842, 0.13749139
 0.10315789, 0.04310511
 0.13894737, 0.0911441
 0.58315789, 0.53108996
 0.14526316, 0.19493338
 0.11368421, 0.2159439
 0.55789474, 0.55949396
 0.05684211, 0.22172788
 0.15368421, 0.18446171
 0.14736842, 0.20803936
 0.19157895, 0.28757906
 0.12421053, 0.07896017
 0.40210526, 0.31241271
 0.18736842, 0.1526913
 0.12631579, 0.15738922
 0.14526316, 0.20602556
 0.20421053, 0.2210222
 0.06315789, 0.07116513
 0.01684211, 0.06034531
 0.19157895, 0.19531143
 0.17052632, 0.31156096
 0.15157895, 0.08843857
 0.24, 0.16018286
 0.14526316, 0.1203444
 0.42947368, 0.45742851
 0.37052632, 0.37273073
 0.43157895, 0.40394855
 0.12, 0.14177227
 0.09894737, 0.12700844
 0.20631579, 0.21551435
 0.26736842, 0.24614784
 0.06105263, 0.14228626
 0.37052632, 0.4149316
 0.06947368, 0.09729825
 0.51368421, 0.52469933
 0.18526316, 0.15011324
 0.06947368, 0.08189724
 0.03578947, 0.14788818
 0.12842105, 0.38897371
 0.08842105, 0.06180707
 0.38736842, 0.38843721
 0.08842105, 0.08193319
 0.16421053, 0.12499668
 0.84631579, 0.51575458
 0.18947368, 0.36586061
 0.02947368, 0.04401857
 0.08421053, 0.08798403
 0.70947368, 0.73485172
 0.69263158, 0.59977168
 0.14736842, 0.13486069
 0.09894737, 0.19263574
 0.53473684, 0.45398778
 0.35368421, 0.25120279
 0.05473684, 0.08379096
 0.43157895, 0.45441973
 0.06947368, 0.09121683
 0.30947368, 0.11598374
 0.26947368, 0.1625811
 0.04, 0.11896406
 0.43789474, 0.37638146
 0.17263158, 0.16221932
 0.14947368, 0.28935051
 0.22315789, 0.32807481
 0.26315789, 0.28683525
 0.14315789, 0.0872117
 0.09473684, 0.17813182
 0.11578947, 0.06031989
 0.59157895, 0.54201061
 0.04210526, 0.07617767
 0.26105263, 0.16415556
 0.07368421, 0.15347758
 0.10105263, 0.0718381
 0.10526316, 0.08102159
 0.56421053, 0.48467803
 0.37894737, 0.44891447
 0.05684211, 0.03785972
 0.47578947, 0.46955901
 0.09052632, 0.14570242
 0.08, 0.15050095
 0.28210526, 0.17308548
 0.08421053, 0.0942155
 0.24842105, 0.46425334
 0.15368421, 0.26669472
 0.19157895, 0.19841769
 0.53894737, 0.55329502
 0.23789474, 0.36728844
 0.09052632, 0.15471804
 0.10105263, 0.07717299
 0.14736842, 0.08191149
 0.24, 0.11002098
 0.12210526, 0.12971002
 0.29894737, 0.27838859
 0.04210526, 0.10976207
 0.11789474, 0.14982873
 0.13473684, 0.11209406
 0.43368421, 0.56484586
 0.17684211, 0.22451684
 0.39789474, 0.28654912
 0.14526316, 0.21554793
 0.60842105, 0.59439874
 0.35157895, 0.22267701
 0.11157895, 0.11611508
 0.16210526, 0.23866129
 0.78526316, 0.54257554
 0.70736842, 0.63069391
 0.32842105, 0.24719292
 0.25473684, 0.2494846
 0.15578947, 0.08173873
 0.38526316, 0.1361739
 0.44421053, 0.59828663
 0.38315789, 0.44460025
 0.07157895, 0.10656677
 0.24, 0.26015237
 0.31578947, 0.34993625
 0.16631579, 0.11821504
 0.10947368, 0.11316177
 0.44, 0.22608668
 0.61473684, 0.38048851
 0.30947368, 0.211234
 0.28842105, 0.47587985
 0.54526316, 0.22685269
 0.32842105, 0.35392132
 0.03578947, 0.06223418
 0.71789474, 0.42405257
 0.06736842, 0.07454874
 0.68210526, 0.5076052
 0.19789474, 0.29950523
 0.14105263, 0.13687488
 0.17263158, 0.21659781
 0.08, 0.17712538
 0.22105263, 0.29311198
 0.25263158, 0.366817
 0.25052632, 0.2563768
 0.24842105, 0.15911582
 0.12842105, 0.26934937
 0.25052632, 0.46463212
 0.27368421, 0.27637681
 0.33894737, 0.42368105
 0.06315789, 0.10475516
 0.09263158, 0.11214669
 0.04842105, 0.09473021
 0.12842105, 0.06005722
 0.18736842, 0.24152726
 0.08210526, 0.07434763
 0.64, 0.43189955
 0.02526316, 0.06119224
 0.22315789, 0.20721275
 0.59578947, 0.38642615
 0.53894737, 0.13666433
 0.10736842, 0.09014587
 0.22105263, 0.25072122
 0.27789474, 0.20185773
 0.32, 0.18040144
 0.14315789, 0.14508069
 0.07578947, 0.07113482
 0.16421053, 0.21167961
 0.32421053, 0.33112806
 0.29052632, 0.24932227
 0.13684211, 0.14365581
 0.23789474, 0.16603398
 0.13263158, 0.14979395
 0.10315789, 0.11280711
 0.37894737, 0.42324233
 0.32631579, 0.27201012
 0.76421053, 0.55481666
 0.06947368, 0.06775323
 0.10736842, 0.20640844
 0.04210526, 0.07003939
 0.19368421, 0.22445939
 0.20421053, 0.22158897
 0.30526316, 0.23097698
 0.10736842, 0.04373538
 0.66105263, 0.4020232
 0.05052632, 0.12305014
 0.10105263, 0.0969128
 0.15578947, 0.23072979
 0.31368421, 0.1286324
 0.21894737, 0.10154957
 0.13894737, 0.17790364
 0.17894737, 0.36945406
 0.62105263, 0.4737848
 0.37684211, 0.48693663
 0.23578947, 0.40374613
 0.13052632, 0.11100647
 0.22105263, 0.26222065
 0.18947368, 0.168672
 0.23368421, 0.20411469
 0.57684211, 0.44429415
 0.08842105, 0.19103439
 0.09263158, 0.10234936
 0.04, 0.08217408
 0.06736842, 0.02884984
 0.13263158, 0.14553481
 0.11157895, 0.09928474
 0.07789474, 0.10704286
 0.05473684, 0.10354407
 0.13473684, 0.11507605
 0.34315789, 0.24771242
 0.05684211, 0.10144918
 0.16210526, 0.31110415
 0.07578947, 0.13982059
 0.27368421, 0.22932303
 0.18526316, 0.14822094
 0.15578947, 0.26669243
 0.05052632, 0.12602854
 0.58105263, 0.54213339
 0.16, 0.40785915
 0.07368421, 0.04005601
 0.02315789, 0.22692524
 0.18315789, 0.1844655
 0.18105263, 0.0950969
 0.07789474, 0.02538948
 0.24842105, 0.10989572
 0.07578947, 0.07584995
 0.02736842, 0.07081763
 0.07789474, 0.08505176
 0.16631579, 0.08805716
 0.54526316, 0.34069979
 0.09052632, 0.10935752
 0.07578947, 0.08690456
 0.46736842, 0.28590411
 0.05263158, 0.08139318
 0.08421053, 0.07840538
 0.24842105, 0.22702496
 0.13263158, 0.10210006
 0.04421053, 0.11074308
 0.18947368, 0.37411368
 0.62947368, 0.45516419
 0.54526316, 0.36406061
 0.04631579, 0.12524962
 0.07368421, 0.27558866
 0.08, 0.09466045
 0.63789474, 0.57559913
 0.04631579, 0.16704501
 0.37894737, 0.37869954
 0.30105263, 0.24803136
 0.09052632, 0.20883337
 0.11789474, 0.14458779
 0.05473684, 0.11149417
 0.33894737, 0.24594873
 0.44421053, 0.33759189
 0.08631579, 0.19693395
 0.08631579, 0.11228038
 0.10947368, 0.18806504
 0.23157895, 0.17813003
 0.16421053, 0.29484332
 0.41894737, 0.07929756
 0.24, 0.1767368
 0.72421053, 0.52959657
 0.04421053, 0.08654918
 0.10526316, 0.10071845
 0.28, 0.17459863
 0.09473684, 0.11750762
 0.11578947, 0.14014825
 0.27578947, 0.33625931
 0.56421053, 0.60065615
 0.18315789, 0.13778251
 0.34736842, 0.42466044
 0.19157895, 0.22197017
 0.35789474, 0.37787896
 0.12, 0.08708893
 0.06526316, 0.15230384
 0.73473684, 0.4397397
 0.16421053, 0.20794387
 0.46315789, 0.26060417
 0.49894737, 0.31810623
 0.14947368, 0.17268412
 0.6, 0.37919456
 0.03157895, 0.09601757
 0.34315789, 0.43131626
 0.57473684, 0.33401227
 0.13894737, 0.19966613
 0.13473684, 0.09753014
 0.49894737, 0.53823727
 0.50105263, 0.33594984
 0.21894737, 0.16775355
 0.18526316, 0.1906741
 0.67368421, 0.55838406
 0.61473684, 0.49506742
 0.05473684, 0.10414168
 0.03157895, 0.04255556
 0.18947368, 0.1791511
 0.14526316, 0.12681866
 0.27578947, 0.16679417
 0.08421053, 0.1465589
 0.07578947, 0.1066561
 0.10526316, 0.11377473
 0.08842105, 0.38757023
 0.36, 0.45506337
 0.22947368, 0.3813014
 0.09684211, 0.12075558
 0.14947368, 0.13089977
 0.29473684, 0.26682705
 0.23578947, 0.20283532
 0.14736842, 0.26791161
 0.65894737, 0.63265902
 0.08631579, 0.12891319
 0.26105263, 0.2062477
 0.04842105, 0.10190642
 0.19368421, 0.17321227
 0.17894737, 0.1644838
 0.29052632, 0.17608248
 0.11789474, 0.09091382
 0.02947368, 0.14740114
 0.10315789, 0.1368852
 0.14315789, 0.06258535
 0.15157895, 0.22940499
 0.12421053, 0.15528345
 0.07578947, 0.32032496
 0.02947368, 0.06001335
 0.40842105, 0.28928635
 0.44, 0.42069441
 0.42105263, 0.47265193
 0.06736842, 0.07324658
 0.35368421, 0.22874542
 0.04631579, 0.06858617
 0.52631579, 0.48016083
 0.21263158, 0.15050393
 0.62315789, 0.46089283
 0.06736842, 0.20350829
 0.24, 0.26396486
 0.21263158, 0.26834387
 0.25684211, 0.12326802
 0.68842105, 0.57670349
 0.12210526, 0.1368778
 0.24210526, 0.52346855
 0.16631579, 0.05995525
 0.08842105, 0.214964
 0.08, 0.12024851
 0.08210526, 0.07840283
 0.02526316, 0.1390426
 0.75157895, 0.55349582
 0.09052632, 0.08368486
 0.06947368, 0.0814469
 0.33473684, 0.46725148
 0.10526316, 0.09401026
 0.39789474, 0.39951783
 0.09894737, 0.07426234
 0.12210526, 0.06351697
 0.18947368, 0.20910934
 0.56210526, 0.33865577
 0.16421053, 0.04947002
 0.2, 0.16500393
 0.15578947, 0.41590145
 0.07789474, 0.15201484
 0.13684211, 0.16571984
 0.20842105, 0.25575307
 0.61263158, 0.4243381
 0.16421053, 0.24728441
 0.35578947, 0.2148737
 0.10526316, 0.12271968
 0.65263158, 0.60376537
 0.53263158, 0.27911812
 0.04631579, 0.11433218
 0.17052632, 0.07635744
 0.26736842, 0.52769399
 0.30315789, 0.14355496
 0.12421053, 0.1044616
 0.26947368, 0.434286
 0.11368421, 0.10516645
 0.16842105, 0.20906855
 0.29684211, 0.26155677
 0.16210526, 0.20668703
 0.34526316, 0.28485334
 0.72842105, 0.56392306
 0.32421053, 0.24159005
 0.19157895, 0.11177266
 0.17263158, 0.19942315
 0.01684211, 0.07686947
 0.29684211, 0.29040998
 0.65263158, 0.68904495
 0.36631579, 0.24455196
 0.14947368, 0.27718669
 0.23789474, 0.23832111
 0.06105263, 0.10127299
 0.09052632, 0.19243351
 0.12421053, 0.13466451
 0.25894737, 0.17712551
 0.28421053, 0.50148916
 0.13473684, 0.11136796
 0.13684211, 0.15402539
 0.68, 0.47823113
 0.26315789, 0.43146947
 0.05052632, 0.08339068
 0.70526316, 0.64878577
 0.13263158, 0.10279222
 0.19157895, 0.25007766
 0.06947368, 0.2271674
 0.52842105, 0.53816104
 0.02526316, 0.09899206
 0.14105263, 0.07482389
 0.10105263, 0.10392818
 0.36842105, 0.31264329
 0.55578947, 0.43846762
 0.11157895, 0.18750361
 0.32210526, 0.2685864
 0.08842105, 0.08535221
 0.48631579, 0.27840298
 0.54105263, 0.3595643
 0.33894737, 0.32788998
 0.13052632, 0.14536715
 0.19789474, 0.23658292
 0.21894737, 0.28382772
 0.61684211, 0.3595942
 0.28, 0.2210294
 0.12210526, 0.12534869
 0.09473684, 0.09553584
 0.01473684, 0.01630779
 0.10315789, 0.08275099
 0.21263158, 0.56057757
 0.14526316, 0.09757312
 0.18315789, 0.18306349
 0.31789474, 0.33858162
 0.20421053, 0.13699311
 0.02947368, 0.07672389
 0.12631579, 0.19127342
 0.06105263, 0.06475247
 0.06105263, 0.16017261
 0.03578947, 0.07552318
 0.28421053, 0.3166146
 0.16842105, 0.20984098
 0.08210526, 0.09321745
 0.35578947, 0.28142077
 0.06315789, 0.03724
 0.04631579, 0.17715943
 0.46105263, 0.52371806
 0.18736842, 0.37630486
 0.09473684, 0.12758236
 0.10526316, 0.13808586
 0.13052632, 0.15577924
 0.26105263, 0.29594702
 0.02526316, 0.07131852
 0.39368421, 0.456388
 0.08210526, 0.11585747
 0.50105263, 0.48376113
 0.09894737, 0.0723436
 0.60210526, 0.40000451
 0.10526316, 0.08393028
 0.20421053, 0.24460217
 0.4, 0.34651092
 0.15157895, 0.24127898
 0.22526316, 0.16292764
 0.13052632, 0.16658953
 0., 0.1155646
 0.51157895, 0.28407216
 0.08842105, 0.08713542
 0.11578947, 0.11113706
 0.03368421, 0.20617497
 0.06315789, 0.09656508
 0.14736842, 0.1193306
 0.07578947, 0.09607504
 0.33473684, 0.40947226
 0.03578947, 0.10283762
 0.15578947, 0.13262561
 0.10526316, 0.10816783
 0.12, 0.23761776
 0.14315789, 0.13573521
 0.59578947, 0.43556166
 0.09894737, 0.11231481
 0.05263158, 0.06820972
 0.60842105, 0.40717188
 0.44842105, 0.37636995
 0.18315789, 0.24473625
 0.09894737, 0.13266595
 0.14947368, 0.23482938
 0.30315789, 0.19733496
 0.06315789, 0.07528795
 0.20210526, 0.29157364
 0.09894737, 0.13738772
 0.13263158, 0.09785794
 0.40210526, 0.40793324
 0.68, 0.65476364
 0.06526316, 0.05490784
 0.67157895, 0.55239588
