tar,out
 0.14105263, 0.18298459
 0.24210526, 0.2191359
 0.18736842, 0.27739832
 0.14526316, 0.22889191
 0.08421053, 0.11805823
 0.05894737, 0.14903723
 0.07578947, 0.10658674
 0.35157895, 0.35494992
 0.62105263, 0.39599201
 0.12210526, 0.16541183
 0.21052632, 0.1874361
 0.34526316, 0.18803695
 0.07368421, 0.15460663
 0.07157895, 0.15078411
 0.38315789, 0.39522472
 0.15368421, 0.11331005
 0.17684211, 0.13494749
 0.05894737, 0.11873724
 0.21684211, 0.32816714
 0.04421053, 0.08414595
 0.18315789, 0.17567569
 0.39368421, 0.37712452
 0.07368421, 0.09800839
 0.06105263, 0.10606731
 0.11789474, 0.11756311
 0.12631579, 0.17519814
 0.08210526, 0.10564253
 0.14105263, 0.17976022
 0.47368421, 0.50475705
 0.43368421, 0.35835308
 0.13052632, 0.2304107
 0.19368421, 0.16047215
 0.16, 0.36254621
 0.10526316, 0.09748444
 0.18526316, 0.2182367
 0.45684211, 0.43128732
 0.06947368, 0.11177297
 0.09894737, 0.12817252
 0.04421053, 0.14317083
 0.07368421, 0.1070691
 0.29473684, 0.11374359
 0.08421053, 0.13893874
 0.02736842, 0.10891335
 0.06315789, 0.12562206
 0.19578947, 0.23321375
 0.17052632, 0.23321375
 0.11368421, 0.13660109
 0.06526316, 0.09744488
 0.20842105, 0.22108449
 0.24421053, 0.21237595
 0.13894737, 0.17199516
 0.03157895, 0.1218842
 0.09473684, 0.09115723
 0.06736842, 0.12967816
 0.6, 0.49256924
 0.18526316, 0.19852269
 0.06105263, 0.1269633
 0.06526316, 0.10516199
 0.08210526, 0.09871328
 0.27368421, 0.25110912
 0.32631579, 0.23321375
 0.12631579, 0.10314165
 0.16210526, 0.11841696
 0.91789474, 0.397443
 0.32842105, 0.20412207
 0.60210526, 0.50350976
 0.26947368, 0.12523714
 0.28210526, 0.13749185
 0.05684211, 0.14537552
 0.34105263, 0.38186899
 0.48631579, 0.46244723
 0.15157895, 0.36415941
 0.30315789, 0.17375869
 0.04210526, 0.10059613
 0.29263158, 0.21000552
 0.22315789, 0.22612095
 0.03789474, 0.11045347
 0.27368421, 0.22384253
 0.03368421, 0.13071948
 0.12631579, 0.09390321
 0.39578947, 0.21104431
 0.26736842, 0.15935126
 0.08631579, 0.17023422
 0.04842105, 0.0929468
 0.52631579, 0.54422951
 0.29894737, 0.29064983
 0.37684211, 0.36011064
 0.11157895, 0.09430017
 0.13894737, 0.16925126
 0.31368421, 0.23015775
 0.08210526, 0.10877817
 0.29684211, 0.15243575
 0.04842105, 0.11299888
 0.12, 0.3084321
 0.11578947, 0.17058285
 0.21263158, 0.23321375
 0.61473684, 0.37917686
 0.07368421, 0.11262512
 0.16210526, 0.22849457
 0.45894737, 0.31075129
 0.05684211, 0.12333867
 0.08842105, 0.11192456
 0.04421053, 0.09524883
 0.36421053, 0.38644832
 0.18947368, 0.18823841
 0.35789474, 0.45782623
 0.16421053, 0.11932539
 0.50105263, 0.45150876
 0.26526316, 0.21274449
 0.25052632, 0.10787189
 0.33052632, 0.15795317
 0.18105263, 0.13984638
 0.54736842, 0.32553965
 0.68631579, 0.39878973
 0.03578947, 0.09644024
 0.06105263, 0.06438714
 0.05684211, 0.15579234
 0.15789474, 0.14794828
 0.69263158, 0.64079607
 0.06947368, 0.11675744
 0.28210526, 0.14623466
 0.61263158, 0.46349972
 0.19578947, 0.16436188
 0.25263158, 0.21892536
 0.09473684, 0.10494661
 0.28421053, 0.32434046
 0.09263158, 0.10263111
 0.19789474, 0.2086021
 0.72842105, 0.59301692
 0.60842105, 0.4041262
 0.03789474, 0.11104281
 0.10736842, 0.11789452
 0.08210526, 0.12354949
 0.09684211, 0.13997956
 0.08, 0.12237385
 0.2, 0.11383383
 0.13684211, 0.11927513
 0.42526316, 0.44625765
 0.36842105, 0.35010934
 0.20631579, 0.24398245
 0.10736842, 0.10537392
 0.06315789, 0.12666243
 0.57684211, 0.50706679
 0.22736842, 0.46301275
 0.11368421, 0.11913385
 0.58526316, 0.39617425
 0.25684211, 0.22702557
 0.24210526, 0.38068852
 0.29684211, 0.17716549
 0.14315789, 0.14716868
 0.12, 0.26554343
 0.24421053, 0.19266775
 0.66736842, 0.28983355
 0.15578947, 0.2073321
 0.32421053, 0.35530925
 0.02947368, 0.15767819
 0.15578947, 0.24852997
 0.03157895, 0.10899954
 0.10105263, 0.11155249
 0.17263158, 0.23321375
 0.11368421, 0.13634576
 0.07157895, 0.23321375
 0.02315789, 0.08724055
 0.14947368, 0.34704316
 0.03789474, 0.12032427
 0.04842105, 0.19127163
 0.26315789, 0.27125674
 0.21894737, 0.23321375
 0.4, 0.39149222
 0.04, 0.09979951
 0.28, 0.15677068
 0.15157895, 0.12681161
 0.74736842, 0.632195
 0.43578947, 0.3338643
 0.07789474, 0.12938897
 0.06736842, 0.10217965
 0.06526316, 0.22712281
 0.04210526, 0.09533894
 0.09473684, 0.1993899
 0.17052632, 0.16320696
 0.13684211, 0.123257
 0.08631579, 0.16890445
 0.30736842, 0.20416072
 0.19157895, 0.20235674
 0.07157895, 0.10209525
 0.22315789, 0.18837905
 0.49894737, 0.34460777
 0.32842105, 0.33897746
 0.08421053, 0.11047903
 0.25263158, 0.23321375
 0.42947368, 0.18442421
 0.31789474, 0.13748126
 0.16631579, 0.21116303
 0.34947368, 0.23985474
 0.69263158, 0.49269786
 0.20631579, 0.17470796
 0.33052632, 0.34308565
 0.45263158, 0.40228301
 0.51578947, 0.37733293
 0.03578947, 0.12409791
 0.46105263, 0.39654723
 0.15157895, 0.12261391
 0.22315789, 0.09749211
 0.16421053, 0.23669966
 0.10526316, 0.13176289
 0.04842105, 0.11231643
 0.10315789, 0.22951663
 0.33684211, 0.34381923
 0.03789474, 0.10728545
 0.22947368, 0.23321375
 0.40631579, 0.29623252
 0.07368421, 0.12887815
 0.09473684, 0.11124172
 0.02315789, 0.14202793
 0.34947368, 0.33445978
 0.56421053, 0.53854799
 0.07368421, 0.12771386
 0.20210526, 0.24267039
 0.08631579, 0.11429221
 0.03578947, 0.23321375
 0.24842105, 0.12162584
 0.21684211, 0.24283166
 0.14947368, 0.20000711
 0.41263158, 0.42059743
 0.02315789, 0.10291654
 0.12631579, 0.11157271
 0.08, 0.12613791
 0.49684211, 0.20057069
 0.10105263, 0.12877157
 0.27578947, 0.23321375
 0.19157895, 0.16055281
 0.09473684, 0.13283825
 0.30736842, 0.29911214
 0.04421053, 0.11209999
 0.55789474, 0.44494313
 0.09052632, 0.17244324
 0.11578947, 0.14803985
 0.60210526, 0.54334486
 0.2, 0.15364198
 0.50315789, 0.46114585
 0.06526316, 0.29547247
 0.14526316, 0.14022154
 0.40210526, 0.3416236
 0.06947368, 0.11919878
 0.18947368, 0.17940985
 0.40631579, 0.3108038
 0.32, 0.2875886
 0.34526316, 0.24063568
 0.04421053, 0.10625292
 0.02526316, 0.12129245
 0.10736842, 0.09611772
 0.19368421, 0.23321375
 0.19789474, 0.24349605
 0.45263158, 0.39203769
 0.18105263, 0.13605127
 0.12, 0.11722053
 0.08210526, 0.10630348
 0.17684211, 0.32536966
 0.14947368, 0.10711397
 0.09473684, 0.1137446
 0.16631579, 0.18849494
 0.49894737, 0.45864117
 0.08421053, 0.14406052
 0.27578947, 0.23625064
 0.16631579, 0.13486393
 0.43157895, 0.32827201
 0.05473684, 0.10901734
 0.10947368, 0.12018004
 0.29684211, 0.3578003
 0.06105263, 0.10503705
 0.10736842, 0.21287245
 0.08631579, 0.10482766
 0.52210526, 0.29783785
 0.01473684, 0.11442278
 0.09684211, 0.09538215
 0.15368421, 0.13477378
 0.05684211, 0.11285259
 0.16421053, 0.14320031
 0.16210526, 0.13177162
 0.02736842, 0.09218317
 0.22947368, 0.26618519
 0.32631579, 0.39638788
 0.49052632, 0.34382874
 0.20210526, 0.18883406
 0.46315789, 0.3165772
 0.57052632, 0.40686619
 0.16210526, 0.25174475
 0.05052632, 0.11931512
 0.28210526, 0.31190413
 0.02105263, 0.10572565
 0.11578947, 0.11414678
 0.30315789, 0.17083029
 0.11578947, 0.18552674
 0.31578947, 0.13584477
 0.61894737, 0.5362848
 0.26315789, 0.40444684
 0.09052632, 0.10864696
 0.12842105, 0.23027617
 0.02947368, 0.10177188
 0.20421053, 0.40206411
 0.12842105, 0.1166188
 0.29052632, 0.19398516
 0.01894737, 0.09340918
 0.15789474, 0.13002315
 0.24, 0.29626107
 0.08842105, 0.12732796
 0.35157895, 0.26833713
 0.13263158, 0.24579589
 0.15789474, 0.18717811
 0.38736842, 0.19832672
 0.52210526, 0.51314986
 0.02736842, 0.11518025
 0.30736842, 0.42104936
 0.44631579, 0.25890508
 0.18105263, 0.26722679
 0.11578947, 0.14325714
 0.12421053, 0.10717845
 0.05052632, 0.12169988
 0.02526316, 0.10185656
 0.28, 0.19628309
 0.08210526, 0.09885806
 0.41052632, 0.53076684
 0.40842105, 0.28711951
 0.40210526, 0.25378612
 0.15789474, 0.09657817
 0.19368421, 0.22755006
 0.14526316, 0.1909833
 0.08842105, 0.09157872
 0.26105263, 0.25112793
 0.11157895, 0.23321375
 0.05473684, 0.14628503
 0.07368421, 0.1217927
 0.06526316, 0.16933489
 0.01052632, 0.11864564
 0.17473684, 0.23321375
 0.26947368, 0.28619269
 0.25684211, 0.33605808
 0.28631579, 0.28976089
 0.07368421, 0.24122055
 0.12, 0.14828616
 0.05263158, 0.21439157
 0.42526316, 0.3548575
 0.57894737, 0.44876271
 0.18947368, 0.34091562
 0.17894737, 0.13269511
 0.49052632, 0.4085077
 0.11789474, 0.22593896
 0.13684211, 0.12087306
 0.13473684, 0.28560534
 0.16631579, 0.40997669
 0.17052632, 0.12415563
 0.03789474, 0.13130108
 0.09684211, 0.12474878
 0.12842105, 0.19869399
 0.26526316, 0.15467358
 0.64631579, 0.258562
 0.21263158, 0.31341201
 0.28631579, 0.11676557
 0.69684211, 0.25651026
 0.17894737, 0.26236385
 0.52, 0.40432882
 0.19578947, 0.12647083
 0.10526316, 0.12674451
 0.66736842, 0.33429188
 0.25473684, 0.30466712
 0.15368421, 0.14414296
 0.24, 0.23144609
 0.26526316, 0.3409586
 0.33684211, 0.23373502
 0.12210526, 0.13368194
 0.04842105, 0.08909279
 0.39789474, 0.33047265
 0.33684211, 0.29866847
 0.11157895, 0.29351637
 0.19789474, 0.13765675
 0.18315789, 0.19753499
 0.22315789, 0.31161383
 0.56421053, 0.43869525
 0.07789474, 0.12344429
 0.64631579, 0.32573813
 0.08631579, 0.11488238
 0.43157895, 0.50969219
 0.12421053, 0.13607527
 0.70315789, 0.56693101
 0.04631579, 0.08259502
 0.35789474, 0.34013647
 0.04631579, 0.12344923
 0.09894737, 0.09650388
 0.09894737, 0.1014614
 0.13894737, 0.25314501
 0.32210526, 0.3988263
 0.14526316, 0.11788243
 0.13684211, 0.26566803
 0.52421053, 0.5871551
 0.15157895, 0.09790955
 0.06105263, 0.26196796
 0.68, 0.45920974
 0.55157895, 0.44392493
 0.05473684, 0.12415908
 0.03789474, 0.11890752
 0.17684211, 0.19377905
 0.10105263, 0.11849652
 0.12210526, 0.15053037
 0.29052632, 0.31678161
 0.08210526, 0.12679857
 0.16421053, 0.14705156
 0.20631579, 0.13013726
 0.81894737, 0.46862602
 0.22736842, 0.3694149
 0.10526316, 0.1597535
 0.40842105, 0.34911531
 0.10105263, 0.13794307
 0.10315789, 0.12040085
 0.15157895, 0.07924573
 0.09473684, 0.18695644
 0.19578947, 0.1616877
 0.18105263, 0.29093549
 0.26315789, 0.29594967
 0.49052632, 0.43057626
 0.60631579, 0.37496507
 0.21473684, 0.10630493
 0.35157895, 0.25194657
 0.47789474, 0.36714071
 0.15578947, 0.21309695
 0.14315789, 0.22913715
 0.04842105, 0.11603987
 0.09263158, 0.14583644
 0.11578947, 0.23374555
 0.00631579, 0.09277812
 0.10526316, 0.10245413
 0.29684211, 0.2375493
 0.04842105, 0.12643658
 0.17473684, 0.19379583
 0.18736842, 0.10506809
 0.50526316, 0.21993466
 0.58315789, 0.38692838
 0.11578947, 0.13260189
 0.09052632, 0.40449238
 0.20631579, 0.39653003
 0.29263158, 0.20642439
 0.24842105, 0.2255675
 0.09684211, 0.32968378
 0.18736842, 0.22952762
 0.12421053, 0.16464233
 0.12210526, 0.17558156
 0.37263158, 0.26187634
 0.04, 0.15947643
 0.36, 0.23321375
 0.23578947, 0.25489303
 0.04210526, 0.11218794
 0.04, 0.12559141
 0.20842105, 0.23321375
 0.15157895, 0.0948817
 0.22526316, 0.18479401
 0.12842105, 0.24794795
 0.46736842, 0.45010474
 0.04842105, 0.10062781
 0.03368421, 0.1082438
 0.19157895, 0.12500453
 0.28421053, 0.25307342
 0.25684211, 0.21655633
 0.41473684, 0.3549571
 0.45263158, 0.33062738
 0.03578947, 0.12385571
 0.15368421, 0.1686608
 0.11368421, 0.131643
 0.13263158, 0.08889635
 0.24631579, 0.28869343
 0.29263158, 0.25402668
 0.34105263, 0.27028418
 0.38526316, 0.2460129
 0.17052632, 0.12799351
 0.15157895, 0.17004959
 0.38526316, 0.43057817
 0.01894737, 0.10690039
 0.09263158, 0.10939171
 0.09263158, 0.10080186
 0.18105263, 0.1856939
 0.50736842, 0.3496815
 0.18105263, 0.17404662
 0.16, 0.12182815
 0.46736842, 0.12394958
 0.07789474, 0.10951364
 0.14947368, 0.16418463
 0.38105263, 0.43358302
 0.12, 0.08880648
 0.29052632, 0.25167683
 0.09894737, 0.12428389
 0.31789474, 0.28477174
 0.01473684, 0.0982244
 0.19578947, 0.22597307
 0.18526316, 0.22612442
 0.34947368, 0.2285188
 0.06315789, 0.10711873
 0.18947368, 0.12256752
 0.05894737, 0.09930547
 0.55157895, 0.39140078
 0.35157895, 0.35017818
 0.34315789, 0.15608214
 0.08842105, 0.10583866
 0.44421053, 0.32153061
 0.29263158, 0.34664074
 0.4, 0.34144002
 0.44631579, 0.38131011
 0.30105263, 0.25565797
 0.15157895, 0.11308108
 0.11789474, 0.11782757
 0.14736842, 0.29448584
 0.60631579, 0.42182267
 0.16631579, 0.23352365
 0.10736842, 0.11978437
 0.23157895, 0.29710507
 0.13894737, 0.10419941
 0.26947368, 0.24912721
 0.55578947, 0.34823465
 0.11368421, 0.16327608
 0.28, 0.23056558
 0.08, 0.12590067
 0.24, 0.22755583
 0.10526316, 0.14088449
 0.13263158, 0.17730702
 0.40842105, 0.42715228
 0.51789474, 0.39045444
 0.18105263, 0.18115506
 0.22526316, 0.19697946
 0.31578947, 0.23321375
 0.07368421, 0.16078541
 0.11578947, 0.20438835
 0.11368421, 0.11152703
 0.31789474, 0.26697719
 0.15368421, 0.23371986
 0.06736842, 0.11531705
 0.09263158, 0.16751264
 0.12631579, 0.22725274
 0.29894737, 0.41446885
 0.08421053, 0.11226204
 0.38315789, 0.3101261
 0.09052632, 0.09479295
 0.30947368, 0.32427388
 0.06315789, 0.16561577
 0.29684211, 0.23573141
 0.04842105, 0.13884306
 0.18315789, 0.10197005
 0.52210526, 0.24714442
 0.15789474, 0.18029296
 0.27789474, 0.3037841
 0.15157895, 0.21837044
 0.31578947, 0.23253495
 0.30315789, 0.16845624
 0.53052632, 0.48608276
 0.01052632, 0.1389758
 0.05263158, 0.11527838
 0.15368421, 0.1159486
 0.10315789, 0.1751149
 0.06947368, 0.17533085
 0.12842105, 0.21481842
 0.31368421, 0.27394027
 0.09052632, 0.11516872
 0.08421053, 0.12305358
 0.26736842, 0.30295709
 0.05473684, 0.1185689
 0.28631579, 0.37107334
 0.08, 0.14380866
 0.02105263, 0.11758573
 0.11578947, 0.10536546
 0.18526316, 0.4338786
 0.08, 0.1145302
 0.60210526, 0.37050951
 0.17263158, 0.11942462
 0.11157895, 0.37057477
 0.10105263, 0.14701508
 0.16842105, 0.13214096
 0.16, 0.14987813
 0.13894737, 0.10256496
 0.08842105, 0.11420918
 0.21263158, 0.3638272
 0.14526316, 0.12340575
 0.26105263, 0.27150461
 0.09263158, 0.2983712
 0.04421053, 0.08779311
 0.05894737, 0.11449476
 0.27578947, 0.22692955
 0.10736842, 0.21097942
 0.18947368, 0.18293533
 0.06315789, 0.13095731
 0.34736842, 0.44847313
 0.27789474, 0.23345838
 0.19578947, 0.26018333
 0.10105263, 0.19313169
 0.33894737, 0.27028981
 0.50736842, 0.33110046
 0.22526316, 0.34870619
 0.13263158, 0.14185818
 0.04421053, 0.22952203
 0.02736842, 0.11505043
 0.10315789, 0.06934711
 0.13894737, 0.12759864
 0.58315789, 0.44768417
 0.14526316, 0.28663549
 0.11368421, 0.11828358
 0.55789474, 0.51310188
 0.05684211, 0.21842119
 0.15368421, 0.12490465
 0.14736842, 0.22485898
 0.19157895, 0.24976674
 0.12421053, 0.09768717
 0.40210526, 0.33682525
 0.18736842, 0.11252053
 0.12631579, 0.17985608
 0.14526316, 0.21136764
 0.20421053, 0.23359382
 0.06315789, 0.11881196
 0.01684211, 0.11155411
 0.19157895, 0.21346499
 0.17052632, 0.28907809
 0.15157895, 0.13915215
 0.24, 0.17139213
 0.14526316, 0.1429663
 0.42947368, 0.47209013
 0.37052632, 0.32788667
 0.43157895, 0.36385003
 0.12, 0.16653749
 0.09894737, 0.09869903
 0.20631579, 0.22525343
 0.26736842, 0.23321375
 0.06105263, 0.12171201
 0.37052632, 0.30893421
 0.06947368, 0.09946182
 0.51368421, 0.58185619
 0.18526316, 0.1350911
 0.06947368, 0.10751539
 0.03578947, 0.12112576
 0.12842105, 0.43628493
 0.08842105, 0.10045099
 0.38736842, 0.37644395
 0.08842105, 0.10974433
 0.16421053, 0.11960584
 0.84631579, 0.42230725
 0.18947368, 0.25360769
 0.02947368, 0.08963501
 0.08421053, 0.17303945
 0.70947368, 0.64917517
 0.69263158, 0.40732828
 0.14736842, 0.19098912
 0.09894737, 0.11338177
 0.53473684, 0.33274421
 0.35368421, 0.28626084
 0.05473684, 0.10583465
 0.43157895, 0.47828794
 0.06947368, 0.11476289
 0.30947368, 0.15755731
 0.26947368, 0.16280305
 0.04, 0.13971514
 0.43789474, 0.35508192
 0.17263158, 0.13655756
 0.14947368, 0.23321375
 0.22315789, 0.24822916
 0.26315789, 0.225162
 0.14315789, 0.12538879
 0.09473684, 0.24048762
 0.11578947, 0.11574545
 0.59157895, 0.41714895
 0.04210526, 0.10989986
 0.26105263, 0.15302791
 0.07368421, 0.07784742
 0.10105263, 0.10765859
 0.10526316, 0.12909846
 0.56421053, 0.40221873
 0.37894737, 0.44438899
 0.05684211, 0.11876229
 0.47578947, 0.46273211
 0.09052632, 0.09933792
 0.08, 0.1409395
 0.28210526, 0.29859823
 0.08421053, 0.13386728
 0.24842105, 0.41938323
 0.15368421, 0.24718843
 0.19157895, 0.18305983
 0.53894737, 0.40333098
 0.23789474, 0.33544022
 0.09052632, 0.11786705
 0.10105263, 0.16684748
 0.14736842, 0.10301366
 0.24, 0.1229954
 0.12210526, 0.10035157
 0.29894737, 0.25099975
 0.04210526, 0.12391312
 0.11789474, 0.23260395
 0.13473684, 0.15326114
 0.43368421, 0.50697124
 0.17684211, 0.12879351
 0.39789474, 0.34654206
 0.14526316, 0.20392415
 0.60842105, 0.53189278
 0.35157895, 0.16321969
 0.11157895, 0.10274388
 0.16210526, 0.26131445
 0.78526316, 0.55468738
 0.70736842, 0.49852726
 0.32842105, 0.21812613
 0.25473684, 0.21984942
 0.15578947, 0.10616609
 0.38526316, 0.1338619
 0.44421053, 0.48074853
 0.38315789, 0.37301984
 0.07157895, 0.0965894
 0.24, 0.24543469
 0.31578947, 0.24183036
 0.16631579, 0.11152013
 0.10947368, 0.16323303
 0.44, 0.27283224
 0.61473684, 0.40209115
 0.30947368, 0.23042017
 0.28842105, 0.43608582
 0.54526316, 0.3428531
 0.32842105, 0.4039036
 0.03578947, 0.09786093
 0.71789474, 0.36283445
 0.06736842, 0.11249561
 0.68210526, 0.48269373
 0.19789474, 0.23434106
 0.14105263, 0.16363034
 0.17263158, 0.14728874
 0.08, 0.16159275
 0.22105263, 0.33317769
 0.25263158, 0.32396817
 0.25052632, 0.24396832
 0.24842105, 0.14803535
 0.12842105, 0.23321375
 0.25052632, 0.41707638
 0.27368421, 0.23321375
 0.33894737, 0.40134591
 0.06315789, 0.09356959
 0.09263158, 0.15153968
 0.04842105, 0.09846061
 0.12842105, 0.13122328
 0.18736842, 0.38773522
 0.08210526, 0.11522897
 0.64, 0.39537966
 0.02526316, 0.11138853
 0.22315789, 0.2127233
 0.59578947, 0.29610714
 0.53894737, 0.16939175
 0.10736842, 0.11443026
 0.22105263, 0.30325204
 0.27789474, 0.16689061
 0.32, 0.20554101
 0.14315789, 0.14461493
 0.07578947, 0.08000897
 0.16421053, 0.13770992
 0.32421053, 0.26335272
 0.29052632, 0.2640419
 0.13684211, 0.11277917
 0.23789474, 0.22264037
 0.13263158, 0.10675682
 0.10315789, 0.13470384
 0.37894737, 0.38136351
 0.32631579, 0.15761136
 0.76421053, 0.50842178
 0.06947368, 0.09970562
 0.10736842, 0.15872744
 0.04210526, 0.11757282
 0.19368421, 0.21254896
 0.20421053, 0.2092814
 0.30526316, 0.25562313
 0.10736842, 0.09797499
 0.66105263, 0.40800112
 0.05052632, 0.12025052
 0.10105263, 0.11345632
 0.15578947, 0.34241322
 0.31368421, 0.12001352
 0.21894737, 0.13532539
 0.13894737, 0.13956219
 0.17894737, 0.25186613
 0.62105263, 0.30829251
 0.37684211, 0.46102056
 0.23578947, 0.38972184
 0.13052632, 0.12793355
 0.22105263, 0.34229809
 0.18947368, 0.12590963
 0.23368421, 0.22502352
 0.57684211, 0.37595326
 0.08842105, 0.23321375
 0.09263158, 0.16620561
 0.04, 0.13823256
 0.06736842, 0.08542112
 0.13263158, 0.09392664
 0.11157895, 0.1142456
 0.07789474, 0.11181561
 0.05473684, 0.10943431
 0.13473684, 0.12578213
 0.34315789, 0.24442197
 0.05684211, 0.13428579
 0.16210526, 0.31587026
 0.07578947, 0.23982677
 0.27368421, 0.24986832
 0.18526316, 0.12201309
 0.15578947, 0.23321375
 0.05052632, 0.09167477
 0.58105263, 0.51621151
 0.16, 0.35839346
 0.07368421, 0.10618174
 0.02315789, 0.21924423
 0.18315789, 0.12829813
 0.18105263, 0.12216955
 0.07789474, 0.07361256
 0.24842105, 0.10606277
 0.07578947, 0.11575337
 0.02736842, 0.09664032
 0.07789474, 0.09844203
 0.16631579, 0.16372108
 0.54526316, 0.24375436
 0.09052632, 0.19533214
 0.07578947, 0.11348455
 0.46736842, 0.26802835
 0.05263158, 0.10351224
 0.08421053, 0.10808343
 0.24842105, 0.2468228
 0.13263158, 0.14344718
 0.04421053, 0.09397408
 0.18947368, 0.34658897
 0.62947368, 0.4454475
 0.54526316, 0.41754276
 0.04631579, 0.12728421
 0.07368421, 0.23321375
 0.08, 0.11177921
 0.63789474, 0.44591826
 0.04631579, 0.15131226
 0.37894737, 0.34142724
 0.30105263, 0.2615352
 0.09052632, 0.18733922
 0.11789474, 0.1743706
 0.05473684, 0.09747073
 0.33894737, 0.23863432
 0.44421053, 0.25326657
 0.08631579, 0.17554021
 0.08631579, 0.17285688
 0.10947368, 0.17345968
 0.23157895, 0.19625801
 0.16421053, 0.26132521
 0.41894737, 0.15415418
 0.24, 0.17228562
 0.72421053, 0.46322149
 0.04421053, 0.10565364
 0.10526316, 0.17757758
 0.28, 0.20407999
 0.09473684, 0.11756116
 0.11578947, 0.12520593
 0.27578947, 0.3272672
 0.56421053, 0.4860402
 0.18315789, 0.15861192
 0.34736842, 0.27880198
 0.19157895, 0.31868559
 0.35789474, 0.289406
 0.12, 0.11637425
 0.06526316, 0.11544068
 0.73473684, 0.49339226
 0.16421053, 0.20234905
 0.46315789, 0.25245845
 0.49894737, 0.3432405
 0.14947368, 0.1734111
 0.6, 0.4977667
 0.03157895, 0.15358654
 0.34315789, 0.36120382
 0.57473684, 0.34484771
 0.13894737, 0.185499
 0.13473684, 0.13103734
 0.49894737, 0.50262463
 0.50105263, 0.33422476
 0.21894737, 0.18280834
 0.18526316, 0.2839255
 0.67368421, 0.51108432
 0.61473684, 0.26605329
 0.05473684, 0.09770769
 0.03157895, 0.10214195
 0.18947368, 0.1170759
 0.14526316, 0.13799655
 0.27578947, 0.17407337
 0.08421053, 0.09880647
 0.07578947, 0.12488338
 0.10526316, 0.13638972
 0.08842105, 0.29025853
 0.36, 0.40176868
 0.22947368, 0.2879712
 0.09684211, 0.12722036
 0.14947368, 0.12062537
 0.29473684, 0.24703741
 0.23578947, 0.23107575
 0.14736842, 0.23899654
 0.65894737, 0.52238578
 0.08631579, 0.1103821
 0.26105263, 0.23321375
 0.04842105, 0.11725906
 0.19368421, 0.19672592
 0.17894737, 0.11294834
 0.29052632, 0.23053986
 0.11789474, 0.11594988
 0.02947368, 0.11617837
 0.10315789, 0.1071175
 0.14315789, 0.11662485
 0.15157895, 0.2185781
 0.12421053, 0.13593327
 0.07578947, 0.24137168
 0.02947368, 0.11403043
 0.40842105, 0.27597108
 0.44, 0.37043065
 0.42105263, 0.38823223
 0.06736842, 0.10527265
 0.35368421, 0.23628189
 0.04631579, 0.10359477
 0.52631579, 0.48528454
 0.21263158, 0.21294025
 0.62315789, 0.41188896
 0.06736842, 0.18590584
 0.24, 0.29423609
 0.21263158, 0.26690739
 0.25684211, 0.11755579
 0.68842105, 0.5185585
 0.12210526, 0.11561053
 0.24210526, 0.40812439
 0.16631579, 0.0959131
 0.08842105, 0.23561983
 0.08, 0.15993536
 0.08210526, 0.08589351
 0.02526316, 0.12927608
 0.75157895, 0.46870255
 0.09052632, 0.11855005
 0.06947368, 0.11697282
 0.33473684, 0.44436106
 0.10526316, 0.12411752
 0.39789474, 0.38025421
 0.09894737, 0.11555296
 0.12210526, 0.08673067
 0.18947368, 0.19231416
 0.56210526, 0.2909756
 0.16421053, 0.13693318
 0.2, 0.1821278
 0.15578947, 0.33128154
 0.07789474, 0.10233292
 0.13684211, 0.22305581
 0.20842105, 0.33616006
 0.61263158, 0.38486415
 0.16421053, 0.22916546
 0.35578947, 0.21335229
 0.10526316, 0.11287557
 0.65263158, 0.61080176
 0.53263158, 0.24344799
 0.04631579, 0.13385546
 0.17052632, 0.0914866
 0.26736842, 0.41436979
 0.30315789, 0.11985578
 0.12421053, 0.12816621
 0.26947368, 0.33265623
 0.11368421, 0.10855317
 0.16842105, 0.15210079
 0.29684211, 0.36324418
 0.16210526, 0.19860095
 0.34526316, 0.24264212
 0.72842105, 0.5071373
 0.32421053, 0.20666778
 0.19157895, 0.14342701
 0.17263158, 0.21749909
 0.01684211, 0.11215696
 0.29684211, 0.27712226
 0.65263158, 0.60541034
 0.36631579, 0.25209057
 0.14947368, 0.29254189
 0.23789474, 0.23321375
 0.06105263, 0.16387856
 0.09052632, 0.14622357
 0.12421053, 0.19300851
 0.25894737, 0.15772532
 0.28421053, 0.29783738
 0.13473684, 0.20223273
 0.13684211, 0.14240298
 0.68, 0.32018656
 0.26315789, 0.31672907
 0.05052632, 0.09194311
 0.70526316, 0.57923841
 0.13263158, 0.11987238
 0.19157895, 0.23321375
 0.06947368, 0.11905687
 0.52842105, 0.45608971
 0.02526316, 0.09021467
 0.14105263, 0.12708634
 0.10105263, 0.13871796
 0.36842105, 0.29012313
 0.55578947, 0.34183228
 0.11157895, 0.11991867
 0.32210526, 0.23627153
 0.08842105, 0.13440661
 0.48631579, 0.28132367
 0.54105263, 0.35282773
 0.33894737, 0.27352875
 0.13052632, 0.1190085
 0.19789474, 0.2273521
 0.21894737, 0.30332625
 0.61684211, 0.23865102
 0.28, 0.23382391
 0.12210526, 0.1169005
 0.09473684, 0.0976216
 0.01473684, 0.08743364
 0.10315789, 0.1129761
 0.21263158, 0.33170816
 0.14526316, 0.12644571
 0.18315789, 0.32041502
 0.31789474, 0.23321375
 0.20421053, 0.12572196
 0.02947368, 0.15802875
 0.12631579, 0.2079953
 0.06105263, 0.06796232
 0.06105263, 0.10331684
 0.03578947, 0.10723838
 0.28421053, 0.22843492
 0.16842105, 0.18014832
 0.08210526, 0.09574553
 0.35578947, 0.30222404
 0.06315789, 0.10114078
 0.04631579, 0.14540656
 0.46105263, 0.46396032
 0.18736842, 0.31531656
 0.09473684, 0.16751319
 0.10526316, 0.12496999
 0.13052632, 0.13380049
 0.26105263, 0.24985589
 0.02526316, 0.11017745
 0.39368421, 0.37204066
 0.08210526, 0.13034303
 0.50105263, 0.43434712
 0.09894737, 0.10467225
 0.60210526, 0.38286287
 0.10526316, 0.11230763
 0.20421053, 0.23003508
 0.4, 0.29696459
 0.15157895, 0.26782891
 0.22526316, 0.22289853
 0.13052632, 0.19110546
 0., 0.12465428
 0.51157895, 0.21445951
 0.08842105, 0.10670809
 0.11578947, 0.12353663
 0.03368421, 0.18596211
 0.06315789, 0.17225921
 0.14736842, 0.15311775
 0.07578947, 0.14120956
 0.33473684, 0.35992271
 0.03578947, 0.10746393
 0.15578947, 0.15780038
 0.10526316, 0.11470959
 0.12, 0.22343953
 0.14315789, 0.20588925
 0.59578947, 0.41465458
 0.09894737, 0.12901954
 0.05263158, 0.0930683
 0.60842105, 0.29983371
 0.44842105, 0.25433066
 0.18315789, 0.22007206
 0.09894737, 0.20458117
 0.14947368, 0.1816736
 0.30315789, 0.22409353
 0.06315789, 0.13169685
 0.20210526, 0.23321375
 0.09894737, 0.12577501
 0.13263158, 0.15040125
 0.40210526, 0.27980649
 0.68, 0.56583917
 0.06526316, 0.11609621
 0.67157895, 0.53251183
