tar,out
 0.19578947, 0.25716999
 0.41052632, 0.39333612
 0.08421053, 0.12592986
 0.41263158, 0.4605847
 0.11789474, 0.12992802
 0.10105263, 0.07125844
 0.17894737, 0.10248092
 0.25263158, 0.16093688
 0.26105263, 0.09908488
 0.74526316, 0.43526292
 0.04421053, 0.12922861
 0.05684211, 0.10052676
 0.40631579, 0.46008289
 0.06736842, 0.17456858
 0.06736842, 0.12661034
 0.19368421, 0.32155052
 0.14315789, 0.18152979
 0.04842105, 0.08432332
 0.05473684, 0.10933083
 0.08421053, 0.12859933
 0.08, 0.10174078
 0.08210526, 0.08624406
 0.20842105, 0.14388107
 0.16421053, 0.12175815
 0.39578947, 0.31654823
 0.06105263, 0.18601973
 0.66947368, 0.64368445
 0.17263158, 0.14119115
 0.27789474, 0.26941431
 0.12631579, 0.25030595
 0.14526316, 0.18286414
 0.42105263, 0.46449226
 0.13684211, 0.22558562
 0.29473684, 0.38392043
 0.04421053, 0.21703847
 0.20421053, 0.15187758
 0.12842105, 0.16791461
 0.05473684, 0.10205825
 0.13052632, 0.10777737
 0.51578947, 0.53598213
 0.10105263, 0.08501329
 0.10105263, 0.1769439
 0.29473684, 0.27413839
 0.33263158, 0.34807488
 0.15157895, 0.13912603
 0.08842105, 0.10482783
 0.05473684, 0.16959104
 0.45052632, 0.432446
 0.55368421, 0.50393814
 0.07157895, 0.10449691
 0.03157895, 0.13943118
 0.06736842, 0.13614124
 0.09473684, 0.22500151
 0.60421053, 0.612589
 0.19789474, 0.19645168
 0.05684211, 0.13638084
 0.23578947, 0.15810107
 0.64421053, 0.21740595
 0.53473684, 0.21281469
 0.17263158, 0.0978447
 0.19368421, 0.24001375
 0.71789474, 0.4816128
 0.53473684, 0.37440032
 0.09052632, 0.22619087
 0.32, 0.25148639
 0.05894737, 0.05198736
 0.18736842, 0.15451238
 0.04210526, 0.10105485
 0.38526316, 0.31006092
 0.06105263, 0.10458759
 0.06947368, 0.11492461
 0.11578947, 0.13844043
 0.54736842, 0.53837717
 0.21894737, 0.25051206
 0.23578947, 0.20608573
 0.41894737, 0.29366636
 0.07368421, 0.0985487
 0.06947368, 0.18106118
 0.42105263, 0.2473727
 0.11157895, 0.27220213
 0.17473684, 0.14326888
 0.47789474, 0.29395309
 0.26526316, 0.27333382
 0.40421053, 0.36674619
 0.09473684, 0.09714727
 0.18526316, 0.22191697
 0.38315789, 0.28100228
 0.09684211, 0.15155078
 0.02315789, 0.11047648
 0.12421053, 0.21313351
 0.08631579, 0.10386666
 0.16, 0.11604125
 0.35578947, 0.22989626
 0.49894737, 0.48188514
 0.14736842, 0.12075372
 0.09052632, 0.08198468
 0.12421053, 0.10518724
 0.17052632, 0.0761701
 0.07789474, 0.12529303
 0.52210526, 0.34418786
 0.24, 0.37215972
 0.08631579, 0.20565981
 0.29894737, 0.25701752
 0.56210526, 0.4270758
 0.05263158, 0.13173886
 0.12842105, 0.14965272
 0.12631579, 0.16289856
 0.07368421, 0.15987311
 0.34947368, 0.19682629
 0.08421053, 0.12900172
 0.03368421, 0.0999707
 0.39157895, 0.40966952
 0.32, 0.34340748
 0.07368421, 0.07719405
 0.11157895, 0.21679085
 0.11157895, 0.16569966
 0.16421053, 0.10998692
 0.14947368, 0.2165523
 0.14947368, 0.15426624
 0.62105263, 0.47315666
 0.05473684, 0.11968004
 0.06526316, 0.06686549
 0.27368421, 0.16282222
 0.10526316, 0.08051924
 0.07157895, 0.08634485
 0.02315789, 0.16972345
 0.11789474, 0.19575183
 0.28631579, 0.19217147
 0.03578947, 0.07437435
 0.08842105, 0.16529778
 0.16, 0.1444836
 0.19157895, 0.2117705
 0.19368421, 0.18494874
 0.11789474, 0.11981988
 0.16210526, 0.25640908
 0.38736842, 0.24503151
 0.12631579, 0.20649208
 0.62105263, 0.38969702
 0.21263158, 0.25561553
 0.12, 0.11324476
 0.02947368, 0.15714142
 0.11578947, 0.07657717
 0.06315789, 0.1171962
 0.03578947, 0.07803537
 0.13473684, 0.20293602
 0.10526316, 0.09185429
 0.11368421, 0.16441926
 0.51578947, 0.32015267
 0.05263158, 0.11447543
 0.09473684, 0.09855951
 0.13894737, 0.30055869
 0.06315789, 0.09963014
 0.11789474, 0.20755653
 0.24631579, 0.42334139
 0.06947368, 0.12098825
 0.04631579, 0.06801209
 0.53473684, 0.38031062
 0.48, 0.33088261
 0.16842105, 0.18551892
 0.10526316, 0.08419728
 0.08631579, 0.10950495
 0.09894737, 0.32100832
 0.02526316, 0.0720474
 0.33684211, 0.34771085
 0.29684211, 0.34751919
 0.24631579, 0.1527684
 0.35789474, 0.36826709
 0.25052632, 0.39215523
 0.34736842, 0.30175692
 0.03578947, 0.09141578
 0.17052632, 0.18983319
 0.13684211, 0.10393473
 0.29684211, 0.12162876
 0.11368421, 0.13463302
 0.12210526, 0.14612922
 0.16421053, 0.12367981
 0.22736842, 0.26318794
 0.10105263, 0.10323446
 0.11789474, 0.13746145
 0.52631579, 0.42156315
 0.14105263, 0.12072884
 0.41263158, 0.15041707
 0.15789474, 0.26500291
 0.06736842, 0.11402512
 0.31157895, 0.27582854
 0.13473684, 0.14596024
 0.09684211, 0.11756104
 0.50526316, 0.30534658
 0.50736842, 0.37339365
 0.05894737, 0.28967026
 0.17894737, 0.23325831
 0.32421053, 0.2570428
 0.28842105, 0.37564278
 0.54105263, 0.2149277
 0.09894737, 0.11313677
 0.13052632, 0.13207662
 0.34947368, 0.22965255
 0.11157895, 0.12701511
 0.12631579, 0.09399931
 0.26526316, 0.23952308
 0.12210526, 0.16421947
 0.11157895, 0.1144268
 0.35578947, 0.27396238
 0.24631579, 0.23443906
 0.22315789, 0.26606014
 0.06315789, 0.10962772
 0.31157895, 0.19506189
 0.46315789, 0.38442662
 0.03157895, 0.09165882
 0.13894737, 0.13974629
 0.08421053, 0.10680693
 0.37684211, 0.2843411
 0.44631579, 0.25116229
 0.03789474, 0.14129436
 0.51789474, 0.52439409
 0.17684211, 0.19115496
 0.38736842, 0.50325894
 0.24421053, 0.26261121
 0.42947368, 0.25088596
 0.11157895, 0.11407433
 0.06736842, 0.08414008
 0.08210526, 0.13597363
 0.03789474, 0.11037891
 0.68421053, 0.39716575
 0.10736842, 0.10823154
 0.50526316, 0.62382245
 0.14947368, 0.14965913
 0.06105263, 0.14906615
 0.06526316, 0.13847338
 0.29473684, 0.39038578
 0.29473684, 0.3958981
 0.05473684, 0.10283154
 0.55578947, 0.30466977
 0.11578947, 0.16831252
 0.06315789, 0.13919172
 0.05473684, 0.08113214
 0.01684211, 0.19932532
 0.06526316, 0.12915492
 0.66315789, 0.09968474
 0.05473684, 0.09943031
 0.08421053, 0.10764799
 0.06736842, 0.11974624
 0.33473684, 0.36146647
 0.13684211, 0.16872481
 0.07578947, 0.0884342
 0.04631579, 0.12458771
 0.09684211, 0.20326734
 0.17263158, 0.20168084
 0.17263158, 0.10797111
 0.18947368, 0.15168451
 0.06105263, 0.07738769
 0.13684211, 0.07633115
 0.08, 0.19219053
 0.36, 0.23152381
 0.28, 0.11938589
 0.44842105, 0.1109589
 0.08210526, 0.10681455
 0.20842105, 0.21038915
 0.51368421, 0.41790044
 0.18315789, 0.18983471
 0.28842105, 0.36190909
 0.17052632, 0.13952006
 0.15789474, 0.28197941
 0.05684211, 0.07769309
 0.60631579, 0.48820359
 0.06315789, 0.16699617
 0.22736842, 0.200002
 0.25263158, 0.24089858
 0.28421053, 0.24629414
 0.14947368, 0.38204449
 0.67368421, 0.20600441
 0.44421053, 0.50099456
 0.06315789, 0.13658091
 0.29473684, 0.47169501
 0.32, 0.21619537
 0.28421053, 0.23256315
 0.03157895, 0.10534231
 0.03789474, 0.11630042
 0.52842105, 0.51382595
 0.14526316, 0.14681932
 0.11578947, 0.11556388
 0.17684211, 0.16756074
 0.14315789, 0.13863942
 0.13684211, 0.19952528
 0.13263158, 0.21257564
 0.09052632, 0.08865164
 0.18315789, 0.33047262
 0.08421053, 0.16936974
 0.19578947, 0.11463877
 0.09894737, 0.14783654
 0.14105263, 0.21510357
 0.17684211, 0.1898876
 0.68842105, 0.55495113
 0.47789474, 0.46611878
 0.28210526, 0.25221023
 0.56421053, 0.18577182
 0.24631579, 0.25073332
 0.12842105, 0.3698611
 0.38526316, 0.43978271
 0.41263158, 0.36549371
 0.36210526, 0.42076194
 0.04631579, 0.08507597
 0.10105263, 0.13534492
 0.16210526, 0.20796487
 0.63578947, 0.48628241
 0.36421053, 0.46333486
 0.10315789, 0.09898107
 0.09894737, 0.18269295
 0.28631579, 0.174018
 0.58736842, 0.35730666
 0.17684211, 0.16023324
 0.11789474, 0.11887795
 0.29894737, 0.20737836
 0.03789474, 0.08088268
 0.08421053, 0.21896222
 0.08210526, 0.17090535
 0.13894737, 0.11964376
 0.33473684, 0.27023882
 0.19368421, 0.14111412
 0.07789474, 0.12120632
 0.06105263, 0.08740897
 0.15578947, 0.11327671
 0.36, 0.24675335
 0.28421053, 0.52000564
 0.05052632, 0.11961836
 0.17052632, 0.23960496
 0.65473684, 0.40950203
 0.59578947, 0.28221363
 0.15789474, 0.09383611
 0.45263158, 0.38401431
 0.04210526, 0.11925088
 0.50105263, 0.46628439
 0.20631579, 0.31959498
 0.02947368, 0.07365988
 0.34947368, 0.43028837
 0.08421053, 0.14535573
 0.16421053, 0.19143212
 0.12210526, 0.41618645
 0.36210526, 0.23352899
 0.08, 0.11646581
 0.28842105, 0.26627508
 0.42526316, 0.26066202
 0.35157895, 0.36697203
 0.06947368, 0.12842236
 0.16210526, 0.13775352
 0.60210526, 0.57948244
 0.04421053, 0.12926415
 0.51578947, 0.4525587
 0.58105263, 0.46788445
 0.25473684, 0.18856715
 0.45052632, 0.32834378
 0.16, 0.35700732
 0.03578947, 0.09522471
 0.53263158, 0.36955896
 0.05263158, 0.14725775
 0.52210526, 0.42334202
 0.26105263, 0.20903097
 0.53263158, 0.38307399
 0.22736842, 0.26884258
 0.06315789, 0.18192071
 0.22315789, 0.30973047
 0.34105263, 0.22443657
 0.42736842, 0.30204639
 0.21684211, 0.33497164
 0.14105263, 0.12293174
 0.07578947, 0.10851751
 0.52210526, 0.50687909
 0.09894737, 0.12192278
 0.08421053, 0.09897697
 0.75789474, 0.68590242
 0.45052632, 0.21794696
 0.02526316, 0.07937154
 0.21052632, 0.17888577
 0.16421053, 0.12769082
 0.60210526, 0.45304441
 0.19368421, 0.21648034
 0.18736842, 0.21316901
 0.14736842, 0.15369554
 0.30526316, 0.28143454
 0.14315789, 0.1827237
 0.06526316, 0.27570021
 0.27157895, 0.51522332
 0.36, 0.18324442
 0.08842105, 0.12044265
 0.14736842, 0.12497479
 0.08842105, 0.08240756
 0.12631579, 0.06772348
 0.52421053, 0.40212929
 0.49052632, 0.29269606
 0.36421053, 0.23669717
 0.52421053, 0.49864626
 0.08210526, 0.12520526
 0.10736842, 0.20046231
 0.39157895, 0.37767863
 0.23157895, 0.12538716
 0.05473684, 0.14151396
 0.17894737, 0.14926022
 0.15368421, 0.17791978
 0.09052632, 0.09595458
 0.36, 0.33382136
 0.40210526, 0.32662964
 0.12421053, 0.09463604
 0.29263158, 0.19477183
 0.28210526, 0.2311172
 0.15789474, 0.13100727
 0.04631579, 0.09695832
 0.43157895, 0.12496178
 0.14947368, 0.15098962
 0.27789474, 0.15332901
 0.06105263, 0.20069468
 0.06105263, 0.10544463
 0.12631579, 0.1353246
 0.40210526, 0.35817689
 0.11157895, 0.08416711
 0.02526316, 0.10477187
 0.15368421, 0.15483393
 0.47578947, 0.25195995
 0.21263158, 0.16158672
 0.17263158, 0.18980356
 0.58105263, 0.31044707
 0.24, 0.21909326
 0.06315789, 0.11939143
 0.32631579, 0.25894278
 0.14105263, 0.21060365
 0.18105263, 0.20747088
 0.28842105, 0.25334957
 0.24842105, 0.37974954
 0.14315789, 0.14569971
 0.61052632, 0.37466609
 0.04421053, 0.07423973
 0.38736842, 0.231006
 0.21894737, 0.31640053
 0.16210526, 0.09251012
 0.26526316, 0.20324147
 0.66947368, 0.41875511
 0.11368421, 0.192606
 0.19578947, 0.18224181
 0.16421053, 0.13958737
 0.09684211, 0.08564834
 0.13263158, 0.37619406
 0.07578947, 0.1121759
 0.15368421, 0.14823267
 0.30526316, 0.22575876
 0.29052632, 0.20014194
 0.47789474, 0.4263711
 0.39368421, 0.22642113
 0.47368421, 0.51380068
 0.74315789, 0.54765481
 0.13263158, 0.18156824
 0.15157895, 0.08294065
 0.05684211, 0.12379807
 0.41473684, 0.5192979
 0.11157895, 0.09025091
 0.05263158, 0.15148647
 0.51789474, 0.43438679
 0.53473684, 0.35843372
 0.06526316, 0.09254086
 0.20421053, 0.19623123
 0.35368421, 0.42317724
 0.11789474, 0.19665202
 0.09263158, 0.1558775
 0.09263158, 0.09551467
 0.18105263, 0.08710812
 0.07789474, 0.06978676
 0.08421053, 0.17503113
 0.06736842, 0.17697766
 0.02526316, 0.1176829
 0.04842105, 0.15856543
 0.54315789, 0.28683779
 0.47368421, 0.23871855
 0.04, 0.0602596
 0.02736842, 0.08001217
 0.19789474, 0.46936506
 0.13473684, 0.2036183
 0.11578947, 0.10401003
 0.26105263, 0.29772663
 0.09052632, 0.16036701
 0.69684211, 0.62806439
 0.14736842, 0.08446257
 0.24631579, 0.17710879
 0.19578947, 0.24560875
 0.19157895, 0.41985238
 0.26947368, 0.33524972
 0.31157895, 0.26658353
 0.14105263, 0.14828998
 0.18947368, 0.18424872
 0.13473684, 0.12452467
 0.11368421, 0.14482217
 0.45052632, 0.5015499
 0.13052632, 0.15671313
 0.15368421, 0.23818056
 0.49684211, 0.35305417
 0.04421053, 0.07857999
 0.09894737, 0.0904506
 0.10736842, 0.18845102
 0.10947368, 0.09545453
 0.32, 0.20834072
 0.08421053, 0.10602735
 0.11368421, 0.24908392
 0.21684211, 0.32443288
 0.28, 0.23799284
 0.56210526, 0.46502405
 0.37894737, 0.32470334
 0.37052632, 0.3555178
 0.27368421, 0.2386498
 0.09263158, 0.09034075
 0.05052632, 0.18527588
 0.31157895, 0.28984308
 0.15157895, 0.10853172
 0.60421053, 0.45733485
 0.46526316, 0.51953447
 0.06526316, 0.18018979
 0.09473684, 0.30929512
 0.16631579, 0.11442508
 0.20421053, 0.20023593
 0.05894737, 0.12456821
 0.03578947, 0.0567311
 0.04210526, 0.13051829
 0.05684211, 0.20366986
 0.08, 0.11000255
 0.13473684, 0.12207513
 0.06947368, 0.2509737
 0.17894737, 0.09732769
 0.64842105, 0.48743331
 0.38315789, 0.25456491
 0.16, 0.23593412
 0.05684211, 0.18913996
 0.20421053, 0.15169042
 0.06526316, 0.05628888
 0.05263158, 0.1083177
 0.56421053, 0.49533993
 0.53894737, 0.57375515
 0.12, 0.26216441
 0.13052632, 0.19096857
 0.34105263, 0.32157201
 0.07157895, 0.15474711
 0.48210526, 0.44051027
 0.12842105, 0.11801633
 0.10526316, 0.11581928
 0.06315789, 0.06660591
 0.05894737, 0.10619305
 0.17473684, 0.24249554
 0.10315789, 0.10905387
 0.38736842, 0.32266393
 0.13894737, 0.42322916
 0.71368421, 0.54933184
 0.07789474, 0.15452816
 0.32, 0.25261948
 0.41263158, 0.24625182
 0.19578947, 0.24362083
 0.02105263, 0.13369194
 0.38105263, 0.23693806
 0.42105263, 0.37183061
 0.21052632, 0.1014303
 0.17263158, 0.11906401
 0.09052632, 0.16386294
 0.59789474, 0.44909421
 0.44842105, 0.46571308
 0.48421053, 0.35858333
 0.17473684, 0.22290552
 0.32631579, 0.18007885
 0.09263158, 0.08595322
 0.20631579, 0.22391339
 0.18315789, 0.20463118
 0.52210526, 0.61192799
 0.44631579, 0.43847963
 0.12210526, 0.20375334
 0.14947368, 0.18712705
 0.07368421, 0.22088978
 0.52421053, 0.43171859
 0.14947368, 0.12282313
 0.08210526, 0.09325357
 0.01263158, 0.13265261
 0.03789474, 0.10763519
 0.19578947, 0.2216375
 0.28, 0.25092503
 0.08842105, 0.08675377
 0.04, 0.1265182
 0.07368421, 0.10062714
 0.08631579, 0.1007329
 0.32842105, 0.15625703
 0.36842105, 0.13742341
 0.06526316, 0.20704037
 0.36210526, 0.29265505
 0.18526316, 0.20820911
 0.06947368, 0.24305674
 0.20421053, 0.13255265
 0.15578947, 0.18250224
 0.07368421, 0.1301752
 0.20210526, 0.18053409
 0.08421053, 0.13998465
 0.09473684, 0.0990169
 0.13473684, 0.11702882
 0.19578947, 0.17890356
 0.11157895, 0.12006119
 0.38105263, 0.30375773
 0.55578947, 0.47106308
 0.08421053, 0.17171738
 0.05894737, 0.0856813
 0.06736842, 0.15998735
 0.15157895, 0.16112734
 0.19368421, 0.14306468
 0.15789474, 0.19756953
 0.02315789, 0.10135381
 0.25684211, 0.25897574
 0.14315789, 0.10619059
 0.17684211, 0.16899011
 0.16421053, 0.26524317
 0.17052632, 0.18780743
 0.04631579, 0.10518666
 0.05894737, 0.11763902
 0.28, 0.25680223
 0.34736842, 0.3556464
 0.00631579, 0.13313091
 0.21684211, 0.19075428
 0.01684211, 0.17676941
 0.11157895, 0.09868737
 0.25263158, 0.19658326
 0.40631579, 0.25217989
 0.12, 0.12813842
 0.06526316, 0.11781448
 0.18105263, 0.38188201
 0.10736842, 0.0996242
 0.03789474, 0.08631228
 0.37052632, 0.39128822
 0.23578947, 0.41430038
 0.45473684, 0.35051739
 0.09473684, 0.101743
 0.59368421, 0.42567146
 0.10947368, 0.10409814
 0.41684211, 0.43467343
 0.16, 0.11484952
 0.20842105, 0.21657765
 0.07157895, 0.06621161
 0.08842105, 0.10089806
 0.18315789, 0.18609238
 0.32631579, 0.18432346
 0.35368421, 0.39344776
 0.02526316, 0.12428059
 0.16, 0.10915607
 0.16210526, 0.08298041
 0.22315789, 0.1447112
 0.09684211, 0.16334046
 0.10526316, 0.17223957
 0.57052632, 0.28629369
 0.37473684, 0.46839875
 0.59368421, 0.45446122
 0.30315789, 0.30060875
 0.26105263, 0.14438014
 0.21684211, 0.17934391
 0.46105263, 0.3930423
 0.06315789, 0.1276399
 0.38526316, 0.35534257
 0.56210526, 0.3691386
 0.67578947, 0.26468715
 0.06526316, 0.09221558
 0.28842105, 0.30927688
 0.53684211, 0.46360424
 0.60631579, 0.33271015
 0.18105263, 0.17191364
 0.17684211, 0.26676393
 0.08, 0.08423503
 0.71368421, 0.45900378
 0.06315789, 0.08878751
 0.52, 0.39282733
 0.18315789, 0.18497324
 0.04, 0.22221328
 0.08210526, 0.12354726
 0.22736842, 0.16377161
 0.03368421, 0.08873414
 0.57473684, 0.42358238
 0.31368421, 0.3079721
 0.24842105, 0.25011411
 0.11157895, 0.10096985
 0.19578947, 0.29961294
 0.06736842, 0.08329333
 0.08421053, 0.0926301
 0.05894737, 0.21526542
 0.23368421, 0.31051987
 0.23578947, 0.1890648
 0.46105263, 0.36097878
 0.37684211, 0.2055134
 0.15789474, 0.22185814
 0.15157895, 0.14247708
 0.15789474, 0.16885728
 0.17473684, 0.10243118
 0.06526316, 0.1022622
 0.59578947, 0.6551674
 0.20631579, 0.17546341
 0.18105263, 0.14319114
 0.12842105, 0.20382552
 0.10947368, 0.16735008
 0.05263158, 0.09412955
 0.21684211, 0.38211912
 0.36842105, 0.23593302
 0.27578947, 0.2110524
 0.10947368, 0.25705948
 0.09263158, 0.10830548
 0.09684211, 0.23341896
 0.36421053, 0.27312741
 0.04, 0.12788916
 0.29894737, 0.24812427
 0.16210526, 0.21603478
 0.32421053, 0.4663913
 0.26315789, 0.23138846
 0.13263158, 0.13649213
 0.24210526, 0.32034421
 0.38947368, 0.24725679
 0.24, 0.39908904
 0.11368421, 0.17507719
 0.04421053, 0.11125509
 0.53263158, 0.46652669
 0.11368421, 0.1459322
 0.53684211, 0.43994319
 0.63789474, 0.34836358
 0.34947368, 0.43949294
 0.51157895, 0.376239
 0.49473684, 0.32460499
 0.12631579, 0.09970371
 0.26736842, 0.1869255
 0.06526316, 0.12994161
 0.03157895, 0.18897133
 0.37894737, 0.20383355
 0.05894737, 0.11911192
 0.49263158, 0.42764366
 0.09263158, 0.07910119
 0.06947368, 0.17721519
 0.34105263, 0.28949764
 0.16631579, 0.30744407
 0.18947368, 0.20130037
 0.22736842, 0.20849076
 0.21052632, 0.20874956
 0.50947368, 0.53352827
 0.23157895, 0.20660618
 0.05263158, 0.12299293
 0.08631579, 0.1886584
 0.12421053, 0.12688328
 0.05473684, 0.15034011
 0.18526316, 0.19306605
 0.14105263, 0.18873101
 0.13052632, 0.09848548
 0.09473684, 0.14679009
 0.20421053, 0.1966632
 0.34105263, 0.30581304
 0.66315789, 0.48631477
 0.06947368, 0.09008099
 0.09263158, 0.19318938
 0.12, 0.08538866
 0.13052632, 0.13979787
 0.66315789, 0.56406432
 0.76, 0.69977039
 0.06315789, 0.13099785
 0.13263158, 0.12320217
 0.32631579, 0.1930393
 0.62105263, 0.63262385
 0.09684211, 0.12326191
 0.10315789, 0.18328598
 0.10736842, 0.27275994
 0.04842105, 0.12037225
 0.06105263, 0.33408511
 0.10526316, 0.18722361
 0.14526316, 0.15528166
 0.14526316, 0.08638681
 0.07157895, 0.14133306
 0.35368421, 0.29786789
 0.19368421, 0.2961334
 0.15368421, 0.2174526
 0.01263158, 0.1125585
 0.26947368, 0.20355713
 0.14105263, 0.26120988
 0.12210526, 0.12716094
 0.10526316, 0.21060048
 0.17684211, 0.17627074
 0.2, 0.1732263
 0.32631579, 0.2551015
 0.2, 0.21641372
 0.05263158, 0.10659686
 0.33052632, 0.35449392
 0.26105263, 0.09859556
 0.10947368, 0.11001402
 0.28842105, 0.22604188
 0.18947368, 0.17809922
 0.35157895, 0.30014342
 0.22526316, 0.1659402
 0.11789474, 0.13870555
 0.08210526, 0.1286539
 0.37473684, 0.32680583
 0.22947368, 0.42169183
 0.04842105, 0.19253665
 0.08210526, 0.17029929
 0.11789474, 0.13711801
 0.64631579, 0.60857743
 0.09052632, 0.1219115
 0.27578947, 0.18967494
 0.39578947, 0.1139465
 0.24631579, 0.18985708
 0.35368421, 0.21097353
 0.10736842, 0.07433121
 0.18315789, 0.19224365
 0.12421053, 0.12983155
 0.04421053, 0.10071113
 0.40421053, 0.26872602
 0.47789474, 0.44933683
 0.06947368, 0.15515429
 0.17052632, 0.1831993
 0.04421053, 0.09675346
 0.01684211, 0.06717362
 0.15368421, 0.16079137
 0.51789474, 0.27077729
 0.16421053, 0.12521753
 0.21473684, 0.18861389
 0.18315789, 0.2131159
 0.03789474, 0.16907388
 0.10736842, 0.10178138
 0.24, 0.19396633
 0.17473684, 0.18796445
 0.57473684, 0.44671297
 0.10947368, 0.15521181
 0.21473684, 0.14733288
 0.14736842, 0.11962263
 0.08421053, 0.08691515
 0.22526316, 0.22391339
 0.07578947, 0.10360633
 0.26736842, 0.229922
 0.43578947, 0.2891843
 0.24210526, 0.2223416
 0.01052632, 0.12128837
 0.21473684, 0.19349682
 0.11578947, 0.09569524
 0.38947368, 0.30614117
 0.17894737, 0.10344109
 0.13473684, 0.08968303
 0.14105263, 0.15575163
 0.39368421, 0.32964173
 0.08842105, 0.2303025
 0.13052632, 0.20694377
 0.68, 0.45951033
 0.14315789, 0.3221598
 0.10315789, 0.10701025
 0.06736842, 0.09118916
 0.68210526, 0.45599753
 0.39789474, 0.22650264
 0.09052632, 0.08594166
 0.05052632, 0.08359736
 0.08, 0.08343422
 0.08, 0.12974784
 0.12210526, 0.20745477
 0.13473684, 0.12491699
 0.40631579, 0.25494015
 0.13684211, 0.2235786
 0.12210526, 0.10619029
 0.28421053, 0.26640964
 0.09684211, 0.1967078
 0.16421053, 0.29563737
 0.14315789, 0.15339103
 0.43578947, 0.3274208
 0.33052632, 0.45070821
 0.18947368, 0.26297963
 0.06315789, 0.09030412
 0.37473684, 0.24653883
 0.53052632, 0.23927206
 0.25263158, 0.16537635
 0.01894737, 0.07048948
 0.21473684, 0.20557815
 0.06736842, 0.12880377
 0.31368421, 0.20736238
 0.24631579, 0.29071823
 0.25894737, 0.21169668
 0.13263158, 0.29633617
 0.21052632, 0.19599798
 0.05684211, 0.1159939
 0.32, 0.38899779
 0.25052632, 0.18208209
 0.14315789, 0.18591075
 0.41263158, 0.34530163
 0.06105263, 0.24184678
 0.02105263, 0.2103771
 0.11368421, 0.07858746
 0.62947368, 0.23891017
 0.54736842, 0.22498985
 0.02315789, 0.24543524
 0.07789474, 0.07430917
 0.04210526, 0.08687477
 0.04210526, 0.16221821
 0.07578947, 0.15630238
 0.05684211, 0.09747668
 0.20210526, 0.15981241
 0.11157895, 0.08822028
 0.06105263, 0.11195916
 0.31157895, 0.2680653
 0.08, 0.09411959
 0.59578947, 0.48842978
 0.29052632, 0.38835973
 0.23157895, 0.34216112
 0.07157895, 0.11934552
 0.4, 0.44633874
 0.07157895, 0.05716412
 0.06736842, 0.1398166
 0.10526316, 0.22173862
 0.54105263, 0.2789413
 0.26315789, 0.28420559
 0.36631579, 0.42243159
 0.07368421, 0.16294737
 0.04631579, 0.06393187
 0.11368421, 0.12565079
 0.46947368, 0.30653909
 0.68421053, 0.28621116
 0.14315789, 0.22997285
 0.43789474, 0.38929641
 0.66105263, 0.49958372
 0.14526316, 0.16621406
 0.31789474, 0.21256231
 0.58526316, 0.48672169
 0.10105263, 0.1056138
 0.12842105, 0.11518163
 0.10947368, 0.21259826
 0.18736842, 0.19273251
 0.52842105, 0.34828168
 0.19789474, 0.30100691
 0.02736842, 0.10259915
 0.08631579, 0.14559519
 0.34315789, 0.39668673
 0.44842105, 0.35932624
 0.17473684, 0.29487062
 0.03789474, 0.09415932
 0.11157895, 0.07194802
 0.18105263, 0.14380026
 0.41052632, 0.39540419
 0.04842105, 0.10404053
 0.05473684, 0.12490364
 0.15368421, 0.2091848
 0.28631579, 0.4099943
 0.14947368, 0.18117829
 0.14736842, 0.230933
 0.44, 0.37198949
 0.09894737, 0.20301707
 0.07157895, 0.1388769
 0.19157895, 0.29602748
 0.34736842, 0.2273767
 0.11368421, 0.21750945
 0.20210526, 0.24314573
 0.11789474, 0.13321193
 0.13684211, 0.14658149
 0.09473684, 0.1253987
 0.17894737, 0.21875899
 0.47789474, 0.40421546
 0.10947368, 0.09900689
 0.34736842, 0.42952114
 0.03789474, 0.21639901
 0.09263158, 0.13215177
 0.12, 0.10729551
 0.25473684, 0.17851585
 0.59157895, 0.43955922
 0.08842105, 0.09849657
 0.08842105, 0.19806938
 0.05263158, 0.09141196
 0.10947368, 0.20441698
 0.45052632, 0.36446488
 0.16842105, 0.2386281
 0.03578947, 0.09035556
 0.11157895, 0.11180168
 0.05684211, 0.0882632
 0.39157895, 0.37010047
 0.12210526, 0.17969945
 0.10315789, 0.14151184
 0.05263158, 0.09096138
 0.11368421, 0.09888822
 0.14315789, 0.26942226
 0.10736842, 0.09471215
 0.36421053, 0.41315657
 0.25894737, 0.29043931
 0.63789474, 0.42302975
 0.22947368, 0.33595046
 0.10947368, 0.1502737
 0.71789474, 0.54001665
 0.15157895, 0.11011718
 0.06736842, 0.11754999
 0.24631579, 0.17875774
 0.68842105, 0.45947415
 0.08631579, 0.14188521
 0.27789474, 0.39018661
 0.04210526, 0.10125402
 0.31789474, 0.2801733
 0.12421053, 0.11336517
 0.18947368, 0.18692547
 0.13684211, 0.16992131
 0.08421053, 0.09705979
 0.07789474, 0.07602243
 0.2, 0.26223564
 0.76631579, 0.26997381
 0.58315789, 0.41643751
 0.03789474, 0.15763909
 0.17052632, 0.14302649
 0.08421053, 0.10670146
 0.54315789, 0.30261335
 0.07368421, 0.09636945
 0.12210526, 0.12113316
 0.37894737, 0.23041029
 0.03789474, 0.09848358
 0.57894737, 0.4579069
 0.33473684, 0.22352852
 0.09894737, 0.10457154
 0.33894737, 0.30467409
 0.30526316, 0.15802109
 0.28, 0.3000648
 0.37473684, 0.22844481
 0.06315789, 0.07502538
 0.69894737, 0.31529424
 0.58736842, 0.49153686
 0.12842105, 0.12827024
 0.09473684, 0.27980274
 0.09263158, 0.10706951
 0.14315789, 0.10329306
 0.09684211, 0.17431605
 0.10105263, 0.14898364
 0.19368421, 0.18690178
 0.49684211, 0.27722788
 0.17263158, 0.16668192
 0.24421053, 0.15622114
 0.49052632, 0.4713636
 0.10947368, 0.09916858
 0.07578947, 0.09749003
 0.36631579, 0.43422675
 0.35157895, 0.28491077
 0.04210526, 0.180949
 0.32, 0.33537439
 0.45684211, 0.23502426
 0.62736842, 0.48461342
 0.46526316, 0.27439141
 0.20631579, 0.22677638
 0.38947368, 0.24905425
 0.19368421, 0.13154036
 0.11368421, 0.18490611
 0.20421053, 0.20281
 0.07578947, 0.1301906
 0.14947368, 0.12723672
 0.16421053, 0.23361647
 0.08421053, 0.22891463
 0.06947368, 0.11524196
 0.20631579, 0.34282637
 0.06526316, 0.12425448
 0.46315789, 0.29611653
 0.08, 0.15023606
 0.03157895, 0.11697145
 0.05473684, 0.08398063
 0.54947368, 0.4937712
 0.21052632, 0.2081226
 0.10315789, 0.11269709
 0.29684211, 0.29209948
 0.20210526, 0.35885459
 0.12631579, 0.12538864
 0.49894737, 0.36733606
 0.14736842, 0.12815368
 0.41473684, 0.23208308
 0.49684211, 0.19840683
 0.06736842, 0.07897384
 0.10947368, 0.19435561
 0.58947368, 0.47622746
 0.07578947, 0.09201588
 0.13052632, 0.1076534
 0.07368421, 0.14741009
 0.12210526, 0.11818802
 0.56421053, 0.2664696
 0.10105263, 0.08809637
 0.12421053, 0.09520473
 0.55157895, 0.44487759
 0.14526316, 0.16659887
 0.74736842, 0.41744375
 0.39157895, 0.3416189
