tar,out
 0.19578947, 0.21280096
 0.41052632, 0.3776949
 0.08421053, 0.13297139
 0.41263158, 0.48784471
 0.11789474, 0.11153358
 0.10105263, 0.05158032
 0.17894737, 0.10831881
 0.25263158, 0.33839935
 0.26105263, 0.09389061
 0.74526316, 0.41689974
 0.04421053, 0.19109821
 0.05684211, 0.14056833
 0.40631579, 0.56477833
 0.06736842, 0.20286828
 0.06736842, 0.05629875
 0.19368421, 0.31284761
 0.14315789, 0.19742039
 0.04842105, 0.05259176
 0.05473684, 0.13872495
 0.08421053, 0.1582513
 0.08, 0.08443259
 0.08210526, 0.08904527
 0.20842105, 0.1281307
 0.16421053, 0.08468707
 0.39578947, 0.45043331
 0.06105263, 0.16863708
 0.66947368, 0.57872421
 0.17263158, 0.14855522
 0.27789474, 0.24406046
 0.12631579, 0.23888746
 0.14526316, 0.1744535
 0.42105263, 0.4782843
 0.13684211, 0.23422252
 0.29473684, 0.29274872
 0.04421053, 0.21395683
 0.20421053, 0.18671152
 0.12842105, 0.12121873
 0.05473684, 0.06553788
 0.13052632, 0.17140457
 0.51578947, 0.57248062
 0.10105263, 0.0875688
 0.10105263, 0.11800912
 0.29473684, 0.2501643
 0.33263158, 0.50149143
 0.15157895, 0.21005389
 0.08842105, 0.10140917
 0.05473684, 0.1309672
 0.45052632, 0.33959979
 0.55368421, 0.43922657
 0.07157895, 0.1104068
 0.03157895, 0.13717401
 0.06736842, 0.14664638
 0.09473684, 0.21417987
 0.60421053, 0.41022515
 0.19789474, 0.14617832
 0.05684211, 0.1129669
 0.23578947, 0.21510515
 0.64421053, 0.18545789
 0.53473684, 0.20099911
 0.17263158, 0.09166898
 0.19368421, 0.28020447
 0.71789474, 0.52738315
 0.53473684, 0.42192644
 0.09052632, 0.19027294
 0.32, 0.1647625
 0.05894737, 0.04070915
 0.18736842, 0.12653458
 0.04210526, 0.10294569
 0.38526316, 0.27148506
 0.06105263, 0.11789347
 0.06947368, 0.09245738
 0.11578947, 0.17503572
 0.54736842, 0.5525012
 0.21894737, 0.28653574
 0.23578947, 0.07867168
 0.41894737, 0.37280816
 0.07368421, 0.09290892
 0.06947368, 0.14460137
 0.42105263, 0.28740796
 0.11157895, 0.27559912
 0.17473684, 0.11045467
 0.47789474, 0.33108178
 0.26526316, 0.26633996
 0.40421053, 0.34315741
 0.09473684, 0.15475577
 0.18526316, 0.19232425
 0.38315789, 0.22260794
 0.09684211, 0.06391981
 0.02315789, 0.08336507
 0.12421053, 0.10664442
 0.08631579, 0.08994153
 0.16, 0.08975722
 0.35578947, 0.3016839
 0.49894737, 0.4434554
 0.14736842, 0.16016006
 0.09052632, 0.14642423
 0.12421053, 0.09583085
 0.17052632, 0.09460045
 0.07789474, 0.13419296
 0.52210526, 0.2754218
 0.24, 0.31269428
 0.08631579, 0.12290254
 0.29894737, 0.28552401
 0.56210526, 0.53257632
 0.05263158, 0.11555228
 0.12842105, 0.17222264
 0.12631579, 0.18072078
 0.07368421, 0.13935788
 0.34947368, 0.1763916
 0.08421053, 0.15944369
 0.03368421, 0.11208235
 0.39157895, 0.41801339
 0.32, 0.35659021
 0.07368421, 0.07982413
 0.11157895, 0.12169962
 0.11157895, 0.19090021
 0.16421053, 0.12405897
 0.14947368, 0.19435649
 0.14947368, 0.14881949
 0.62105263, 0.41180038
 0.05473684, 0.0760441
 0.06526316, 0.10047356
 0.27368421, 0.11731049
 0.10526316, 0.05341767
 0.07157895, 0.09646036
 0.02315789, 0.1294104
 0.11789474, 0.09543684
 0.28631579, 0.32555386
 0.03578947, 0.04776792
 0.08842105, 0.15861428
 0.16, 0.13721126
 0.19157895, 0.19676808
 0.19368421, 0.14379321
 0.11789474, 0.14818215
 0.16210526, 0.22909161
 0.38736842, 0.32268822
 0.12631579, 0.1332425
 0.62105263, 0.5917803
 0.21263158, 0.26456213
 0.12, 0.20078553
 0.02947368, 0.15347871
 0.11578947, 0.11044123
 0.06315789, 0.1094519
 0.03578947, 0.06931289
 0.13473684, 0.17197546
 0.10526316, 0.08915809
 0.11368421, 0.16964063
 0.51578947, 0.32471654
 0.05263158, 0.0811501
 0.09473684, 0.09532337
 0.13894737, 0.36488992
 0.06315789, 0.19927055
 0.11789474, 0.13860908
 0.24631579, 0.34921241
 0.06947368, 0.10388246
 0.04631579, 0.10347321
 0.53473684, 0.38838595
 0.48, 0.37516922
 0.16842105, 0.32845283
 0.10526316, 0.07825403
 0.08631579, 0.07403721
 0.09894737, 0.16013008
 0.02526316, 0.05484535
 0.33684211, 0.30908126
 0.29684211, 0.25786859
 0.24631579, 0.15492541
 0.35789474, 0.36241239
 0.25052632, 0.31141031
 0.34736842, 0.32894835
 0.03578947, 0.08063461
 0.17052632, 0.18302317
 0.13684211, 0.1184203
 0.29684211, 0.16466966
 0.11368421, 0.12745067
 0.12210526, 0.12798934
 0.16421053, 0.19023164
 0.22736842, 0.27961701
 0.10105263, 0.10886361
 0.11789474, 0.16831908
 0.52631579, 0.53887594
 0.14105263, 0.12309243
 0.41263158, 0.18607581
 0.15789474, 0.21297309
 0.06736842, 0.09748872
 0.31157895, 0.30208421
 0.13473684, 0.10807252
 0.09684211, 0.08107102
 0.50526316, 0.35093641
 0.50736842, 0.42375264
 0.05894737, 0.49961483
 0.17894737, 0.19801569
 0.32421053, 0.31303608
 0.28842105, 0.40249076
 0.54105263, 0.17330545
 0.09894737, 0.10998528
 0.13052632, 0.08248706
 0.34947368, 0.31040227
 0.11157895, 0.13763124
 0.12631579, 0.0692299
 0.26526316, 0.2262716
 0.12210526, 0.17947097
 0.11157895, 0.14051054
 0.35578947, 0.236284
 0.24631579, 0.21102956
 0.22315789, 0.2789883
 0.06315789, 0.09412653
 0.31157895, 0.21404196
 0.46315789, 0.31998891
 0.03157895, 0.07885326
 0.13894737, 0.17281666
 0.08421053, 0.14078289
 0.37684211, 0.24714187
 0.44631579, 0.35515308
 0.03789474, 0.09579796
 0.51789474, 0.48473907
 0.17684211, 0.09084363
 0.38736842, 0.48697114
 0.24421053, 0.23358233
 0.42947368, 0.29591084
 0.11157895, 0.14678751
 0.06736842, 0.12235926
 0.08210526, 0.10212257
 0.03789474, 0.08970596
 0.68421053, 0.35307235
 0.10736842, 0.08911969
 0.50526316, 0.38927138
 0.14947368, 0.11698529
 0.06105263, 0.09211043
 0.06526316, 0.15208416
 0.29473684, 0.31289449
 0.29473684, 0.45148045
 0.05473684, 0.07073838
 0.55578947, 0.27009204
 0.11578947, 0.14407516
 0.06315789, 0.14835656
 0.05473684, 0.11048836
 0.01684211, 0.08793761
 0.06526316, 0.21628733
 0.66315789, 0.09920372
 0.05473684, 0.08485027
 0.08421053, 0.11254562
 0.06736842, 0.12171149
 0.33473684, 0.4284243
 0.13684211, 0.08446707
 0.07578947, 0.07951471
 0.04631579, 0.08440836
 0.09684211, 0.15893927
 0.17263158, 0.16726238
 0.17263158, 0.18261938
 0.18947368, 0.14643952
 0.06105263, 0.08300637
 0.13684211, 0.06188081
 0.08, 0.2039884
 0.36, 0.21897894
 0.28, 0.11118904
 0.44842105, 0.18596812
 0.08210526, 0.08574893
 0.20842105, 0.22063248
 0.51368421, 0.3576197
 0.18315789, 0.15784234
 0.28842105, 0.29664642
 0.17052632, 0.15619141
 0.15789474, 0.25245059
 0.05684211, 0.05177328
 0.60631579, 0.56769699
 0.06315789, 0.12699148
 0.22736842, 0.18250304
 0.25263158, 0.27434829
 0.28421053, 0.25132602
 0.14947368, 0.49889028
 0.67368421, 0.12457495
 0.44421053, 0.51196897
 0.06315789, 0.13988037
 0.29473684, 0.39696851
 0.32, 0.24806462
 0.28421053, 0.35083276
 0.03157895, 0.10160067
 0.03789474, 0.08947848
 0.52842105, 0.51046222
 0.14526316, 0.11164398
 0.11578947, 0.15164432
 0.17684211, 0.17777395
 0.14315789, 0.1524455
 0.13684211, 0.13867176
 0.13263158, 0.25338057
 0.09052632, 0.05161284
 0.18315789, 0.22943985
 0.08421053, 0.15299167
 0.19578947, 0.23810987
 0.09894737, 0.13676998
 0.14105263, 0.09135019
 0.17684211, 0.30309588
 0.68842105, 0.54385012
 0.47789474, 0.47870529
 0.28210526, 0.213094
 0.56421053, 0.21803223
 0.24631579, 0.29693726
 0.12842105, 0.42071065
 0.38526316, 0.42544454
 0.41263158, 0.35623178
 0.36210526, 0.41623205
 0.04631579, 0.10314173
 0.10105263, 0.20470543
 0.16210526, 0.15697286
 0.63578947, 0.43791142
 0.36421053, 0.51537985
 0.10315789, 0.10198366
 0.09894737, 0.17109866
 0.28631579, 0.17822926
 0.58736842, 0.55275345
 0.17684211, 0.17704396
 0.11789474, 0.19063272
 0.29894737, 0.14936668
 0.03789474, 0.08348145
 0.08421053, 0.12108956
 0.08210526, 0.09391329
 0.13894737, 0.08677356
 0.33473684, 0.2365571
 0.19368421, 0.17563608
 0.07789474, 0.15561214
 0.06105263, 0.1139117
 0.15578947, 0.09760565
 0.36, 0.22131124
 0.28421053, 0.42626798
 0.05052632, 0.16092072
 0.17052632, 0.22853726
 0.65473684, 0.34643382
 0.59578947, 0.34042108
 0.15789474, 0.1269114
 0.45263158, 0.35721675
 0.04210526, 0.097682
 0.50105263, 0.49713027
 0.20631579, 0.37672254
 0.02947368, 0.16275719
 0.34947368, 0.31897539
 0.08421053, 0.21086287
 0.16421053, 0.18031387
 0.12210526, 0.4063611
 0.36210526, 0.22410867
 0.08, 0.15130301
 0.28842105, 0.2773543
 0.42526316, 0.26007307
 0.35157895, 0.34028715
 0.06947368, 0.14170985
 0.16210526, 0.12188873
 0.60210526, 0.59565645
 0.04421053, 0.10214902
 0.51578947, 0.42915088
 0.58105263, 0.55432588
 0.25473684, 0.16642463
 0.45052632, 0.24901742
 0.16, 0.33571228
 0.03578947, 0.07694392
 0.53263158, 0.2800751
 0.05263158, 0.12140609
 0.52210526, 0.53163916
 0.26105263, 0.15068917
 0.53263158, 0.37857026
 0.22736842, 0.29458421
 0.06315789, 0.1452961
 0.22315789, 0.2363037
 0.34105263, 0.28537166
 0.42736842, 0.2976886
 0.21684211, 0.22108184
 0.14105263, 0.08142768
 0.07578947, 0.11694346
 0.52210526, 0.56239963
 0.09894737, 0.08885883
 0.08421053, 0.100912
 0.75789474, 0.69075555
 0.45052632, 0.14329107
 0.02526316, 0.07876717
 0.21052632, 0.18101265
 0.16421053, 0.12104559
 0.60210526, 0.42026627
 0.19368421, 0.18638277
 0.18736842, 0.1948269
 0.14736842, 0.12659055
 0.30526316, 0.34682286
 0.14315789, 0.16891581
 0.06526316, 0.18511392
 0.27157895, 0.50457031
 0.36, 0.2064219
 0.08842105, 0.09982832
 0.14736842, 0.10115972
 0.08842105, 0.08383524
 0.12631579, 0.07777856
 0.52421053, 0.46050256
 0.49052632, 0.44716328
 0.36421053, 0.29418206
 0.52421053, 0.53748709
 0.08210526, 0.14314133
 0.10736842, 0.22022615
 0.39157895, 0.36757803
 0.23157895, 0.09602483
 0.05473684, 0.14401358
 0.17894737, 0.12196295
 0.15368421, 0.21530133
 0.09052632, 0.08038034
 0.36, 0.29996923
 0.40210526, 0.37606499
 0.12421053, 0.09193695
 0.29263158, 0.16169184
 0.28210526, 0.24725424
 0.15789474, 0.11010554
 0.04631579, 0.07154219
 0.43157895, 0.12601122
 0.14947368, 0.12238076
 0.27789474, 0.19279836
 0.06105263, 0.062566
 0.06105263, 0.0979467
 0.12631579, 0.22458272
 0.40210526, 0.32619527
 0.11157895, 0.12673496
 0.02526316, 0.05825897
 0.15368421, 0.22531028
 0.47578947, 0.24167061
 0.21263158, 0.22916642
 0.17263158, 0.20438632
 0.58105263, 0.25194666
 0.24, 0.21655069
 0.06315789, 0.10041766
 0.32631579, 0.27866286
 0.14105263, 0.19524662
 0.18105263, 0.18923633
 0.28842105, 0.25537887
 0.24842105, 0.44503027
 0.14315789, 0.14461246
 0.61052632, 0.33803236
 0.04421053, 0.06439956
 0.38736842, 0.26081017
 0.21894737, 0.2808063
 0.16210526, 0.09156565
 0.26526316, 0.25807014
 0.66947368, 0.42283514
 0.11368421, 0.10782902
 0.19578947, 0.04961729
 0.16421053, 0.13331753
 0.09684211, 0.08936146
 0.13263158, 0.35831153
 0.07578947, 0.10120016
 0.15368421, 0.15696779
 0.30526316, 0.23045893
 0.29052632, 0.26777321
 0.47789474, 0.52160871
 0.39368421, 0.25389162
 0.47368421, 0.60429358
 0.74315789, 0.7303462
 0.13263158, 0.12388315
 0.15157895, 0.06955682
 0.05684211, 0.07909979
 0.41473684, 0.35403019
 0.11157895, 0.08048861
 0.05263158, 0.11905975
 0.51789474, 0.31675804
 0.53473684, 0.44375554
 0.06526316, 0.08472599
 0.20421053, 0.1047534
 0.35368421, 0.39225972
 0.11789474, 0.17788571
 0.09263158, 0.1730759
 0.09263158, 0.06384121
 0.18105263, 0.11362807
 0.07789474, 0.06808026
 0.08421053, 0.16292375
 0.06736842, 0.15256105
 0.02526316, 0.04856052
 0.04842105, 0.08316796
 0.54315789, 0.27377978
 0.47368421, 0.2048005
 0.04, 0.15220995
 0.02736842, 0.06514759
 0.19789474, 0.30786341
 0.13473684, 0.16332343
 0.11578947, 0.10050955
 0.26105263, 0.37471575
 0.09052632, 0.13892309
 0.69684211, 0.58738679
 0.14736842, 0.06832555
 0.24631579, 0.20639014
 0.19578947, 0.12920563
 0.19157895, 0.44065928
 0.26947368, 0.30531484
 0.31157895, 0.23766595
 0.14105263, 0.12640022
 0.18947368, 0.19819099
 0.13473684, 0.1621196
 0.11368421, 0.22960407
 0.45052632, 0.62402922
 0.13052632, 0.07948472
 0.15368421, 0.21952607
 0.49684211, 0.45138776
 0.04421053, 0.11873586
 0.09894737, 0.10113163
 0.10736842, 0.18972757
 0.10947368, 0.07643938
 0.32, 0.18344592
 0.08421053, 0.05789289
 0.11368421, 0.26921657
 0.21684211, 0.36559382
 0.28, 0.22300753
 0.56210526, 0.4286395
 0.37894737, 0.26985255
 0.37052632, 0.37807405
 0.27368421, 0.22452378
 0.09263158, 0.08847699
 0.05052632, 0.20166847
 0.31157895, 0.34355015
 0.15157895, 0.10762489
 0.60421053, 0.58469057
 0.46526316, 0.5281145
 0.06526316, 0.19720048
 0.09473684, 0.20182021
 0.16631579, 0.18254988
 0.20421053, 0.21976997
 0.05894737, 0.12911209
 0.03578947, 0.06288187
 0.04210526, 0.11725971
 0.05684211, 0.13813289
 0.08, 0.11191896
 0.13473684, 0.13746345
 0.06947368, 0.22573966
 0.17894737, 0.08309563
 0.64842105, 0.50122935
 0.38315789, 0.26719049
 0.16, 0.20072243
 0.05684211, 0.21135288
 0.20421053, 0.12912315
 0.06526316, 0.07504539
 0.05263158, 0.15496972
 0.56421053, 0.54457176
 0.53894737, 0.55169433
 0.12, 0.23837973
 0.13052632, 0.14076166
 0.34105263, 0.43733817
 0.07157895, 0.16350149
 0.48210526, 0.42832583
 0.12842105, 0.11494841
 0.10526316, 0.11648731
 0.06315789, 0.05672288
 0.05894737, 0.05955593
 0.17473684, 0.25493625
 0.10315789, 0.10399349
 0.38736842, 0.32330137
 0.13894737, 0.22522673
 0.71368421, 0.70562315
 0.07789474, 0.14198205
 0.32, 0.22233674
 0.41263158, 0.23761961
 0.19578947, 0.20018937
 0.02105263, 0.1223833
 0.38105263, 0.23096021
 0.42105263, 0.35914841
 0.21052632, 0.0904572
 0.17263158, 0.12037702
 0.09052632, 0.20067391
 0.59789474, 0.48274899
 0.44842105, 0.48711437
 0.48421053, 0.34761328
 0.17473684, 0.22589333
 0.32631579, 0.21063612
 0.09263158, 0.15605658
 0.20631579, 0.12050202
 0.18315789, 0.25267544
 0.52210526, 0.68814081
 0.44631579, 0.39383769
 0.12210526, 0.1602326
 0.14947368, 0.12576824
 0.07368421, 0.21714787
 0.52421053, 0.53132176
 0.14947368, 0.13883445
 0.08210526, 0.08482111
 0.01263158, 0.07495649
 0.03789474, 0.14927374
 0.19578947, 0.20425928
 0.28, 0.35111481
 0.08842105, 0.08584021
 0.04, 0.08128144
 0.07368421, 0.08868267
 0.08631579, 0.08294182
 0.32842105, 0.16138723
 0.36842105, 0.17291009
 0.06526316, 0.14708921
 0.36210526, 0.27411944
 0.18526316, 0.19728382
 0.06947368, 0.24838385
 0.20421053, 0.15180537
 0.15578947, 0.12500244
 0.07368421, 0.09296235
 0.20210526, 0.13041264
 0.08421053, 0.15758254
 0.09473684, 0.09672459
 0.13473684, 0.10237429
 0.19578947, 0.09111921
 0.11157895, 0.15323076
 0.38105263, 0.22374253
 0.55578947, 0.50060064
 0.08421053, 0.09438233
 0.05894737, 0.10652209
 0.06736842, 0.09700583
 0.15157895, 0.15255094
 0.19368421, 0.16798756
 0.15789474, 0.14711681
 0.02315789, 0.08798517
 0.25684211, 0.17004633
 0.14315789, 0.10810277
 0.17684211, 0.19387779
 0.16421053, 0.2190752
 0.17052632, 0.13575722
 0.04631579, 0.15554494
 0.05894737, 0.06525497
 0.28, 0.26051542
 0.34736842, 0.47266024
 0.00631579, 0.12663268
 0.21684211, 0.19706401
 0.01684211, 0.09263027
 0.11157895, 0.08827186
 0.25263158, 0.23306368
 0.40631579, 0.30103654
 0.12, 0.13325566
 0.06526316, 0.12425749
 0.18105263, 0.31720936
 0.10736842, 0.08768587
 0.03789474, 0.13807005
 0.37052632, 0.31232673
 0.23578947, 0.38159281
 0.45473684, 0.32823035
 0.09473684, 0.10926303
 0.59368421, 0.49365956
 0.10947368, 0.11412872
 0.41684211, 0.40941536
 0.16, 0.15582034
 0.20842105, 0.23149082
 0.07157895, 0.05452986
 0.08842105, 0.08745606
 0.18315789, 0.14028406
 0.32631579, 0.27147999
 0.35368421, 0.38809624
 0.02526316, 0.12055279
 0.16, 0.15826401
 0.16210526, 0.05706151
 0.22315789, 0.10274202
 0.09684211, 0.11633141
 0.10526316, 0.1603047
 0.57052632, 0.2769587
 0.37473684, 0.53508586
 0.59368421, 0.39527839
 0.30315789, 0.23788375
 0.26105263, 0.14877008
 0.21684211, 0.12883715
 0.46105263, 0.37448519
 0.06315789, 0.14894873
 0.38526316, 0.34071445
 0.56210526, 0.47228038
 0.67578947, 0.30935439
 0.06526316, 0.07620125
 0.28842105, 0.34418625
 0.53684211, 0.54054534
 0.60631579, 0.32586807
 0.18105263, 0.2152485
 0.17684211, 0.19682148
 0.08, 0.13102989
 0.71368421, 0.52721536
 0.06315789, 0.12999345
 0.52, 0.40335557
 0.18315789, 0.13566364
 0.04, 0.10214218
 0.08210526, 0.13696548
 0.22736842, 0.14794433
 0.03368421, 0.04200663
 0.57473684, 0.38131094
 0.31368421, 0.34420559
 0.24842105, 0.26418197
 0.11157895, 0.12895587
 0.19578947, 0.29022866
 0.06736842, 0.1171078
 0.08421053, 0.07604641
 0.05894737, 0.21881443
 0.23368421, 0.25336143
 0.23578947, 0.18795727
 0.46105263, 0.4094924
 0.37684211, 0.11844483
 0.15789474, 0.162965
 0.15157895, 0.1148351
 0.15789474, 0.17821231
 0.17473684, 0.08635946
 0.06526316, 0.07797003
 0.59578947, 0.64607835
 0.20631579, 0.12421292
 0.18105263, 0.20109522
 0.12842105, 0.12111904
 0.10947368, 0.18447608
 0.05263158, 0.07559611
 0.21684211, 0.36762631
 0.36842105, 0.2429276
 0.27578947, 0.2050864
 0.10947368, 0.2237853
 0.09263158, 0.0997237
 0.09684211, 0.07134536
 0.36421053, 0.19851828
 0.04, 0.13698459
 0.29894737, 0.17019215
 0.16210526, 0.19222064
 0.32421053, 0.50590402
 0.26315789, 0.21367668
 0.13263158, 0.12650707
 0.24210526, 0.26107916
 0.38947368, 0.16694444
 0.24, 0.4282282
 0.11368421, 0.14581984
 0.04421053, 0.12158796
 0.53263158, 0.5150755
 0.11368421, 0.28878278
 0.53684211, 0.46156037
 0.63789474, 0.31440127
 0.34947368, 0.42513871
 0.51157895, 0.25619835
 0.49473684, 0.3741504
 0.12631579, 0.0689677
 0.26736842, 0.15828374
 0.06526316, 0.09719414
 0.03157895, 0.12424616
 0.37894737, 0.2073119
 0.05894737, 0.15144265
 0.49263158, 0.44028914
 0.09263158, 0.09750907
 0.06947368, 0.15452537
 0.34105263, 0.39623886
 0.16631579, 0.40630096
 0.18947368, 0.1960009
 0.22736842, 0.17832395
 0.21052632, 0.20907438
 0.50947368, 0.54506075
 0.23157895, 0.15778124
 0.05263158, 0.15437555
 0.08631579, 0.20012812
 0.12421053, 0.12635583
 0.05473684, 0.06299546
 0.18526316, 0.18701681
 0.14105263, 0.1822273
 0.13052632, 0.08177346
 0.09473684, 0.14741942
 0.20421053, 0.17453602
 0.34105263, 0.34446156
 0.66315789, 0.32466668
 0.06947368, 0.09796906
 0.09263158, 0.12642327
 0.12, 0.09655928
 0.13052632, 0.14471561
 0.66315789, 0.55653256
 0.76, 0.72792405
 0.06315789, 0.15419294
 0.13263158, 0.1345544
 0.32631579, 0.15881371
 0.62105263, 0.65996301
 0.09684211, 0.15374801
 0.10315789, 0.1643777
 0.10736842, 0.21438494
 0.04842105, 0.06914039
 0.06105263, 0.21379344
 0.10526316, 0.2063733
 0.14526316, 0.17340857
 0.14526316, 0.06232458
 0.07157895, 0.16623849
 0.35368421, 0.27403137
 0.19368421, 0.28419682
 0.15368421, 0.16870986
 0.01263158, 0.03210001
 0.26947368, 0.09837347
 0.14105263, 0.19016761
 0.12210526, 0.10696241
 0.10526316, 0.11836156
 0.17684211, 0.15267029
 0.2, 0.17543015
 0.32631579, 0.2404013
 0.2, 0.21657541
 0.05263158, 0.08565547
 0.33052632, 0.30983019
 0.26105263, 0.15398201
 0.10947368, 0.14957924
 0.28842105, 0.21501763
 0.18947368, 0.15242313
 0.35157895, 0.24772263
 0.22526316, 0.2329195
 0.11789474, 0.10932681
 0.08210526, 0.0801789
 0.37473684, 0.27193606
 0.22947368, 0.25053388
 0.04842105, 0.06442344
 0.08210526, 0.16414239
 0.11789474, 0.08667664
 0.64631579, 0.59199816
 0.09052632, 0.11616923
 0.27578947, 0.17016697
 0.39578947, 0.13142335
 0.24631579, 0.19771038
 0.35368421, 0.21752878
 0.10736842, 0.08150797
 0.18315789, 0.13547385
 0.12421053, 0.112003
 0.04421053, 0.145174
 0.40421053, 0.46716565
 0.47789474, 0.45670581
 0.06947368, 0.11883767
 0.17052632, 0.12526621
 0.04421053, 0.07737228
 0.01684211, 0.07256703
 0.15368421, 0.16881463
 0.51789474, 0.31905481
 0.16421053, 0.13936152
 0.21473684, 0.13395661
 0.18315789, 0.26075757
 0.03789474, 0.16702698
 0.10736842, 0.12819342
 0.24, 0.1948082
 0.17473684, 0.27512565
 0.57473684, 0.58845133
 0.10947368, 0.08665656
 0.21473684, 0.20977406
 0.14736842, 0.12278861
 0.08421053, 0.08448888
 0.22526316, 0.40951896
 0.07578947, 0.13477939
 0.26736842, 0.21599665
 0.43578947, 0.39355612
 0.24210526, 0.2149622
 0.01052632, 0.08643602
 0.21473684, 0.19007196
 0.11578947, 0.14909902
 0.38947368, 0.27980518
 0.17894737, 0.10107009
 0.13473684, 0.09836301
 0.14105263, 0.11235014
 0.39368421, 0.28073379
 0.08842105, 0.18469903
 0.13052632, 0.20915705
 0.68, 0.43929788
 0.14315789, 0.25854224
 0.10315789, 0.08335751
 0.06736842, 0.07176466
 0.68210526, 0.51739317
 0.39789474, 0.27571633
 0.09052632, 0.10079813
 0.05052632, 0.04530454
 0.08, 0.05936196
 0.08, 0.0649091
 0.12210526, 0.18163775
 0.13473684, 0.16426413
 0.40631579, 0.29250026
 0.13684211, 0.21963567
 0.12210526, 0.09171771
 0.28421053, 0.25437525
 0.09684211, 0.1470392
 0.16421053, 0.24002074
 0.14315789, 0.16665258
 0.43578947, 0.31932032
 0.33052632, 0.40296081
 0.18947368, 0.26903129
 0.06315789, 0.06682612
 0.37473684, 0.32788512
 0.53052632, 0.27208287
 0.25263158, 0.18269813
 0.01894737, 0.08510378
 0.21473684, 0.16161504
 0.06736842, 0.16748139
 0.31368421, 0.23147844
 0.24631579, 0.20011812
 0.25894737, 0.15726198
 0.13263158, 0.42534965
 0.21052632, 0.26547849
 0.05684211, 0.14514133
 0.32, 0.42021236
 0.25052632, 0.15498674
 0.14315789, 0.19753827
 0.41263158, 0.31886721
 0.06105263, 0.21038106
 0.02105263, 0.13526699
 0.11368421, 0.12475453
 0.62947368, 0.24348398
 0.54736842, 0.28260535
 0.02315789, 0.19921765
 0.07789474, 0.10288987
 0.04210526, 0.05651565
 0.04210526, 0.18207355
 0.07578947, 0.1227481
 0.05684211, 0.08457185
 0.20210526, 0.18243478
 0.11157895, 0.08440228
 0.06105263, 0.12089479
 0.31157895, 0.20303187
 0.08, 0.09531578
 0.59578947, 0.46172363
 0.29052632, 0.35414237
 0.23157895, 0.29866815
 0.07157895, 0.1272285
 0.4, 0.38847247
 0.07157895, 0.05737089
 0.06736842, 0.15293521
 0.10526316, 0.17989673
 0.54105263, 0.28625298
 0.26315789, 0.27316713
 0.36631579, 0.49853778
 0.07368421, 0.07058345
 0.04631579, 0.06238493
 0.11368421, 0.11462305
 0.46947368, 0.37186342
 0.68421053, 0.22596298
 0.14315789, 0.12666345
 0.43789474, 0.36971247
 0.66105263, 0.67214704
 0.14526316, 0.17598145
 0.31789474, 0.23692378
 0.58526316, 0.47060215
 0.10105263, 0.12252803
 0.12842105, 0.08313562
 0.10947368, 0.19273655
 0.18736842, 0.16203599
 0.52842105, 0.29404604
 0.19789474, 0.32447714
 0.02736842, 0.09637453
 0.08631579, 0.12632889
 0.34315789, 0.41130489
 0.44842105, 0.2755883
 0.17473684, 0.15053549
 0.03789474, 0.0637877
 0.11157895, 0.12582155
 0.18105263, 0.19432108
 0.41052632, 0.36735684
 0.04842105, 0.07089134
 0.05473684, 0.19388479
 0.15368421, 0.17886588
 0.28631579, 0.45881492
 0.14947368, 0.1189044
 0.14736842, 0.20846593
 0.44, 0.39691615
 0.09894737, 0.21210298
 0.07157895, 0.08254264
 0.19157895, 0.33063883
 0.34736842, 0.23612449
 0.11368421, 0.19636977
 0.20210526, 0.21221602
 0.11789474, 0.11530149
 0.13684211, 0.14272287
 0.09473684, 0.11691383
 0.17894737, 0.18510008
 0.47789474, 0.44473553
 0.10947368, 0.09726374
 0.34736842, 0.46550691
 0.03789474, 0.0871525
 0.09263158, 0.15129814
 0.12, 0.10346878
 0.25473684, 0.19265489
 0.59157895, 0.48092705
 0.08842105, 0.10925469
 0.08842105, 0.12640217
 0.05263158, 0.06470752
 0.10947368, 0.11510431
 0.45052632, 0.38727748
 0.16842105, 0.22427534
 0.03578947, 0.09000157
 0.11157895, 0.09627253
 0.05684211, 0.15600495
 0.39157895, 0.41405481
 0.12210526, 0.18568283
 0.10315789, 0.10291202
 0.05263158, 0.07529834
 0.11368421, 0.05579345
 0.14315789, 0.15636566
 0.10736842, 0.08329226
 0.36421053, 0.30123794
 0.25894737, 0.22332372
 0.63789474, 0.50283337
 0.22947368, 0.310709
 0.10947368, 0.16187038
 0.71789474, 0.55234081
 0.15157895, 0.07975996
 0.06736842, 0.08533274
 0.24631579, 0.20386305
 0.68842105, 0.49916935
 0.08631579, 0.0717627
 0.27789474, 0.51417357
 0.04210526, 0.09483154
 0.31789474, 0.30991596
 0.12421053, 0.13418683
 0.18947368, 0.202099
 0.13684211, 0.16282505
 0.08421053, 0.1168627
 0.07789474, 0.19858563
 0.2, 0.37174678
 0.76631579, 0.34524381
 0.58315789, 0.45210382
 0.03789474, 0.07425641
 0.17052632, 0.19002265
 0.08421053, 0.18406063
 0.54315789, 0.27440417
 0.07368421, 0.10540556
 0.12210526, 0.09215909
 0.37894737, 0.35700542
 0.03789474, 0.18692139
 0.57894737, 0.54676765
 0.33473684, 0.22798064
 0.09894737, 0.06524959
 0.33894737, 0.3789981
 0.30526316, 0.2225275
 0.28, 0.33691138
 0.37473684, 0.21465254
 0.06315789, 0.06613339
 0.69894737, 0.2958231
 0.58736842, 0.62232679
 0.12842105, 0.23277095
 0.09473684, 0.37237239
 0.09263158, 0.09909949
 0.14315789, 0.12730333
 0.09684211, 0.17651661
 0.10105263, 0.12536612
 0.19368421, 0.21663132
 0.49684211, 0.31504118
 0.17263158, 0.15234578
 0.24421053, 0.19423158
 0.49052632, 0.54504001
 0.10947368, 0.1348037
 0.07578947, 0.12376531
 0.36631579, 0.38057241
 0.35157895, 0.23735404
 0.04210526, 0.07675271
 0.32, 0.42240661
 0.45684211, 0.28727692
 0.62736842, 0.55220944
 0.46526316, 0.30629012
 0.20631579, 0.2131588
 0.38947368, 0.19903597
 0.19368421, 0.09535544
 0.11368421, 0.18299577
 0.20421053, 0.2115681
 0.07578947, 0.08331555
 0.14947368, 0.12194842
 0.16421053, 0.18400207
 0.08421053, 0.22276999
 0.06947368, 0.13855982
 0.20631579, 0.2581082
 0.06526316, 0.12458781
 0.46315789, 0.20678779
 0.08, 0.05586822
 0.03157895, 0.10908249
 0.05473684, 0.05862691
 0.54947368, 0.58382261
 0.21052632, 0.20773113
 0.10315789, 0.09653251
 0.29684211, 0.27386248
 0.20210526, 0.23354411
 0.12631579, 0.12496137
 0.49894737, 0.30980617
 0.14736842, 0.14111619
 0.41473684, 0.20885865
 0.49684211, 0.21595025
 0.06736842, 0.08987291
 0.10947368, 0.26554656
 0.58947368, 0.45295054
 0.07578947, 0.04467045
 0.13052632, 0.15802318
 0.07368421, 0.16167216
 0.12210526, 0.12006621
 0.56421053, 0.30872855
 0.10105263, 0.12459485
 0.12421053, 0.10440566
 0.55157895, 0.54051358
 0.14526316, 0.169579
 0.74736842, 0.64119446
 0.39157895, 0.39503583
